%!PS-Adobe-3.0 EPSF-3.0
%%Creator: MATLAB, The Mathworks, Inc. Version 7.10.0.499 (R2010a). Operating System: Darwin 10.8.0 Darwin Kernel Version 10.8.0: Tue Jun  7 16:33:36 PDT 2011; root:xnu-1504.15.3~1/RELEASE_I386 i386.
%%Title: ./fig2d_mc_all_1.eps
%%CreationDate: 03/24/2012  11:54:42
%%DocumentNeededFonts: Helvetica
%%DocumentProcessColors: Cyan Magenta Yellow Black
%%LanguageLevel: 2
%%Pages: 1
%%BoundingBox:    52   199   553   614
%%EndComments

%%BeginProlog
% MathWorks dictionary
/MathWorks 160 dict begin
% definition operators
/bdef {bind def} bind def
/ldef {load def} bind def
/xdef {exch def} bdef
/xstore {exch store} bdef
% operator abbreviations
/c  /clip ldef
/cc /concat ldef
/cp /closepath ldef
/gr /grestore ldef
/gs /gsave ldef
/mt /moveto ldef
/np /newpath ldef
/cm /currentmatrix ldef
/sm /setmatrix ldef
/rm /rmoveto ldef
/rl /rlineto ldef
/s {show newpath} bdef
/sc {setcmykcolor} bdef
/sr /setrgbcolor ldef
/sg /setgray ldef
/w /setlinewidth ldef
/j /setlinejoin ldef
/cap /setlinecap ldef
/rc {rectclip} bdef
/rf {rectfill} bdef
% page state control
/pgsv () def
/bpage {/pgsv save def} bdef
/epage {pgsv restore} bdef
/bplot /gsave ldef
/eplot {stroke grestore} bdef
% orientation switch
/portraitMode 0 def /landscapeMode 1 def /rotateMode 2 def
% coordinate system mappings
/dpi2point 0 def
% font control
/FontSize 0 def
/FMS {/FontSize xstore findfont [FontSize 0 0 FontSize neg 0 0]
  makefont setfont} bdef
/reencode {exch dup where {pop load} {pop StandardEncoding} ifelse
  exch dup 3 1 roll findfont dup length dict begin
  { 1 index /FID ne {def}{pop pop} ifelse } forall
  /Encoding exch def currentdict end definefont pop} bdef
/isroman {findfont /CharStrings get /Agrave known} bdef
/FMSR {3 1 roll 1 index dup isroman {reencode} {pop pop} ifelse
  exch FMS} bdef
/csm {1 dpi2point div -1 dpi2point div scale neg translate
 dup landscapeMode eq {pop -90 rotate}
  {rotateMode eq {90 rotate} if} ifelse} bdef
% line types: solid, dotted, dashed, dotdash
/SO { [] 0 setdash } bdef
/DO { [.5 dpi2point mul 4 dpi2point mul] 0 setdash } bdef
/DA { [6 dpi2point mul] 0 setdash } bdef
/DD { [.5 dpi2point mul 4 dpi2point mul 6 dpi2point mul 4
  dpi2point mul] 0 setdash } bdef
% macros for lines and objects
/L {lineto stroke} bdef
/MP {3 1 roll moveto 1 sub {rlineto} repeat} bdef
/AP {{rlineto} repeat} bdef
/PDlw -1 def
/W {/PDlw currentlinewidth def setlinewidth} def
/PP {closepath eofill} bdef
/DP {closepath stroke} bdef
/MR {4 -2 roll moveto dup  0 exch rlineto exch 0 rlineto
  neg 0 exch rlineto closepath} bdef
/FR {MR stroke} bdef
/PR {MR fill} bdef
/L1i {{currentfile picstr readhexstring pop} image} bdef
/tMatrix matrix def
/MakeOval {newpath tMatrix currentmatrix pop translate scale
0 0 1 0 360 arc tMatrix setmatrix} bdef
/FO {MakeOval stroke} bdef
/PO {MakeOval fill} bdef
/PD {currentlinewidth 2 div 0 360 arc fill
   PDlw -1 eq not {PDlw w /PDlw -1 def} if} def
/FA {newpath tMatrix currentmatrix pop translate scale
  0 0 1 5 -2 roll arc tMatrix setmatrix stroke} bdef
/PA {newpath tMatrix currentmatrix pop	translate 0 0 moveto scale
  0 0 1 5 -2 roll arc closepath tMatrix setmatrix fill} bdef
/FAn {newpath tMatrix currentmatrix pop translate scale
  0 0 1 5 -2 roll arcn tMatrix setmatrix stroke} bdef
/PAn {newpath tMatrix currentmatrix pop translate 0 0 moveto scale
  0 0 1 5 -2 roll arcn closepath tMatrix setmatrix fill} bdef
/vradius 0 def /hradius 0 def /lry 0 def
/lrx 0 def /uly 0 def /ulx 0 def /rad 0 def
/MRR {/vradius xdef /hradius xdef /lry xdef /lrx xdef /uly xdef
  /ulx xdef newpath tMatrix currentmatrix pop ulx hradius add uly
  vradius add translate hradius vradius scale 0 0 1 180 270 arc 
  tMatrix setmatrix lrx hradius sub uly vradius add translate
  hradius vradius scale 0 0 1 270 360 arc tMatrix setmatrix
  lrx hradius sub lry vradius sub translate hradius vradius scale
  0 0 1 0 90 arc tMatrix setmatrix ulx hradius add lry vradius sub
  translate hradius vradius scale 0 0 1 90 180 arc tMatrix setmatrix
  closepath} bdef
/FRR {MRR stroke } bdef
/PRR {MRR fill } bdef
/MlrRR {/lry xdef /lrx xdef /uly xdef /ulx xdef /rad lry uly sub 2 div def
  newpath tMatrix currentmatrix pop ulx rad add uly rad add translate
  rad rad scale 0 0 1 90 270 arc tMatrix setmatrix lrx rad sub lry rad
  sub translate rad rad scale 0 0 1 270 90 arc tMatrix setmatrix
  closepath} bdef
/FlrRR {MlrRR stroke } bdef
/PlrRR {MlrRR fill } bdef
/MtbRR {/lry xdef /lrx xdef /uly xdef /ulx xdef /rad lrx ulx sub 2 div def
  newpath tMatrix currentmatrix pop ulx rad add uly rad add translate
  rad rad scale 0 0 1 180 360 arc tMatrix setmatrix lrx rad sub lry rad
  sub translate rad rad scale 0 0 1 0 180 arc tMatrix setmatrix
  closepath} bdef
/FtbRR {MtbRR stroke } bdef
/PtbRR {MtbRR fill } bdef
/stri 6 array def /dtri 6 array def
/smat 6 array def /dmat 6 array def
/tmat1 6 array def /tmat2 6 array def /dif 3 array def
/asub {/ind2 exch def /ind1 exch def dup dup
  ind1 get exch ind2 get sub exch } bdef
/tri_to_matrix {
  2 0 asub 3 1 asub 4 0 asub 5 1 asub
  dup 0 get exch 1 get 7 -1 roll astore } bdef
/compute_transform {
  dmat dtri tri_to_matrix tmat1 invertmatrix 
  smat stri tri_to_matrix tmat2 concatmatrix } bdef
/ds {stri astore pop} bdef
/dt {dtri astore pop} bdef
/db {2 copy /cols xdef /rows xdef mul dup 3 mul string
  currentfile 
  3 index 0 eq {/ASCIIHexDecode filter}
  {/ASCII85Decode filter 3 index 2 eq {/RunLengthDecode filter} if }
  ifelse exch readstring pop
  dup 0 3 index getinterval /rbmap xdef
  dup 2 index dup getinterval /gbmap xdef
  1 index dup 2 mul exch getinterval /bbmap xdef pop pop}bdef
/it {gs np dtri aload pop moveto lineto lineto cp c
  cols rows 8 compute_transform 
  rbmap gbmap bbmap true 3 colorimage gr}bdef
/il {newpath moveto lineto stroke}bdef
currentdict end def
%%EndProlog

%%BeginSetup
MathWorks begin

0 cap

end
%%EndSetup

%%Page: 1 1
%%BeginPageSetup
%%PageBoundingBox:    52   199   553   614
MathWorks begin
bpage
%%EndPageSetup

%%BeginObject: obj1
bplot

/dpi2point 12 def
portraitMode 0216 7344 csm

  410   -28  6011  4983 rc
85 dict begin %Colortable dictionary
/c0 { 0.000000 0.000000 0.000000 sr} bdef
/c1 { 1.000000 1.000000 1.000000 sr} bdef
/c2 { 0.900000 0.000000 0.000000 sr} bdef
/c3 { 0.000000 0.820000 0.000000 sr} bdef
/c4 { 0.000000 0.000000 0.800000 sr} bdef
/c5 { 0.910000 0.820000 0.320000 sr} bdef
/c6 { 1.000000 0.260000 0.820000 sr} bdef
/c7 { 0.000000 0.820000 0.820000 sr} bdef
c0
1 j
1 sg
   0    0 6913 5186 rf
6 w
0 4226 5356 0 0 -4226 899 4615 4 MP
PP
-5356 0 0 4226 5356 0 0 -4226 899 4615 5 MP stroke
4 w
DO
0 sg
 899 4615 mt  899  389 L
 899  389 mt  899  389 L
1970 4615 mt 1970  389 L
1970  389 mt 1970  389 L
3041 4615 mt 3041  389 L
3041  389 mt 3041  389 L
4112 4615 mt 4112  389 L
4112  389 mt 4112  389 L
5183 4615 mt 5183  389 L
5183  389 mt 5183  389 L
6255 4615 mt 6255  389 L
6255  389 mt 6255  389 L
 899 4615 mt 6255 4615 L
6255 4615 mt 6255 4615 L
 899 3910 mt 6255 3910 L
6255 3910 mt 6255 3910 L
 899 3206 mt 6255 3206 L
6255 3206 mt 6255 3206 L
 899 2502 mt 6255 2502 L
6255 2502 mt 6255 2502 L
 899 1797 mt 6255 1797 L
6255 1797 mt 6255 1797 L
 899 1093 mt 6255 1093 L
6255 1093 mt 6255 1093 L
 899  389 mt 6255  389 L
6255  389 mt 6255  389 L
SO
6 w
 899 4615 mt 6255 4615 L
 899 4615 mt  899  389 L
 899 4615 mt  899 4561 L
%%IncludeResource: font Helvetica
/Helvetica /ISOLatin1Encoding 120 FMSR

 746 4760 mt 
(-0.1) s
1970 4615 mt 1970 4561 L
1784 4760 mt 
(-0.05) s
3041 4615 mt 3041 4561 L
3008 4760 mt 
(0) s
4112 4615 mt 4112 4561 L
3996 4760 mt 
(0.05) s
5183 4615 mt 5183 4561 L
5100 4760 mt 
(0.1) s
6255 4615 mt 6255 4561 L
6139 4760 mt 
(0.15) s
 899 4615 mt  952 4615 L
 628 4659 mt 
(-1.5) s
 899 3910 mt  952 3910 L
 728 3954 mt 
(-1) s
 899 3206 mt  952 3206 L
 628 3250 mt 
(-0.5) s
 899 2502 mt  952 2502 L
 798 2546 mt 
(0) s
 899 1797 mt  952 1797 L
 698 1841 mt 
(0.5) s
 899 1093 mt  952 1093 L
 798 1137 mt 
(1) s
 899  389 mt  952  389 L
 698  433 mt 
(1.5) s
 899  335 mt 
(x 10) s
%%IncludeResource: font Helvetica
/Helvetica /ISOLatin1Encoding 80 FMSR

1125  261 mt 
(4) s
gs 899 389 5357 4227 rc
/c8 { 1.000000 0.000000 0.000000 sr} bdef
c8
0 -1 0 1 1 -1 -1 0 1 0 0 0 -1 0 1 0 
0 0 -1 0 1 0 0 0 -1 0 1 0 0 0 -1 0 
-1 1 1 0 1 -1 -1 0 0 1 0 0 1 -1 -1 0 
0 1 0 0 1 -1 1 -1 -1 1 -1 1 -1 0 1 0 
0 0 1 -1 1 -1 -1 1 -1 0 -1 1 -1 1 1 0 
1 -1 1 -1 1 -1 1 0 -1 0 -1 1 -1 1 -1 0 
0 1 0 0 1 -1 1 -1 1 -1 1 0 -1 0 0 0 
-1 1 -1 1 -1 0 -1 1 -1 1 1 0 1 -1 1 -1 
1 -1 1 -1 1 -1 1 0 -1 0 0 0 -1 1 -1 1 
-1 0 1 0 -2 2 -1 0 -1 1 -1 1 1 0 1 -1 
1 -1 1 -1 1 -1 1 -1 1 0 1 -1 1 -1 -1 0 
-1 1 -1 1 -1 1 -1 1 -1 1 -1 0 -1 1 -1 1 
-1 1 1 0 0 -1 2 -2 1 -1 2 -1 1 0 1 -1 
0 -1 1 -1 1 0 1 -1 -1 0 -1 1 -1 1 -1 1 
-1 1 -1 1 -1 1 -1 1 -1 0 -1 1 -1 1 -1 1 
1 -1 1 0 1 -1 1 -1 1 -1 1 -1 1 -1 2 -1 
1 -1 1 -1 1 -1 1 -1 1 -1 1 0 -1 0 -1 1 
-1 0 -1 1 -1 1 -1 1 -1 1 -1 1 -2 2 -1 1 
-2 1 -1 1 -1 2 -1 0 -1 1 1 -1 1 0 -1 0 
2 -2 1 -1 2 -1 1 -1 2 -1 1 -2 2 -1 2 -2 
1 -1 1 -1 1 0 -1 0 -1 1 -1 1 -1 1 -1 1 
-1 1 -2 1 -2 2 -2 2 -2 1 -1 2 -1 1 -1 0 
-1 1 1 -1 1 -1 1 -1 2 -1 2 -2 2 -2 2 -2 
2 -1 2 -2 1 -1 1 -1 1 0 -1 0 0 0 -1 1 
-1 1 -2 2 -3 2 -2 2 -3 3 -3 2 -2 2 -2 1 
-1 1 -1 1 -1 1 -1 1 2 -1 2 -2 3 -2 3 -3 
3 -2 3 -3 3 -2 3 -2 2 -2 2 -2 3 -2 2 -2 
2 -2 2 -2 1 0 -1 0 0 0 -2 1 -2 2 -2 1 
-2 2 -3 2 -3 3 -3 2 -3 3 -3 3 -3 2 -3 3 
-3 2 -2 2 -2 2 -2 1 -1 1 -1 1 1 0 2 -2 
1 -1 3 -2 2 -2 3 -2 3 -2 3 -3 4 -3 3 -2 
3 -3 3 -3 3 -2 2 -2 2 -2 1 -1 1 0 -1 0 
1 0 -3 2 -1 1 -2 1 -2 2 -2 1 -2 3 -3 2 
-4 3 -3 3 -3 3 -3 2 -2 1 0 1 -1 1 -1 0 
1 0 1 -1 2 -1 2 -3 4 -3 4 -3 4 -3 3 -3 
3 -2 3 -2 1 -2 2 -1 1 -1 1 -1 1 -1 -1 1 
-3 2 -3 2 -4 3 -4 4 -5 4 -3 3 -3 3 -3 2 
-2 2 -2 1 -2 2 3260 2463 300 MP stroke
-1 1 -1 1 -1 0 2 -1 2 -2 4 -2 4 -4 4 -3 
4 -3 3 -3 3 -2 3 -2 2 -3 3 -2 3 -3 2 -1 
2 -2 -2 1 -2 2 -3 2 -2 2 -4 2 -3 3 -3 3 
-3 3 -4 3 -4 3 -4 3 -3 3 -3 3 -2 2 -2 1 
-1 1 1 -1 1 -1 2 -1 3 -2 3 -2 4 -3 4 -4 
4 -3 4 -4 4 -3 3 -3 3 -2 3 -2 1 -2 2 -1 
1 -1 1 -1 -1 1 -2 2 -3 2 -3 2 -3 3 -3 2 
-3 3 -3 2 -2 2 -3 3 -2 1 -2 2 -2 2 -1 1 
-2 1 -1 1 1 0 1 -1 1 -1 2 -2 2 -1 2 -2 
2 -1 2 -2 1 -1 2 -2 3 -2 2 -2 3 -3 3 -2 
2 -2 1 -1 1 0 -1 0 -1 1 -2 1 -1 2 -2 1 
-2 2 -3 2 -2 2 -4 3 -3 3 -3 3 -3 2 -2 2 
-1 1 1 -1 2 -2 3 -1 2 -2 3 -2 3 -3 3 -2 
3 -3 4 -3 3 -3 3 -3 3 -2 2 -2 1 -1 1 0 
-1 0 -2 1 -2 2 -3 2 -2 2 -3 2 -3 3 -3 3 
-4 3 -4 3 -4 4 -4 3 -3 3 -2 2 -2 1 1 -1 
1 0 2 -2 2 -1 2 -2 2 -2 3 -2 3 -3 3 -2 
3 -3 3 -2 3 -3 3 -2 2 -2 1 -1 -1 1 -1 1 
-2 1 -2 1 -2 2 -2 2 -3 2 -3 3 -4 3 -4 4 
-4 3 -3 3 -3 3 -2 1 -1 1 -1 1 1 -1 2 -1 
1 -1 3 -2 3 -3 4 -3 5 -3 5 -4 5 -4 4 -4 
5 -4 3 -3 3 -2 2 -2 1 -1 -2 1 -2 2 -3 2 
-3 3 -3 2 -3 3 -3 3 -4 3 -3 2 -2 3 -3 2 
-2 1 -1 2 -1 0 0 1 0 -1 1 -1 2 -1 1 -1 
1 -1 1 0 1 -1 1 -1 2 -2 2 -1 2 -2 2 -2 
1 -1 1 -1 2 -1 1 -1 1 -1 1 -1 1 -1 1 -1 
1 -1 1 0 -1 0 -1 1 -1 1 -2 1 -1 2 -2 1 
-2 1 -2 2 -2 2 -3 3 -2 2 -3 2 -2 1 -1 2 
-1 1 -1 1 -1 0 -1 1 -1 1 1 -1 2 -1 2 -1 
2 -2 3 -2 4 -3 3 -3 4 -3 4 -3 3 -3 4 -3 
3 -2 3 -3 4 -3 2 -3 3 -2 1 -1 1 0 -1 0 
-2 2 -3 1 -4 3 -4 3 -5 3 -5 4 -5 5 -6 4 
-6 5 -5 4 -4 4 -4 3 -3 3 -3 2 -2 2 -2 2 
-1 1 1 -1 2 -1 4 -2 3 -3 5 -3 4 -3 4 -3 
5 -4 5 -4 6 -4 6 -5 6 -5 6 -5 4 -4 4 -3 
2 -1 -1 -1 -2 2 -3 2 -4 3 -6 3 -6 5 -7 5 
-7 6 -8 6 -7 6 -5 5 -4 3 -3 3 -3 2 -2 2 
-1 1 1 0 3 -2 3272 2449 300 MP stroke
4 -3 6 -4 6 -4 8 -5 7 -6 6 -5 6 -4 5 -5 
5 -4 5 -4 4 -3 3 -3 3 -2 0 -1 -1 1 -3 2 
-4 3 -5 3 -5 4 -5 4 -5 3 -4 4 -5 4 -4 4 
-4 3 -3 3 -4 3 -3 3 -2 2 -1 0 2 -1 2 -2 
3 -2 3 -2 2 -2 3 -2 2 -2 2 -2 3 -2 2 -2 
2 -2 2 -2 1 -1 1 0 -1 0 -1 1 -2 2 -1 1 
-2 1 -2 2 -1 1 -1 1 -1 1 1 -1 1 0 0 -1 
2 -2 2 -1 2 -2 2 -2 3 -2 2 -2 1 -1 1 -1 
-1 1 -1 1 -2 2 -3 2 -2 1 -1 2 -1 1 -1 1 
-1 1 -2 1 -2 2 -3 2 -2 2 -2 2 1 -1 2 -1 
1 -2 2 -1 -1 0 1 0 2 -2 2 -2 3 -2 2 -2 
-1 1 -2 1 -1 2 -2 1 -1 1 1 -1 1 -1 1 -1 
1 0 -1 0 -1 1 -1 1 -1 1 1 -1 3 -2 3 -3 
5 -4 4 -4 4 -2 1 -2 1 0 -1 0 -1 1 -1 1 
-1 0 -1 2 -3 2 -5 4 -5 4 -5 5 -4 4 -3 2 
-1 0 1 0 2 -2 2 -1 2 -2 1 0 1 -1 1 -1 
2 -2 3 -3 4 -3 4 -4 4 -3 2 -1 0 -1 -1 1 
-2 2 -4 2 -3 3 -3 3 -3 2 -3 2 -2 2 -2 2 
-2 2 -3 2 -3 3 -3 3 -4 3 -2 2 -2 1 0 1 
1 -1 3 -2 4 -2 4 -4 5 -3 4 -3 3 -2 2 -2 
3 -2 4 -3 5 -4 6 -5 6 -6 6 -4 3 -4 2 -1 
-2 1 -3 2 -5 3 -4 4 -5 3 -4 3 -3 3 -4 2 
-4 4 -5 4 -7 6 -6 5 -6 5 -4 4 -2 2 1 -1 
3 -2 4 -2 4 -3 4 -3 4 -3 4 -3 5 -4 5 -4 
6 -4 5 -5 6 -5 6 -4 4 -4 3 -3 1 0 -2 1 
-3 2 -5 3 -5 4 -5 4 -4 3 -4 3 -3 3 -5 4 
-5 4 -5 5 -5 4 -3 3 -2 1 0 1 1 -1 2 -2 
2 -1 2 -2 4 -3 3 -3 4 -3 3 -2 3 -3 2 -1 
1 -1 2 -2 3 -2 3 -3 2 -2 -3 2 -4 4 -4 3 
-3 3 -2 1 -1 1 -1 1 -1 1 -2 2 -4 3 -3 3 
-3 2 -2 2 2 -1 4 -3 4 -4 5 -4 3 -3 1 -1 
1 -1 2 -1 2 -3 4 -3 3 -3 3 -2 -2 2 -3 2 
-5 4 -4 3 -3 3 -3 2 -1 1 -2 2 -1 1 -3 2 
-3 3 -3 3 -3 2 -2 2 2 -1 3 -2 4 -3 4 -3 
5 -4 4 -3 4 -4 4 -3 4 -3 4 -4 5 -3 4 -4 
3 -3 1 -1 -1 1 -3 2 -4 2 -4 4 -5 3 -4 3 
-5 4 -5 4 -5 4 -5 5 -5 4 -6 5 -5 4 -4 4 
-3 2 -2 2 3 -2 3271 2444 300 MP stroke
5 -2 8 -4 8 -5 9 -6 9 -5 8 -6 7 -5 7 -5 
7 -6 7 -6 8 -6 8 -7 7 -6 4 -3 1 -1 -4 1 
-7 3 -9 5 -11 5 -9 5 -9 5 -9 6 -9 6 -10 8 
-9 7 -10 8 -10 8 -9 8 -7 6 -5 5 -3 3 -1 0 
4 -2 6 -2 7 -3 9 -4 8 -5 9 -5 11 -5 11 -7 
13 -9 13 -9 13 -10 12 -9 11 -9 8 -7 5 -5 3 -2 
-1 0 -3 1 -5 2 -6 2 -8 4 -9 4 -11 6 -13 7 
-14 9 -16 11 -16 11 -14 12 -10 8 -7 7 -5 4 -2 2 
-3 2 -2 2 -2 2 -2 2 1 -1 5 -2 10 -4 15 -6 
19 -7 20 -10 19 -10 16 -10 13 -9 10 -8 9 -6 8 -7 
9 -7 10 -8 9 -7 8 -7 4 -3 -8 2 -15 3 -20 5 
-21 7 -21 8 -18 7 -15 8 -13 8 -14 9 -14 10 -14 11 
-14 11 -11 10 -10 9 -7 6 -4 3 -1 1 3 -1 7 -2 
8 -4 10 -4 8 -4 9 -5 9 -5 11 -6 13 -8 14 -9 
14 -10 13 -10 11 -9 8 -7 7 -6 4 -3 1 -2 -1 1 
-3 1 -5 3 -6 4 -6 4 -8 4 -7 6 -9 6 -10 8 
-11 8 -9 9 -8 6 -6 5 -3 3 1 0 2 -1 3 -2 
3 -2 4 -2 5 -4 7 -4 8 -6 10 -7 10 -8 9 -7 
8 -7 5 -4 4 -4 2 -2 2 -1 1 -1 1 -1 -2 1 
-3 2 -6 3 -7 5 -9 6 -9 6 -8 7 -7 5 -6 5 
-4 4 -3 2 -3 3 -4 3 -3 3 -4 3 -3 3 -2 2 
-1 1 0 -1 2 -1 3 -3 4 -3 3 -2 2 -2 0 -1 
0 1 1 -1 4 -3 6 -4 8 -6 8 -6 6 -5 4 -3 
2 -1 0 -1 1 -1 2 -2 4 -3 5 -4 4 -3 4 -3 
1 -2 0 1 -3 1 -4 3 -6 4 -7 5 -6 5 -6 4 
-4 3 -2 2 -2 2 -3 2 -4 3 -5 5 -6 5 -4 4 
-4 2 -1 2 1 -1 2 -1 4 -3 5 -3 5 -4 3 -2 
2 -2 2 -1 3 -3 4 -3 6 -5 6 -5 7 -5 5 -4 
3 -3 2 -2 -2 1 -1 1 -2 1 -2 1 -1 1 -2 2 
-3 1 -3 3 -4 2 -5 4 -6 5 -6 4 -5 5 -4 3 
-3 3 -2 1 -2 2 -2 2 -3 3 -4 3 -3 3 -3 2 
-2 2 -1 0 2 -1 5 -2 6 -4 8 -4 9 -6 9 -6 
8 -6 8 -5 6 -6 7 -5 7 -6 6 -5 7 -6 5 -4 
2 -2 -5 2 -8 5 -10 6 -10 6 -9 7 -7 5 -5 5 
-4 2 -2 3 -4 3 -5 4 -7 6 -7 6 -6 5 -3 2 
-1 1 2 -2 5 -3 6 -5 4 -4 1 -1 -2 2 -5 4 
-3 3 -2 1 2 -1 6 -3 9 -5 11 -7 10 -6 8 -6 
4 -3 1 -1 1 0 3225 2479 300 MP stroke
1 -2 5 -4 8 -6 9 -7 10 -9 8 -6 4 -4 -6 2 
-8 3 -11 5 -10 5 -10 4 -9 5 -9 6 -9 6 -11 7 
-12 9 -13 10 -12 10 -10 9 -9 8 -7 6 -5 4 -1 1 
3 -1 7 -2 10 -4 11 -4 11 -5 10 -5 12 -6 14 -7 
17 -10 18 -11 17 -13 15 -11 13 -10 10 -9 7 -6 3 -3 
1 -1 -3 1 -6 2 -8 3 -12 4 -14 6 -17 7 -17 9 
-17 11 -18 12 -18 12 -15 13 -13 11 -10 9 -7 7 -5 4 
-2 2 1 0 4 -2 7 -2 10 -4 13 -4 15 -6 18 -8 
20 -9 20 -11 20 -12 17 -12 15 -11 13 -9 11 -9 9 -8 
6 -6 5 -3 2 -3 1 0 -4 1 -8 2 -10 4 -13 4 
-15 6 -17 7 -17 9 -17 10 -18 11 -17 13 -14 11 -12 10 
-8 7 -6 6 -5 4 -4 4 -3 2 -1 1 3 -1 8 -3 
11 -4 14 -6 16 -8 16 -8 16 -9 15 -9 14 -10 12 -9 
11 -8 9 -8 7 -6 6 -5 4 -4 4 -3 3 -2 -5 2 
-10 3 -14 6 -17 7 -15 7 -13 8 -12 7 -10 6 -9 7 
-8 6 -8 6 -7 6 -7 6 -8 6 -7 6 -7 6 -5 5 
-4 4 -3 3 -2 1 -1 1 0 1 -1 1 -1 0 1 0 
7 -2 13 -4 18 -5 20 -7 21 -7 19 -8 18 -9 18 -9 
19 -10 19 -13 19 -13 19 -14 16 -12 12 -11 9 -7 5 -4 
2 -2 -1 0 -5 1 -8 2 -12 3 -17 3 -20 4 -24 6 
-27 7 -29 9 -28 11 -27 13 -25 14 -22 16 -19 14 -14 12 
-12 11 -10 8 -7 7 -5 5 -3 2 6 -1 10 -2 12 -3 
15 -4 19 -6 24 -7 28 -10 31 -13 31 -15 30 -17 26 -18 
21 -16 17 -13 11 -10 8 -6 4 -4 2 -1 -4 0 -11 3 
-19 3 -28 5 -36 7 -41 11 -38 13 -34 15 -29 16 -22 15 
-17 13 -12 10 -11 9 -9 8 -9 8 -7 7 -6 5 -3 2 
-1 1 5 -1 9 -2 11 -2 11 -2 8 -2 8 -2 7 -3 
9 -2 13 -4 17 -5 20 -7 22 -8 22 -9 20 -9 17 -10 
14 -8 11 -7 11 -7 11 -8 14 -10 15 -12 14 -12 12 -9 
7 -5 1 -1 -8 1 -17 3 -22 5 -26 5 -24 7 -21 8 
-19 8 -15 8 -14 8 -16 9 -18 12 -18 14 -15 13 -13 10 
-8 7 -5 5 -4 4 -2 1 -1 2 1 -1 6 -1 12 -4 
18 -6 22 -8 22 -11 21 -11 18 -10 11 -8 10 -7 10 -7 
12 -10 15 -11 15 -12 11 -9 5 -4 -5 1 -18 4 -28 7 
-34 10 -31 12 -26 12 -19 11 -12 8 -7 5 -4 3 -5 4 
-9 7 -12 10 -16 12 -14 13 -12 10 -7 6 -1 1 8 0 
17 -3 17 -3 13 -3 8 -2 8 -2 9 -3 14 -5 23 -6 
29 -11 32 -12 33 -16 3221 2462 300 MP stroke
32 -18 27 -17 21 -16 17 -14 13 -10 8 -7 6 -5 3 -2 
1 -2 -3 1 -7 1 -13 2 -19 2 -25 4 -28 5 -34 6 
-37 9 -39 11 -35 15 -29 15 -22 15 -14 10 -8 7 -6 5 
-6 5 -7 6 -9 8 -10 8 -7 6 -3 3 0 1 6 -2 
10 -2 12 -3 14 -4 14 -5 15 -6 14 -5 14 -6 16 -8 
18 -9 21 -12 21 -14 20 -14 19 -14 18 -14 13 -11 10 -8 
3 -3 -6 0 -17 2 -25 2 -32 3 -35 3 -33 4 -28 5 
-28 6 -26 5 -25 8 -28 10 -31 13 -31 17 -26 20 -19 15 
-11 9 -4 4 1 1 2 -2 -1 -1 -6 6 -13 10 -15 12 
-15 11 -12 12 -8 8 -3 2 5 0 16 1 17 0 17 -2 
15 -3 16 0 21 0 28 -5 35 -5 52 -5 72 -11 85 -20 
87 -23 83 -33 69 -45 43 -42 25 -21 11 -9 4 -2 2 -2 
3 -3 5 -3 7 -7 7 -9 4 -4 -5 2 -18 3 -30 6 
-31 14 -23 26 -32 22 -27 21 -15 12 1 -1 17 -10 23 -18 
13 -14 11 -10 2 -2 -12 9 -12 9 -6 4 3 -2 7 -7 
9 -9 9 -6 -6 2 -51 6 -98 5 -130 5 -145 5 -142 5 
-130 8 -122 10 -116 11 -115 15 -108 27 -85 35 -52 28 -29 22 
-17 15 -7 7 -3 3 -4 4 -7 6 -10 9 -7 8 -6 4 
-1 1 10 0 31 0 51 -3 71 -3 92 -1 115 -3 123 -6 
117 -8 102 -5 84 -4 61 -6 50 -8 55 -8 65 -10 73 -16 
75 -21 72 -27 61 -38 41 -33 22 -19 4 -3 -15 2 -28 4 
-22 4 -11 2 -4 1 -7 2 -18 5 -32 8 -43 13 -43 19 
-34 21 -21 14 -13 10 -9 8 -10 9 -11 9 -12 9 -8 8 
-3 2 7 -2 19 -2 34 -6 41 -12 38 -12 32 -12 25 -11 
18 -9 9 -5 6 -5 10 -8 18 -12 28 -18 28 -22 19 -17 
10 -9 2 0 -22 4 -48 6 -54 8 -43 16 -31 18 -19 14 
-7 7 4 -2 7 -7 4 -3 -1 2 -9 5 -20 12 -22 17 
-17 15 -7 5 7 -3 12 -9 6 -7 -5 4 -15 13 -21 16 
-21 17 -15 13 -2 2 24 -5 51 -8 59 -14 50 -17 36 -16 
26 -12 22 -10 16 -12 15 -12 20 -14 23 -19 18 -19 12 -17 
8 -16 6 -7 1 -1 -5 3 -8 7 -18 17 -47 6 -52 2 
-51 1 -53 2 -59 1 -73 1 -85 1 -99 2 -114 3 -133 2 
-144 2 -138 2 -118 2 -96 4 -84 3 -81 2 -87 1 -94 4 
-109 6 -134 3 -156 4 -156 2 -143 5 -117 6 -89 6 -70 8 
-71 12 -81 12 -86 13 -84 22 -75 28 -62 33 -48 30 -33 26 
-22 20 -7 8 24 -1 58 1 74 2 81 0 83 -3 74 -2 
69 1 87 1 134 -1 183 -4 212 -3 213 1 213 0 221 -6 
220 -8 201 -3 175 4 3886 2305 300 MP stroke
156 -5 141 -15 140 7 95 -2 92 -10 83 -13 74 -17 54 -24 
23 -63 122 -19 135 -6 135 -12 166 -3 207 -1 227 -6 222 -4 
185 -8 142 -18 98 -28 65 -33 47 -34 36 -29 25 -23 7 -6 
-33 0 -93 -1 -138 2 -164 2 -173 2 -173 0 -169 0 -159 4 
-148 4 -134 -4 -105 -2 -87 2 -69 4 -54 8 -47 13 -23 23 
-18 22 -14 17 -8 9 -3 5 -4 6 -6 12 -7 27 -5 32 
-3 16 1 -5 3 -19 2 -10 -1 7 -3 20 -4 18 -1 4 
3 -14 4 -22 2 -11 -1 7 -4 19 -3 14 0 2 3 -13 
3 -19 1 -3 -3 15 -5 25 -5 12 1 -3 7 -22 5 -29 
3 -17 -1 2 -2 16 -1 5 1 -9 4 -21 6 -23 5 -10 
0 -1 -5 10 -5 19 -3 19 -2 6 2 -9 2 -9 -3 12 
-4 28 -6 26 -4 11 2 -6 2 -3 -3 6 -4 8 -1 2 
5 -9 6 -19 3 -18 2 -8 0 1 -1 1 1 -6 3 -15 
4 -23 4 -13 -1 2 -4 15 -3 16 -1 7 1 -5 1 -7 
-1 5 -2 15 -3 19 -3 15 -1 2 2 -10 2 -13 1 -5 
0 3 -1 4 0 -1 2 -9 2 -14 3 -14 0 -2 -2 13 
-3 15 -1 5 2 -8 1 -7 -1 3 -2 14 -3 17 -2 9 
1 -4 2 -12 2 -9 0 2 -2 8 -1 6 1 -4 2 -13 
3 -14 1 -7 -1 5 -2 9 -1 7 2 -9 2 -14 1 -6 
-1 6 -2 13 -2 11 0 1 2 -11 2 -13 1 -5 -2 9 
-2 13 -1 5 1 -4 1 -10 1 -4 -1 5 -2 11 -1 8 
0 -2 2 -8 1 -6 0 -1 0 3 -1 3 0 1 0 -1 
1 -5 1 -6 0 -3 0 2 -1 4 0 3 0 -1 1 -4 
0 -4 0 2 -1 3 0 1 1 -1 0 -2 -1 3 0 4 
-1 3 0 0 0 3 -1 1 1 -1 0 -5 1 -1 0 -2 
3041 2501 201 MP stroke
DA
0 sg
0 -4 1 -1 0 -4 0 3 -1 1 0 5 -1 2 0 2 
0 -1 1 -2 0 -5 1 -1 0 -2 0 2 -1 3 0 2 
0 -4 1 -3 0 -3 1 -1 -1 0 0 4 -1 2 0 4 
-1 3 0 3 0 -2 1 -3 0 -4 1 -4 1 -3 0 -3 
0 1 -1 2 0 5 -1 6 -1 5 -1 4 0 2 0 -1 
1 -3 1 -6 1 -7 1 -7 1 -5 0 -4 1 -1 -1 1 
0 4 -1 5 -1 7 -2 8 -1 6 0 4 -1 4 0 2 
0 -3 1 -5 1 -6 1 -7 1 -6 1 -6 1 -5 1 -4 
0 -1 0 1 -1 3 -1 5 -1 6 -1 6 -1 7 -1 6 
-1 5 0 4 0 -4 1 -4 1 -6 1 -7 1 -6 1 -5 
1 -4 0 -3 0 2 -1 4 -1 7 -1 7 -1 7 -1 6 
-1 5 -1 4 0 2 1 -4 1 -7 1 -8 1 -9 2 -8 
1 -7 1 -6 1 -5 0 -2 0 2 -1 5 -1 8 -2 8 
-1 8 -1 8 -2 7 0 5 -1 3 1 -3 1 -6 1 -7 
1 -7 1 -6 1 -6 1 -4 0 -3 0 3 -1 4 -1 6 
-1 6 -1 5 -1 4 0 6 -1 0 1 -1 0 -2 1 -5 
1 -4 0 -5 1 -3 0 -2 1 -2 0 -2 0 1 -1 3 
0 3 -1 3 0 3 0 -3 1 -3 0 -3 0 2 -1 2 
0 5 -1 1 0 3 0 -2 1 -1 0 -4 1 -2 0 -5 
1 -2 0 -1 0 2 -1 3 0 3 -1 4 -1 4 -1 4 
0 5 -1 1 1 -1 0 -3 1 -4 0 -4 1 -4 1 -4 
1 -4 0 -5 0 3 -1 3 0 5 -1 5 -1 5 -1 5 
-1 4 0 4 0 -4 1 -4 1 -6 1 -6 1 -5 1 -6 
1 -4 0 -3 0 3 -1 4 -1 6 -1 6 -1 7 -1 6 
-1 5 -1 3 0 2 0 -1 1 -3 0 -5 1 -6 2 -7 
1 -7 1 -7 1 -6 1 -5 0 -3 0 4 -1 4 -1 6 
-1 7 -1 8 -2 6 0 6 -1 4 -1 2 0 1 0 -1 
1 -3 1 -5 1 -6 1 -6 1 -6 1 -4 0 -4 1 -2 
0 -1 0 1 -1 3 -1 3 0 4 -1 4 0 3 -1 3 
0 3 0 -2 1 -3 0 -3 1 -3 0 -4 1 -3 0 -3 
1 -2 -1 1 0 5 -1 4 -1 4 -1 5 -1 5 0 5 
-1 4 0 1 0 -4 1 -3 1 -4 0 -4 1 -6 1 -5 
1 -5 0 -2 0 3 -1 2 0 4 -1 3 0 3 0 -3 
1 -2 0 -3 1 -2 0 -1 -1 2 0 4 -1 2 0 5 
-1 1 1 -1 -1 0 0 6 0 -6 1 -2 0 -3 1 -4 
1 -3 0 -5 0 4 -1 3 -1 4 0 5 -1 4 -1 5 
-1 4 0 2 0 -1 1 -3 1 -5 1 -5 1 -6 1 -7 
1 -6 1 -5 0 -2 3037 2524 300 MP stroke
0 2 -1 4 -1 6 -1 6 -1 7 -2 7 -1 6 0 5 
-1 4 0 1 0 -1 1 -3 0 -5 1 -7 2 -6 1 -7 
1 -7 1 -6 1 -4 0 -3 0 3 -1 4 -1 5 -1 5 
-1 5 -1 5 0 5 -1 4 0 -2 1 -4 1 -5 1 -4 
0 -4 1 -4 0 -4 0 2 -1 4 -1 7 -1 7 -1 6 
-1 6 -1 6 -1 4 0 3 1 -4 1 -7 1 -8 2 -9 
1 -8 1 -8 2 -7 1 -6 0 -3 0 3 -1 6 -1 6 
-2 8 -1 7 -1 6 -1 6 -1 5 0 4 0 -3 1 -4 
1 -5 0 -6 1 -5 1 -5 1 -4 1 -4 0 -3 0 1 
-1 3 0 4 -1 5 -1 4 0 4 -1 4 -1 4 0 3 
0 -2 1 -3 0 -4 1 -4 0 -4 1 -2 0 -3 0 4 
-1 4 -1 4 0 4 -1 2 0 4 -1 1 1 -1 0 -4 
1 -4 1 -5 0 -4 1 -3 1 -4 1 -5 0 -5 1 -3 
0 2 -1 3 0 3 -1 4 -1 4 -1 6 -1 6 -1 6 
0 3 -1 1 1 0 0 -5 1 -4 1 -7 1 -7 1 -6 
1 -4 1 -3 0 -4 0 2 -1 6 -1 7 -1 7 -1 5 
-1 4 -1 4 0 4 -1 4 0 1 0 -2 1 -4 0 -4 
1 -3 1 -3 0 -4 1 -5 1 -4 0 -2 0 1 -1 2 
0 4 -1 4 0 3 -1 3 -1 4 0 5 0 -5 1 -2 
0 -3 1 -4 1 -4 0 -3 1 -3 0 -4 1 -1 -1 2 
0 4 -2 6 -1 6 0 5 -1 4 -1 4 0 4 -1 2 
0 -1 1 -4 1 -7 2 -8 1 -7 1 -5 1 -6 1 -5 
1 -6 0 -4 0 1 -1 4 -1 6 -1 7 -1 7 -1 6 
-1 6 -1 7 -1 7 -1 4 1 -4 0 -5 1 -5 1 -3 
0 -4 1 -4 1 -7 1 -6 1 -3 0 2 -1 3 0 3 
-1 1 0 2 -1 4 -1 5 0 5 0 -4 1 -5 1 -4 
0 -2 1 -2 0 -5 0 2 -1 8 -2 10 -1 8 -1 4 
0 3 -1 2 0 2 0 -2 1 -7 2 -9 1 -7 1 -5 
1 -4 0 -6 0 5 -1 5 -1 4 0 4 -1 3 0 2 
-1 2 1 -1 0 -3 1 -3 0 -4 1 -2 0 -3 0 2 
-1 4 -1 6 -1 4 0 1 0 -1 1 -3 1 -5 1 -5 
0 -2 0 1 -1 3 0 3 -1 1 0 2 0 -2 1 -3 
1 -6 1 -7 1 -5 0 -1 0 1 -1 4 0 5 -1 6 
-2 6 -1 7 -1 6 -1 6 0 2 0 -1 1 -4 1 -6 
1 -6 1 -4 0 -4 1 -4 1 -4 0 -5 0 4 -1 4 
-1 4 0 3 -1 2 0 4 0 -4 1 -5 1 -5 1 -2 
0 -4 1 -2 0 -1 -1 4 -1 6 -1 7 -1 4 0 3 
-1 1 0 4 0 -2 3043 2490 300 MP stroke
1 -6 1 -6 1 -5 0 -2 1 -2 0 -3 1 -3 0 -3 
0 3 -1 5 -1 4 0 3 -1 4 -1 4 0 5 -1 4 
0 1 0 -5 1 -3 1 -3 0 -6 1 -3 0 -2 0 4 
-1 3 0 2 -1 2 0 1 1 -1 0 -3 1 -3 0 -4 
1 -3 0 -4 0 4 -1 2 0 4 -1 4 -1 4 0 5 
-1 1 0 3 0 -1 1 -4 1 -5 0 -4 1 -4 0 -4 
1 -4 1 -4 0 -2 0 3 -1 3 0 4 -1 2 0 4 
-1 3 0 1 0 -2 1 -2 0 -4 1 -3 1 -5 0 -5 
1 -1 -1 3 -1 6 -1 8 -2 9 -1 9 -2 10 -2 10 
-1 9 -1 7 -1 2 1 -4 1 -8 2 -11 2 -11 2 -11 
2 -12 2 -12 2 -10 1 -6 -1 6 -2 8 -1 8 -1 7 
-2 8 -1 7 -1 5 0 1 1 -4 1 -8 2 -9 1 -9 
1 -6 1 -6 1 -5 1 -3 -1 1 0 5 -2 10 -2 11 
-2 10 -1 9 -1 7 -2 7 -1 7 0 3 0 -2 1 -8 
2 -11 2 -12 2 -11 2 -10 2 -11 2 -12 1 -10 1 -4 
0 4 -2 8 -2 11 -1 10 -2 12 -3 14 -3 17 -2 16 
-2 11 -1 3 1 -3 1 -6 1 -7 1 -8 2 -12 3 -15 
3 -16 1 -11 1 -2 -1 4 -1 6 -1 6 -1 6 -2 10 
-2 13 -2 14 -2 8 1 -1 1 -8 2 -12 2 -11 1 -9 
2 -11 2 -13 3 -13 1 -9 0 -1 -1 6 -1 10 -2 11 
-2 9 -1 9 -2 11 -2 13 -2 11 -1 5 1 -5 1 -7 
1 -9 2 -11 3 -13 2 -15 2 -14 2 -8 0 -2 0 4 
-2 7 -2 11 -2 15 -3 17 -3 18 -3 15 -1 9 -1 4 
1 -3 1 -6 2 -11 2 -15 3 -20 4 -20 3 -18 2 -12 
1 -6 -1 3 -1 8 -2 12 -3 18 -3 20 -3 18 -3 13 
-1 7 0 2 0 -1 1 -3 1 -6 1 -9 2 -12 2 -12 
2 -10 1 -5 0 -1 0 1 -1 3 -1 5 -1 8 -1 5 
0 3 0 -3 1 -4 0 -3 0 1 -1 5 0 4 0 -1 
1 -7 2 -11 2 -11 1 -8 1 -4 0 -2 -1 6 -2 13 
-4 20 -3 22 -3 19 -2 12 -2 7 -1 6 0 3 0 -3 
2 -13 4 -21 4 -25 4 -21 3 -17 2 -13 2 -13 2 -12 
1 -7 0 3 -2 12 -3 17 -3 18 -3 16 -3 17 -3 20 
-3 19 -3 14 0 4 1 -8 3 -15 3 -18 2 -17 3 -17 
3 -18 3 -18 3 -14 0 -3 -1 9 -3 17 -3 17 -3 15 
-2 14 -2 16 -3 15 -2 12 -1 3 2 -8 2 -16 3 -17 
3 -15 2 -14 3 -14 2 -14 2 -10 0 1 -2 11 -3 17 
-4 19 -2 17 -3 14 -2 15 -3 14 -1 10 -1 2 2 -9 
3 -16 3 -19 3 -18 3042 2494 300 MP stroke
3 -16 2 -16 3 -18 3 -15 1 -9 0 1 -1 9 -2 12 
-3 13 -2 12 -2 14 -2 14 -3 15 -2 11 -1 5 0 1 
0 -1 1 -1 0 -4 1 -6 2 -11 2 -12 2 -11 1 -8 
2 -8 1 -8 2 -10 1 -6 0 -1 -1 6 -2 11 -2 12 
-2 10 -1 10 -2 11 -2 11 -2 10 0 2 1 -6 2 -12 
2 -13 2 -13 3 -13 2 -13 2 -13 2 -10 0 -2 -1 8 
-3 17 -4 22 -3 21 -4 19 -3 18 -2 15 -2 11 -1 3 
1 -7 3 -16 4 -21 4 -22 3 -20 3 -17 3 -16 2 -13 
1 -6 0 1 -2 7 -1 10 -2 10 -2 10 -2 11 -2 14 
-2 13 -2 9 0 4 0 0 -1 3 -1 4 1 -5 1 -7 
1 -3 -1 3 -1 6 0 4 0 -2 1 -6 1 -6 1 -4 
0 -2 1 -4 1 -8 2 -13 2 -11 1 -4 -1 3 -1 6 
-1 6 0 5 -2 7 -1 10 -2 7 0 2 1 -6 2 -9 
1 -8 1 -5 1 -5 1 -8 2 -11 2 -12 1 -5 0 2 
-2 6 0 5 -1 2 0 2 -2 9 -3 18 -3 20 -2 14 
-2 7 1 -2 1 -5 2 -12 3 -19 4 -22 3 -19 2 -10 
-1 1 -1 8 -2 10 -1 10 -3 14 -3 21 -5 25 -4 23 
-2 15 -1 4 1 -3 1 -5 1 -5 1 -8 3 -17 4 -24 
5 -30 5 -28 4 -25 3 -19 3 -15 2 -12 1 -7 -1 4 
-3 21 -6 35 -8 42 -7 42 -6 38 -6 34 -5 30 -4 23 
-2 11 2 -7 3 -23 6 -33 6 -35 6 -33 5 -31 5 -30 
5 -27 3 -19 1 -5 -2 10 -3 20 -4 23 -4 23 -4 24 
-4 24 -4 24 -3 17 -1 5 1 -7 3 -17 4 -24 4 -26 
5 -28 5 -29 5 -28 3 -21 2 -10 -1 4 -2 14 -4 21 
-4 25 -4 26 -5 27 -4 22 -2 15 -1 4 1 -5 2 -10 
1 -10 2 -8 1 -9 2 -11 2 -10 1 -9 2 -6 1 -7 
1 -10 2 -11 2 -9 0 -2 -1 9 -3 18 -5 27 -6 35 
-7 41 -7 41 -6 34 -3 21 -1 3 3 -16 6 -34 8 -49 
10 -61 12 -67 11 -66 9 -55 6 -34 1 -7 -3 21 -8 44 
-10 61 -13 74 -14 83 -14 84 -13 73 -8 52 -4 21 2 -11 
7 -39 11 -65 14 -87 18 -102 18 -106 16 -94 11 -69 6 -34 
0 4 -7 39 -12 70 -16 95 -19 113 -20 115 -17 100 -12 71 
-6 35 1 -3 6 -38 12 -69 16 -94 19 -110 19 -118 19 -111 
16 -91 10 -58 3 -19 -3 18 -8 49 -13 75 -17 98 -19 115 
-21 122 -19 111 -14 82 -7 45 -2 9 3 -20 9 -48 12 -75 
16 -96 19 -108 18 -106 15 -90 11 -64 6 -36 1 -7 -4 23 
-8 50 -13 74 -16 94 -18 106 -18 107 -16 95 -12 69 -6 36 
0 1 5 -29 10 -58 3084 2247 300 MP stroke
15 -88 19 -115 22 -129 21 -119 15 -92 9 -55 4 -21 -1 8 
-7 39 -12 73 -18 106 -22 125 -21 124 -17 102 -12 68 -6 36 
-1 9 3 -17 7 -46 13 -76 17 -99 18 -105 15 -86 9 -54 
4 -22 -1 3 -4 23 -7 44 -12 68 -14 85 -14 83 -11 64 
-5 30 0 -3 5 -29 8 -47 10 -61 13 -74 14 -81 12 -70 
7 -44 2 -10 -4 22 -8 47 -11 65 -12 74 -14 77 -13 77 
-11 68 -8 47 -2 10 5 -31 12 -67 15 -88 17 -101 19 -112 
20 -118 19 -115 17 -96 10 -62 3 -16 -5 29 -11 63 -14 84 
-17 101 -20 117 -21 125 -20 118 -16 93 -10 61 -6 35 -4 20 
-1 8 2 -12 7 -38 10 -64 14 -81 15 -89 17 -96 17 -101 
17 -100 16 -94 12 -75 7 -41 -1 5 -8 52 -16 89 -19 117 
-23 135 -25 146 -25 146 -21 124 -14 85 -6 35 2 -11 8 -52 
15 -89 21 -123 25 -144 25 -148 23 -134 17 -99 9 -53 0 -2 
-8 43 -13 83 -20 118 -26 149 -28 167 -28 165 -24 140 -17 98 
-7 45 1 -8 10 -59 18 -108 26 -152 32 -189 36 -207 34 -201 
27 -164 18 -103 6 -33 -6 32 -15 88 -23 136 -29 174 -33 193 
-33 190 -27 159 -17 103 -6 33 6 -33 14 -80 18 -111 23 -133 
26 -153 28 -164 26 -157 22 -124 12 -72 2 -13 -7 39 -13 77 
-18 107 -23 137 -28 167 -32 185 -30 177 -24 139 -14 83 -4 24 
5 -29 14 -80 23 -135 31 -187 39 -227 41 -239 37 -217 28 -168 
17 -100 5 -28 -7 42 -20 112 -31 184 -42 248 -48 283 -47 276 
-39 232 -29 168 -16 98 -4 24 9 -55 24 -143 39 -229 50 -294 
54 -315 49 -291 40 -237 30 -173 17 -101 2 -12 -16 93 -34 202 
-49 285 -54 322 -54 316 -49 287 -40 237 -28 166 -13 75 5 -31 
25 -144 41 -243 52 -305 55 -324 53 -311 48 -285 42 -246 30 -177 
11 -67 -11 67 -33 193 -48 281 -55 327 -59 344 -58 344 -55 323 
-43 257 -23 135 4 -23 30 -177 49 -291 61 -361 67 -396 70 -407 
66 -390 55 -324 34 -198 4 -26 -26 154 -51 301 -67 393 -76 447 
-81 479 -82 482 -73 427 -49 291 -17 98 17 -101 46 -266 65 -385 
80 -471 91 -534 93 -549 82 -486 58 -337 23 -140 -9 56 -38 223 
-60 354 -77 455 -89 523 -93 545 -86 507 -69 408 -43 254 -12 67 
19 -109 41 -241 56 -330 67 -393 74 -438 75 -444 68 -399 51 -298 
25 -149 -3 18 -26 151 -37 222 -43 250 -46 272 -50 297 -49 287 
-37 215 -18 110 -4 23 6 -36 15 -87 21 -126 24 -142 24 -138 
21 -125 19 -110 15 -94 13 -72 8 -48 5 -29 3 -19 3 -16 
3 -17 3 -20 4 -24 4 -24 3 -15 -1 2 -3 17 -4 25 
-4 26 -5 30 -7 39 -8 47 -8 50 -7 41 -5 25 -2 11 
0 6 -2 6 -1 8 3037 2525 300 MP stroke
-1 4 1 -3 1 -7 0 -2 -1 8 -3 16 -3 17 -2 13 
-1 6 0 2 -1 6 -2 9 0 5 0 -3 2 -9 1 -10 
2 -8 0 -1 1 -5 2 -13 2 -15 2 -12 1 -3 0 1 
1 -10 2 -11 0 3 -4 23 -5 29 -3 20 -1 2 2 -8 
0 -1 -3 14 -2 16 3 -19 4 -26 4 -20 1 -7 0 2 
1 -10 3 -15 0 -2 -3 17 -4 27 -4 23 -3 19 -3 17 
-2 12 -1 1 1 -3 0 -3 2 -8 3 -19 5 -27 4 -24 
2 -15 2 -12 2 -11 1 -5 -1 3 -1 9 -1 8 -2 11 
-3 16 -3 19 -3 18 -2 11 -1 4 1 -3 0 -4 1 -2 
0 -1 1 -6 3 -17 3 -18 2 -10 -1 1 0 4 -1 2 
0 2 -1 4 -1 6 -1 8 -1 7 -1 5 0 2 0 -3 
1 -3 0 -2 1 -4 1 -8 1 -6 0 -1 -1 5 -1 6 
1 -6 1 -4 0 3 -2 7 0 5 0 -3 2 -10 1 -8 
-1 8 -2 8 0 2 0 -3 1 -3 0 1 -1 5 -1 5 
0 1 1 -3 0 -3 1 -4 0 -4 1 -3 0 1 0 -3 
0 2 -1 4 -1 6 0 3 0 -5 1 -3 0 0 0 -3 
1 -4 1 -2 -1 1 0 2 -1 4 0 4 -1 2 0 4 
0 -4 1 -2 0 -2 3041 2501 140 MP stroke
gr

DA
%%IncludeResource: font Helvetica
/Helvetica /ISOLatin1Encoding 120 FMSR

2480  156 mt 
(Moment-curvature response at section A) s
3016  294 mt 
(force-based element) s
3312 4903 mt 
(Curvature) s
 546 2923 mt  -90 rotate
(Moment \(kN*M\)) s
90 rotate
 882 4658 mt 
( ) s
6239  431 mt 
( ) s
SO
1 sg
0 334 1172 0 0 -334 5023 4556 4 MP
PP
-1172 0 0 334 1172 0 0 -334 5023 4556 5 MP stroke
4 w
DO
SO
6 w
0 sg
5023 4556 mt 6195 4556 L
5023 4222 mt 6195 4222 L
5023 4556 mt 5023 4222 L
6195 4556 mt 6195 4222 L
5023 4556 mt 6195 4556 L
5023 4556 mt 5023 4222 L
5023 4556 mt 6195 4556 L
5023 4222 mt 6195 4222 L
5023 4556 mt 5023 4222 L
6195 4556 mt 6195 4222 L
5482 4357 mt 
(nonlinear) s
gs 5023 4222 1173 335 rc
c8
353 0 5093 4315 2 MP stroke
gr

c8
0 sg
5482 4506 mt 
(linear elastic) s
gs 5023 4222 1173 335 rc
DA
353 0 5093 4462 2 MP stroke
SO
gr


end %%Color Dict

eplot
%%EndObject

epage
end

showpage

%%Trailer
%%EOF
