%!PS-Adobe-3.0 EPSF-3.0
%%Creator: MATLAB, The Mathworks, Inc. Version 7.10.0.499 (R2010a). Operating System: Darwin 10.8.0 Darwin Kernel Version 10.8.0: Tue Jun  7 16:33:36 PDT 2011; root:xnu-1504.15.3~1/RELEASE_I386 i386.
%%Title: ./fig2d_mc_nonlinear_1.eps
%%CreationDate: 03/24/2012  11:55:08
%%DocumentNeededFonts: Helvetica
%%DocumentProcessColors: Cyan Magenta Yellow Black
%%LanguageLevel: 2
%%Pages: 1
%%BoundingBox:    43   199   553   614
%%EndComments

%%BeginProlog
% MathWorks dictionary
/MathWorks 160 dict begin
% definition operators
/bdef {bind def} bind def
/ldef {load def} bind def
/xdef {exch def} bdef
/xstore {exch store} bdef
% operator abbreviations
/c  /clip ldef
/cc /concat ldef
/cp /closepath ldef
/gr /grestore ldef
/gs /gsave ldef
/mt /moveto ldef
/np /newpath ldef
/cm /currentmatrix ldef
/sm /setmatrix ldef
/rm /rmoveto ldef
/rl /rlineto ldef
/s {show newpath} bdef
/sc {setcmykcolor} bdef
/sr /setrgbcolor ldef
/sg /setgray ldef
/w /setlinewidth ldef
/j /setlinejoin ldef
/cap /setlinecap ldef
/rc {rectclip} bdef
/rf {rectfill} bdef
% page state control
/pgsv () def
/bpage {/pgsv save def} bdef
/epage {pgsv restore} bdef
/bplot /gsave ldef
/eplot {stroke grestore} bdef
% orientation switch
/portraitMode 0 def /landscapeMode 1 def /rotateMode 2 def
% coordinate system mappings
/dpi2point 0 def
% font control
/FontSize 0 def
/FMS {/FontSize xstore findfont [FontSize 0 0 FontSize neg 0 0]
  makefont setfont} bdef
/reencode {exch dup where {pop load} {pop StandardEncoding} ifelse
  exch dup 3 1 roll findfont dup length dict begin
  { 1 index /FID ne {def}{pop pop} ifelse } forall
  /Encoding exch def currentdict end definefont pop} bdef
/isroman {findfont /CharStrings get /Agrave known} bdef
/FMSR {3 1 roll 1 index dup isroman {reencode} {pop pop} ifelse
  exch FMS} bdef
/csm {1 dpi2point div -1 dpi2point div scale neg translate
 dup landscapeMode eq {pop -90 rotate}
  {rotateMode eq {90 rotate} if} ifelse} bdef
% line types: solid, dotted, dashed, dotdash
/SO { [] 0 setdash } bdef
/DO { [.5 dpi2point mul 4 dpi2point mul] 0 setdash } bdef
/DA { [6 dpi2point mul] 0 setdash } bdef
/DD { [.5 dpi2point mul 4 dpi2point mul 6 dpi2point mul 4
  dpi2point mul] 0 setdash } bdef
% macros for lines and objects
/L {lineto stroke} bdef
/MP {3 1 roll moveto 1 sub {rlineto} repeat} bdef
/AP {{rlineto} repeat} bdef
/PDlw -1 def
/W {/PDlw currentlinewidth def setlinewidth} def
/PP {closepath eofill} bdef
/DP {closepath stroke} bdef
/MR {4 -2 roll moveto dup  0 exch rlineto exch 0 rlineto
  neg 0 exch rlineto closepath} bdef
/FR {MR stroke} bdef
/PR {MR fill} bdef
/L1i {{currentfile picstr readhexstring pop} image} bdef
/tMatrix matrix def
/MakeOval {newpath tMatrix currentmatrix pop translate scale
0 0 1 0 360 arc tMatrix setmatrix} bdef
/FO {MakeOval stroke} bdef
/PO {MakeOval fill} bdef
/PD {currentlinewidth 2 div 0 360 arc fill
   PDlw -1 eq not {PDlw w /PDlw -1 def} if} def
/FA {newpath tMatrix currentmatrix pop translate scale
  0 0 1 5 -2 roll arc tMatrix setmatrix stroke} bdef
/PA {newpath tMatrix currentmatrix pop	translate 0 0 moveto scale
  0 0 1 5 -2 roll arc closepath tMatrix setmatrix fill} bdef
/FAn {newpath tMatrix currentmatrix pop translate scale
  0 0 1 5 -2 roll arcn tMatrix setmatrix stroke} bdef
/PAn {newpath tMatrix currentmatrix pop translate 0 0 moveto scale
  0 0 1 5 -2 roll arcn closepath tMatrix setmatrix fill} bdef
/vradius 0 def /hradius 0 def /lry 0 def
/lrx 0 def /uly 0 def /ulx 0 def /rad 0 def
/MRR {/vradius xdef /hradius xdef /lry xdef /lrx xdef /uly xdef
  /ulx xdef newpath tMatrix currentmatrix pop ulx hradius add uly
  vradius add translate hradius vradius scale 0 0 1 180 270 arc 
  tMatrix setmatrix lrx hradius sub uly vradius add translate
  hradius vradius scale 0 0 1 270 360 arc tMatrix setmatrix
  lrx hradius sub lry vradius sub translate hradius vradius scale
  0 0 1 0 90 arc tMatrix setmatrix ulx hradius add lry vradius sub
  translate hradius vradius scale 0 0 1 90 180 arc tMatrix setmatrix
  closepath} bdef
/FRR {MRR stroke } bdef
/PRR {MRR fill } bdef
/MlrRR {/lry xdef /lrx xdef /uly xdef /ulx xdef /rad lry uly sub 2 div def
  newpath tMatrix currentmatrix pop ulx rad add uly rad add translate
  rad rad scale 0 0 1 90 270 arc tMatrix setmatrix lrx rad sub lry rad
  sub translate rad rad scale 0 0 1 270 90 arc tMatrix setmatrix
  closepath} bdef
/FlrRR {MlrRR stroke } bdef
/PlrRR {MlrRR fill } bdef
/MtbRR {/lry xdef /lrx xdef /uly xdef /ulx xdef /rad lrx ulx sub 2 div def
  newpath tMatrix currentmatrix pop ulx rad add uly rad add translate
  rad rad scale 0 0 1 180 360 arc tMatrix setmatrix lrx rad sub lry rad
  sub translate rad rad scale 0 0 1 0 180 arc tMatrix setmatrix
  closepath} bdef
/FtbRR {MtbRR stroke } bdef
/PtbRR {MtbRR fill } bdef
/stri 6 array def /dtri 6 array def
/smat 6 array def /dmat 6 array def
/tmat1 6 array def /tmat2 6 array def /dif 3 array def
/asub {/ind2 exch def /ind1 exch def dup dup
  ind1 get exch ind2 get sub exch } bdef
/tri_to_matrix {
  2 0 asub 3 1 asub 4 0 asub 5 1 asub
  dup 0 get exch 1 get 7 -1 roll astore } bdef
/compute_transform {
  dmat dtri tri_to_matrix tmat1 invertmatrix 
  smat stri tri_to_matrix tmat2 concatmatrix } bdef
/ds {stri astore pop} bdef
/dt {dtri astore pop} bdef
/db {2 copy /cols xdef /rows xdef mul dup 3 mul string
  currentfile 
  3 index 0 eq {/ASCIIHexDecode filter}
  {/ASCII85Decode filter 3 index 2 eq {/RunLengthDecode filter} if }
  ifelse exch readstring pop
  dup 0 3 index getinterval /rbmap xdef
  dup 2 index dup getinterval /gbmap xdef
  1 index dup 2 mul exch getinterval /bbmap xdef pop pop}bdef
/it {gs np dtri aload pop moveto lineto lineto cp c
  cols rows 8 compute_transform 
  rbmap gbmap bbmap true 3 colorimage gr}bdef
/il {newpath moveto lineto stroke}bdef
currentdict end def
%%EndProlog

%%BeginSetup
MathWorks begin

0 cap

end
%%EndSetup

%%Page: 1 1
%%BeginPageSetup
%%PageBoundingBox:    43   199   553   614
MathWorks begin
bpage
%%EndPageSetup

%%BeginObject: obj1
bplot

/dpi2point 12 def
portraitMode 0216 7344 csm

  310   -28  6111  4983 rc
85 dict begin %Colortable dictionary
/c0 { 0.000000 0.000000 0.000000 sr} bdef
/c1 { 1.000000 1.000000 1.000000 sr} bdef
/c2 { 0.900000 0.000000 0.000000 sr} bdef
/c3 { 0.000000 0.820000 0.000000 sr} bdef
/c4 { 0.000000 0.000000 0.800000 sr} bdef
/c5 { 0.910000 0.820000 0.320000 sr} bdef
/c6 { 1.000000 0.260000 0.820000 sr} bdef
/c7 { 0.000000 0.820000 0.820000 sr} bdef
c0
1 j
1 sg
   0    0 6913 5186 rf
6 w
0 4226 5356 0 0 -4226 899 4615 4 MP
PP
-5356 0 0 4226 5356 0 0 -4226 899 4615 5 MP stroke
4 w
DO
0 sg
 899 4615 mt  899  389 L
 899  389 mt  899  389 L
1970 4615 mt 1970  389 L
1970  389 mt 1970  389 L
3041 4615 mt 3041  389 L
3041  389 mt 3041  389 L
4112 4615 mt 4112  389 L
4112  389 mt 4112  389 L
5183 4615 mt 5183  389 L
5183  389 mt 5183  389 L
6255 4615 mt 6255  389 L
6255  389 mt 6255  389 L
 899 4615 mt 6255 4615 L
6255 4615 mt 6255 4615 L
 899 4011 mt 6255 4011 L
6255 4011 mt 6255 4011 L
 899 3407 mt 6255 3407 L
6255 3407 mt 6255 3407 L
 899 2803 mt 6255 2803 L
6255 2803 mt 6255 2803 L
 899 2200 mt 6255 2200 L
6255 2200 mt 6255 2200 L
 899 1596 mt 6255 1596 L
6255 1596 mt 6255 1596 L
 899  992 mt 6255  992 L
6255  992 mt 6255  992 L
 899  389 mt 6255  389 L
6255  389 mt 6255  389 L
SO
6 w
 899 4615 mt 6255 4615 L
 899 4615 mt  899  389 L
 899 4615 mt  899 4561 L
%%IncludeResource: font Helvetica
/Helvetica /ISOLatin1Encoding 120 FMSR

 746 4760 mt 
(-0.1) s
1970 4615 mt 1970 4561 L
1784 4760 mt 
(-0.05) s
3041 4615 mt 3041 4561 L
3008 4760 mt 
(0) s
4112 4615 mt 4112 4561 L
3996 4760 mt 
(0.05) s
5183 4615 mt 5183 4561 L
5100 4760 mt 
(0.1) s
6255 4615 mt 6255 4561 L
6139 4760 mt 
(0.15) s
 899 4615 mt  952 4615 L
 528 4659 mt 
(-1500) s
 899 4011 mt  952 4011 L
 528 4055 mt 
(-1000) s
 899 3407 mt  952 3407 L
 594 3451 mt 
(-500) s
 899 2803 mt  952 2803 L
 798 2847 mt 
(0) s
 899 2200 mt  952 2200 L
 664 2244 mt 
(500) s
 899 1596 mt  952 1596 L
 598 1640 mt 
(1000) s
 899  992 mt  952  992 L
 598 1036 mt 
(1500) s
 899  389 mt  952  389 L
 598  433 mt 
(2000) s
gs 899 389 5357 4227 rc
/c8 { 1.000000 0.000000 0.000000 sr} bdef
c8
0 -4 0 1 1 -1 -1 0 0 5 0 -5 0 0 0 5 
0 -4 1 -1 0 -2 0 1 -1 1 0 6 0 -5 1 -1 
0 -2 0 2 -1 1 0 6 0 -7 1 -1 0 -3 0 3 
-1 1 0 7 -1 1 1 -1 0 -7 1 -1 0 -4 0 4 
-1 1 0 7 -1 1 0 2 0 -2 1 -2 0 -5 1 -2 
0 -6 0 6 -1 2 0 5 -1 2 0 4 0 -4 1 -1 
0 -6 1 -2 0 -6 1 -1 0 -1 0 1 -1 1 0 7 
-1 2 0 4 -1 2 0 6 0 -5 1 -2 0 -5 1 -2 
0 -7 1 -2 0 -3 0 3 -1 2 0 5 -1 2 0 6 
-1 3 0 6 -1 1 0 1 0 -1 1 -2 0 -5 1 -2 
0 -6 1 -4 0 -3 1 -2 0 -6 1 -1 -1 1 0 6 
-1 3 0 3 -1 4 0 3 -1 3 0 6 -1 3 0 4 
0 -5 1 -3 0 -3 1 -4 0 -4 1 -4 0 -3 1 -4 
0 -3 1 -3 0 -5 0 5 -1 2 0 4 -1 4 0 4 
-1 4 -1 5 0 4 -1 4 0 6 -1 2 0 2 0 -2 
1 -3 0 -3 1 -4 0 -4 1 -5 0 -5 1 -4 1 -5 
0 -4 1 -4 0 -4 1 -2 0 -2 0 1 -1 3 0 3 
-1 4 0 4 -1 5 -1 5 0 6 -1 5 -1 5 0 5 
-1 4 0 4 -1 2 0 2 0 -2 1 -3 0 -3 1 -5 
1 -5 0 -5 1 -6 1 -6 1 -7 1 -5 0 -6 1 -4 
0 -4 1 -2 0 -2 0 1 -1 2 0 3 -1 4 0 5 
-1 6 -1 6 -1 7 -1 8 -1 7 -1 6 0 6 -1 4 
0 4 -1 2 0 1 1 -3 0 -3 1 -4 0 -6 1 -7 
1 -8 2 -8 1 -8 1 -8 0 -6 1 -6 1 -5 0 -4 
1 -3 0 -3 0 4 -1 4 -1 6 -1 7 -1 8 -1 9 
-1 8 -1 8 -1 7 -1 7 -1 7 0 5 -1 5 -1 3 
0 2 0 -2 1 -3 1 -6 1 -7 1 -9 1 -8 1 -9 
1 -9 2 -9 1 -8 1 -9 1 -8 1 -7 1 -6 0 -4 
1 -2 -1 3 -1 5 -1 7 -1 8 -1 9 -1 8 -1 9 
-1 10 -2 10 -1 10 -2 12 -1 10 -1 10 -1 7 -1 5 
0 2 0 -3 1 -5 1 -5 0 -6 1 -7 1 -8 2 -10 
1 -10 2 -12 1 -13 2 -12 2 -11 1 -10 1 -7 0 -5 
1 -1 0 1 -1 2 0 4 -1 5 -1 6 -1 8 -1 8 
-1 11 -2 12 -2 15 -2 14 -2 14 -1 11 -1 8 -1 6 
-1 3 0 1 0 -1 1 -2 0 -4 1 -6 1 -9 2 -12 
2 -15 2 -15 2 -16 2 -14 2 -13 1 -9 1 -8 1 -5 
0 -4 0 3 -1 4 -1 8 -1 11 -2 14 -3 18 -2 20 
-3 20 -3 19 -2 16 3255 2519 300 MP stroke
-2 12 -1 10 -1 7 -1 7 0 6 -1 4 0 3 0 -6 
2 -10 2 -15 3 -19 3 -21 3 -22 3 -21 3 -19 3 -18 
2 -18 2 -18 3 -18 2 -16 2 -15 2 -12 1 -8 0 -3 
0 3 -1 6 -2 10 -2 11 -2 14 -2 16 -3 18 -3 21 
-3 22 -3 22 -3 24 -3 22 -3 21 -3 19 -2 18 -2 14 
-2 13 -1 10 -1 7 0 3 0 -2 1 -6 2 -10 1 -12 
3 -15 2 -18 3 -19 3 -20 3 -22 4 -23 3 -24 3 -24 
3 -23 3 -20 2 -17 2 -13 1 -9 1 -3 -1 1 0 6 
-2 8 -1 11 -2 12 -2 13 -2 15 -2 18 -3 21 -4 25 
-3 26 -3 23 -3 19 -2 12 0 7 -1 4 0 3 -1 1 
1 -2 1 -7 2 -12 2 -19 4 -25 4 -28 4 -28 3 -25 
3 -21 3 -17 1 -13 2 -11 1 -9 1 -9 1 -6 0 -3 
0 2 -1 8 -3 15 -3 23 -4 28 -4 31 -5 30 -3 28 
-3 22 -3 19 -2 16 -2 14 -2 13 -1 11 -1 9 -1 4 
0 -2 2 -9 2 -16 4 -24 4 -28 4 -28 4 -26 3 -22 
3 -20 3 -20 2 -21 3 -22 3 -19 2 -16 2 -11 0 -4 
0 2 -2 9 -2 14 -3 17 -2 19 -4 21 -3 22 -3 24 
-3 24 -4 26 -4 28 -4 27 -3 26 -3 22 -2 18 -2 12 
-1 5 0 1 0 -1 1 -4 1 -8 2 -11 3 -17 3 -22 
4 -25 4 -28 4 -30 4 -30 4 -27 3 -24 3 -20 3 -18 
1 -14 2 -11 1 -9 1 -4 -1 6 -2 12 -3 17 -3 21 
-3 23 -3 23 -3 22 -3 20 -2 18 -3 18 -2 17 -2 14 
-2 14 -1 11 -2 9 0 7 -1 2 1 -3 1 -6 1 -11 
2 -13 2 -14 2 -13 2 -12 2 -13 1 -13 2 -15 3 -17 
2 -18 3 -21 3 -20 2 -16 1 -10 1 -3 -1 3 -1 8 
-2 11 -1 12 -2 13 -2 15 -3 18 -2 20 -4 25 -3 25 
-3 25 -3 20 -2 15 -1 8 0 1 0 -4 1 -8 2 -12 
3 -15 2 -17 3 -18 3 -20 3 -23 3 -25 4 -26 3 -25 
3 -23 3 -20 2 -15 1 -10 1 -2 -1 4 -2 10 -2 15 
-3 17 -2 18 -3 19 -3 21 -3 25 -4 28 -4 30 -4 30 
-4 27 -3 23 -2 17 -2 9 0 3 0 -1 1 -4 1 -8 
2 -10 2 -13 2 -16 2 -18 3 -18 3 -20 3 -22 3 -22 
3 -22 3 -22 3 -19 2 -15 1 -10 0 -4 0 2 -1 7 
-1 8 -2 11 -2 12 -2 13 -2 17 -3 20 -3 24 -4 29 
-4 29 -4 29 -3 25 -3 22 -2 15 -1 9 -1 3 0 -1 
1 -5 2 -9 1 -11 3 -16 3 -21 4 -26 5 -31 5 -34 
5 -35 4 -33 5 -31 3 -26 3 -21 2 -16 1 -8 0 -2 
0 4 -2 11 -2 15 3224 2703 300 MP stroke
-3 18 -3 20 -3 22 -3 24 -3 24 -4 24 -3 22 -2 20 
-3 18 -2 15 -1 12 -1 6 0 1 0 -4 1 -7 2 -9 
1 -9 1 -7 1 -5 0 -5 1 -5 1 -9 2 -11 2 -14 
2 -14 2 -14 1 -11 1 -9 2 -8 1 -8 1 -7 0 -8 
1 -7 1 -8 1 -7 1 -5 1 -3 0 -1 -1 4 -1 7 
-1 10 -2 10 -1 11 -2 11 -2 12 -2 15 -2 18 -3 20 
-2 19 -3 17 -2 15 -1 11 -1 8 -1 7 -1 6 -1 6 
-1 6 0 3 0 -1 1 -5 2 -9 2 -14 2 -16 3 -19 
4 -22 3 -24 4 -25 4 -25 3 -26 4 -25 3 -24 3 -25 
4 -24 2 -21 3 -17 1 -11 1 -3 -1 4 -2 11 -3 16 
-4 22 -4 26 -5 29 -5 33 -5 36 -6 39 -6 40 -5 37 
-4 31 -4 27 -3 24 -3 21 -2 19 -2 14 -1 8 0 1 
1 -6 2 -14 4 -18 3 -21 5 -24 4 -26 4 -28 5 -31 
5 -35 6 -40 6 -42 6 -42 6 -39 4 -34 4 -25 2 -16 
0 -7 0 1 -1 6 -2 12 -3 18 -4 24 -6 32 -6 38 
-7 46 -7 50 -8 53 -7 48 -5 40 -4 32 -3 25 -3 18 
-2 15 -1 9 0 1 1 -6 3 -14 4 -24 6 -33 6 -39 
8 -43 7 -46 6 -45 6 -39 5 -37 5 -35 5 -33 4 -31 
3 -26 3 -17 0 -4 -1 7 -3 16 -4 23 -5 29 -5 33 
-5 33 -5 33 -4 33 -5 31 -4 31 -4 30 -3 27 -4 26 
-3 22 -2 15 -1 7 0 -2 2 -10 2 -16 3 -18 3 -19 
2 -18 3 -16 2 -17 2 -17 3 -18 2 -17 2 -17 2 -13 
1 -10 1 -4 0 1 -1 5 -1 9 -2 11 -1 11 -2 13 
-2 12 -1 12 -1 9 -1 4 1 -4 1 -6 0 -5 1 -4 
0 -4 1 -8 2 -11 2 -15 2 -17 3 -18 2 -16 1 -11 
1 -4 -1 4 -1 10 -2 15 -3 16 -2 15 -1 12 -1 8 
-1 7 -1 9 -2 12 -2 17 -3 18 -2 17 -2 13 0 5 
0 -2 1 -8 2 -13 1 -12 2 -9 0 -4 0 1 -1 4 
0 2 1 -6 2 -13 2 -19 3 -19 2 -12 0 -2 -1 6 
-2 12 -1 13 -2 10 -1 5 1 0 0 -5 1 -7 1 -7 
1 -2 -1 4 -1 8 -1 8 -1 3 1 -6 3 -18 3 -27 
5 -32 4 -32 4 -24 1 -13 1 -4 -1 4 -1 7 -1 7 
0 3 -1 3 -1 11 -3 22 -5 32 -5 39 -5 38 -4 31 
-3 19 -1 5 1 -5 2 -12 2 -14 2 -11 1 -7 0 -4 
1 -4 1 -9 2 -15 3 -24 4 -29 4 -29 4 -25 2 -14 
0 -3 -1 8 -2 14 -4 21 -3 23 -3 22 -3 21 -3 19 
-2 15 -2 15 -2 17 -3 20 -3 23 -3 25 -4 25 -2 19 
-2 12 0 3 1 -6 3264 2388 300 MP stroke
3 -15 4 -23 4 -28 5 -29 4 -23 3 -18 2 -17 3 -19 
4 -26 5 -36 6 -44 6 -45 6 -40 3 -28 2 -10 -2 7 
-3 18 -5 26 -4 29 -5 28 -4 25 -3 24 -4 26 -4 30 
-5 38 -7 46 -6 47 -6 43 -4 31 -2 14 1 -4 3 -15 
4 -23 4 -26 4 -24 4 -24 4 -26 5 -31 5 -35 6 -38 
5 -41 6 -42 6 -39 4 -33 3 -21 1 -6 -2 8 -3 19 
-5 29 -5 33 -5 32 -4 28 -4 27 -3 26 -5 33 -5 37 
-5 38 -5 33 -3 25 -2 14 0 4 0 -2 1 -7 2 -10 
2 -13 2 -17 4 -23 3 -26 4 -26 3 -23 3 -18 2 -13 
1 -11 2 -14 3 -20 3 -22 2 -16 -3 18 -4 29 -4 28 
-3 22 -2 14 -1 8 -1 7 -1 11 -2 17 -4 23 -3 25 
-3 22 -2 14 0 1 2 -13 4 -26 4 -33 5 -32 3 -23 
1 -11 0 -3 1 -5 2 -12 2 -21 4 -25 3 -25 3 -16 
0 -3 -2 11 -3 24 -5 30 -4 29 -3 24 -3 17 -1 12 
-2 12 -1 13 -3 18 -3 22 -3 25 -3 22 -2 13 0 1 
2 -10 3 -19 4 -25 4 -28 5 -29 4 -29 4 -29 4 -28 
4 -28 4 -30 5 -31 4 -30 3 -23 1 -10 -1 5 -3 16 
-4 23 -4 27 -5 29 -4 29 -5 31 -5 34 -5 37 -5 38 
-5 40 -6 39 -5 36 -4 31 -3 24 -2 12 0 -1 3 -11 
5 -23 8 -35 8 -43 9 -46 9 -48 8 -48 7 -45 7 -44 
7 -47 7 -51 8 -56 8 -57 7 -49 4 -31 1 -7 -4 11 
-7 27 -9 36 -11 43 -9 46 -9 46 -9 49 -9 54 -10 61 
-9 66 -10 67 -10 68 -9 65 -7 55 -5 41 -3 23 -1 2 
4 -11 6 -21 7 -29 9 -34 8 -37 9 -41 11 -50 11 -60 
13 -70 13 -80 13 -84 12 -84 11 -76 8 -60 5 -40 3 -17 
-1 1 -3 8 -5 16 -6 21 -8 30 -9 37 -11 48 -13 60 
-14 76 -16 93 -16 102 -14 95 -10 76 -7 54 -5 33 -2 22 
-3 19 -2 18 -2 16 -2 11 1 -2 5 -18 10 -34 15 -50 
19 -67 20 -83 19 -88 16 -85 13 -76 10 -64 9 -57 8 -57 
9 -61 10 -68 9 -65 8 -53 4 -30 0 1 -8 15 -15 28 
-20 45 -21 58 -21 65 -18 68 -15 68 -13 68 -14 73 -14 85 
-14 93 -14 95 -11 88 -10 73 -7 54 -4 31 -1 8 3 -9 
7 -23 8 -30 10 -35 8 -38 9 -39 9 -42 11 -53 13 -67 
14 -78 14 -85 13 -85 11 -75 8 -63 7 -49 4 -30 1 -13 
-1 4 -3 14 -5 22 -6 30 -6 35 -8 40 -7 46 -9 56 
-10 65 -11 74 -9 70 -8 58 -6 41 -3 22 0 6 1 -5 
2 -11 3 -14 3 -17 4 -20 5 -28 7 -38 8 -52 10 -61 
10 -66 9 -63 8 -53 3212 2735 300 MP stroke
5 -42 4 -29 2 -18 2 -11 1 -8 1 -5 -2 8 -3 16 
-6 29 -7 41 -9 50 -9 54 -8 54 -7 49 -6 40 -4 30 
-3 25 -3 22 -4 24 -3 26 -4 26 -3 23 -2 17 -1 8 
0 -2 2 -13 3 -22 4 -26 3 -23 2 -14 0 -3 0 0 
1 -9 4 -22 6 -36 8 -47 8 -51 6 -43 4 -27 2 -13 
0 -5 1 -6 2 -16 4 -26 5 -34 4 -33 4 -24 1 -12 
0 2 -3 13 -4 24 -6 34 -7 41 -6 42 -6 36 -4 26 
-2 18 -2 15 -3 19 -4 29 -5 39 -6 42 -4 35 -4 23 
-1 10 1 -4 2 -14 4 -23 5 -28 5 -27 3 -21 2 -14 
2 -14 3 -19 4 -29 6 -40 6 -45 7 -45 5 -37 3 -26 
2 -14 0 -3 0 3 -2 7 -1 8 -2 10 -2 10 -1 11 
-2 12 -3 14 -3 19 -4 24 -5 33 -6 38 -6 41 -5 37 
-4 29 -3 21 -2 16 -2 15 -2 17 -3 22 -4 25 -3 26 
-3 23 -2 15 -1 3 2 -9 5 -21 6 -31 8 -41 9 -48 
9 -51 8 -50 8 -49 6 -45 7 -46 7 -47 6 -49 7 -47 
5 -37 2 -19 0 3 -5 20 -8 38 -10 51 -10 58 -9 55 
-7 47 -5 36 -4 24 -2 20 -4 26 -5 38 -7 49 -7 51 
-6 41 -3 24 -1 4 2 -15 5 -31 6 -39 4 -31 1 -8 
-2 17 -5 30 -3 27 -2 11 2 -10 6 -27 9 -45 11 -56 
10 -58 8 -45 4 -27 1 -9 1 -5 1 -12 5 -32 8 -52 
9 -67 10 -69 8 -56 4 -30 -6 16 -8 28 -11 36 -10 42 
-10 41 -9 43 -9 46 -9 53 -11 63 -12 76 -13 83 -12 84 
-10 78 -9 68 -7 54 -5 35 -1 12 3 -9 7 -21 10 -32 
11 -38 11 -40 10 -42 12 -50 14 -66 17 -83 18 -98 17 -104 
15 -99 13 -89 10 -74 7 -51 3 -27 1 -3 -3 7 -6 14 
-8 25 -12 36 -14 49 -17 63 -17 77 -17 90 -18 103 -18 110 
-15 106 -13 94 -10 78 -7 59 -5 37 -2 15 1 -2 4 -11 
7 -20 10 -30 13 -40 15 -53 18 -65 20 -79 20 -92 20 -101 
17 -102 15 -94 13 -85 11 -76 9 -64 6 -50 5 -33 2 -17 
1 -1 -4 9 -8 17 -10 27 -13 40 -15 50 -17 61 -17 75 
-17 86 -18 97 -17 106 -14 99 -12 80 -8 64 -6 50 -5 39 
-4 28 -3 21 -1 11 0 -1 3 -12 8 -24 11 -38 14 -52 
16 -62 16 -70 16 -77 15 -80 14 -82 12 -79 11 -72 9 -63 
7 -53 6 -43 4 -35 4 -28 3 -17 0 1 -5 14 -10 33 
-14 48 -17 59 -15 65 -13 65 -12 60 -10 55 -9 55 -8 53 
-8 51 -7 50 -7 52 -8 52 -7 54 -7 51 -5 43 -4 32 
-3 22 -2 14 -1 8 0 6 -1 8 -1 6 1 -5 7 -16 
13 -31 18 -46 20 -59 3263 2181 300 MP stroke
21 -64 19 -68 18 -73 18 -77 19 -91 19 -106 19 -114 19 -117 
16 -109 12 -88 9 -62 5 -38 2 -15 -1 2 -5 10 -8 17 
-12 22 -17 28 -20 36 -24 47 -27 62 -29 79 -28 95 -27 109 
-25 124 -22 131 -19 123 -14 105 -12 90 -10 73 -7 56 -5 40 
-3 23 0 2 6 -11 10 -19 12 -26 15 -36 19 -49 24 -63 
28 -84 31 -107 31 -131 30 -150 26 -148 21 -137 17 -115 11 -82 
8 -54 4 -32 2 -15 -4 7 -11 18 -19 28 -28 43 -36 65 
-41 90 -38 113 -34 128 -29 136 -22 131 -17 107 -12 87 -11 77 
-9 72 -9 66 -7 57 -6 43 -3 25 -1 4 5 -8 9 -14 
11 -19 11 -21 8 -19 8 -16 7 -19 9 -24 13 -31 17 -44 
20 -58 22 -70 22 -76 20 -81 17 -79 14 -68 11 -62 11 -63 
11 -70 14 -84 15 -99 14 -103 12 -80 7 -47 1 -7 -8 13 
-17 24 -22 38 -26 50 -24 61 -21 68 -19 67 -15 66 -14 67 
-16 81 -18 105 -18 117 -15 110 -13 88 -8 62 -5 44 -4 28 
-2 15 -1 9 1 -1 6 -15 12 -35 18 -50 22 -70 22 -91 
21 -96 18 -83 11 -67 10 -64 10 -62 12 -79 15 -99 15 -103 
11 -78 5 -34 -5 11 -18 37 -28 59 -34 83 -31 105 -26 105 
-19 90 -12 71 -7 44 -4 24 -5 32 -9 60 -12 87 -16 103 
-14 109 -12 89 -7 49 -1 13 8 -3 17 -22 17 -33 13 -23 
8 -17 8 -18 9 -26 14 -37 23 -60 29 -87 32 -110 33 -131 
32 -153 27 -149 21 -138 17 -116 13 -85 8 -62 6 -40 3 -25 
1 -10 -3 4 -7 9 -13 16 -19 23 -25 32 -28 40 -34 54 
-37 73 -39 100 -35 123 -29 135 -22 123 -14 89 -8 60 -6 43 
-6 41 -7 51 -9 68 -10 70 -7 52 -3 27 0 2 6 -12 
10 -22 12 -26 14 -34 14 -42 15 -45 14 -46 14 -55 16 -66 
18 -78 21 -103 21 -119 20 -118 19 -119 18 -119 13 -101 10 -67 
3 -24 -6 2 -17 11 -25 19 -32 24 -35 29 -33 36 -28 43 
-28 47 -26 49 -25 63 -28 85 -31 112 -31 151 -26 166 -19 134 
-11 75 -4 33 1 7 2 -15 -1 -4 -6 46 -13 91 -15 99 
-15 97 -12 96 -8 69 -3 24 5 1 16 4 17 -1 17 -20 
15 -21 16 1 21 -4 28 -40 35 -47 52 -43 72 -93 85 -166 
87 -197 83 -288 69 -380 43 -365 25 -179 11 -73 4 -18 2 -17 
3 -27 5 -28 7 -56 7 -81 4 -38 -5 21 -18 29 -30 50 
-31 118 -23 221 -32 194 -27 180 -15 97 1 -5 17 -84 23 -158 
13 -118 11 -87 2 -15 -12 75 -12 75 -6 39 3 -21 7 -61 
9 -70 9 -58 -6 17 -51 52 -98 44 -130 44 -145 41 -142 46 
-130 69 -122 85 -116 91 -115 133 -108 233 -85 293 -52 246 -29 184 
-17 129 -7 64 -3 24 4414 1572 300 MP stroke
-4 32 -7 56 -10 76 -7 65 -6 35 -1 8 10 5 31 -2 
51 -26 71 -26 92 -10 115 -23 123 -53 117 -67 102 -48 84 -35 
61 -52 50 -65 55 -67 65 -85 73 -138 75 -180 72 -236 61 -321 
41 -284 22 -160 4 -32 -15 21 -28 31 -22 34 -11 17 -4 8 
-7 17 -18 42 -32 72 -43 113 -43 161 -34 178 -21 127 -13 79 
-9 71 -10 75 -11 78 -12 81 -8 65 -3 19 7 -22 19 -14 
34 -53 41 -104 38 -98 32 -101 25 -100 18 -76 9 -41 6 -42 
10 -70 18 -103 28 -151 28 -190 19 -147 10 -76 2 -3 -22 41 
-48 44 -54 75 -43 133 -31 157 -19 119 -7 59 4 -16 7 -58 
4 -29 -1 15 -9 48 -20 101 -22 147 -17 125 -7 44 7 -26 
12 -81 6 -57 -5 39 -15 107 -21 135 -21 151 -15 111 -2 15 
24 -38 51 -76 59 -114 50 -146 36 -142 26 -98 22 -92 16 -102 
15 -101 20 -121 23 -160 18 -161 12 -152 8 -130 6 -67 1 -1 
-5 19 -8 65 -18 140 -47 53 -52 17 -51 11 -53 13 -59 14 
-73 10 -85 8 -99 14 -114 24 -133 21 -144 13 -138 16 -118 23 
-96 30 -84 29 -81 14 -87 9 -94 37 -109 46 -134 27 -156 35 
-156 18 -143 40 -117 53 -89 55 -70 70 -71 102 -81 100 -86 115 
-84 184 -75 243 -62 282 -48 260 -33 223 -22 171 -7 63 24 -4 
58 8 74 19 81 -5 83 -22 74 -17 69 5 87 12 134 -10 
183 -36 212 -24 213 9 213 -3 221 -51 220 -70 201 -26 175 36 
156 -43 141 -125 140 57 95 -13 92 -86 83 -113 74 -144 54 -207 
23 -545 122 -162 135 -52 135 -99 166 -27 207 -5 227 -50 222 -40 
185 -63 142 -162 98 -236 65 -281 47 -289 36 -254 25 -195 7 -54 
-33 0 -93 -4 -138 11 -164 19 -173 18 -173 2 -169 -2 -159 38 
-148 29 -134 -33 -105 -15 -87 12 -69 37 -54 66 -47 111 -23 202 
-18 188 -14 144 -8 81 -3 37 -4 56 -6 103 -7 234 -5 271 
-3 135 1 -45 3 -158 2 -83 -1 54 -3 171 -4 157 -1 30 
3 -115 4 -193 2 -91 -1 59 -4 166 -3 119 0 19 3 -114 
3 -161 1 -29 -3 129 -5 212 -5 102 1 -21 7 -190 5 -246 
3 -146 -1 19 -2 134 -1 39 1 -75 4 -182 6 -195 5 -85 
0 -6 -5 81 -5 168 -3 157 -2 54 2 -76 2 -78 -3 103 
-4 237 -6 223 -4 99 0 2 2 -53 2 -28 -3 51 -4 72 
-1 18 5 -81 6 -165 3 -151 2 -68 0 4 -1 16 1 -53 
3 -134 4 -191 4 -113 -1 13 -4 128 -3 143 -1 55 1 -44 
1 -56 -1 43 -2 129 -3 162 -3 126 -1 20 2 -85 2 -110 
1 -45 0 24 -1 38 0 -10 2 -75 2 -126 3 -117 0 -19 
-2 109 -3 134 -1 40 2 -64 1 -64 -1 27 -2 119 -3 145 
-2 76 1 -33 2 -104 3045 2621 300 MP stroke
2 -75 0 15 -2 73 -1 49 1 -31 2 -111 3 -126 1 -54 
-1 36 -2 84 -1 57 0 -2 2 -80 2 -113 1 -51 -1 45 
-2 117 -2 96 0 6 2 -93 2 -116 1 -37 -2 75 -2 109 
-1 47 1 -42 1 -80 1 -40 -1 43 -2 99 -1 70 0 -15 
2 -70 1 -54 0 -10 0 24 -1 30 0 10 0 -15 1 -40 
1 -51 0 -26 0 18 -1 38 0 22 0 -9 1 -32 0 -36 
0 20 -1 25 0 7 1 -14 0 -14 0 4 -1 26 0 34 
-1 25 0 -5 0 31 -1 8 1 -9 0 -40 1 -11 0 -22 
3041 2802 65 MP stroke
gr

c8
0 sg
2480  156 mt 
(Moment-curvature response at section A) s
3016  294 mt 
(force-based element) s
3312 4903 mt 
(Curvature) s
 446 2923 mt  -90 rotate
(Moment \(kN*M\)) s
90 rotate
 882 4658 mt 
( ) s
6239  431 mt 
( ) s
1 sg
0 188 999 0 0 -188 5196 4556 4 MP
PP
-999 0 0 188 999 0 0 -188 5196 4556 5 MP stroke
4 w
DO
SO
6 w
0 sg
5196 4556 mt 6195 4556 L
5196 4368 mt 6195 4368 L
5196 4556 mt 5196 4368 L
6195 4556 mt 6195 4368 L
5196 4556 mt 6195 4556 L
5196 4556 mt 5196 4368 L
5196 4556 mt 6195 4556 L
5196 4368 mt 6195 4368 L
5196 4556 mt 5196 4368 L
6195 4556 mt 6195 4368 L
5649 4505 mt 
(nonlinear) s
gs 5196 4368 1000 189 rc
c8
349 0 5265 4462 2 MP stroke
gr

c8

end %%Color Dict

eplot
%%EndObject

epage
end

showpage

%%Trailer
%%EOF
