%!PS-Adobe-3.0 EPSF-3.0
%%Creator: MATLAB, The Mathworks, Inc. Version 7.10.0.499 (R2010a). Operating System: Darwin 10.8.0 Darwin Kernel Version 10.8.0: Tue Jun  7 16:33:36 PDT 2011; root:xnu-1504.15.3~1/RELEASE_I386 i386.
%%Title: ./fig2d_mc_nonlinear_2.eps
%%CreationDate: 03/24/2012  11:55:08
%%DocumentNeededFonts: Helvetica
%%DocumentProcessColors: Cyan Magenta Yellow Black
%%LanguageLevel: 2
%%Pages: 1
%%BoundingBox:    49   199   553   614
%%EndComments

%%BeginProlog
% MathWorks dictionary
/MathWorks 160 dict begin
% definition operators
/bdef {bind def} bind def
/ldef {load def} bind def
/xdef {exch def} bdef
/xstore {exch store} bdef
% operator abbreviations
/c  /clip ldef
/cc /concat ldef
/cp /closepath ldef
/gr /grestore ldef
/gs /gsave ldef
/mt /moveto ldef
/np /newpath ldef
/cm /currentmatrix ldef
/sm /setmatrix ldef
/rm /rmoveto ldef
/rl /rlineto ldef
/s {show newpath} bdef
/sc {setcmykcolor} bdef
/sr /setrgbcolor ldef
/sg /setgray ldef
/w /setlinewidth ldef
/j /setlinejoin ldef
/cap /setlinecap ldef
/rc {rectclip} bdef
/rf {rectfill} bdef
% page state control
/pgsv () def
/bpage {/pgsv save def} bdef
/epage {pgsv restore} bdef
/bplot /gsave ldef
/eplot {stroke grestore} bdef
% orientation switch
/portraitMode 0 def /landscapeMode 1 def /rotateMode 2 def
% coordinate system mappings
/dpi2point 0 def
% font control
/FontSize 0 def
/FMS {/FontSize xstore findfont [FontSize 0 0 FontSize neg 0 0]
  makefont setfont} bdef
/reencode {exch dup where {pop load} {pop StandardEncoding} ifelse
  exch dup 3 1 roll findfont dup length dict begin
  { 1 index /FID ne {def}{pop pop} ifelse } forall
  /Encoding exch def currentdict end definefont pop} bdef
/isroman {findfont /CharStrings get /Agrave known} bdef
/FMSR {3 1 roll 1 index dup isroman {reencode} {pop pop} ifelse
  exch FMS} bdef
/csm {1 dpi2point div -1 dpi2point div scale neg translate
 dup landscapeMode eq {pop -90 rotate}
  {rotateMode eq {90 rotate} if} ifelse} bdef
% line types: solid, dotted, dashed, dotdash
/SO { [] 0 setdash } bdef
/DO { [.5 dpi2point mul 4 dpi2point mul] 0 setdash } bdef
/DA { [6 dpi2point mul] 0 setdash } bdef
/DD { [.5 dpi2point mul 4 dpi2point mul 6 dpi2point mul 4
  dpi2point mul] 0 setdash } bdef
% macros for lines and objects
/L {lineto stroke} bdef
/MP {3 1 roll moveto 1 sub {rlineto} repeat} bdef
/AP {{rlineto} repeat} bdef
/PDlw -1 def
/W {/PDlw currentlinewidth def setlinewidth} def
/PP {closepath eofill} bdef
/DP {closepath stroke} bdef
/MR {4 -2 roll moveto dup  0 exch rlineto exch 0 rlineto
  neg 0 exch rlineto closepath} bdef
/FR {MR stroke} bdef
/PR {MR fill} bdef
/L1i {{currentfile picstr readhexstring pop} image} bdef
/tMatrix matrix def
/MakeOval {newpath tMatrix currentmatrix pop translate scale
0 0 1 0 360 arc tMatrix setmatrix} bdef
/FO {MakeOval stroke} bdef
/PO {MakeOval fill} bdef
/PD {currentlinewidth 2 div 0 360 arc fill
   PDlw -1 eq not {PDlw w /PDlw -1 def} if} def
/FA {newpath tMatrix currentmatrix pop translate scale
  0 0 1 5 -2 roll arc tMatrix setmatrix stroke} bdef
/PA {newpath tMatrix currentmatrix pop	translate 0 0 moveto scale
  0 0 1 5 -2 roll arc closepath tMatrix setmatrix fill} bdef
/FAn {newpath tMatrix currentmatrix pop translate scale
  0 0 1 5 -2 roll arcn tMatrix setmatrix stroke} bdef
/PAn {newpath tMatrix currentmatrix pop translate 0 0 moveto scale
  0 0 1 5 -2 roll arcn closepath tMatrix setmatrix fill} bdef
/vradius 0 def /hradius 0 def /lry 0 def
/lrx 0 def /uly 0 def /ulx 0 def /rad 0 def
/MRR {/vradius xdef /hradius xdef /lry xdef /lrx xdef /uly xdef
  /ulx xdef newpath tMatrix currentmatrix pop ulx hradius add uly
  vradius add translate hradius vradius scale 0 0 1 180 270 arc 
  tMatrix setmatrix lrx hradius sub uly vradius add translate
  hradius vradius scale 0 0 1 270 360 arc tMatrix setmatrix
  lrx hradius sub lry vradius sub translate hradius vradius scale
  0 0 1 0 90 arc tMatrix setmatrix ulx hradius add lry vradius sub
  translate hradius vradius scale 0 0 1 90 180 arc tMatrix setmatrix
  closepath} bdef
/FRR {MRR stroke } bdef
/PRR {MRR fill } bdef
/MlrRR {/lry xdef /lrx xdef /uly xdef /ulx xdef /rad lry uly sub 2 div def
  newpath tMatrix currentmatrix pop ulx rad add uly rad add translate
  rad rad scale 0 0 1 90 270 arc tMatrix setmatrix lrx rad sub lry rad
  sub translate rad rad scale 0 0 1 270 90 arc tMatrix setmatrix
  closepath} bdef
/FlrRR {MlrRR stroke } bdef
/PlrRR {MlrRR fill } bdef
/MtbRR {/lry xdef /lrx xdef /uly xdef /ulx xdef /rad lrx ulx sub 2 div def
  newpath tMatrix currentmatrix pop ulx rad add uly rad add translate
  rad rad scale 0 0 1 180 360 arc tMatrix setmatrix lrx rad sub lry rad
  sub translate rad rad scale 0 0 1 0 180 arc tMatrix setmatrix
  closepath} bdef
/FtbRR {MtbRR stroke } bdef
/PtbRR {MtbRR fill } bdef
/stri 6 array def /dtri 6 array def
/smat 6 array def /dmat 6 array def
/tmat1 6 array def /tmat2 6 array def /dif 3 array def
/asub {/ind2 exch def /ind1 exch def dup dup
  ind1 get exch ind2 get sub exch } bdef
/tri_to_matrix {
  2 0 asub 3 1 asub 4 0 asub 5 1 asub
  dup 0 get exch 1 get 7 -1 roll astore } bdef
/compute_transform {
  dmat dtri tri_to_matrix tmat1 invertmatrix 
  smat stri tri_to_matrix tmat2 concatmatrix } bdef
/ds {stri astore pop} bdef
/dt {dtri astore pop} bdef
/db {2 copy /cols xdef /rows xdef mul dup 3 mul string
  currentfile 
  3 index 0 eq {/ASCIIHexDecode filter}
  {/ASCII85Decode filter 3 index 2 eq {/RunLengthDecode filter} if }
  ifelse exch readstring pop
  dup 0 3 index getinterval /rbmap xdef
  dup 2 index dup getinterval /gbmap xdef
  1 index dup 2 mul exch getinterval /bbmap xdef pop pop}bdef
/it {gs np dtri aload pop moveto lineto lineto cp c
  cols rows 8 compute_transform 
  rbmap gbmap bbmap true 3 colorimage gr}bdef
/il {newpath moveto lineto stroke}bdef
currentdict end def
%%EndProlog

%%BeginSetup
MathWorks begin

0 cap

end
%%EndSetup

%%Page: 1 1
%%BeginPageSetup
%%PageBoundingBox:    49   199   553   614
MathWorks begin
bpage
%%EndPageSetup

%%BeginObject: obj1
bplot

/dpi2point 12 def
portraitMode 0216 7344 csm

  376   -28  6045  4983 rc
85 dict begin %Colortable dictionary
/c0 { 0.000000 0.000000 0.000000 sr} bdef
/c1 { 1.000000 1.000000 1.000000 sr} bdef
/c2 { 0.900000 0.000000 0.000000 sr} bdef
/c3 { 0.000000 0.820000 0.000000 sr} bdef
/c4 { 0.000000 0.000000 0.800000 sr} bdef
/c5 { 0.910000 0.820000 0.320000 sr} bdef
/c6 { 1.000000 0.260000 0.820000 sr} bdef
/c7 { 0.000000 0.820000 0.820000 sr} bdef
c0
1 j
1 sg
   0    0 6913 5186 rf
6 w
0 4226 5356 0 0 -4226 899 4615 4 MP
PP
-5356 0 0 4226 5356 0 0 -4226 899 4615 5 MP stroke
4 w
DO
0 sg
 899 4615 mt  899  389 L
 899  389 mt  899  389 L
1494 4615 mt 1494  389 L
1494  389 mt 1494  389 L
2089 4615 mt 2089  389 L
2089  389 mt 2089  389 L
2684 4615 mt 2684  389 L
2684  389 mt 2684  389 L
3279 4615 mt 3279  389 L
3279  389 mt 3279  389 L
3874 4615 mt 3874  389 L
3874  389 mt 3874  389 L
4469 4615 mt 4469  389 L
4469  389 mt 4469  389 L
5064 4615 mt 5064  389 L
5064  389 mt 5064  389 L
5659 4615 mt 5659  389 L
5659  389 mt 5659  389 L
6255 4615 mt 6255  389 L
6255  389 mt 6255  389 L
 899 4615 mt 6255 4615 L
6255 4615 mt 6255 4615 L
 899 4086 mt 6255 4086 L
6255 4086 mt 6255 4086 L
 899 3558 mt 6255 3558 L
6255 3558 mt 6255 3558 L
 899 3030 mt 6255 3030 L
6255 3030 mt 6255 3030 L
 899 2502 mt 6255 2502 L
6255 2502 mt 6255 2502 L
 899 1973 mt 6255 1973 L
6255 1973 mt 6255 1973 L
 899 1445 mt 6255 1445 L
6255 1445 mt 6255 1445 L
 899  917 mt 6255  917 L
6255  917 mt 6255  917 L
 899  389 mt 6255  389 L
6255  389 mt 6255  389 L
SO
6 w
 899 4615 mt 6255 4615 L
 899 4615 mt  899  389 L
 899 4615 mt  899 4561 L
%%IncludeResource: font Helvetica
/Helvetica /ISOLatin1Encoding 120 FMSR

 746 4760 mt 
(-0.1) s
1494 4615 mt 1494 4561 L
1308 4760 mt 
(-0.08) s
2089 4615 mt 2089 4561 L
1903 4760 mt 
(-0.06) s
2684 4615 mt 2684 4561 L
2498 4760 mt 
(-0.04) s
3279 4615 mt 3279 4561 L
3093 4760 mt 
(-0.02) s
3874 4615 mt 3874 4561 L
3841 4760 mt 
(0) s
4469 4615 mt 4469 4561 L
4353 4760 mt 
(0.02) s
5064 4615 mt 5064 4561 L
4948 4760 mt 
(0.04) s
5659 4615 mt 5659 4561 L
5543 4760 mt 
(0.06) s
6255 4615 mt 6255 4561 L
6139 4760 mt 
(0.08) s
 899 4615 mt  952 4615 L
 594 4659 mt 
(-800) s
 899 4086 mt  952 4086 L
 594 4130 mt 
(-600) s
 899 3558 mt  952 3558 L
 594 3602 mt 
(-400) s
 899 3030 mt  952 3030 L
 594 3074 mt 
(-200) s
 899 2502 mt  952 2502 L
 798 2546 mt 
(0) s
 899 1973 mt  952 1973 L
 664 2017 mt 
(200) s
 899 1445 mt  952 1445 L
 664 1489 mt 
(400) s
 899  917 mt  952  917 L
 664  961 mt 
(600) s
 899  389 mt  952  389 L
 664  433 mt 
(800) s
gs 899 389 5357 4227 rc
/c8 { 1.000000 0.000000 0.000000 sr} bdef
c8
0 -4 0 0 0 3 -1 1 1 0 0 -4 1 -1 -1 1 
0 4 0 0 0 -4 1 -1 0 -1 0 1 -1 1 0 3 
-1 1 0 2 0 -1 1 -1 0 -4 1 -1 0 -2 0 2 
-1 1 0 4 -1 1 0 2 0 -2 1 -1 0 -4 1 -1 
0 -3 0 3 -1 1 0 4 -1 1 0 3 0 -3 1 -1 
0 -4 1 -1 0 -4 0 0 0 5 -1 1 0 3 -1 1 
0 4 0 0 0 -4 1 -1 0 -4 1 -1 0 -3 1 -1 
0 -2 0 1 -1 1 0 3 -1 2 0 4 -1 1 0 3 
-1 2 0 2 0 -2 1 -2 0 -3 1 -2 0 -2 1 -2 
0 -4 1 -1 0 -3 1 -1 -1 1 0 3 -1 2 0 2 
-1 3 0 2 -1 2 0 2 -1 2 0 3 -1 1 0 1 
0 -1 1 -1 0 -3 1 -2 0 -2 1 -3 1 -3 0 -2 
1 -2 0 -4 1 -2 0 -2 0 3 -1 1 0 3 -1 2 
0 3 -1 3 -1 2 0 3 -1 3 0 2 -1 2 0 3 
0 -3 1 -2 0 -2 1 -3 1 -3 0 -3 1 -3 1 -4 
0 -2 1 -3 0 -2 1 -2 0 -2 0 2 -1 2 0 3 
-1 3 -1 3 0 3 -1 4 -1 4 -1 3 0 3 -1 3 
-1 2 0 3 0 -2 1 -3 0 -2 1 -3 1 -4 1 -4 
1 -4 1 -4 0 -4 1 -4 1 -3 0 -2 1 -2 0 -2 
0 2 -1 2 0 3 -1 3 -1 4 -1 4 -1 5 -1 4 
-1 5 -1 4 0 3 -1 4 -1 2 0 3 0 -2 1 -2 
0 -3 1 -4 1 -4 1 -5 1 -5 1 -5 1 -5 1 -5 
1 -4 1 -4 1 -3 0 -2 1 -1 -1 1 0 2 -1 3 
-1 3 -1 5 -1 5 -1 6 -1 6 -1 5 -2 6 -1 5 
-1 4 0 3 -1 3 0 2 -1 1 1 -2 1 -3 0 -4 
1 -5 2 -5 1 -6 1 -6 2 -6 1 -6 1 -6 1 -5 
1 -5 1 -3 0 -2 1 -1 -1 1 0 3 -1 4 -1 6 
-2 6 -1 6 -2 7 -1 7 -2 7 -1 6 -1 6 -1 5 
-1 5 -1 3 -1 2 0 1 0 -1 1 -3 1 -4 1 -5 
1 -5 2 -7 1 -7 2 -8 2 -8 2 -8 1 -8 2 -8 
1 -6 2 -6 0 -4 1 -2 0 1 -1 3 -1 4 -1 6 
-2 6 -1 8 -2 8 -2 9 -2 8 -2 9 -1 8 -2 7 
-1 5 -1 4 -1 4 0 2 0 -1 1 -3 0 -3 1 -4 
2 -6 1 -7 2 -8 2 -9 2 -10 2 -10 2 -10 2 -8 
2 -7 1 -6 1 -4 0 -2 0 1 -1 3 -1 5 -1 6 
-2 8 -2 10 -2 10 -2 10 -3 11 -2 9 -2 9 -1 7 
-2 6 -1 4 0 4 0 -2 1 -5 2 -6 1 -8 2 -9 
3 -12 3 -13 3 -14 3650 2461 300 MP stroke
3 -14 3 -13 2 -12 3 -9 1 -9 2 -6 1 -5 0 -3 
0 3 -2 6 -2 9 -2 11 -3 13 -3 16 -4 15 -3 16 
-4 15 -3 14 -3 14 -3 13 -2 11 -3 11 -2 9 -1 7 
-1 4 0 1 0 -2 1 -3 1 -6 2 -7 2 -10 3 -10 
2 -13 3 -13 4 -16 4 -16 4 -18 3 -18 4 -17 4 -15 
3 -14 2 -11 2 -10 2 -7 1 -5 0 -1 0 1 -1 4 
-2 7 -2 9 -3 12 -3 14 -3 16 -4 18 -4 18 -4 19 
-4 18 -4 16 -3 14 -3 13 -2 11 -2 8 -1 6 -1 2 
1 -3 1 -6 2 -8 2 -9 2 -10 3 -12 3 -12 3 -14 
3 -16 4 -17 4 -16 3 -14 2 -12 2 -8 1 -6 1 -4 
1 -2 -1 1 0 3 -1 5 -2 8 -3 12 -3 15 -4 16 
-4 18 -4 17 -3 16 -3 15 -3 13 -3 12 -2 11 -2 8 
-2 7 0 3 1 -4 2 -8 2 -12 4 -15 3 -17 5 -19 
4 -20 5 -20 4 -19 4 -18 3 -16 3 -14 3 -11 1 -8 
1 -4 -1 4 -2 9 -3 13 -3 17 -5 20 -4 20 -5 20 
-4 18 -4 17 -3 16 -4 16 -3 14 -2 12 -2 9 -1 5 
-1 1 1 -2 1 -6 2 -8 3 -11 3 -12 3 -14 3 -15 
4 -17 4 -18 4 -20 5 -22 5 -21 4 -19 4 -18 3 -14 
2 -11 2 -6 0 -2 0 1 -1 4 -2 7 -2 11 -4 16 
-4 18 -5 21 -5 23 -5 23 -5 21 -4 18 -3 17 -3 14 
-3 13 -2 9 -2 7 -1 5 0 2 0 -2 1 -5 2 -7 
3 -11 2 -13 4 -15 3 -15 4 -15 3 -17 4 -16 3 -16 
3 -14 3 -13 2 -9 1 -6 1 -4 1 -2 0 1 -1 3 
-1 4 -2 7 -1 7 -2 9 -2 10 -3 9 -2 11 -2 12 
-3 12 -3 13 -3 13 -3 12 -2 12 -2 10 -2 7 -1 4 
1 -3 1 -6 2 -8 2 -11 3 -12 4 -15 4 -18 4 -19 
4 -20 4 -18 3 -15 3 -10 1 -7 1 -2 -1 2 -1 6 
-2 10 -3 12 -4 16 -4 17 -4 18 -4 18 -4 18 -3 17 
-4 15 -3 14 -2 12 -3 10 -1 6 -1 3 1 -1 1 -5 
2 -8 2 -12 3 -13 4 -15 4 -18 4 -19 5 -22 5 -23 
5 -23 5 -20 3 -16 3 -12 1 -8 1 -3 0 3 -2 6 
-2 9 -3 13 -3 14 -4 16 -3 17 -4 16 -4 17 -3 15 
-3 14 -3 13 -2 11 -2 8 -2 7 0 4 -1 0 1 -2 
1 -4 1 -6 2 -9 3 -11 3 -13 3 -16 5 -19 4 -22 
5 -22 5 -20 4 -20 4 -16 3 -13 2 -9 1 -6 0 -2 
0 3 -2 6 -2 11 -4 16 -5 20 -5 24 -6 26 -6 27 
-6 26 -5 22 -4 21 -4 17 -3 14 -2 11 -2 6 0 1 
1 -3 1 -7 3 -11 3675 2348 300 MP stroke
3 -13 3 -16 4 -17 4 -18 4 -18 4 -18 4 -17 3 -15 
3 -12 2 -9 1 -7 1 -3 -1 2 -1 4 -1 6 -1 6 
-2 7 -1 7 -2 6 -1 7 -2 7 -1 8 -2 8 -2 7 
-1 7 -2 7 -1 6 -1 5 -2 7 -1 6 -1 6 -2 6 
-1 5 -1 4 0 3 -1 2 0 -1 1 -2 1 -5 1 -5 
2 -7 1 -7 2 -8 2 -8 2 -11 3 -12 3 -13 3 -13 
3 -13 2 -13 3 -10 2 -9 1 -7 1 -6 1 -5 1 -2 
-1 2 -1 5 -2 8 -2 10 -2 11 -4 14 -3 15 -4 17 
-4 19 -4 18 -4 18 -4 18 -4 19 -4 18 -4 16 -3 14 
-2 11 -2 7 0 2 0 -2 2 -7 3 -12 4 -15 4 -19 
5 -20 5 -23 6 -26 7 -29 7 -31 6 -30 6 -27 5 -24 
5 -18 3 -15 2 -11 2 -7 1 -4 -1 1 -1 5 -2 8 
-3 12 -3 15 -5 18 -5 22 -6 25 -6 27 -7 30 -6 29 
-6 28 -7 28 -5 26 -5 23 -4 18 -3 13 -2 7 0 1 
1 -4 2 -9 4 -16 5 -20 6 -25 7 -28 7 -31 8 -35 
9 -39 8 -37 8 -33 6 -27 4 -21 4 -16 2 -11 1 -5 
-2 6 -3 13 -4 19 -6 25 -8 33 -9 37 -9 39 -8 35 
-6 31 -7 27 -5 25 -5 23 -4 19 -3 14 -2 8 0 1 
1 -5 2 -11 4 -14 4 -19 6 -22 5 -23 5 -23 6 -25 
6 -27 6 -27 6 -26 4 -22 4 -19 3 -14 2 -8 1 -3 
-1 3 -1 8 -3 11 -3 14 -4 16 -3 15 -4 17 -3 16 
-4 15 -3 14 -2 12 -3 10 -1 7 -1 5 0 1 0 -1 
1 -3 1 -5 1 -7 2 -8 2 -8 2 -9 2 -10 2 -8 
1 -7 1 -3 -1 3 -1 5 -2 7 -1 8 -2 10 -3 11 
-2 11 -3 11 -2 9 -1 7 -1 5 -1 2 0 -1 1 -4 
2 -6 2 -9 2 -10 2 -9 2 -10 2 -10 3 -11 2 -12 
3 -11 2 -10 2 -8 1 -6 0 -2 0 1 -1 4 -1 6 
-1 6 -2 6 -1 4 0 4 -1 2 -1 4 -1 5 -1 7 
-2 8 -2 8 -1 5 0 2 0 -3 1 -3 1 -4 1 -3 
0 -4 1 -3 1 -2 0 -3 1 -2 0 -2 0 1 -1 4 
-2 9 -3 12 -3 14 -3 16 -4 14 -2 14 -3 11 -2 7 
-1 5 0 3 0 -2 1 -3 1 -7 3 -10 3 -14 4 -17 
4 -20 5 -21 4 -21 4 -18 3 -14 2 -8 1 -3 0 1 
-1 4 -2 6 -2 10 -2 11 -3 14 -4 14 -3 17 -4 16 
-3 16 -3 14 -3 10 -1 5 0 1 1 -2 1 -6 2 -8 
2 -11 3 -13 4 -15 3 -17 5 -18 4 -20 4 -20 5 -19 
3 -17 3 -15 3 -11 2 -8 1 -4 0 -1 -1 2 -1 6 
-3 11 -3 13 -4 18 3637 2517 300 MP stroke
-5 20 -5 23 -5 23 -6 24 -5 24 -6 26 -5 26 -6 25 
-4 21 -3 14 -2 6 0 -1 2 -7 3 -13 4 -16 5 -19 
4 -20 6 -23 6 -26 6 -29 8 -34 7 -34 7 -32 6 -27 
4 -18 2 -8 0 -1 -1 6 -3 11 -4 16 -5 21 -6 27 
-7 30 -7 32 -8 33 -6 29 -6 28 -6 25 -5 22 -4 18 
-2 11 -1 3 1 -4 3 -10 3 -15 5 -20 5 -22 5 -22 
5 -23 6 -26 7 -30 7 -32 6 -29 6 -24 3 -16 2 -8 
0 -1 -1 3 -1 8 -3 10 -2 12 -4 16 -4 17 -4 21 
-5 19 -4 18 -3 14 -2 12 -2 10 -3 9 -2 11 -2 10 
-1 6 1 -7 3 -12 3 -14 3 -13 3 -14 3 -13 3 -16 
4 -16 4 -18 3 -16 3 -13 2 -9 1 -5 0 2 -2 9 
-3 15 -4 18 -5 19 -4 18 -3 15 -2 11 -3 10 -2 9 
-2 9 -2 10 -1 8 -2 5 0 3 0 -2 1 -5 2 -7 
2 -10 3 -10 2 -11 3 -12 3 -13 4 -18 4 -20 5 -24 
6 -24 4 -21 3 -15 2 -7 0 2 -3 10 -4 17 -5 23 
-6 25 -6 27 -6 27 -5 23 -5 22 -4 19 -4 18 -4 16 
-3 16 -3 11 -1 6 1 -5 3 -11 4 -15 4 -17 5 -21 
5 -25 7 -29 8 -35 9 -38 8 -37 7 -33 6 -24 4 -18 
2 -12 1 -6 0 1 -2 8 -4 15 -6 22 -7 31 -10 39 
-11 44 -10 45 -10 41 -9 38 -8 38 -8 38 -8 35 -7 31 
-5 24 -4 15 -1 4 2 -6 5 -14 6 -22 8 -28 8 -32 
10 -36 10 -41 12 -47 12 -52 14 -60 14 -59 10 -47 9 -40 
8 -34 5 -26 4 -16 1 -5 -1 4 -4 13 -6 21 -8 27 
-9 33 -11 42 -14 52 -15 61 -15 62 -13 57 -13 56 -12 55 
-11 48 -8 37 -6 27 -3 16 -1 4 2 -5 3 -13 6 -18 
9 -27 10 -35 12 -42 13 -47 14 -55 15 -60 17 -69 16 -71 
13 -57 10 -45 9 -40 7 -33 5 -23 3 -14 2 -6 -2 5 
-5 16 -8 25 -10 32 -13 42 -14 51 -17 61 -18 71 -17 67 
-15 61 -13 58 -13 54 -11 49 -10 47 -9 42 -8 34 -5 25 
-2 10 1 -5 6 -14 9 -26 13 -35 15 -45 15 -49 16 -53 
16 -57 16 -61 18 -68 20 -82 18 -77 14 -63 13 -58 10 -48 
8 -36 5 -21 1 -6 -2 6 -4 14 -8 24 -9 31 -10 37 
-12 40 -11 44 -13 50 -15 61 -16 66 -14 60 -12 51 -10 49 
-9 41 -8 32 -5 24 -3 13 0 2 2 -7 4 -16 6 -24 
9 -32 9 -37 10 -42 11 -46 11 -49 13 -54 11 -50 8 -39 
6 -26 4 -16 1 -8 -1 5 -3 12 -4 15 -6 22 -7 30 
-9 38 -10 44 -11 45 -9 42 -9 39 -8 37 -7 32 -5 24 
-4 16 -2 11 -2 6 3694 2213 300 MP stroke
2 -6 3 -11 4 -18 6 -24 8 -29 7 -32 8 -32 7 -32 
7 -31 7 -31 7 -29 6 -27 6 -25 4 -22 4 -19 3 -13 
3 -11 1 -6 0 -2 0 2 -1 6 -3 9 -3 13 -3 13 
-3 12 -3 12 -2 9 -2 10 -3 12 -4 15 -4 21 -6 23 
-5 23 -5 21 -4 20 -4 18 -4 18 -4 17 -4 18 -4 20 
-4 18 -3 13 -1 6 1 -6 2 -9 3 -12 4 -16 5 -20 
5 -21 5 -22 5 -20 4 -21 5 -22 6 -27 7 -30 6 -28 
5 -24 4 -18 2 -9 1 -3 -1 2 -2 8 -3 13 -3 16 
-5 18 -4 19 -4 19 -5 19 -5 22 -5 24 -5 24 -6 26 
-5 23 -5 21 -3 16 -3 12 -1 7 -1 3 0 -1 1 -4 
2 -7 3 -11 3 -14 4 -15 4 -17 4 -17 4 -17 4 -17 
4 -17 4 -19 5 -19 4 -18 4 -17 4 -19 4 -20 5 -23 
5 -23 5 -21 4 -17 3 -14 1 -8 1 -1 -2 6 -3 13 
-6 21 -7 29 -9 39 -11 46 -12 47 -9 42 -9 40 -8 37 
-8 36 -8 33 -5 26 -4 17 -2 7 1 -4 4 -14 6 -24 
8 -32 10 -38 9 -37 8 -38 8 -35 8 -34 8 -34 6 -28 
5 -25 5 -20 3 -16 3 -12 2 -8 0 -1 -1 2 -1 6 
-2 7 -1 5 -1 3 0 2 -2 5 -2 12 -5 17 -5 22 
-5 22 -6 23 -5 23 -6 24 -6 25 -5 25 -6 26 -7 32 
-9 37 -8 37 -7 32 -5 23 -2 11 0 1 2 -8 4 -13 
6 -18 7 -25 8 -28 9 -33 11 -39 12 -48 14 -55 17 -69 
16 -70 13 -57 12 -53 11 -50 9 -40 6 -27 3 -14 -5 13 
-8 26 -11 34 -12 42 -15 49 -15 56 -18 69 -21 81 -17 73 
-16 67 -14 64 -13 55 -9 45 -8 34 -5 22 -1 8 0 -2 
4 -10 7 -20 11 -32 14 -43 16 -51 18 -63 19 -70 20 -75 
22 -90 19 -80 16 -70 14 -67 12 -54 9 -37 4 -20 1 -3 
-5 11 -9 26 -13 38 -16 48 -18 59 -20 67 -21 75 -22 88 
-19 78 -17 68 -14 64 -13 56 -11 50 -9 41 -7 32 -5 23 
-3 14 -1 3 3 -7 6 -16 8 -23 11 -33 14 -43 16 -51 
16 -56 18 -66 18 -70 19 -78 20 -83 15 -67 12 -55 11 -47 
8 -36 5 -23 2 -10 -4 10 -6 20 -9 29 -10 35 -12 40 
-13 47 -15 55 -17 65 -17 69 -14 62 -15 63 -13 60 -12 53 
-10 43 -7 32 -5 22 -2 13 3 -10 7 -19 10 -30 12 -38 
13 -42 13 -43 12 -43 12 -41 10 -39 10 -39 11 -43 11 -45 
10 -43 9 -39 8 -34 7 -34 8 -34 7 -33 6 -29 6 -24 
4 -22 4 -16 2 -10 2 -7 0 -1 -3 8 -8 20 -11 30 
-15 40 -17 51 -19 60 -21 68 -23 82 -22 81 -19 75 -19 79 
-19 80 -17 76 -16 68 3756 2016 300 MP stroke
-12 57 -10 44 -7 32 -4 17 -1 5 3 -5 8 -14 13 -22 
16 -31 19 -41 23 -52 25 -61 26 -70 26 -77 25 -84 24 -83 
24 -92 24 -95 18 -77 18 -77 15 -70 13 -58 10 -45 6 -27 
1 -5 -5 11 -11 23 -16 36 -20 48 -23 60 -25 72 -27 81 
-31 103 -31 114 -27 103 -25 102 -22 97 -20 87 -15 70 -12 54 
-9 39 -4 19 1 -1 9 -14 16 -26 22 -42 30 -58 33 -75 
34 -89 33 -96 30 -98 25 -92 26 -98 21 -85 16 -69 15 -67 
13 -60 12 -51 9 -42 6 -29 4 -16 1 -4 -2 4 -6 13 
-7 18 -10 22 -10 24 -10 28 -12 30 -11 32 -13 37 -14 41 
-14 45 -15 48 -17 61 -20 72 -18 70 -17 68 -17 69 -15 62 
-13 60 -14 61 -13 59 -12 52 -8 38 -5 23 -1 6 2 -5 
8 -18 14 -30 16 -40 19 -48 20 -56 21 -66 22 -72 22 -83 
22 -85 22 -88 19 -83 13 -60 10 -44 7 -30 4 -21 3 -13 
3 -11 2 -10 2 -11 -4 13 -9 28 -15 46 -20 66 -25 88 
-28 110 -25 99 -20 86 -17 75 -15 70 -14 61 -10 46 -4 18 
6 -12 14 -33 19 -45 20 -52 20 -58 20 -61 18 -61 16 -55 
14 -49 11 -44 14 -53 14 -55 12 -50 12 -53 12 -55 12 -53 
12 -52 9 -43 6 -26 3 -16 3 -10 -1 2 -7 14 -10 23 
-14 33 -22 54 -28 74 -29 83 -33 105 -34 118 -27 103 -25 100 
-22 92 -19 81 -16 71 -14 61 -12 52 -9 43 -7 33 -5 22 
-1 7 3 -5 9 -12 15 -22 21 -34 26 -46 28 -56 29 -66 
31 -80 30 -89 28 -91 24 -90 21 -81 18 -76 17 -71 11 -50 
8 -37 7 -32 7 -31 6 -25 3 -17 2 -9 1 -4 0 1 
-2 5 -4 12 -9 25 -13 39 -16 51 -20 68 -28 98 -25 94 
-23 95 -22 93 -20 86 -18 78 -14 64 -11 53 -8 34 -3 13 
2 -3 8 -12 14 -22 22 -34 25 -44 25 -49 26 -57 29 -67 
28 -75 28 -81 27 -83 23 -79 23 -83 19 -75 15 -61 12 -46 
8 -35 6 -27 3 -13 3 -10 7 -29 12 -46 11 -49 12 -50 
15 -64 17 -75 13 -59 10 -46 12 -55 11 -47 1 -6 -16 11 
-29 20 -37 27 -53 44 -73 71 -82 97 -78 114 -75 135 -81 182 
-79 224 -60 197 -52 197 -41 166 -30 129 -23 104 -18 81 -12 54 
-7 34 -4 19 5 0 23 -11 39 -24 42 -38 37 -45 37 -64 
37 -93 32 -105 25 -99 16 -71 8 -33 2 -10 2 -11 -4 16 
-11 48 -16 66 -14 62 -11 49 -16 72 -17 76 -14 62 -8 36 
12 4 45 -12 87 -26 120 -41 133 -59 130 -74 125 -94 115 -117 
99 -131 80 -138 74 -156 69 -179 56 -170 53 -182 42 -164 32 -132 
26 -110 21 -95 18 -81 14 -61 8 -37 3 -14 -10 2 -23 5 
-36 7 -41 9 -49 12 2614 3572 300 MP stroke
-55 14 -65 19 -70 23 -78 31 -88 42 -92 55 -88 67 -85 85 
-85 109 -78 134 -70 152 -61 166 -59 193 -54 204 -40 166 -26 116 
-20 91 -15 66 -4 19 3 -13 3 -14 3 -4 8 -16 21 -41 
31 -68 38 -98 44 -131 44 -158 37 -148 26 -112 16 -68 8 -40 
8 -35 7 -32 2 -10 0 -1 2 -6 -1 -5 -7 18 -10 25 
-11 29 -19 50 -24 70 -30 94 -33 112 -33 121 -28 111 -23 96 
-25 108 -25 113 -21 97 -11 48 2 -2 17 -28 27 -49 32 -71 
32 -84 28 -82 23 -76 20 -73 13 -54 8 -32 6 -22 5 -21 
4 -16 1 -3 1 -3 5 -21 8 -28 5 -21 3 -13 4 -13 
8 -33 11 -49 13 -56 15 -64 15 -70 13 -58 8 -37 0 -2 
-13 28 -24 52 -29 69 -32 83 -36 103 -30 92 -33 111 -38 136 
-34 133 -31 127 -31 133 -29 128 -22 104 -14 62 -4 17 10 -1 
28 -3 46 -5 59 -6 59 -6 56 -7 57 -6 63 -8 73 -8 
79 -10 85 -12 92 -13 101 -17 112 -21 124 -26 125 -28 119 -32 
108 -35 96 -38 93 -40 90 -41 76 -41 65 -47 55 -51 62 -54 
80 -68 75 -73 64 -81 57 -98 63 -123 79 -163 66 -182 69 -246 
61 -259 52 -246 44 -235 37 -214 26 -151 15 -82 8 -47 0 -39 
-6 3 -11 49 -19 9 -33 -51 -48 4 -67 80 -100 19 -136 -86 
-167 -5 -205 105 -228 24 -285 -26 -224 54 -177 116 -163 233 -162 103 
-194 12 -172 11 -139 9 -113 8 -53 3 -54 3 -69 7 -82 8 
-115 10 -103 9 -128 14 -160 26 -180 50 -189 126 -181 241 -185 310 
-169 366 -110 416 -85 429 -60 340 -40 241 -23 147 -3 63 58 2 
114 -20 147 1 152 3 152 -9 147 -22 142 -2 128 16 123 -4 
113 -32 103 -29 97 -22 79 -64 76 -97 63 -115 29 -194 27 -223 
25 -209 20 -155 16 -132 15 -138 10 -85 9 -62 7 -68 4 -32 
2 -23 1 -6 1 -9 1 -4 2 -17 2 -16 0 -10 1 -1 
-1 7 -2 13 -1 14 0 -3 -1 6 1 -3 0 2 0 -5 
1 -12 2 -7 3 -31 3 -30 2 -12 0 5 -2 13 -6 51 
-5 41 -4 28 -6 59 -3 18 -6 39 -5 59 -4 40 1 -21 
0 -7 0 20 2 -15 5 -62 2 -19 2 12 6 -60 9 -75 
9 -80 8 -75 4 -26 1 -5 0 2 0 -19 0 6 -2 11 
-5 59 -5 42 -3 11 -6 51 -7 58 -5 45 -5 54 -4 30 
-3 12 0 11 1 -2 4 -45 2 -24 3 -9 4 -31 6 -56 
5 -42 4 -37 2 -22 1 -5 0 1 -1 7 -2 20 -2 22 
-3 19 -3 24 -3 30 -3 18 -2 21 -2 18 1 -12 2 -19 
1 -9 2 -6 4 -36 3 -28 4 -33 3 -31 1 -10 0 10 
-2 8 -1 7 -1 18 -2 12 0 -3 -1 6 -1 18 -1 10 
-1 3 -2 15 -2 19 3875 2494 300 MP stroke
-1 8 -1 6 0 1 2 -12 1 -11 1 -7 0 -5 0 3 
-1 11 -1 7 -1 6 0 -1 1 -9 1 -6 0 -4 0 3 
1 -3 0 -7 1 -7 1 -7 1 -7 0 -2 0 5 -1 3 
-1 9 -2 14 -1 9 0 4 0 -1 -1 4 0 9 0 -7 
1 -2 0 -6 1 -10 1 -8 1 -8 1 -6 1 -6 0 -4 
0 4 -1 5 -1 7 0 5 -1 4 0 6 -1 2 0 3 
3874 2502 49 MP stroke
gr

c8
0 sg
2480  156 mt 
(Moment-curvature response at section B) s
3016  294 mt 
(force-based element) s
3103 4903 mt 
(Curvature \(rad/m\)) s
 512 2923 mt  -90 rotate
(Moment \(kN*M\)) s
90 rotate
 882 4658 mt 
( ) s
6239  431 mt 
( ) s
1 sg
0 188 999 0 0 -188 5196 4556 4 MP
PP
-999 0 0 188 999 0 0 -188 5196 4556 5 MP stroke
4 w
DO
SO
6 w
0 sg
5196 4556 mt 6195 4556 L
5196 4368 mt 6195 4368 L
5196 4556 mt 5196 4368 L
6195 4556 mt 6195 4368 L
5196 4556 mt 6195 4556 L
5196 4556 mt 5196 4368 L
5196 4556 mt 6195 4556 L
5196 4368 mt 6195 4368 L
5196 4556 mt 5196 4368 L
6195 4556 mt 6195 4368 L
5649 4505 mt 
(nonlinear) s
gs 5196 4368 1000 189 rc
c8
349 0 5265 4462 2 MP stroke
gr

c8

end %%Color Dict

eplot
%%EndObject

epage
end

showpage

%%Trailer
%%EOF
