0 1.16538 -1.3589 0.566912
0 1.16538 -1.3589 0.566912
0 1.16538 -1.3589 0.566912
0 1.16538 -1.3589 0.566912
0 1.16538 -1.3589 0.566912
0 1.16538 -1.3589 0.566912
0 1.16538 -1.3589 0.566912
0 1.16538 -1.3589 0.566912
0 1.16538 -1.3589 0.566912
0 1.16538 -1.3589 0.566912
0 1.16538 -1.3589 0.566912
0 1.16538 -1.3589 0.566912
0 1.16538 -1.3589 0.566912
0 1.16538 -1.3589 0.566912
0 1.16538 -1.3589 0.566912
0 1.16538 -1.3589 0.566912
0 1.16538 -1.3589 0.566912
0 1.16538 -1.3589 0.566912
0 1.16538 -1.3589 0.566912
0 1.16538 -1.3589 0.566912
0 1.16538 -1.3589 0.566912
0 1.16538 -1.3589 0.566912
0 1.16538 -1.3589 0.566912
0 1.16538 -1.3589 0.566912
0 1.16538 -1.3589 0.566912
0 1.16538 -1.3589 0.566912
0 1.16538 -1.3589 0.566912
0 1.16538 -1.3589 0.566912
0 1.16538 -1.3589 0.566912
0 1.16538 -1.3589 0.566912
0 1.16538 -1.3589 0.566912
0 1.16538 -1.3589 0.566912
0 1.16538 -1.3589 0.566912
0 1.16538 -1.3589 0.566912
0 1.16538 -1.3589 0.566912
0 1.16538 -1.3589 0.566912
0 1.16538 -1.3589 0.566912
0 1.16538 -1.3589 0.566912
0 1.16538 -1.3589 0.566912
0 1.16538 -1.3589 0.566912
0 1.16538 -1.3589 0.566912
0 1.16538 -1.3589 0.566912
0 1.16538 -1.3589 0.566912
0 1.16538 -1.3589 0.566912
0 1.16538 -1.3589 0.566912
0 1.16538 -1.3589 0.566912
0 1.16538 -1.3589 0.566912
0 1.16538 -1.3589 0.566912
0 1.16538 -1.3589 0.566912
0 1.16538 -1.3589 0.566912
0 1.16538 -1.3589 0.566912
0 1.16538 -1.3589 0.566912
0 1.16538 -1.3589 0.566912
0 1.16538 -1.3589 0.566912
0 1.16538 -1.3589 0.566912
0 1.16538 -1.3589 0.566912
0 1.16538 -1.3589 0.566912
0 1.16538 -1.3589 0.566912
0 1.16538 -1.3589 0.566912
0 1.16538 -1.3589 0.566912
0 1.16538 -1.3589 0.566912
0 1.16538 -1.3589 0.566912
0 1.16538 -1.3589 0.566912
0 1.16538 -1.3589 0.566912
0 1.16538 -1.3589 0.566912
0 1.16538 -1.3589 0.566912
0 1.16538 -1.3589 0.566912
0 1.16538 -1.3589 0.566912
0 1.16538 -1.3589 0.566912
0 1.16538 -1.3589 0.566912
0 1.16538 -1.3589 0.566912
0 1.16538 -1.3589 0.566912
0 1.16538 -1.3589 0.566912
0 1.16538 -1.3589 0.566912
0 1.16538 -1.3589 0.566912
0 1.16538 -1.3589 0.566912
0 1.16538 -1.3589 0.566912
0 1.16538 -1.3589 0.566912
0 1.16538 -1.3589 0.566912
0 1.16538 -1.3589 0.566912
0 1.16538 -1.3589 0.566912
0 1.16538 -1.3589 0.566912
0 1.16538 -1.3589 0.566912
0 1.16538 -1.3589 0.566912
0 1.16538 -1.3589 0.566912
0 1.16538 -1.3589 0.566912
0 1.16538 -1.3589 0.566912
0 1.16538 -1.3589 0.566912
0 1.16538 -1.3589 0.566912
0 1.16538 -1.3589 0.566912
0 1.16538 -1.3589 0.566912
0 1.16538 -1.3589 0.566912
0 1.16538 -1.3589 0.566912
0 1.16538 -1.3589 0.566912
0 1.16538 -1.3589 0.566912
0 1.16538 -1.3589 0.566912
0 1.16538 -1.3589 0.566912
0 1.16538 -1.3589 0.566912
0 1.16538 -1.3589 0.566912
0 1.16538 -1.3589 0.566912
0 1.16538 -1.3589 0.566912
0 1.16538 -1.3589 0.566912
0 1.16538 -1.3589 0.566912
0 1.16538 -1.3589 0.566912
0 1.16538 -1.3589 0.566912
0 1.16538 -1.3589 0.566912
0 1.16538 -1.3589 0.566912
0 1.16538 -1.3589 0.566912
0 1.16538 -1.3589 0.566912
0 1.16538 -1.3589 0.566912
0 1.16538 -1.3589 0.566912
0 1.16538 -1.3589 0.566912
0 1.16538 -1.3589 0.566912
0 1.16538 -1.3589 0.566912
0 1.16538 -1.3589 0.566912
0 1.16538 -1.3589 0.566912
0 1.16538 -1.3589 0.566912
0 1.16538 -1.3589 0.566912
0 1.16538 -1.3589 0.566912
0 1.16538 -1.3589 0.566912
0 1.16538 -1.3589 0.566912
0 1.16538 -1.3589 0.566912
0 1.16538 -1.3589 0.566912
0 1.16538 -1.3589 0.566912
0 1.16538 -1.3589 0.566912
0 1.16538 -1.3589 0.566912
0 1.16538 -1.3589 0.566912
0 1.16538 -1.3589 0.566912
0 1.16538 -1.3589 0.566912
0 1.16538 -1.3589 0.566912
0 1.16538 -1.3589 0.566912
0 1.16538 -1.3589 0.566912
0 1.16538 -1.3589 0.566912
0 1.16538 -1.3589 0.566912
0 1.16538 -1.3589 0.566912
0 1.16538 -1.3589 0.566912
0 1.16538 -1.3589 0.566912
0 1.16538 -1.3589 0.566912
0 1.16538 -1.3589 0.566912
0 1.16538 -1.3589 0.566912
0 1.16538 -1.3589 0.566912
0 1.16538 -1.3589 0.566912
0 1.16538 -1.3589 0.566912
0 1.16538 -1.3589 0.566912
0 1.16538 -1.3589 0.566912
0 1.16538 -1.3589 0.566912
0 1.16538 -1.3589 0.566912
0 1.16538 -1.3589 0.566912
0 1.16538 -1.3589 0.566912
0 1.16538 -1.3589 0.566912
0 1.16538 -1.3589 0.566912
0 1.16538 -1.3589 0.566912
0 1.16538 -1.3589 0.566912
0 1.16538 -1.3589 0.566912
0 1.16538 -1.3589 0.566912
0 1.16538 -1.3589 0.566912
0 1.16538 -1.3589 0.566912
0 1.16538 -1.3589 0.566912
0 1.16538 -1.3589 0.566912
0 1.16538 -1.3589 0.566912
0 1.16538 -1.3589 0.566912
0 1.16538 -1.3589 0.566912
0 1.16538 -1.3589 0.566912
0 1.16538 -1.3589 0.566912
0 1.16538 -1.3589 0.566912
0 1.16538 -1.3589 0.566912
0 1.16538 -1.3589 0.566912
0 1.16538 -1.3589 0.566912
0 1.16538 -1.3589 0.566912
0 1.16538 -1.3589 0.566912
0 1.16538 -1.3589 0.566912
0 1.16538 -1.3589 0.566912
0 1.16538 -1.3589 0.566912
0 1.16538 -1.3589 0.566912
0 1.16538 -1.3589 0.566912
0 1.16538 -1.3589 0.566912
0 1.16538 -1.3589 0.566912
0 1.16538 -1.3589 0.566912
0 1.16538 -1.3589 0.566912
0 1.16538 -1.3589 0.566912
0 1.16538 -1.3589 0.566912
0 1.16538 -1.3589 0.566912
0 1.16538 -1.3589 0.566912
0 1.16538 -1.3589 0.566912
0 1.16538 -1.3589 0.566912
0 1.16538 -1.3589 0.566912
0 1.16538 -1.3589 0.566912
0 1.16538 -1.3589 0.566912
0 1.16538 -1.3589 0.566912
0 1.16538 -1.3589 0.566912
0 1.16538 -1.3589 0.566912
0 1.16538 -1.3589 0.566912
0 1.16538 -1.3589 0.566912
0 1.16538 -1.3589 0.566912
0 1.16538 -1.3589 0.566912
0 1.16538 -1.3589 0.566912
0 1.16538 -1.3589 0.566912
0 1.16538 -1.3589 0.566912
0 1.16538 -1.3589 0.566912
0 1.16538 -1.3589 0.566912
0 1.16538 -1.3589 0.566912
0 1.16538 -1.3589 0.566912
0 1.16538 -1.3589 0.566912
0 1.16538 -1.3589 0.566912
0 1.16538 -1.3589 0.566912
0 1.16538 -1.3589 0.566912
0 1.16538 -1.3589 0.566912
0 1.16538 -1.3589 0.566912
0 1.16538 -1.3589 0.566912
0 1.16538 -1.3589 0.566912
0 1.16538 -1.3589 0.566912
0 1.16538 -1.3589 0.566912
0 1.16538 -1.3589 0.566912
0 1.16538 -1.3589 0.566912
0 1.16538 -1.3589 0.566912
0 1.16538 -1.3589 0.566912
0 1.16538 -1.3589 0.566912
0 1.16538 -1.3589 0.566912
0 1.16538 -1.3589 0.566912
0 1.16538 -1.3589 0.566912
0 1.16538 -1.3589 0.566912
0 1.16538 -1.3589 0.566912
0 1.16538 -1.3589 0.566912
0 1.16538 -1.3589 0.566912
0 1.16538 -1.3589 0.566912
0 1.16538 -1.3589 0.566912
0 1.16538 -1.3589 0.566912
0 1.16538 -1.3589 0.566912
0 1.16538 -1.3589 0.566912
0 1.16538 -1.3589 0.566912
0 1.16538 -1.3589 0.566912
0 1.16538 -1.3589 0.566912
0 1.16538 -1.3589 0.566912
0 1.16538 -1.3589 0.566912
0 1.16538 -1.3589 0.566912
0 1.16538 -1.3589 0.566912
0 1.16538 -1.3589 0.566912
0 1.16538 -1.3589 0.566912
0 1.16538 -1.3589 0.566912
0 1.16538 -1.3589 0.566912
0 1.16538 -1.3589 0.566912
0 1.16538 -1.3589 0.566912
0 1.16538 -1.3589 0.566912
0 1.16538 -1.3589 0.566912
0 1.16538 -1.3589 0.566912
0 1.16538 -1.3589 0.566912
0 1.16538 -1.3589 0.566912
0 1.16538 -1.3589 0.566912
0 1.16538 -1.3589 0.566912
0 1.16538 -1.3589 0.566912
0 1.16538 -1.3589 0.566912
0 1.16538 -1.3589 0.566912
0 1.16538 -1.3589 0.566912
0 1.16538 -1.3589 0.566912
0 1.16538 -1.3589 0.566912
0 1.16538 -1.3589 0.566912
0 1.16538 -1.3589 0.566912
0 1.16538 -1.3589 0.566912
0 1.16538 -1.3589 0.566912
0 1.16538 -1.3589 0.566912
0 1.16538 -1.3589 0.566912
0 1.16538 -1.3589 0.566912
0 1.16538 -1.3589 0.566912
0 1.16538 -1.3589 0.566912
0 1.16538 -1.3589 0.566912
0 1.16538 -1.3589 0.566912
0 1.16538 -1.3589 0.566912
0 1.16538 -1.3589 0.566912
0 1.16538 -1.3589 0.566912
0 1.16538 -1.3589 0.566912
0 1.16538 -1.3589 0.566912
0 1.16538 -1.3589 0.566912
0 1.16538 -1.3589 0.566912
0 1.16538 -1.3589 0.566912
0 1.16538 -1.3589 0.566912
0 1.16538 -1.3589 0.566912
0 1.16538 -1.3589 0.566912
0 1.16538 -1.3589 0.566912
0 1.16538 -1.3589 0.566912
0 1.16538 -1.3589 0.566912
0 1.16538 -1.3589 0.566912
0 1.16538 -1.3589 0.566912
0 1.16538 -1.3589 0.566912
0 1.16538 -1.3589 0.566912
0 1.16538 -1.3589 0.566912
0 1.16538 -1.3589 0.566912
0 1.16538 -1.3589 0.566912
0 1.16538 -1.3589 0.566912
0 1.16538 -1.3589 0.566912
0 1.16538 -1.3589 0.566912
0 1.16538 -1.3589 0.566912
0 1.16538 -1.3589 0.566912
0 1.16538 -1.3589 0.566912
0 1.16538 -1.3589 0.566912
0 1.16538 -1.3589 0.566912
0 1.16538 -1.3589 0.566912
0 1.16538 -1.3589 0.566912
0 1.16538 -1.3589 0.566912
0 1.16538 -1.3589 0.566912
0 1.16538 -1.3589 0.566912
0 1.16538 -1.3589 0.566912
0 1.16538 -1.3589 0.566912
0 1.16538 -1.3589 0.566912
0 1.16538 -1.3589 0.566912
0 1.16538 -1.3589 0.566912
0 1.16538 -1.3589 0.566912
0 1.16538 -1.3589 0.566912
0 1.16538 -1.3589 0.566912
0 1.16538 -1.3589 0.566912
0 1.16538 -1.3589 0.566912
0 1.16538 -1.3589 0.566912
0 1.16538 -1.3589 0.566912
0 1.16538 -1.3589 0.566912
0 1.16538 -1.3589 0.566912
0 1.16538 -1.3589 0.566912
0 1.16538 -1.3589 0.566912
0 1.16538 -1.3589 0.566912
0 1.16538 -1.3589 0.566912
0 1.16538 -1.3589 0.566912
0 1.16538 -1.3589 0.566912
0 1.16538 -1.3589 0.566912
0 1.16538 -1.3589 0.566912
0 1.16538 -1.3589 0.566912
0 1.16538 -1.3589 0.566912
0 1.16538 -1.3589 0.566912
0 1.16538 -1.3589 0.566912
0 1.16538 -1.3589 0.566912
0 1.16538 -1.3589 0.566912
0 1.16538 -1.3589 0.566912
0 1.16538 -1.3589 0.566912
0 1.16538 -1.3589 0.566912
0 1.16538 -1.3589 0.566912
0 1.16538 -1.3589 0.566912
0 1.16538 -1.3589 0.566912
0 1.16538 -1.3589 0.566912
0 1.16538 -1.3589 0.566912
0 1.16538 -1.3589 0.566912
0 1.16538 -1.3589 0.566912
0 1.16538 -1.3589 0.566912
0 1.16538 -1.3589 0.566912
0 1.16538 -1.3589 0.566912
0 1.16538 -1.3589 0.566912
0 1.16538 -1.3589 0.566912
0 1.16538 -1.3589 0.566912
0 1.16538 -1.3589 0.566912
0 1.16538 -1.3589 0.566912
0 1.16538 -1.3589 0.566912
0 1.16538 -1.3589 0.566912
0 1.16538 -1.3589 0.566912
0 1.16538 -1.3589 0.566912
0 1.16538 -1.3589 0.566912
0 1.16538 -1.3589 0.566912
0 1.16538 -1.3589 0.566912
0 1.16538 -1.3589 0.566912
0 1.16538 -1.3589 0.566912
0 1.16538 -1.3589 0.566912
0 1.16538 -1.3589 0.566912
0 1.16538 -1.3589 0.566912
0 1.16538 -1.3589 0.566912
0 1.16538 -1.3589 0.566912
0 1.16538 -1.3589 0.566912
0 1.16538 -1.3589 0.566912
0 1.16538 -1.3589 0.566912
0 1.16538 -1.3589 0.566912
0 1.16538 -1.3589 0.566912
0 1.16538 -1.3589 0.566912
0 1.16538 -1.3589 0.566912
0 1.16538 -1.3589 0.566912
0 1.16538 -1.3589 0.566912
0 1.16538 -1.3589 0.566912
0 1.16538 -1.3589 0.566912
0 1.16538 -1.3589 0.566912
0 1.16538 -1.3589 0.566912
0 1.16538 -1.3589 0.566912
0 1.16538 -1.3589 0.566912
0 1.16538 -1.3589 0.566912
0 1.16538 -1.3589 0.566912
0 1.16538 -1.3589 0.566912
0 1.16538 -1.3589 0.566912
0 1.16538 -1.3589 0.566912
0 1.16538 -1.3589 0.566912
0 1.16538 -1.3589 0.566912
0 1.16538 -1.3589 0.566912
0 1.16538 -1.3589 0.566912
0 1.16538 -1.3589 0.566912
0 1.16538 -1.3589 0.566912
0 1.16538 -1.3589 0.566912
0 1.16538 -1.3589 0.566912
0 1.16538 -1.3589 0.566912
0 1.16538 -1.3589 0.566912
0 1.16538 -1.3589 0.566912
0 1.16538 -1.3589 0.566912
0 1.16538 -1.3589 0.566912
0 1.16538 -1.3589 0.566912
0 1.16538 -1.3589 0.566912
0 1.16538 -1.3589 0.566912
0 1.16538 -1.3589 0.566912
0 1.16538 -1.3589 0.566912
0 1.16538 -1.3589 0.566912
0 1.16538 -1.3589 0.566912
0 1.16538 -1.3589 0.566912
0 1.16538 -1.3589 0.566912
0 1.16538 -1.3589 0.566912
0 1.16538 -1.3589 0.566912
0 1.16538 -1.3589 0.566912
0 1.16538 -1.3589 0.566912
0 1.16538 -1.3589 0.566912
0 1.16538 -1.3589 0.566912
0 1.16538 -1.3589 0.566912
0 1.16538 -1.3589 0.566912
0 1.16538 -1.3589 0.566912
0 1.16538 -1.3589 0.566912
0 1.16538 -1.3589 0.566912
0 1.16538 -1.3589 0.566912
0 1.16538 -1.3589 0.566912
0 1.16538 -1.3589 0.566912
0 1.16538 -1.3589 0.566912
0 1.16538 -1.3589 0.566912
0 1.16538 -1.3589 0.566912
0 1.16538 -1.3589 0.566912
0 1.16538 -1.3589 0.566912
0 1.16538 -1.3589 0.566912
0 1.16538 -1.3589 0.566912
0 1.16538 -1.3589 0.566912
0 1.16538 -1.3589 0.566912
0 1.16538 -1.3589 0.566912
0 1.16538 -1.3589 0.566912
0 1.16538 -1.3589 0.566912
0 1.16538 -1.3589 0.566912
0 1.16538 -1.3589 0.566912
0 1.16538 -1.3589 0.566912
0 1.16538 -1.3589 0.566912
0 1.16538 -1.3589 0.566912
0 1.16538 -1.3589 0.566912
0 1.16538 -1.3589 0.566912
0 1.16538 -1.3589 0.566912
0 1.16538 -1.3589 0.566912
0 1.16538 -1.3589 0.566912
0 1.16538 -1.3589 0.566912
0 1.16538 -1.3589 0.566912
0 1.16538 -1.3589 0.566912
0 1.16538 -1.3589 0.566912
0 1.16538 -1.3589 0.566912
0 1.16538 -1.3589 0.566912
0 1.16538 -1.3589 0.566912
0 1.16538 -1.3589 0.566912
0 1.16538 -1.3589 0.566912
0 1.16538 -1.3589 0.566912
0 1.16538 -1.3589 0.566912
0 1.16538 -1.3589 0.566912
0 1.16538 -1.3589 0.566912
0 1.16538 -1.3589 0.566912
0 1.16538 -1.3589 0.566912
0 1.16538 -1.3589 0.566912
0 1.16538 -1.3589 0.566912
0 1.16538 -1.3589 0.566912
0 1.16538 -1.3589 0.566912
0 1.16538 -1.3589 0.566912
0 1.16538 -1.3589 0.566912
0 1.16538 -1.3589 0.566912
0 1.16538 -1.3589 0.566912
0 1.16538 -1.3589 0.566912
0 1.16538 -1.3589 0.566912
0 1.16538 -1.3589 0.566912
0 1.16538 -1.3589 0.566912
0 1.16538 -1.3589 0.566912
0 1.16538 -1.3589 0.566912
0 1.16538 -1.3589 0.566912
0 1.16538 -1.3589 0.566912
0 1.16538 -1.3589 0.566912
0 1.16538 -1.3589 0.566912
0 1.16538 -1.3589 0.566912
0 1.16538 -1.3589 0.566912
0 1.16538 -1.3589 0.566912
0 1.16538 -1.3589 0.566912
0 1.16538 -1.3589 0.566912
0 1.16538 -1.3589 0.566912
0 1.16538 -1.3589 0.566912
0 1.16538 -1.3589 0.566912
0 1.16538 -1.3589 0.566912
0 1.16538 -1.3589 0.566912
0 1.16538 -1.3589 0.566912
0 1.16538 -1.3589 0.566912
0 1.16538 -1.3589 0.566912
0 1.16538 -1.3589 0.566912
0 1.16538 -1.3589 0.566912
0 1.16538 -1.3589 0.566912
0 1.16538 -1.3589 0.566912
0 1.16538 -1.3589 0.566912
0 1.16538 -1.3589 0.566912
0 1.16538 -1.3589 0.566912
0 1.16538 -1.3589 0.566912
0 1.16538 -1.3589 0.566912
0 1.16538 -1.3589 0.566912
0 1.16538 -1.3589 0.566912
0 1.16538 -1.3589 0.566912
0 1.16538 -1.3589 0.566912
0 1.16538 -1.3589 0.566912
0 1.16538 -1.3589 0.566912
0 1.16538 -1.3589 0.566912
0 1.16538 -1.3589 0.566912
0 1.16538 -1.3589 0.566912
0 1.16538 -1.3589 0.566912
0 1.16538 -1.3589 0.566912
0 1.16538 -1.3589 0.566912
0 1.16538 -1.3589 0.566912
0 1.16538 -1.3589 0.566912
0 1.16538 -1.3589 0.566912
0 1.16538 -1.3589 0.566912
0 1.16538 -1.3589 0.566912
0 1.16538 -1.3589 0.566912
0 1.16538 -1.3589 0.566912
0 1.16538 -1.3589 0.566912
0 1.16538 -1.3589 0.566912
0 1.16538 -1.3589 0.566912
0 1.16538 -1.3589 0.566912
0 1.16538 -1.3589 0.566912
0 1.16538 -1.3589 0.566912
0 1.16538 -1.3589 0.566912
0 1.16538 -1.3589 0.566912
0 1.16538 -1.3589 0.566912
0 1.16538 -1.3589 0.566912
0 1.16538 -1.3589 0.566912
0 1.16538 -1.3589 0.566912
0 1.16538 -1.3589 0.566912
0 1.16538 -1.3589 0.566912
0 1.16538 -1.3589 0.566912
0 1.16538 -1.3589 0.566912
0 1.16538 -1.3589 0.566912
0 1.16538 -1.3589 0.566912
0 1.16538 -1.3589 0.566912
0 1.16538 -1.3589 0.566912
0 1.16538 -1.3589 0.566912
0 1.16538 -1.3589 0.566912
0 1.16538 -1.3589 0.566912
0 1.16538 -1.3589 0.566912
0 1.16538 -1.3589 0.566912
0 1.16538 -1.3589 0.566912
0 1.16538 -1.3589 0.566912
0 1.16538 -1.3589 0.566912
0 1.16538 -1.3589 0.566912
0 1.16538 -1.3589 0.566912
0 1.16538 -1.3589 0.566912
0 1.16538 -1.3589 0.566912
0 1.16538 -1.3589 0.566912
0 1.16538 -1.3589 0.566912
0 1.16538 -1.3589 0.566912
0 1.16538 -1.3589 0.566912
0 1.16538 -1.3589 0.566912
0 1.16538 -1.3589 0.566912
0 1.16538 -1.3589 0.566912
0 1.16538 -1.3589 0.566912
0 1.16538 -1.3589 0.566912
0 1.16538 -1.3589 0.566912
0 1.16538 -1.3589 0.566912
0 1.16538 -1.3589 0.566912
0 1.16538 -1.3589 0.566912
0 1.16538 -1.3589 0.566912
0 1.16538 -1.3589 0.566912
0 1.16538 -1.3589 0.566912
0 1.16538 -1.3589 0.566912
0 1.16538 -1.3589 0.566912
0 1.16538 -1.3589 0.566912
0 1.16538 -1.3589 0.566912
0 1.16538 -1.3589 0.566912
0 1.16538 -1.3589 0.566912
0 1.16538 -1.3589 0.566912
0 1.16538 -1.3589 0.566912
0 1.16538 -1.3589 0.566912
0 1.16538 -1.3589 0.566912
0 1.16538 -1.3589 0.566912
0 1.16538 -1.3589 0.566912
0 1.16538 -1.3589 0.566912
0 1.16538 -1.3589 0.566912
0 1.16538 -1.3589 0.566912
0 1.16538 -1.3589 0.566912
0 1.16538 -1.3589 0.566912
0 1.16538 -1.3589 0.566912
0 1.16538 -1.3589 0.566912
0 1.16538 -1.3589 0.566912
0 1.16538 -1.3589 0.566912
0 1.16538 -1.3589 0.566912
0 1.16538 -1.3589 0.566912
0 1.16538 -1.3589 0.566912
0 1.16538 -1.3589 0.566912
0 1.16538 -1.3589 0.566912
0 1.16538 -1.3589 0.566912
0 1.16538 -1.3589 0.566912
0 1.16538 -1.3589 0.566912
0 1.16538 -1.3589 0.566912
0 1.16538 -1.3589 0.566912
0 1.16538 -1.3589 0.566912
0 1.16538 -1.3589 0.566912
0 1.16538 -1.3589 0.566912
0 1.16538 -1.3589 0.566912
0 1.16538 -1.3589 0.566912
0 1.16538 -1.3589 0.566912
0 1.16538 -1.3589 0.566912
0 1.16538 -1.3589 0.566912
0 1.16538 -1.3589 0.566912
0 1.16538 -1.3589 0.566912
0 1.16538 -1.3589 0.566912
0 1.16538 -1.3589 0.566912
0 1.16538 -1.3589 0.566912
0 1.16538 -1.3589 0.566912
0 1.16538 -1.3589 0.566912
0 1.16538 -1.3589 0.566912
0 1.16538 -1.3589 0.566912
0 1.16538 -1.3589 0.566912
0 1.16538 -1.3589 0.566912
0 1.16538 -1.3589 0.566912
0 1.16538 -1.3589 0.566912
0 1.16538 -1.3589 0.566912
0 1.16538 -1.3589 0.566912
0 1.16538 -1.3589 0.566912
0 1.16538 -1.3589 0.566912
0 1.16538 -1.3589 0.566912
0 1.16538 -1.3589 0.566912
0 1.16538 -1.3589 0.566912
0 1.16538 -1.3589 0.566912
0 1.16538 -1.3589 0.566912
0 1.16538 -1.3589 0.566912
0 1.16538 -1.3589 0.566912
0 1.16538 -1.3589 0.566912
0 1.16538 -1.3589 0.566912
0 1.16538 -1.3589 0.566912
0 1.16538 -1.3589 0.566912
0 1.16538 -1.3589 0.566912
0 1.16538 -1.3589 0.566912
0 1.16538 -1.3589 0.566912
0 1.16538 -1.3589 0.566912
0 1.16538 -1.3589 0.566912
0 1.16538 -1.3589 0.566912
0 1.16538 -1.3589 0.566912
0 1.16538 -1.3589 0.566912
0 1.16538 -1.3589 0.566912
0 1.16538 -1.3589 0.566912
0 1.16538 -1.3589 0.566912
0 1.16538 -1.3589 0.566912
0 1.16538 -1.3589 0.566912
0 1.16538 -1.3589 0.566912
0 1.16538 -1.3589 0.566912
0 1.16538 -1.3589 0.566912
0 1.16538 -1.3589 0.566912
0 1.16538 -1.3589 0.566912
0 1.16538 -1.3589 0.566912
0 1.16538 -1.3589 0.566912
0 1.16538 -1.3589 0.566912
0 1.16538 -1.3589 0.566912
0 1.16538 -1.3589 0.566912
0 1.16538 -1.3589 0.566912
0 1.16538 -1.3589 0.566912
0 1.16538 -1.3589 0.566912
0 1.16538 -1.3589 0.566912
0 1.16538 -1.3589 0.566912
0 1.16538 -1.3589 0.566912
0 1.16538 -1.3589 0.566912
0 1.16538 -1.3589 0.566912
0 1.16538 -1.3589 0.566912
0 1.16538 -1.3589 0.566912
0 1.16538 -1.3589 0.566912
0 1.16538 -1.3589 0.566912
0 1.16538 -1.3589 0.566912
0 1.16538 -1.3589 0.566912
0 1.16538 -1.3589 0.566912
0 1.16538 -1.3589 0.566912
0 1.16538 -1.3589 0.566912
0 1.16538 -1.3589 0.566912
0 1.16538 -1.3589 0.566912
0 1.16538 -1.3589 0.566912
0 1.16538 -1.3589 0.566912
0 1.16538 -1.3589 0.566912
0 1.16538 -1.3589 0.566912
0 1.16538 -1.3589 0.566912
0 1.16538 -1.3589 0.566912
0 1.16538 -1.3589 0.566912
0 1.16538 -1.3589 0.566912
0 1.16538 -1.3589 0.566912
0 1.16538 -1.3589 0.566912
0 1.16538 -1.3589 0.566912
0 1.16538 -1.3589 0.566912
0 1.16538 -1.3589 0.566912
0 1.16538 -1.3589 0.566912
0 1.16538 -1.3589 0.566912
0 1.16538 -1.3589 0.566912
0 1.16538 -1.3589 0.566912
0 1.16538 -1.3589 0.566912
0 1.16538 -1.3589 0.566912
0 1.16538 -1.3589 0.566912
0 1.16538 -1.3589 0.566912
0 1.16538 -1.3589 0.566912
0 1.16538 -1.3589 0.566912
0 1.16538 -1.3589 0.566912
0 1.16538 -1.3589 0.566912
0 1.16538 -1.3589 0.566912
0 1.16538 -1.3589 0.566912
0 1.16538 -1.3589 0.566912
0 1.16538 -1.3589 0.566912
0 1.16538 -1.3589 0.566912
0 1.16538 -1.3589 0.566912
0 1.16538 -1.3589 0.566912
0 1.16538 -1.3589 0.566912
0 1.16538 -1.3589 0.566912
0 1.16538 -1.3589 0.566912
0 1.16538 -1.3589 0.566912
0 1.16538 -1.3589 0.566912
0 1.16538 -1.3589 0.566912
0 1.16538 -1.3589 0.566912
0 1.16538 -1.3589 0.566912
0 1.16538 -1.3589 0.566912
0 1.16538 -1.3589 0.566912
0 1.16538 -1.3589 0.566912
0 1.16538 -1.3589 0.566912
0 1.16538 -1.3589 0.566912
0 1.16538 -1.3589 0.566912
0 1.16538 -1.3589 0.566912
0 1.16538 -1.3589 0.566912
0 1.16538 -1.3589 0.566912
0 1.16538 -1.3589 0.566912
0 1.16538 -1.3589 0.566912
0 1.16538 -1.3589 0.566912
0 1.16538 -1.3589 0.566912
0 1.16538 -1.3589 0.566912
0 1.16538 -1.3589 0.566912
0 1.16538 -1.3589 0.566912
0 1.16538 -1.3589 0.566912
0 1.16538 -1.3589 0.566912
0 1.16538 -1.3589 0.566912
0 1.16538 -1.3589 0.566912
0 1.16538 -1.3589 0.566912
0 1.16538 -1.3589 0.566912
0 1.16538 -1.3589 0.566912
0 1.16538 -1.3589 0.566912
0 1.16538 -1.3589 0.566912
0 1.16538 -1.3589 0.566912
0 1.16538 -1.3589 0.566912
0 1.16538 -1.3589 0.566912
0 1.16538 -1.3589 0.566912
0 1.16538 -1.3589 0.566912
0 1.16538 -1.3589 0.566912
0 1.16538 -1.3589 0.566912
0 1.16538 -1.3589 0.566912
0 1.16538 -1.3589 0.566912
0 1.16538 -1.3589 0.566912
0 1.16538 -1.3589 0.566912
0 1.16538 -1.3589 0.566912
0 1.16538 -1.3589 0.566912
0 1.16538 -1.3589 0.566912
0 1.16538 -1.3589 0.566912
0 1.16538 -1.3589 0.566912
0 1.16538 -1.3589 0.566912
0 1.16538 -1.3589 0.566912
0 1.16538 -1.3589 0.566912
0 1.16538 -1.3589 0.566912
0 1.16538 -1.3589 0.566912
0 1.16538 -1.3589 0.566912
0 1.16538 -1.3589 0.566912
0 1.16538 -1.3589 0.566912
0 1.16538 -1.3589 0.566912
0 1.16538 -1.3589 0.566912
0 1.16538 -1.3589 0.566912
0 1.16538 -1.3589 0.566912
0 1.16538 -1.3589 0.566912
0 1.16538 -1.3589 0.566912
0 1.16538 -1.3589 0.566912
0 1.16538 -1.3589 0.566912
0 1.16538 -1.3589 0.566912
0 1.16538 -1.3589 0.566912
0 1.16538 -1.3589 0.566912
0 1.16538 -1.3589 0.566912
0 1.16538 -1.3589 0.566912
0 1.16538 -1.3589 0.566912
0 1.16538 -1.3589 0.566912
0 1.16538 -1.3589 0.566912
0 1.16538 -1.3589 0.566912
0 1.16538 -1.3589 0.566912
0 1.16538 -1.3589 0.566912
0 1.16538 -1.3589 0.566912
0 1.16538 -1.3589 0.566912
0 1.16538 -1.3589 0.566912
0 1.16538 -1.3589 0.566912
0 1.16538 -1.3589 0.566912
0 1.16538 -1.3589 0.566912
0 1.16538 -1.3589 0.566912
0 1.16538 -1.3589 0.566912
0 1.16538 -1.3589 0.566912
0 1.16538 -1.3589 0.566912
0 1.16538 -1.3589 0.566912
0 1.16538 -1.3589 0.566912
0 1.16538 -1.3589 0.566912
0 1.16538 -1.3589 0.566912
0 1.16538 -1.3589 0.566912
0 1.16538 -1.3589 0.566912
0 1.16538 -1.3589 0.566912
0 1.16538 -1.3589 0.566912
0 1.16538 -1.3589 0.566912
0 1.16538 -1.3589 0.566912
0 1.16538 -1.3589 0.566912
0 1.16538 -1.3589 0.566912
0 1.16538 -1.3589 0.566912
0 1.16538 -1.3589 0.566912
0 1.16538 -1.3589 0.566912
0 1.16538 -1.3589 0.566912
0 1.16538 -1.3589 0.566912
0 1.16538 -1.3589 0.566912
0 1.16538 -1.3589 0.566912
0 1.16538 -1.3589 0.566912
0 1.16538 -1.3589 0.566912
0 1.16538 -1.3589 0.566912
0 1.16538 -1.3589 0.566912
0 1.16538 -1.3589 0.566912
0 1.16538 -1.3589 0.566912
0 1.16538 -1.3589 0.566912
0 1.16538 -1.3589 0.566912
0 1.16538 -1.3589 0.566912
0 1.16538 -1.3589 0.566912
0 1.16538 -1.3589 0.566912
0 1.16538 -1.3589 0.566912
0 1.16538 -1.3589 0.566912
0 1.16538 -1.3589 0.566912
0 1.16538 -1.3589 0.566912
0 1.16538 -1.3589 0.566912
0 1.16538 -1.3589 0.566912
0 1.16538 -1.3589 0.566912
0 1.16538 -1.3589 0.566912
0 1.16538 -1.3589 0.566912
0 1.16538 -1.3589 0.566912
0 1.16538 -1.3589 0.566912
0 1.16538 -1.3589 0.566912
0 1.16538 -1.3589 0.566912
0 1.16538 -1.3589 0.566912
0 1.16538 -1.3589 0.566912
0 1.16538 -1.3589 0.566912
0 1.16538 -1.3589 0.566912
0 1.16538 -1.3589 0.566912
0 1.16538 -1.3589 0.566912
0 1.16538 -1.3589 0.566912
0 1.16538 -1.3589 0.566912
0 1.16538 -1.3589 0.566912
0 1.16538 -1.3589 0.566912
0 1.16538 -1.3589 0.566912
0 1.16538 -1.3589 0.566912
0 1.16538 -1.3589 0.566912
0 1.16538 -1.3589 0.566912
0 1.16538 -1.3589 0.566912
0 1.16538 -1.3589 0.566912
0 1.16538 -1.3589 0.566912
0 1.16538 -1.3589 0.566912
0 1.16538 -1.3589 0.566912
0 1.16538 -1.3589 0.566912
0 1.16538 -1.3589 0.566912
0 1.16538 -1.3589 0.566912
0 1.16538 -1.3589 0.566912
0 1.16538 -1.3589 0.566912
0 1.16538 -1.3589 0.566912
0 1.16538 -1.3589 0.566912
0 1.16538 -1.3589 0.566912
0 1.16538 -1.3589 0.566912
0 1.16538 -1.3589 0.566912
0 1.16538 -1.3589 0.566912
0 1.16538 -1.3589 0.566912
0 1.16538 -1.3589 0.566912
0 1.16538 -1.3589 0.566912
0 1.16538 -1.3589 0.566912
0 1.16538 -1.3589 0.566912
0 1.16538 -1.3589 0.566912
0 1.16538 -1.3589 0.566912
0 1.16538 -1.3589 0.566912
0 1.16538 -1.3589 0.566912
0 1.16538 -1.3589 0.566912
0 1.16538 -1.3589 0.566912
0 1.16538 -1.3589 0.566912
0 1.16538 -1.3589 0.566912
0 1.16538 -1.3589 0.566912
0 1.16538 -1.3589 0.566912
0 1.16538 -1.3589 0.566912
0 1.16538 -1.3589 0.566912
0 1.16538 -1.3589 0.566912
0 1.16538 -1.3589 0.566912
0 1.16538 -1.3589 0.566912
0 1.16538 -1.3589 0.566912
0 1.16538 -1.3589 0.566912
0 1.16538 -1.3589 0.566912
0 1.16538 -1.3589 0.566912
0 1.16538 -1.3589 0.566912
0 1.16538 -1.3589 0.566912
0 1.16538 -1.3589 0.566912
0 1.16538 -1.3589 0.566912
0 1.16538 -1.3589 0.566912
0 1.16538 -1.3589 0.566912
0 1.16538 -1.3589 0.566912
0 1.16538 -1.3589 0.566912
0 1.16538 -1.3589 0.566912
0 1.16538 -1.3589 0.566912
0 1.16538 -1.3589 0.566912
0 1.16538 -1.3589 0.566912
0 1.16538 -1.3589 0.566912
0 1.16538 -1.3589 0.566912
0 1.16538 -1.3589 0.566912
0 1.16538 -1.3589 0.566912
0 1.16538 -1.3589 0.566912
0 1.16538 -1.3589 0.566912
0 1.16538 -1.3589 0.566912
0 1.16538 -1.3589 0.566912
0 1.16538 -1.3589 0.566912
0 1.16538 -1.3589 0.566912
0 1.16538 -1.3589 0.566912
0 1.16538 -1.3589 0.566912
0 1.16538 -1.3589 0.566912
0 1.16538 -1.3589 0.566912
0 1.16538 -1.3589 0.566912
0 1.16538 -1.3589 0.566912
0 1.16538 -1.3589 0.566912
0 1.16538 -1.3589 0.566912
0 1.16538 -1.3589 0.566912
0 1.16538 -1.3589 0.566912
0 1.16538 -1.3589 0.566912
0 1.16538 -1.3589 0.566912
0 1.16538 -1.3589 0.566912
0 1.16538 -1.3589 0.566912
0 1.16538 -1.3589 0.566912
0 1.16538 -1.3589 0.566912
0 1.16538 -1.3589 0.566912
0 1.16538 -1.3589 0.566912
0 1.16538 -1.3589 0.566912
0 1.16538 -1.3589 0.566912
0 1.16538 -1.3589 0.566912
0 1.16538 -1.3589 0.566912
0 1.16538 -1.3589 0.566912
0 1.16538 -1.3589 0.566912
0 1.16538 -1.3589 0.566912
0 1.16538 -1.3589 0.566912
0 1.16538 -1.3589 0.566912
0 1.16538 -1.3589 0.566912
0 1.16538 -1.3589 0.566912
0 1.16538 -1.3589 0.566912
0 1.16538 -1.3589 0.566912
0 1.16538 -1.3589 0.566912
0 1.16538 -1.3589 0.566912
0 1.16538 -1.3589 0.566912
0 1.16538 -1.3589 0.566912
0 1.16538 -1.3589 0.566912
0 1.16538 -1.3589 0.566912
0 1.16538 -1.3589 0.566912
0 1.16538 -1.3589 0.566912
0 1.16538 -1.3589 0.566912
0 1.16538 -1.3589 0.566912
0 1.16538 -1.3589 0.566912
0 1.16538 -1.3589 0.566912
0 1.16538 -1.3589 0.566912
0 1.16538 -1.3589 0.566912
0 1.16538 -1.3589 0.566912
0 1.16538 -1.3589 0.566912
0 1.16538 -1.3589 0.566912
0 1.16538 -1.3589 0.566912
0 1.16538 -1.3589 0.566912
0 1.16538 -1.3589 0.566912
0 1.16538 -1.3589 0.566912
0 1.16538 -1.3589 0.566912
0 1.16538 -1.3589 0.566912
0 1.16538 -1.3589 0.566912
0 1.16538 -1.3589 0.566912
0 1.16538 -1.3589 0.566912
0 1.16538 -1.3589 0.566912
0 1.16538 -1.3589 0.566912
0 1.16538 -1.3589 0.566912
0 1.16538 -1.3589 0.566912
0 1.16538 -1.3589 0.566912
0 1.16538 -1.3589 0.566912
0 1.16538 -1.3589 0.566912
0 1.16538 -1.3589 0.566912
0 1.16538 -1.3589 0.566912
0 1.16538 -1.3589 0.566912
0 1.16538 -1.3589 0.566912
0 1.16538 -1.3589 0.566912
0 1.16538 -1.3589 0.566912
0 1.16538 -1.3589 0.566912
0 1.16538 -1.3589 0.566912
0 1.16538 -1.3589 0.566912
0 1.16538 -1.3589 0.566912
0 1.16538 -1.3589 0.566912
0 1.16538 -1.3589 0.566912
0 1.16538 -1.3589 0.566912
0 1.16538 -1.3589 0.566912
0 1.16538 -1.3589 0.566912
0 1.16538 -1.3589 0.566912
0 1.16538 -1.3589 0.566912
0 1.16538 -1.3589 0.566912
0 1.16538 -1.3589 0.566912
0 1.16538 -1.3589 0.566912
0 1.16538 -1.3589 0.566912
0 1.16538 -1.3589 0.566912
0 1.16538 -1.3589 0.566912
0 1.16538 -1.3589 0.566912
0 1.16538 -1.3589 0.566912
0 1.16538 -1.3589 0.566912
0 1.16538 -1.3589 0.566912
0 1.16538 -1.3589 0.566912
0 1.16538 -1.3589 0.566912
0 1.16538 -1.3589 0.566912
0 1.16538 -1.3589 0.566912
0 1.16538 -1.3589 0.566912
0 1.16538 -1.3589 0.566912
0 1.16538 -1.3589 0.566912
0 1.16538 -1.3589 0.566912
0 1.16538 -1.3589 0.566912
0 1.16538 -1.3589 0.566912
0 1.16538 -1.3589 0.566912
0 1.16538 -1.3589 0.566912
0 1.16538 -1.3589 0.566912
0 1.16538 -1.3589 0.566912
0 1.16538 -1.3589 0.566912
0 1.16538 -1.3589 0.566912
0 1.16538 -1.3589 0.566912
0 1.16538 -1.3589 0.566912
0 1.16538 -1.3589 0.566912
0 1.16538 -1.3589 0.566912
0 1.16538 -1.3589 0.566912
0 1.16538 -1.3589 0.566912
0 1.16538 -1.3589 0.566912
0 1.16538 -1.3589 0.566912
0 1.16538 -1.3589 0.566912
0 1.16538 -1.3589 0.566912
0 1.16538 -1.3589 0.566912
0 1.16538 -1.3589 0.566912
0 1.16538 -1.3589 0.566912
0 1.16538 -1.3589 0.566912
0 1.16538 -1.3589 0.566912
0 1.16538 -1.3589 0.566912
0 1.16538 -1.3589 0.566912
0 1.16538 -1.3589 0.566912
0 1.16538 -1.3589 0.566912
0 1.16538 -1.3589 0.566912
0 1.16538 -1.3589 0.566912
0 1.16538 -1.3589 0.566912
0 1.16538 -1.3589 0.566912
0 1.16538 -1.3589 0.566912
0 1.16538 -1.3589 0.566912
0 1.16538 -1.3589 0.566912
0 1.16538 -1.3589 0.566912
0 1.16538 -1.3589 0.566912
0 1.16538 -1.3589 0.566912
0 1.16538 -1.3589 0.566912
0 1.16538 -1.3589 0.566912
0 1.16538 -1.3589 0.566912
0 1.16538 -1.3589 0.566912
0 1.16538 -1.3589 0.566912
0 1.16538 -1.3589 0.566912
0 1.16538 -1.3589 0.566912
0 1.16538 -1.3589 0.566912
0 1.16538 -1.3589 0.566912
0 1.16538 -1.3589 0.566912
0 1.16538 -1.3589 0.566912
0 1.16538 -1.3589 0.566912
0 1.16538 -1.3589 0.566912
0 1.16538 -1.3589 0.566912
0 1.16538 -1.3589 0.566912
0 1.16538 -1.3589 0.566912
0 1.16538 -1.3589 0.566912
0 1.16538 -1.3589 0.566912
0 1.16538 -1.3589 0.566912
0 1.16538 -1.3589 0.566912
0 1.16538 -1.3589 0.566912
0 1.16538 -1.3589 0.566912
0 1.16538 -1.3589 0.566912
0 1.16538 -1.3589 0.566912
0 1.16538 -1.3589 0.566912
0 1.16538 -1.3589 0.566912
0 1.16538 -1.3589 0.566912
0 1.16538 -1.3589 0.566912
0 1.16538 -1.3589 0.566912
0 1.16538 -1.3589 0.566912
0 1.16538 -1.3589 0.566912
0 1.16538 -1.3589 0.566912
0 1.16538 -1.3589 0.566912
0 1.16538 -1.3589 0.566912
0 1.16538 -1.3589 0.566912
0 1.16538 -1.3589 0.566912
0 1.16538 -1.3589 0.566912
0 1.16538 -1.3589 0.566912
0 1.16538 -1.3589 0.566912
0 1.16538 -1.3589 0.566912
0 1.16538 -1.3589 0.566912
0 1.16538 -1.3589 0.566912
0 1.16538 -1.3589 0.566912
0 1.16538 -1.3589 0.566912
0 1.16538 -1.3589 0.566912
0 1.16538 -1.3589 0.566912
0 1.16538 -1.3589 0.566912
0 1.16538 -1.3589 0.566912
0 1.16538 -1.3589 0.566912
0 1.16538 -1.3589 0.566912
0 1.16538 -1.3589 0.566912
0 1.16538 -1.3589 0.566912
0 1.16538 -1.3589 0.566912
0 1.16538 -1.3589 0.566912
0 1.16538 -1.3589 0.566912
0 1.16538 -1.3589 0.566912
0 1.16538 -1.3589 0.566912
0 1.16538 -1.3589 0.566912
0 1.16538 -1.3589 0.566912
0 1.16538 -1.3589 0.566912
0 1.16538 -1.3589 0.566912
0 1.16538 -1.3589 0.566912
0 1.16538 -1.3589 0.566912
0 1.16538 -1.3589 0.566912
0 1.16538 -1.3589 0.566912
0 1.16538 -1.3589 0.566912
0 1.16538 -1.3589 0.566912
0 1.16538 -1.3589 0.566912
0 1.16538 -1.3589 0.566912
0 1.16538 -1.3589 0.566912
0 1.16538 -1.3589 0.566912
0 1.16538 -1.3589 0.566912
0 1.16538 -1.3589 0.566912
0 1.16538 -1.3589 0.566912
0 1.16538 -1.3589 0.566912
0 1.16538 -1.3589 0.566912
0 1.16538 -1.3589 0.566912
0 1.16538 -1.3589 0.566912
0 1.16538 -1.3589 0.566912
0 1.16538 -1.3589 0.566912
0 1.16538 -1.3589 0.566912
0 1.16538 -1.3589 0.566912
0 1.16538 -1.3589 0.566912
0 1.16538 -1.3589 0.566912
0 1.16538 -1.3589 0.566912
0 1.16538 -1.3589 0.566912
0 1.16538 -1.3589 0.566912
0 1.16538 -1.3589 0.566912
0 1.16538 -1.3589 0.566912
0 1.16538 -1.3589 0.566912
0 1.16538 -1.3589 0.566912
0 1.16538 -1.3589 0.566912
0 1.16538 -1.3589 0.566912
0 1.16538 -1.3589 0.566912
0 1.16538 -1.3589 0.566912
0 1.16538 -1.3589 0.566912
0 1.16538 -1.3589 0.566912
0 1.16538 -1.3589 0.566912
0 1.16538 -1.3589 0.566912
0 1.16538 -1.3589 0.566912
0 1.16538 -1.3589 0.566912
0 1.16538 -1.3589 0.566912
0 1.16538 -1.3589 0.566912
0 1.16538 -1.3589 0.566912
0 1.16538 -1.3589 0.566912
0 1.16538 -1.3589 0.566912
0 1.16538 -1.3589 0.566912
0 1.16538 -1.3589 0.566912
0 1.16538 -1.3589 0.566912
0 1.16538 -1.3589 0.566912
0 1.16538 -1.3589 0.566912
0 1.16538 -1.3589 0.566912
0 1.16538 -1.3589 0.566912
0 1.16538 -1.3589 0.566912
0 1.16538 -1.3589 0.566912
0 1.16538 -1.3589 0.566912
0 1.16538 -1.3589 0.566912
0 1.16538 -1.3589 0.566912
0 1.16538 -1.3589 0.566912
0 1.16538 -1.3589 0.566912
0 1.16538 -1.3589 0.566912
0 1.16538 -1.3589 0.566912
0 1.16538 -1.3589 0.566912
0 1.16538 -1.3589 0.566912
0 1.16538 -1.3589 0.566912
0 1.16538 -1.3589 0.566912
0 1.16538 -1.3589 0.566912
0 1.16538 -1.3589 0.566912
0 1.16538 -1.3589 0.566912
0 1.16538 -1.3589 0.566912
0 1.16538 -1.3589 0.566912
0 1.16538 -1.3589 0.566912
0 1.16538 -1.3589 0.566912
0 1.16538 -1.3589 0.566912
0 1.16538 -1.3589 0.566912
0 1.16538 -1.3589 0.566912
0 1.16538 -1.3589 0.566912
0 1.16538 -1.3589 0.566912
0 1.16538 -1.3589 0.566912
0 1.16538 -1.3589 0.566912
0 1.16538 -1.3589 0.566912
0 1.16538 -1.3589 0.566912
0 1.16538 -1.3589 0.566912
0 1.16538 -1.3589 0.566912
0 1.16538 -1.3589 0.566912
0 1.16538 -1.3589 0.566912
0 1.16538 -1.3589 0.566912
0 1.16538 -1.3589 0.566912
0 1.16538 -1.3589 0.566912
0 1.16538 -1.3589 0.566912
0 1.16538 -1.3589 0.566912
0 1.16538 -1.3589 0.566912
0 1.16538 -1.3589 0.566912
0 1.16538 -1.3589 0.566912
0 1.16538 -1.3589 0.566912
0 1.16538 -1.3589 0.566912
0 1.16538 -1.3589 0.566912
0 1.16538 -1.3589 0.566912
0 1.16538 -1.3589 0.566912
0 1.16538 -1.3589 0.566912
0 1.16538 -1.3589 0.566912
0 1.16538 -1.3589 0.566912
0 1.16538 -1.3589 0.566912
0 1.16538 -1.3589 0.566912
0 1.16538 -1.3589 0.566912
0 1.16538 -1.3589 0.566912
0 1.16538 -1.3589 0.566912
0 1.16538 -1.3589 0.566912
0 1.16538 -1.3589 0.566912
0 1.16538 -1.3589 0.566912
0 1.16538 -1.3589 0.566912
0 1.16538 -1.3589 0.566912
0 1.16538 -1.3589 0.566912
0 1.16538 -1.3589 0.566912
0 1.16538 -1.3589 0.566912
0 1.16538 -1.3589 0.566912
0 1.16538 -1.3589 0.566912
0 1.16538 -1.3589 0.566912
0 1.16538 -1.3589 0.566912
0 1.16538 -1.3589 0.566912
0 1.16538 -1.3589 0.566912
0 1.16538 -1.3589 0.566912
0 1.16538 -1.3589 0.566912
0 1.16538 -1.3589 0.566912
0 1.16538 -1.3589 0.566912
0 1.16538 -1.3589 0.566912
0 1.16538 -1.3589 0.566912
0 1.16538 -1.3589 0.566912
0 1.16538 -1.3589 0.566912
0 1.16538 -1.3589 0.566912
0 1.16538 -1.3589 0.566912
0 1.16538 -1.3589 0.566912
0 1.16538 -1.3589 0.566912
0 1.16538 -1.3589 0.566912
0 1.16538 -1.3589 0.566912
0 1.16538 -1.3589 0.566912
0 1.16538 -1.3589 0.566912
0 1.16538 -1.3589 0.566912
0 1.16538 -1.3589 0.566912
0 1.16538 -1.3589 0.566912
0 1.16538 -1.3589 0.566912
0 1.16538 -1.3589 0.566912
0 1.16538 -1.3589 0.566912
0 1.16538 -1.3589 0.566912
0 1.16538 -1.3589 0.566912
0 1.16538 -1.3589 0.566912
0 1.16538 -1.3589 0.566912
0 1.16538 -1.3589 0.566912
0 1.16538 -1.3589 0.566912
0 1.16538 -1.3589 0.566912
0 1.16538 -1.3589 0.566912
0 1.16538 -1.3589 0.566912
0 1.16538 -1.3589 0.566912
0 1.16538 -1.3589 0.566912
0 1.16538 -1.3589 0.566912
0 1.16538 -1.3589 0.566912
0 1.16538 -1.3589 0.566912
0 1.16538 -1.3589 0.566912
0 1.16538 -1.3589 0.566912
0 1.16538 -1.3589 0.566912
0 1.16538 -1.3589 0.566912
0 1.16538 -1.3589 0.566912
0 1.16538 -1.3589 0.566912
0 1.16538 -1.3589 0.566912
0 1.16538 -1.3589 0.566912
0 1.16538 -1.3589 0.566912
0 1.16538 -1.3589 0.566912
0 1.16538 -1.3589 0.566912
0 1.16538 -1.3589 0.566912
0 1.16538 -1.3589 0.566912
0 1.16538 -1.3589 0.566912
0 1.16538 -1.3589 0.566912
0 1.16538 -1.3589 0.566912
0 1.16538 -1.3589 0.566912
0 1.16538 -1.3589 0.566912
0 1.16538 -1.3589 0.566912
0 1.16538 -1.3589 0.566912
0 1.16538 -1.3589 0.566912
0 1.16538 -1.3589 0.566912
0 1.16538 -1.3589 0.566912
0 1.16538 -1.3589 0.566912
0 1.16538 -1.3589 0.566912
0 1.16538 -1.3589 0.566912
0 1.16538 -1.3589 0.566912
0 1.16538 -1.3589 0.566912
0 1.16538 -1.3589 0.566912
0 1.16538 -1.3589 0.566912
0 1.16538 -1.3589 0.566912
0 1.16538 -1.3589 0.566912
0 1.16538 -1.3589 0.566912
0 1.16538 -1.3589 0.566912
0 1.16538 -1.3589 0.566912
0 1.16538 -1.3589 0.566912
0 1.16538 -1.3589 0.566912
0 1.16538 -1.3589 0.566912
0 1.16538 -1.3589 0.566912
0 1.16538 -1.3589 0.566912
0 1.16538 -1.3589 0.566912
0 1.16538 -1.3589 0.566912
0 1.16538 -1.3589 0.566912
0 1.16538 -1.3589 0.566912
0 1.16538 -1.3589 0.566912
0 1.16538 -1.3589 0.566912
0 1.16538 -1.3589 0.566912
0 1.16538 -1.3589 0.566912
0 1.16538 -1.3589 0.566912
0 1.16538 -1.3589 0.566912
0 1.16538 -1.3589 0.566912
0 1.16538 -1.3589 0.566912
0 1.16538 -1.3589 0.566912
0 1.16538 -1.3589 0.566912
0 1.16538 -1.3589 0.566912
0 1.16538 -1.3589 0.566912
0 1.16538 -1.3589 0.566912
0 1.16538 -1.3589 0.566912
0 1.16538 -1.3589 0.566912
0 1.16538 -1.3589 0.566912
0 1.16538 -1.3589 0.566912
0 1.16538 -1.3589 0.566912
0 1.16538 -1.3589 0.566912
0 1.16538 -1.3589 0.566912
0 1.16538 -1.3589 0.566912
0 1.16538 -1.3589 0.566912
0 1.16538 -1.3589 0.566912
0 1.16538 -1.3589 0.566912
0 1.16538 -1.3589 0.566912
0 1.16538 -1.3589 0.566912
0 1.16538 -1.3589 0.566912
0 1.16538 -1.3589 0.566912
0 1.16538 -1.3589 0.566912
0 1.16538 -1.3589 0.566912
0 1.16538 -1.3589 0.566912
0 1.16538 -1.3589 0.566912
0 1.16538 -1.3589 0.566912
0 1.16538 -1.3589 0.566912
0 1.16538 -1.3589 0.566912
0 1.16538 -1.3589 0.566912
0 1.16538 -1.3589 0.566912
0 1.16538 -1.3589 0.566912
0 1.16538 -1.3589 0.566912
0 1.16538 -1.3589 0.566912
0 1.16538 -1.3589 0.566912
0 1.16538 -1.3589 0.566912
0 1.16538 -1.3589 0.566912
0 1.16538 -1.3589 0.566912
0 1.16538 -1.3589 0.566912
0 1.16538 -1.3589 0.566912
0 1.16538 -1.3589 0.566912
0 1.16538 -1.3589 0.566912
0 1.16538 -1.3589 0.566912
0 1.16538 -1.3589 0.566912
0 1.16538 -1.3589 0.566912
0 1.16538 -1.3589 0.566912
0 1.16538 -1.3589 0.566912
0 1.16538 -1.3589 0.566912
0 1.16538 -1.3589 0.566912
0 1.16538 -1.3589 0.566912
0 1.16538 -1.3589 0.566912
0 1.16538 -1.3589 0.566912
0 1.16538 -1.3589 0.566912
0 1.16538 -1.3589 0.566912
0 1.16538 -1.3589 0.566912
0 1.16538 -1.3589 0.566912
0 1.16538 -1.3589 0.566912
0 1.16538 -1.3589 0.566912
0 1.16538 -1.3589 0.566912
0 1.16538 -1.3589 0.566912
0 1.16538 -1.3589 0.566912
0 1.16538 -1.3589 0.566912
0 1.16538 -1.3589 0.566912
0 1.16538 -1.3589 0.566912
0 1.16538 -1.3589 0.566912
0 1.16538 -1.3589 0.566912
0 1.16538 -1.3589 0.566912
0 1.16538 -1.3589 0.566912
0 1.16538 -1.3589 0.566912
0 1.16538 -1.3589 0.566912
0 1.16538 -1.3589 0.566912
0 1.16538 -1.3589 0.566912
0 1.16538 -1.3589 0.566912
0 1.16538 -1.3589 0.566912
0 1.16538 -1.3589 0.566912
0 1.16538 -1.3589 0.566912
0 1.16538 -1.3589 0.566912
0 1.16538 -1.3589 0.566912
0 1.16538 -1.3589 0.566912
0 1.16538 -1.3589 0.566912
0 1.16538 -1.3589 0.566912
0 1.16538 -1.3589 0.566912
0 1.16538 -1.3589 0.566912
0 1.16538 -1.3589 0.566912
0 1.16538 -1.3589 0.566912
0 1.16538 -1.3589 0.566912
0 1.16538 -1.3589 0.566912
0 1.16538 -1.3589 0.566912
0 1.16538 -1.3589 0.566912
0 1.16538 -1.3589 0.566912
0 1.16538 -1.3589 0.566912
0 1.16538 -1.3589 0.566912
0 1.16538 -1.3589 0.566912
0 1.16538 -1.3589 0.566912
0 1.16538 -1.3589 0.566912
0 1.16538 -1.3589 0.566912
0 1.16538 -1.3589 0.566912
0 1.16538 -1.3589 0.566912
0 1.16538 -1.3589 0.566912
0 1.16538 -1.3589 0.566912
0 1.16538 -1.3589 0.566912
0 1.16538 -1.3589 0.566912
0 1.16538 -1.3589 0.566912
0 1.16538 -1.3589 0.566912
0 1.16538 -1.3589 0.566912
0 1.16538 -1.3589 0.566912
0 1.16538 -1.3589 0.566912
0 1.16538 -1.3589 0.566912
0 1.16538 -1.3589 0.566912
0 1.16538 -1.3589 0.566912
0 1.16538 -1.3589 0.566912
0 1.16538 -1.3589 0.566912
0 1.16538 -1.3589 0.566912
0 1.16538 -1.3589 0.566912
0 1.16538 -1.3589 0.566912
0 1.16538 -1.3589 0.566912
0 1.16538 -1.3589 0.566912
0 1.16538 -1.3589 0.566912
0 1.16538 -1.3589 0.566912
0 1.16538 -1.3589 0.566912
0 1.16538 -1.3589 0.566912
0 1.16538 -1.3589 0.566912
0 1.16538 -1.3589 0.566912
0 1.16538 -1.3589 0.566912
0 1.16538 -1.3589 0.566912
0 1.16538 -1.3589 0.566912
0 1.16538 -1.3589 0.566912
0 1.16538 -1.3589 0.566912
0 1.16538 -1.3589 0.566912
0 1.16538 -1.3589 0.566912
0 1.16538 -1.3589 0.566912
0 1.16538 -1.3589 0.566912
0 1.16538 -1.3589 0.566912
0 1.16538 -1.3589 0.566912
0 1.16538 -1.3589 0.566912
0 1.16538 -1.3589 0.566912
0 1.16538 -1.3589 0.566912
0 1.16538 -1.3589 0.566912
0 1.16538 -1.3589 0.566912
0 1.16538 -1.3589 0.566912
0 1.16538 -1.3589 0.566912
0 1.16538 -1.3589 0.566912
0 1.16538 -1.3589 0.566912
0 1.16538 -1.3589 0.566912
0 1.16538 -1.3589 0.566912
0 1.16538 -1.3589 0.566912
0 1.16538 -1.3589 0.566912
0 1.16538 -1.3589 0.566912
0 1.16538 -1.3589 0.566912
0 1.16538 -1.3589 0.566912
0 1.16538 -1.3589 0.566912
0 1.16538 -1.3589 0.566912
0 1.16538 -1.3589 0.566912
0 1.16538 -1.3589 0.566912
0 1.16538 -1.3589 0.566912
0 1.16538 -1.3589 0.566912
0 1.16538 -1.3589 0.566912
0 1.16538 -1.3589 0.566912
0 1.16538 -1.3589 0.566912
0 1.16538 -1.3589 0.566912
0 1.16538 -1.3589 0.566912
0 1.16538 -1.3589 0.566912
0 1.16538 -1.3589 0.566912
0 1.16538 -1.3589 0.566912
0 1.16538 -1.3589 0.566912
0 1.16538 -1.3589 0.566912
0 1.16538 -1.3589 0.566912
0 1.16538 -1.3589 0.566912
0 1.16538 -1.3589 0.566912
0 1.16538 -1.3589 0.566912
0 1.16538 -1.3589 0.566912
0 1.16538 -1.3589 0.566912
0 1.16538 -1.3589 0.566912
0 1.16538 -1.3589 0.566912
0 1.16538 -1.3589 0.566912
0 1.16538 -1.3589 0.566912
0 1.16538 -1.3589 0.566912
0 1.16538 -1.3589 0.566912
0 1.16538 -1.3589 0.566912
0 1.16538 -1.3589 0.566912
0 1.16538 -1.3589 0.566912
0 1.16538 -1.3589 0.566912
0 1.16538 -1.3589 0.566912
0 1.16538 -1.3589 0.566912
0 1.16538 -1.3589 0.566912
0 1.16538 -1.3589 0.566912
0 1.16538 -1.3589 0.566912
0 1.16538 -1.3589 0.566912
0 1.16538 -1.3589 0.566912
0 1.16538 -1.3589 0.566912
0 1.16538 -1.3589 0.566912
0 1.16538 -1.3589 0.566912
0 1.16538 -1.3589 0.566912
0 1.16538 -1.3589 0.566912
0 1.16538 -1.3589 0.566912
0 1.16538 -1.3589 0.566912
0 1.16538 -1.3589 0.566912
0 1.16538 -1.3589 0.566912
0 1.16538 -1.3589 0.566912
0 1.16538 -1.3589 0.566912
0 1.16538 -1.3589 0.566912
0 1.16538 -1.3589 0.566912
0 1.16538 -1.3589 0.566912
0 1.16538 -1.3589 0.566912
0 1.16538 -1.3589 0.566912
0 1.16538 -1.3589 0.566912
0 1.16538 -1.3589 0.566912
0 1.16538 -1.3589 0.566912
0 1.16538 -1.3589 0.566912
0 1.16538 -1.3589 0.566912
0 1.16538 -1.3589 0.566912
0 1.16538 -1.3589 0.566912
0 1.16538 -1.3589 0.566912
0 1.16538 -1.3589 0.566912
0 1.16538 -1.3589 0.566912
0 1.16538 -1.3589 0.566912
0 1.16538 -1.3589 0.566912
0 1.16538 -1.3589 0.566912
0 1.16538 -1.3589 0.566912
0 1.16538 -1.3589 0.566912
0 1.16538 -1.3589 0.566912
0 1.16538 -1.3589 0.566912
0 1.16538 -1.3589 0.566912
0 1.16538 -1.3589 0.566912
0 1.16538 -1.3589 0.566912
0 1.16538 -1.3589 0.566912
0 1.16538 -1.3589 0.566912
0 1.16538 -1.3589 0.566912
0 1.16538 -1.3589 0.566912
0 1.16538 -1.3589 0.566912
0 1.16538 -1.3589 0.566912
0 1.16538 -1.3589 0.566912
0 1.16538 -1.3589 0.566912
0 1.16538 -1.3589 0.566912
0 1.16538 -1.3589 0.566912
0 1.16538 -1.3589 0.566912
0 1.16538 -1.3589 0.566912
0 1.16538 -1.3589 0.566912
0 1.16538 -1.3589 0.566912
0 1.16538 -1.3589 0.566912
0 1.16538 -1.3589 0.566912
0 1.16538 -1.3589 0.566912
0 1.16538 -1.3589 0.566912
0 1.16538 -1.3589 0.566912
0 1.16538 -1.3589 0.566912
0 1.16538 -1.3589 0.566912
0 1.16538 -1.3589 0.566912
0 1.16538 -1.3589 0.566912
0 1.16538 -1.3589 0.566912
0 1.16538 -1.3589 0.566912
0 1.16538 -1.3589 0.566912
0 1.16538 -1.3589 0.566912
0 1.16538 -1.3589 0.566912
0 1.16538 -1.3589 0.566912
0 1.16538 -1.3589 0.566912
0 1.16538 -1.3589 0.566912
0 1.16538 -1.3589 0.566912
0 1.16538 -1.3589 0.566912
0 1.16538 -1.3589 0.566912
0 1.16538 -1.3589 0.566912
0 1.16538 -1.3589 0.566912
0 1.16538 -1.3589 0.566912
0 1.16538 -1.3589 0.566912
0 1.16538 -1.3589 0.566912
0 1.16538 -1.3589 0.566912
0 1.16538 -1.3589 0.566912
0 1.16538 -1.3589 0.566912
0 1.16538 -1.3589 0.566912
0 1.16538 -1.3589 0.566912
0 1.16538 -1.3589 0.566912
0 1.16538 -1.3589 0.566912
0 1.16538 -1.3589 0.566912
0 1.16538 -1.3589 0.566912
0 1.16538 -1.3589 0.566912
0 1.16538 -1.3589 0.566912
0 1.16538 -1.3589 0.566912
0 1.16538 -1.3589 0.566912
0 1.16538 -1.3589 0.566912
0 1.16538 -1.3589 0.566912
0 1.16538 -1.3589 0.566912
0 1.16538 -1.3589 0.566912
0 1.16538 -1.3589 0.566912
0 1.16538 -1.3589 0.566912
0 1.16538 -1.3589 0.566912
0 1.16538 -1.3589 0.566912
0 1.16538 -1.3589 0.566912
0 1.16538 -1.3589 0.566912
0 1.16538 -1.3589 0.566912
0 1.16538 -1.3589 0.566912
0 1.16538 -1.3589 0.566912
0 1.16538 -1.3589 0.566912
0 1.16538 -1.3589 0.566912
0 1.16538 -1.3589 0.566912
0 1.16538 -1.3589 0.566912
0 1.16538 -1.3589 0.566912
0 1.16538 -1.3589 0.566912
0 1.16538 -1.3589 0.566912
0 1.16538 -1.3589 0.566912
0 1.16538 -1.3589 0.566912
0 1.16538 -1.3589 0.566912
0 1.16538 -1.3589 0.566912
0 1.16538 -1.3589 0.566912
0 1.16538 -1.3589 0.566912
0 1.16538 -1.3589 0.566912
0 1.16538 -1.3589 0.566912
0 1.16538 -1.3589 0.566912
0 1.16538 -1.3589 0.566912
0 1.16538 -1.3589 0.566912
0 1.16538 -1.3589 0.566912
0 1.16538 -1.3589 0.566912
0 1.16538 -1.3589 0.566912
0 1.16538 -1.3589 0.566912
0 1.16538 -1.3589 0.566912
0 1.16538 -1.3589 0.566912
0 1.16538 -1.3589 0.566912
0 1.16538 -1.3589 0.566912
0 1.16538 -1.3589 0.566912
0 1.16538 -1.3589 0.566912
0 1.16538 -1.3589 0.566912
0 1.16538 -1.3589 0.566912
0 1.16538 -1.3589 0.566912
0 1.16538 -1.3589 0.566912
0 1.16538 -1.3589 0.566912
0 1.16538 -1.3589 0.566912
0 1.16538 -1.3589 0.566912
0 1.16538 -1.3589 0.566912
0 1.16538 -1.3589 0.566912
0 1.16538 -1.3589 0.566912
0 1.16538 -1.3589 0.566912
0 1.16538 -1.3589 0.566912
0 1.16538 -1.3589 0.566912
0 1.16538 -1.3589 0.566912
0 1.16538 -1.3589 0.566912
0 1.16538 -1.3589 0.566912
0 1.16538 -1.3589 0.566912
0 1.16538 -1.3589 0.566912
0 1.16538 -1.3589 0.566912
0 1.16538 -1.3589 0.566912
0 1.16538 -1.3589 0.566912
0 1.16538 -1.3589 0.566912
0 1.16538 -1.3589 0.566912
0 1.16538 -1.3589 0.566912
0 1.16538 -1.3589 0.566912
0 1.16538 -1.3589 0.566912
0 1.16538 -1.3589 0.566912
0 1.16538 -1.3589 0.566912
0 1.16538 -1.3589 0.566912
0 1.16538 -1.3589 0.566912
0 1.16538 -1.3589 0.566912
0 1.16538 -1.3589 0.566912
0 1.16538 -1.3589 0.566912
0 1.16538 -1.3589 0.566912
0 1.16538 -1.3589 0.566912
0 1.16538 -1.3589 0.566912
0 1.16538 -1.3589 0.566912
0 1.16538 -1.3589 0.566912
0 1.16538 -1.3589 0.566912
0 1.16538 -1.3589 0.566912
0 1.16538 -1.3589 0.566912
0 1.16538 -1.3589 0.566912
0 1.16538 -1.3589 0.566912
0 1.16538 -1.3589 0.566912
0 1.16538 -1.3589 0.566912
0 1.16538 -1.3589 0.566912
0 1.16538 -1.3589 0.566912
0 1.16538 -1.3589 0.566912
0 1.16538 -1.3589 0.566912
0 1.16538 -1.3589 0.566912
0 1.16538 -1.3589 0.566912
0 1.16538 -1.3589 0.566912
0 1.16538 -1.3589 0.566912
0 1.16538 -1.3589 0.566912
0 1.16538 -1.3589 0.566912
0 1.16538 -1.3589 0.566912
0 1.16538 -1.3589 0.566912
0 1.16538 -1.3589 0.566912
0 1.16538 -1.3589 0.566912
0 1.16538 -1.3589 0.566912
0 1.16538 -1.3589 0.566912
0 1.16538 -1.3589 0.566912
0 1.16538 -1.3589 0.566912
0 1.16538 -1.3589 0.566912
0 1.16538 -1.3589 0.566912
0 1.16538 -1.3589 0.566912
0 1.16538 -1.3589 0.566912
0 1.16538 -1.3589 0.566912
0 1.16538 -1.3589 0.566912
0 1.16538 -1.3589 0.566912
0 1.16538 -1.3589 0.566912
0 1.16538 -1.3589 0.566912
0 1.16538 -1.3589 0.566912
0 1.16538 -1.3589 0.566912
0 1.16538 -1.3589 0.566912
0 1.16538 -1.3589 0.566912
0 1.16538 -1.3589 0.566912
0 1.16538 -1.3589 0.566912
0 1.16538 -1.3589 0.566912
0 1.16538 -1.3589 0.566912
0 1.16538 -1.3589 0.566912
0 1.16538 -1.3589 0.566912
0 1.16538 -1.3589 0.566912
0 1.16538 -1.3589 0.566912
0 1.16538 -1.3589 0.566912
0 1.16538 -1.3589 0.566912
0 1.16538 -1.3589 0.566912
0 1.16538 -1.3589 0.566912
0 1.16538 -1.3589 0.566912
0 1.16538 -1.3589 0.566912
0 1.16538 -1.3589 0.566912
0 1.16538 -1.3589 0.566912
0 1.16538 -1.3589 0.566912
0 1.16538 -1.3589 0.566912
0 1.16538 -1.3589 0.566912
0 1.16538 -1.3589 0.566912
0 1.16538 -1.3589 0.566912
0 1.16538 -1.3589 0.566912
0 1.16538 -1.3589 0.566912
0 1.16538 -1.3589 0.566912
0 1.16538 -1.3589 0.566912
0 1.16538 -1.3589 0.566912
0 1.16538 -1.3589 0.566912
0 1.16538 -1.3589 0.566912
0 1.16538 -1.3589 0.566912
0 1.16538 -1.3589 0.566912
0 1.16538 -1.3589 0.566912
0 1.16538 -1.3589 0.566912
0 1.16538 -1.3589 0.566912
0 1.16538 -1.3589 0.566912
0 1.16538 -1.3589 0.566912
0 1.16538 -1.3589 0.566912
0 1.16538 -1.3589 0.566912
0 1.16538 -1.3589 0.566912
0 1.16538 -1.3589 0.566912
0 1.16538 -1.3589 0.566912
0 1.16538 -1.3589 0.566912
0 1.16538 -1.3589 0.566912
0 1.16538 -1.3589 0.566912
0 1.16538 -1.3589 0.566912
0 1.16538 -1.3589 0.566912
0 1.16538 -1.3589 0.566912
0 1.16538 -1.3589 0.566912
0 1.16538 -1.3589 0.566912
0 1.16538 -1.3589 0.566912
0 1.16538 -1.3589 0.566912
0 1.16538 -1.3589 0.566912
0 1.16538 -1.3589 0.566912
0 1.16538 -1.3589 0.566912
0 1.16538 -1.3589 0.566912
0 1.16538 -1.3589 0.566912
0 1.16538 -1.3589 0.566912
0 1.16538 -1.3589 0.566912
0 1.16538 -1.3589 0.566912
0 1.16538 -1.3589 0.566912
0 1.16538 -1.3589 0.566912
0 1.16538 -1.3589 0.566912
0 1.16538 -1.3589 0.566912
0 1.16538 -1.3589 0.566912
0 1.16538 -1.3589 0.566912
0 1.16538 -1.3589 0.566912
0 1.16538 -1.3589 0.566912
0 1.16538 -1.3589 0.566912
0 1.16538 -1.3589 0.566912
0 1.16538 -1.3589 0.566912
0 1.16538 -1.3589 0.566912
0 1.16538 -1.3589 0.566912
0 1.16538 -1.3589 0.566912
0 1.16538 -1.3589 0.566912
0 1.16538 -1.3589 0.566912
0 1.16538 -1.3589 0.566912
0 1.16538 -1.3589 0.566912
0 1.16538 -1.3589 0.566912
0 1.16538 -1.3589 0.566912
0 1.16538 -1.3589 0.566912
0 1.16538 -1.3589 0.566912
0 1.16538 -1.3589 0.566912
0 1.16538 -1.3589 0.566912
0 1.16538 -1.3589 0.566912
0 1.16538 -1.3589 0.566912
0 1.16538 -1.3589 0.566912
0 1.16538 -1.3589 0.566912
0 1.16538 -1.3589 0.566912
0 1.16538 -1.3589 0.566912
0 1.16538 -1.3589 0.566912
0 1.16538 -1.3589 0.566912
0 1.16538 -1.3589 0.566912
0 1.16538 -1.3589 0.566912
0 1.16538 -1.3589 0.566912
0 1.16538 -1.3589 0.566912
0 1.16538 -1.3589 0.566912
0 1.16538 -1.3589 0.566912
0 1.16538 -1.3589 0.566912
0 1.16538 -1.3589 0.566912
0 1.16538 -1.3589 0.566912
0 1.16538 -1.3589 0.566912
0 1.16538 -1.3589 0.566912
0 1.16538 -1.3589 0.566912
0 1.16538 -1.3589 0.566912
0 1.16538 -1.3589 0.566912
0 1.16538 -1.3589 0.566912
0 1.16538 -1.3589 0.566912
0 1.16538 -1.3589 0.566912
0 1.16538 -1.3589 0.566912
0 1.16538 -1.3589 0.566912
0 1.16538 -1.3589 0.566912
0 1.16538 -1.3589 0.566912
0 1.16538 -1.3589 0.566912
0 1.16538 -1.3589 0.566912
0 1.16538 -1.3589 0.566912
0 1.16538 -1.3589 0.566912
0 1.16538 -1.3589 0.566912
0 1.16538 -1.3589 0.566912
0 1.16538 -1.3589 0.566912
0 1.16538 -1.3589 0.566912
0 1.16538 -1.3589 0.566912
0 1.16538 -1.3589 0.566912
0 1.16538 -1.3589 0.566912
0 1.16538 -1.3589 0.566912
0 1.16538 -1.3589 0.566912
0 1.16538 -1.3589 0.566912
0 1.16538 -1.3589 0.566912
0 1.16538 -1.3589 0.566912
0 1.16538 -1.3589 0.566912
0 1.16538 -1.3589 0.566912
0 1.16538 -1.3589 0.566912
0 1.16538 -1.3589 0.566912
0 1.16538 -1.3589 0.566912
0 1.16538 -1.3589 0.566912
0 1.16538 -1.3589 0.566912
0 1.16538 -1.3589 0.566912
0 1.16538 -1.3589 0.566912
0 1.16538 -1.3589 0.566912
0 1.16538 -1.3589 0.566912
0 1.16538 -1.3589 0.566912
0 1.16538 -1.3589 0.566912
0 1.16538 -1.3589 0.566912
0 1.16538 -1.3589 0.566912
0 1.16538 -1.3589 0.566912
0 1.16538 -1.3589 0.566912
0 1.16538 -1.3589 0.566912
0 1.16538 -1.3589 0.566912
0 1.16538 -1.3589 0.566912
0 1.16538 -1.3589 0.566912
0 1.16538 -1.3589 0.566912
0 1.16538 -1.3589 0.566912
0 1.16538 -1.3589 0.566912
0 1.16538 -1.3589 0.566912
0 1.16538 -1.3589 0.566912
0 1.16538 -1.3589 0.566912
0 1.16538 -1.3589 0.566912
0 1.16538 -1.3589 0.566912
0 1.16538 -1.3589 0.566912
0 1.16538 -1.3589 0.566912
0 1.16538 -1.3589 0.566912
0 1.16538 -1.3589 0.566912
0 1.16538 -1.3589 0.566912
0 1.16538 -1.3589 0.566912
0 1.16538 -1.3589 0.566912
0 1.16538 -1.3589 0.566912
0 1.16538 -1.3589 0.566912
0 1.16538 -1.3589 0.566912
0 1.16538 -1.3589 0.566912
0 1.16538 -1.3589 0.566912
0 1.16538 -1.3589 0.566912
0 1.16538 -1.3589 0.566912
0 1.16538 -1.3589 0.566912
0 1.16538 -1.3589 0.566912
0 1.16538 -1.3589 0.566912
0 1.16538 -1.3589 0.566912
0 1.16538 -1.3589 0.566912
0 1.16538 -1.3589 0.566912
0 1.16538 -1.3589 0.566912
0 1.16538 -1.3589 0.566912
0 1.16538 -1.3589 0.566912
0 1.16538 -1.3589 0.566912
0 1.16538 -1.3589 0.566912
0 1.16538 -1.3589 0.566912
0 1.16538 -1.3589 0.566912
0 1.16538 -1.3589 0.566912
0 1.16538 -1.3589 0.566912
0 1.16538 -1.3589 0.566912
0 1.16538 -1.3589 0.566912
0 1.16538 -1.3589 0.566912
0 1.16538 -1.3589 0.566912
0 1.16538 -1.3589 0.566912
0 1.16538 -1.3589 0.566912
0 1.16538 -1.3589 0.566912
0 1.16538 -1.3589 0.566912
0 1.16538 -1.3589 0.566912
0 1.16538 -1.3589 0.566912
0 1.16538 -1.3589 0.566912
0 1.16538 -1.3589 0.566912
0 1.16538 -1.3589 0.566912
0 1.16538 -1.3589 0.566912
0 1.16538 -1.3589 0.566912
0 1.16538 -1.3589 0.566912
0 1.16538 -1.3589 0.566912
0 1.16538 -1.3589 0.566912
0 1.16538 -1.3589 0.566912
0 1.16538 -1.3589 0.566912
0 1.16538 -1.3589 0.566912
0 1.16538 -1.3589 0.566912
0 1.16538 -1.3589 0.566912
0 1.16538 -1.3589 0.566912
0 1.16538 -1.3589 0.566912
0 1.16538 -1.3589 0.566912
0 1.16538 -1.3589 0.566912
0 1.16538 -1.3589 0.566912
0 1.16538 -1.3589 0.566912
0 1.16538 -1.3589 0.566912
0 1.16538 -1.3589 0.566912
0 1.16538 -1.3589 0.566912
0 1.16538 -1.3589 0.566912
0 1.16538 -1.3589 0.566912
0 1.16538 -1.3589 0.566912
0 1.16538 -1.3589 0.566912
0 1.16538 -1.3589 0.566912
0 1.16538 -1.3589 0.566912
0 1.16538 -1.3589 0.566912
0 1.16538 -1.3589 0.566912
0 1.16538 -1.3589 0.566912
0 1.16538 -1.3589 0.566912
0 1.16538 -1.3589 0.566912
0 1.16538 -1.3589 0.566912
0 1.16538 -1.3589 0.566912
0 1.16538 -1.3589 0.566912
0 1.16538 -1.3589 0.566912
0 1.16538 -1.3589 0.566912
0 1.16538 -1.3589 0.566912
0 1.16538 -1.3589 0.566912
0 1.16538 -1.3589 0.566912
0 1.16538 -1.3589 0.566912
0 1.16538 -1.3589 0.566912
0 1.16538 -1.3589 0.566912
0 1.16538 -1.3589 0.566912
0 1.16538 -1.3589 0.566912
0 1.16538 -1.3589 0.566912
0 1.16538 -1.3589 0.566912
0 1.16538 -1.3589 0.566912
0 1.16538 -1.3589 0.566912
0 1.16538 -1.3589 0.566912
0 1.16538 -1.3589 0.566912
0 1.16538 -1.3589 0.566912
0 1.16538 -1.3589 0.566912
0 1.16538 -1.3589 0.566912
0 1.16538 -1.3589 0.566912
0 1.16538 -1.3589 0.566912
0 1.16538 -1.3589 0.566912
0 1.16538 -1.3589 0.566912
0 1.16538 -1.3589 0.566912
0 1.16538 -1.3589 0.566912
0 1.16538 -1.3589 0.566912
0 1.16538 -1.3589 0.566912
0 1.16538 -1.3589 0.566912
0 1.16538 -1.3589 0.566912
0 1.16538 -1.3589 0.566912
0 1.16538 -1.3589 0.566912
0 1.16538 -1.3589 0.566912
0 1.16538 -1.3589 0.566912
0 1.16538 -1.3589 0.566912
0 1.16538 -1.3589 0.566912
0 1.16538 -1.3589 0.566912
0 1.16538 -1.3589 0.566912
0 1.16538 -1.3589 0.566912
0 1.16538 -1.3589 0.566912
0 1.16538 -1.3589 0.566912
0 1.16538 -1.3589 0.566912
0 1.16538 -1.3589 0.566912
0 1.16538 -1.3589 0.566912
0 1.16538 -1.3589 0.566912
0 1.16538 -1.3589 0.566912
0 1.16538 -1.3589 0.566912
0 1.16538 -1.3589 0.566912
0 1.16538 -1.3589 0.566912
0 1.16538 -1.3589 0.566912
0 1.16538 -1.3589 0.566912
0 1.16538 -1.3589 0.566912
0 1.16538 -1.3589 0.566912
0 1.16538 -1.3589 0.566912
0 1.16538 -1.3589 0.566912
0 1.16538 -1.3589 0.566912
0 1.16538 -1.3589 0.566912
0 1.16538 -1.3589 0.566912
0 1.16538 -1.3589 0.566912
0 1.16538 -1.3589 0.566912
0 1.16538 -1.3589 0.566912
0 1.16538 -1.3589 0.566912
0 1.16538 -1.3589 0.566912
0 1.16538 -1.3589 0.566912
0 1.16538 -1.3589 0.566912
0 1.16538 -1.3589 0.566912
0 1.16538 -1.3589 0.566912
0 1.16538 -1.3589 0.566912
0 1.16538 -1.3589 0.566912
0 1.16538 -1.3589 0.566912
0 1.16538 -1.3589 0.566912
0 1.16538 -1.3589 0.566912
0 1.16538 -1.3589 0.566912
0 1.16538 -1.3589 0.566912
0 1.16538 -1.3589 0.566912
0 1.16538 -1.3589 0.566912
0 1.16538 -1.3589 0.566912
0 1.16538 -1.3589 0.566912
0 1.16538 -1.3589 0.566912
0 1.16538 -1.3589 0.566912
0 1.16538 -1.3589 0.566912
0 1.16538 -1.3589 0.566912
0 1.16538 -1.3589 0.566912
0 1.16538 -1.3589 0.566912
0 1.16538 -1.3589 0.566912
0 1.16538 -1.3589 0.566912
0 1.16538 -1.3589 0.566912
0 1.16538 -1.3589 0.566912
0 1.16538 -1.3589 0.566912
0 1.16538 -1.3589 0.566912
0 1.16538 -1.3589 0.566912
0 1.16538 -1.3589 0.566912
0 1.16538 -1.3589 0.566912
0 1.16538 -1.3589 0.566912
0 1.16538 -1.3589 0.566912
0 1.16538 -1.3589 0.566912
0 1.16538 -1.3589 0.566912
0 1.16538 -1.3589 0.566912
0 1.16538 -1.3589 0.566912
0 1.16538 -1.3589 0.566912
0 1.16538 -1.3589 0.566912
0 1.16538 -1.3589 0.566912
0 1.16538 -1.3589 0.566912
0 1.16538 -1.3589 0.566912
0 1.16538 -1.3589 0.566912
0 1.16538 -1.3589 0.566912
0 1.16538 -1.3589 0.566912
0 1.16538 -1.3589 0.566912
0 1.16538 -1.3589 0.566912
0 1.16538 -1.3589 0.566912
0 1.16538 -1.3589 0.566912
0 1.16538 -1.3589 0.566912
0 1.16538 -1.3589 0.566912
0 1.16538 -1.3589 0.566912
0 1.16538 -1.3589 0.566912
0 1.16538 -1.3589 0.566912
0 1.16538 -1.3589 0.566912
0 1.16538 -1.3589 0.566912
0 1.16538 -1.3589 0.566912
0 1.16538 -1.3589 0.566912
0 1.16538 -1.3589 0.566912
0 1.16538 -1.3589 0.566912
0 1.16538 -1.3589 0.566912
0 1.16538 -1.3589 0.566912
0 1.16538 -1.3589 0.566912
0 1.16538 -1.3589 0.566912
0 1.16538 -1.3589 0.566912
0 1.16538 -1.3589 0.566912
0 1.16538 -1.3589 0.566912
0 1.16538 -1.3589 0.566912
0 1.16538 -1.3589 0.566912
0 1.16538 -1.3589 0.566912
0 1.16538 -1.3589 0.566912
0 1.16538 -1.3589 0.566912
0 1.16538 -1.3589 0.566912
0 1.16538 -1.3589 0.566912
0 1.16538 -1.3589 0.566912
0 1.16538 -1.3589 0.566912
0 1.16538 -1.3589 0.566912
0 1.16538 -1.3589 0.566912
0 1.16538 -1.3589 0.566912
0 1.16538 -1.3589 0.566912
0 1.16538 -1.3589 0.566912
0 1.16538 -1.3589 0.566912
0 1.16538 -1.3589 0.566912
0 1.16538 -1.3589 0.566912
0 1.16538 -1.3589 0.566912
0 1.16538 -1.3589 0.566912
0 1.16538 -1.3589 0.566912
0 1.16538 -1.3589 0.566912
0 1.16538 -1.3589 0.566912
0 1.16538 -1.3589 0.566912
0 1.16538 -1.3589 0.566912
0 1.16538 -1.3589 0.566912
0 1.16538 -1.3589 0.566912
0 1.16538 -1.3589 0.566912
0 1.16538 -1.3589 0.566912
0 1.16538 -1.3589 0.566912
0 1.16538 -1.3589 0.566912
0 1.16538 -1.3589 0.566912
0 1.16538 -1.3589 0.566912
0 1.16538 -1.3589 0.566912
0 1.16538 -1.3589 0.566912
0 1.16538 -1.3589 0.566912
0 1.16538 -1.3589 0.566912
0 1.16538 -1.3589 0.566912
0 1.16538 -1.3589 0.566912
0 1.16538 -1.3589 0.566912
0 1.16538 -1.3589 0.566912
0 1.16538 -1.3589 0.566912
0 1.16538 -1.3589 0.566912
0 1.16538 -1.3589 0.566912
0 1.16538 -1.3589 0.566912
0 1.16538 -1.3589 0.566912
0 1.16538 -1.3589 0.566912
0 1.16538 -1.3589 0.566912
0 1.16538 -1.3589 0.566912
0 1.16538 -1.3589 0.566912
0 1.16538 -1.3589 0.566912
0 1.16538 -1.3589 0.566912
0 1.16538 -1.3589 0.566912
0 1.16538 -1.3589 0.566912
0 1.16538 -1.3589 0.566912
0 1.16538 -1.3589 0.566912
0 1.16538 -1.3589 0.566912
0 1.16538 -1.3589 0.566912
0 1.16538 -1.3589 0.566912
0 1.16538 -1.3589 0.566912
0 1.16538 -1.3589 0.566912
0 1.16538 -1.3589 0.566912
0 1.16538 -1.3589 0.566912
0 1.16538 -1.3589 0.566912
0 1.16538 -1.3589 0.566912
0 1.16538 -1.3589 0.566912
0 1.16538 -1.3589 0.566912
0 1.16538 -1.3589 0.566912
0 1.16538 -1.3589 0.566912
0 1.16538 -1.3589 0.566912
0 1.16538 -1.3589 0.566912
0 1.16538 -1.3589 0.566912
0 1.16538 -1.3589 0.566912
0 1.16538 -1.3589 0.566912
0 1.16538 -1.3589 0.566912
0 1.16538 -1.3589 0.566912
0 1.16538 -1.3589 0.566912
0 1.16538 -1.3589 0.566912
0 1.16538 -1.3589 0.566912
0 1.16538 -1.3589 0.566912
0 1.16538 -1.3589 0.566912
0 1.16538 -1.3589 0.566912
0 1.16538 -1.3589 0.566912
0 1.16538 -1.3589 0.566912
0 1.16538 -1.3589 0.566912
0 1.16538 -1.3589 0.566912
0 1.16538 -1.3589 0.566912
0 1.16538 -1.3589 0.566912
0 1.16538 -1.3589 0.566912
0 1.16538 -1.3589 0.566912
0 1.16538 -1.3589 0.566912
0 1.16538 -1.3589 0.566912
0 1.16538 -1.3589 0.566912
0 1.16538 -1.3589 0.566912
0 1.16538 -1.3589 0.566912
0 1.16538 -1.3589 0.566912
0 1.16538 -1.3589 0.566912
0 1.16538 -1.3589 0.566912
0 1.16538 -1.3589 0.566912
0 1.16538 -1.3589 0.566912
0 1.16538 -1.3589 0.566912
0 1.16538 -1.3589 0.566912
0 1.16538 -1.3589 0.566912
0 1.16538 -1.3589 0.566912
0 1.16538 -1.3589 0.566912
0 1.16538 -1.3589 0.566912
0 1.16538 -1.3589 0.566912
0 1.16538 -1.3589 0.566912
0 1.16538 -1.3589 0.566912
0 1.16538 -1.3589 0.566912
0 1.16538 -1.3589 0.566912
0 1.16538 -1.3589 0.566912
0 1.16538 -1.3589 0.566912
0 1.16538 -1.3589 0.566912
0 1.16538 -1.3589 0.566912
0 1.16538 -1.3589 0.566912
0 1.16538 -1.3589 0.566912
0 1.16538 -1.3589 0.566912
0 1.16538 -1.3589 0.566912
0 1.16538 -1.3589 0.566912
0 1.16538 -1.3589 0.566912
0 1.16538 -1.3589 0.566912
0 1.16538 -1.3589 0.566912
0 1.16538 -1.3589 0.566912
0 1.16538 -1.3589 0.566912
0 1.16538 -1.3589 0.566912
0 1.16538 -1.3589 0.566912
0 1.16538 -1.3589 0.566912
0 1.16538 -1.3589 0.566912
0 1.16538 -1.3589 0.566912
0 1.16538 -1.3589 0.566912
0 1.16538 -1.3589 0.566912
0 1.16538 -1.3589 0.566912
0 1.16538 -1.3589 0.566912
0 1.16538 -1.3589 0.566912
0 1.16538 -1.3589 0.566912
0 1.16538 -1.3589 0.566912
0 1.16538 -1.3589 0.566912
0 1.16538 -1.3589 0.566912
0 1.16538 -1.3589 0.566912
0 1.16538 -1.3589 0.566912
0 1.16538 -1.3589 0.566912
0 1.16538 -1.3589 0.566912
0 1.16538 -1.3589 0.566912
0 1.16538 -1.3589 0.566912
0 1.16538 -1.3589 0.566912
0 1.16538 -1.3589 0.566912
0 1.16538 -1.3589 0.566912
0 1.16538 -1.3589 0.566912
0 1.16538 -1.3589 0.566912
0 1.16538 -1.3589 0.566912
0 1.16538 -1.3589 0.566912
0 1.16538 -1.3589 0.566912
0 1.16538 -1.3589 0.566912
0 1.16538 -1.3589 0.566912
0 1.16538 -1.3589 0.566912
0 1.16538 -1.3589 0.566912
0 1.16538 -1.3589 0.566912
0 1.16538 -1.3589 0.566912
0 1.16538 -1.3589 0.566912
0 1.16538 -1.3589 0.566912
0 1.16538 -1.3589 0.566912
0 1.16538 -1.3589 0.566912
0 1.16538 -1.3589 0.566912
0 1.16538 -1.3589 0.566912
0 1.16538 -1.3589 0.566912
0 1.16538 -1.3589 0.566912
0 1.16538 -1.3589 0.566912
0 1.16538 -1.3589 0.566912
0 1.16538 -1.3589 0.566912
0 1.16538 -1.3589 0.566912
0 1.16538 -1.3589 0.566912
0 1.16538 -1.3589 0.566912
0 1.16538 -1.3589 0.566912
0 1.16538 -1.3589 0.566912
0 1.16538 -1.3589 0.566912
0 1.16538 -1.3589 0.566912
0 1.16538 -1.3589 0.566912
0 1.16538 -1.3589 0.566912
0 1.16538 -1.3589 0.566912
0 1.16538 -1.3589 0.566912
0 1.16538 -1.3589 0.566912
0 1.16538 -1.3589 0.566912
0 1.16538 -1.3589 0.566912
0 1.16538 -1.3589 0.566912
0 1.16538 -1.3589 0.566912
0 1.16538 -1.3589 0.566912
0 1.16538 -1.3589 0.566912
0 1.16538 -1.3589 0.566912
0 1.16538 -1.3589 0.566912
0 1.16538 -1.3589 0.566912
0 1.16538 -1.3589 0.566912
0 1.16538 -1.3589 0.566912
0 1.16538 -1.3589 0.566912
0 1.16538 -1.3589 0.566912
0 1.16538 -1.3589 0.566912
0 1.16538 -1.3589 0.566912
0 1.16538 -1.3589 0.566912
0 1.16538 -1.3589 0.566912
0 1.16538 -1.3589 0.566912
0 1.16538 -1.3589 0.566912
0 1.16538 -1.3589 0.566912
0 1.16538 -1.3589 0.566912
0 1.16538 -1.3589 0.566912
0 1.16538 -1.3589 0.566912
0 1.16538 -1.3589 0.566912
0 1.16538 -1.3589 0.566912
0 1.16538 -1.3589 0.566912
0 1.16538 -1.3589 0.566912
0 1.16538 -1.3589 0.566912
0 1.16538 -1.3589 0.566912
0 1.16538 -1.3589 0.566912
0 1.16538 -1.3589 0.566912
0 1.16538 -1.3589 0.566912
0 1.16538 -1.3589 0.566912
0 1.16538 -1.3589 0.566912
0 1.16538 -1.3589 0.566912
0 1.16538 -1.3589 0.566912
0 1.16538 -1.3589 0.566912
0 1.16538 -1.3589 0.566912
0 1.16538 -1.3589 0.566912
0 1.16538 -1.3589 0.566912
0 1.16538 -1.3589 0.566912
0 1.16538 -1.3589 0.566912
0 1.16538 -1.3589 0.566912
0 1.16538 -1.3589 0.566912
0 1.16538 -1.3589 0.566912
0 1.16538 -1.3589 0.566912
0 1.16538 -1.3589 0.566912
0 1.16538 -1.3589 0.566912
0 1.16538 -1.3589 0.566912
0 1.16538 -1.3589 0.566912
0 1.16538 -1.3589 0.566912
0 1.16538 -1.3589 0.566912
0 1.16538 -1.3589 0.566912
0 1.16538 -1.3589 0.566912
0 1.16538 -1.3589 0.566912
0 1.16538 -1.3589 0.566912
0 1.16538 -1.3589 0.566912
0 1.16538 -1.3589 0.566912
0 1.16538 -1.3589 0.566912
0 1.16538 -1.3589 0.566912
0 1.16538 -1.3589 0.566912
0 1.16538 -1.3589 0.566912
0 1.16538 -1.3589 0.566912
0 1.16538 -1.3589 0.566912
0 1.16538 -1.3589 0.566912
0 1.16538 -1.3589 0.566912
0 1.16538 -1.3589 0.566912
0 1.16538 -1.3589 0.566912
0 1.16538 -1.3589 0.566912
0 1.16538 -1.3589 0.566912
0 1.16538 -1.3589 0.566912
0 1.16538 -1.3589 0.566912
0 1.16538 -1.3589 0.566912
0 1.16538 -1.3589 0.566912
0 1.16538 -1.3589 0.566912
0 1.16538 -1.3589 0.566912
0 1.16538 -1.3589 0.566912
0 1.16538 -1.3589 0.566912
0 1.16538 -1.3589 0.566912
0 1.16538 -1.3589 0.566912
0 1.16538 -1.3589 0.566912
0 1.16538 -1.3589 0.566912
0 1.16538 -1.3589 0.566912
0 1.16538 -1.3589 0.566912
0 1.16538 -1.3589 0.566912
0 1.16538 -1.3589 0.566912
0 1.16538 -1.3589 0.566912
0 1.16538 -1.3589 0.566912
0 1.16538 -1.3589 0.566912
0 1.16538 -1.3589 0.566912
0 1.16538 -1.3589 0.566912
0 1.16538 -1.3589 0.566912
0 1.16538 -1.3589 0.566912
0 1.16538 -1.3589 0.566912
0 1.16538 -1.3589 0.566912
0 1.16538 -1.3589 0.566912
0 1.16538 -1.3589 0.566912
0 1.16538 -1.3589 0.566912
0 1.16538 -1.3589 0.566912
0 1.16538 -1.3589 0.566912
0 1.16538 -1.3589 0.566912
0 1.16538 -1.3589 0.566912
0 1.16538 -1.3589 0.566912
0 1.16538 -1.3589 0.566912
0 1.16538 -1.3589 0.566912
0 1.16538 -1.3589 0.566912
0 1.16538 -1.3589 0.566912
0 1.16538 -1.3589 0.566912
0 1.16538 -1.3589 0.566912
0 1.16538 -1.3589 0.566912
0 1.16538 -1.3589 0.566912
0 1.16538 -1.3589 0.566912
0 1.16538 -1.3589 0.566912
0 1.16538 -1.3589 0.566912
0 1.16538 -1.3589 0.566912
0 1.16538 -1.3589 0.566912
0 1.16538 -1.3589 0.566912
0 1.16538 -1.3589 0.566912
0 1.16538 -1.3589 0.566912
0 1.16538 -1.3589 0.566912
0 1.16538 -1.3589 0.566912
0 1.16538 -1.3589 0.566912
0 1.16538 -1.3589 0.566912
0 1.16538 -1.3589 0.566912
0 1.16538 -1.3589 0.566912
0 1.16538 -1.3589 0.566912
0 1.16538 -1.3589 0.566912
0 1.16538 -1.3589 0.566912
0 1.16538 -1.3589 0.566912
0 1.16538 -1.3589 0.566912
0 1.16538 -1.3589 0.566912
0 1.16538 -1.3589 0.566912
0 1.16538 -1.3589 0.566912
0 1.16538 -1.3589 0.566912
0 1.16538 -1.3589 0.566912
0 1.16538 -1.3589 0.566912
0 1.16538 -1.3589 0.566912
0 1.16538 -1.3589 0.566912
0 1.16538 -1.3589 0.566912
0 1.16538 -1.3589 0.566912
0 1.16538 -1.3589 0.566912
0 1.16538 -1.3589 0.566912
0 1.16538 -1.3589 0.566912
0 1.16538 -1.3589 0.566912
0 1.16538 -1.3589 0.566912
0 1.16538 -1.3589 0.566912
0 1.16538 -1.3589 0.566912
0 1.16538 -1.3589 0.566912
0 1.16538 -1.3589 0.566912
0 1.16538 -1.3589 0.566912
0 1.16538 -1.3589 0.566912
0 1.16538 -1.3589 0.566912
0 1.16538 -1.3589 0.566912
0 1.16538 -1.3589 0.566912
0 1.16538 -1.3589 0.566912
0 1.16538 -1.3589 0.566912
0 1.16538 -1.3589 0.566912
0 1.16538 -1.3589 0.566912
0 1.16538 -1.3589 0.566912
0 1.16538 -1.3589 0.566912
0 1.16538 -1.3589 0.566912
0 1.16538 -1.3589 0.566912
0 1.16538 -1.3589 0.566912
0 1.16538 -1.3589 0.566912
0 1.16538 -1.3589 0.566912
0 1.16538 -1.3589 0.566912
0 1.16538 -1.3589 0.566912
0 1.16538 -1.3589 0.566912
0 1.16538 -1.3589 0.566912
0 1.16538 -1.3589 0.566912
0 1.16538 -1.3589 0.566912
0 1.16538 -1.3589 0.566912
0 1.16538 -1.3589 0.566912
0 1.16538 -1.3589 0.566912
0 1.16538 -1.3589 0.566912
0 1.16538 -1.3589 0.566912
0 1.16538 -1.3589 0.566912
0 1.16538 -1.3589 0.566912
0 1.16538 -1.3589 0.566912
0 1.16538 -1.3589 0.566912
0 1.16538 -1.3589 0.566912
0 1.16538 -1.3589 0.566912
0 1.16538 -1.3589 0.566912
0 1.16538 -1.3589 0.566912
0 1.16538 -1.3589 0.566912
0 1.16538 -1.3589 0.566912
0 1.16538 -1.3589 0.566912
0 1.16538 -1.3589 0.566912
0 1.16538 -1.3589 0.566912
0 1.16538 -1.3589 0.566912
0 1.16538 -1.3589 0.566912
0 1.16538 -1.3589 0.566912
0 1.16538 -1.3589 0.566912
0 1.16538 -1.3589 0.566912
0 1.16538 -1.3589 0.566912
0 1.16538 -1.3589 0.566912
0 1.16538 -1.3589 0.566912
0 1.16538 -1.3589 0.566912
0 1.16538 -1.3589 0.566912
0 1.16538 -1.3589 0.566912
0 1.16538 -1.3589 0.566912
0 1.16538 -1.3589 0.566912
0 1.16538 -1.3589 0.566912
0 1.16538 -1.3589 0.566912
0 1.16538 -1.3589 0.566912
0 1.16538 -1.3589 0.566912
0 1.16538 -1.3589 0.566912
0 1.16538 -1.3589 0.566912
0 1.16538 -1.3589 0.566912
0 1.16538 -1.3589 0.566912
0 1.16538 -1.3589 0.566912
0 1.16538 -1.3589 0.566912
0 1.16538 -1.3589 0.566912
0 1.16538 -1.3589 0.566912
0 1.16538 -1.3589 0.566912
0 1.16538 -1.3589 0.566912
0 1.16538 -1.3589 0.566912
0 1.16538 -1.3589 0.566912
0 1.16538 -1.3589 0.566912
0 1.16538 -1.3589 0.566912
0 1.16538 -1.3589 0.566912
0 1.16538 -1.3589 0.566912
0 1.16538 -1.3589 0.566912
0 1.16538 -1.3589 0.566912
0 1.16538 -1.3589 0.566912
0 1.16538 -1.3589 0.566912
0 1.16538 -1.3589 0.566912
0 1.16538 -1.3589 0.566912
0 1.16538 -1.3589 0.566912
0 1.16538 -1.3589 0.566912
0 1.16538 -1.3589 0.566912
0 1.16538 -1.3589 0.566912
0 1.16538 -1.3589 0.566912
0 1.16538 -1.3589 0.566912
0 1.16538 -1.3589 0.566912
0 1.16538 -1.3589 0.566912
0 1.16538 -1.3589 0.566912
0 1.16538 -1.3589 0.566912
0 1.16538 -1.3589 0.566912
0 1.16538 -1.3589 0.566912
0 1.16538 -1.3589 0.566912
0 1.16538 -1.3589 0.566912
0 1.16538 -1.3589 0.566912
0 1.16538 -1.3589 0.566912
0 1.16538 -1.3589 0.566912
0 1.16538 -1.3589 0.566912
0 1.16538 -1.3589 0.566912
0 1.16538 -1.3589 0.566912
0 1.16538 -1.3589 0.566912
0 1.16538 -1.3589 0.566912
0 1.16538 -1.3589 0.566912
0 1.16538 -1.3589 0.566912
0 1.16538 -1.3589 0.566912
0 1.16538 -1.3589 0.566912
0 1.16538 -1.3589 0.566912
0 1.16538 -1.3589 0.566912
0 1.16538 -1.3589 0.566912
0 1.16538 -1.3589 0.566912
0 1.16538 -1.3589 0.566912
0 1.16538 -1.3589 0.566912
0 1.16538 -1.3589 0.566912
0 1.16538 -1.3589 0.566912
0 1.16538 -1.3589 0.566912
0 1.16538 -1.3589 0.566912
0 1.16538 -1.3589 0.566912
0 1.16538 -1.3589 0.566912
0 1.16538 -1.3589 0.566912
0 1.16538 -1.3589 0.566912
0 1.16538 -1.3589 0.566912
0 1.16538 -1.3589 0.566912
0 1.16538 -1.3589 0.566912
0 1.16538 -1.3589 0.566912
0 1.16538 -1.3589 0.566912
0 1.16538 -1.3589 0.566912
0 1.16538 -1.3589 0.566912
0 1.16538 -1.3589 0.566912
0 1.16538 -1.3589 0.566912
0 1.16538 -1.3589 0.566912
0 1.16538 -1.3589 0.566912
0 1.16538 -1.3589 0.566912
0 1.16538 -1.3589 0.566912
0 1.16538 -1.3589 0.566912
0 1.16538 -1.3589 0.566912
0 1.16538 -1.3589 0.566912
0 1.16538 -1.3589 0.566912
0 1.16538 -1.3589 0.566912
0 1.16538 -1.3589 0.566912
0 1.16538 -1.3589 0.566912
0 1.16538 -1.3589 0.566912
0 1.16538 -1.3589 0.566912
0 1.16538 -1.3589 0.566912
0 1.16538 -1.3589 0.566912
0 1.16538 -1.3589 0.566912
0 1.16538 -1.3589 0.566912
0 1.16538 -1.3589 0.566912
0 1.16538 -1.3589 0.566912
0 1.16538 -1.3589 0.566912
0 1.16538 -1.3589 0.566912
0 1.16538 -1.3589 0.566912
0 1.16538 -1.3589 0.566912
0 1.16538 -1.3589 0.566912
0 1.16538 -1.3589 0.566912
0 1.16538 -1.3589 0.566912
0 1.16538 -1.3589 0.566912
0 1.16538 -1.3589 0.566912
0 1.16538 -1.3589 0.566912
0 1.16538 -1.3589 0.566912
0 1.16538 -1.3589 0.566912
0 1.16538 -1.3589 0.566912
0 1.16538 -1.3589 0.566912
0 1.16538 -1.3589 0.566912
0 1.16538 -1.3589 0.566912
0 1.16538 -1.3589 0.566912
0 1.16538 -1.3589 0.566912
0 1.16538 -1.3589 0.566912
0 1.16538 -1.3589 0.566912
0 1.16538 -1.3589 0.566912
0 1.16538 -1.3589 0.566912
0 1.16538 -1.3589 0.566912
0 1.16538 -1.3589 0.566912
0 1.16538 -1.3589 0.566912
0 1.16538 -1.3589 0.566912
0 1.16538 -1.3589 0.566912
0 1.16538 -1.3589 0.566912
0 1.16538 -1.3589 0.566912
0 1.16538 -1.3589 0.566912
0 1.16538 -1.3589 0.566912
0 1.16538 -1.3589 0.566912
0 1.16538 -1.3589 0.566912
0 1.16538 -1.3589 0.566912
0 1.16538 -1.3589 0.566912
0 1.16538 -1.3589 0.566912
0 1.16538 -1.3589 0.566912
0 1.16538 -1.3589 0.566912
0 1.16538 -1.3589 0.566912
0 1.16538 -1.3589 0.566912
0 1.16538 -1.3589 0.566912
0 1.16538 -1.3589 0.566912
0 1.16538 -1.3589 0.566912
0 1.16538 -1.3589 0.566912
0 1.16538 -1.3589 0.566912
0 1.16538 -1.3589 0.566912
0 1.16538 -1.3589 0.566912
0 1.16538 -1.3589 0.566912
0 1.16538 -1.3589 0.566912
0 1.16538 -1.3589 0.566912
0 1.16538 -1.3589 0.566912
0 1.16538 -1.3589 0.566912
0 1.16538 -1.3589 0.566912
0 1.16538 -1.3589 0.566912
0 1.16538 -1.3589 0.566912
0 1.16538 -1.3589 0.566912
0 1.16538 -1.3589 0.566912
0 1.16538 -1.3589 0.566912
0 1.16538 -1.3589 0.566912
0 1.16538 -1.3589 0.566912
0 1.16538 -1.3589 0.566912
0 1.16538 -1.3589 0.566912
0 1.16538 -1.3589 0.566912
0 1.16538 -1.3589 0.566912
0 1.16538 -1.3589 0.566912
0 1.16538 -1.3589 0.566912
0 1.16538 -1.3589 0.566912
0 1.16538 -1.3589 0.566912
0 1.16538 -1.3589 0.566912
0 1.16538 -1.3589 0.566912
0 1.16538 -1.3589 0.566912
0 1.16538 -1.3589 0.566912
0 1.16538 -1.3589 0.566912
0 1.16538 -1.3589 0.566912
0 1.16538 -1.3589 0.566912
0 1.16538 -1.3589 0.566912
0 1.16538 -1.3589 0.566912
0 1.16538 -1.3589 0.566912
0 1.16538 -1.3589 0.566912
0 1.16538 -1.3589 0.566912
0 1.16538 -1.3589 0.566912
0 1.16538 -1.3589 0.566912
0 1.16538 -1.3589 0.566912
0 1.16538 -1.3589 0.566912
0 1.16538 -1.3589 0.566912
0 1.16538 -1.3589 0.566912
0 1.16538 -1.3589 0.566912
0 1.16538 -1.3589 0.566912
0 1.16538 -1.3589 0.566912
0 1.16538 -1.3589 0.566912
0 1.16538 -1.3589 0.566912
0 1.16538 -1.3589 0.566912
0 1.16538 -1.3589 0.566912
0 1.16538 -1.3589 0.566912
0 1.16538 -1.3589 0.566912
0 1.16538 -1.3589 0.566912
0 1.16538 -1.3589 0.566912
0 1.16538 -1.3589 0.566912
0 1.16538 -1.3589 0.566912
0 1.16538 -1.3589 0.566912
0 1.16538 -1.3589 0.566912
0 1.16538 -1.3589 0.566912
0 1.16538 -1.3589 0.566912
0 1.16538 -1.3589 0.566912
0 1.16538 -1.3589 0.566912
0 1.16538 -1.3589 0.566912
0 1.16538 -1.3589 0.566912
0 1.16538 -1.3589 0.566912
0 1.16538 -1.3589 0.566912
0 1.16538 -1.3589 0.566912
0 1.16538 -1.3589 0.566912
0 1.16538 -1.3589 0.566912
0 1.16538 -1.3589 0.566912
0 1.16538 -1.3589 0.566912
0 1.16538 -1.3589 0.566912
0 1.16538 -1.3589 0.566912
0 1.16538 -1.3589 0.566912
0 1.16538 -1.3589 0.566912
0 1.16538 -1.3589 0.566912
0 1.16538 -1.3589 0.566912
0 1.16538 -1.3589 0.566912
0 1.16538 -1.3589 0.566912
0 1.16538 -1.3589 0.566912
0 1.16538 -1.3589 0.566912
0 1.16538 -1.3589 0.566912
0 1.16538 -1.3589 0.566912
0 1.16538 -1.3589 0.566912
0 1.16538 -1.3589 0.566912
0 1.16538 -1.3589 0.566912
0 1.16538 -1.3589 0.566912
0 1.16538 -1.3589 0.566912
0 1.16538 -1.3589 0.566912
0 1.16538 -1.3589 0.566912
0 1.16538 -1.3589 0.566912
0 1.16538 -1.3589 0.566912
0 1.16538 -1.3589 0.566912
0 1.16538 -1.3589 0.566912
0 1.16538 -1.3589 0.566912
0 1.16538 -1.3589 0.566912
0 1.16538 -1.3589 0.566912
0 1.16538 -1.3589 0.566912
0 1.16538 -1.3589 0.566912
0 1.16538 -1.3589 0.566912
0 1.16538 -1.3589 0.566912
0 1.16538 -1.3589 0.566912
0 1.16538 -1.3589 0.566912
0 1.16538 -1.3589 0.566912
0 1.16538 -1.3589 0.566912
0 1.16538 -1.3589 0.566912
0 1.16538 -1.3589 0.566912
0 1.16538 -1.3589 0.566912
0 1.16538 -1.3589 0.566912
0 1.16538 -1.3589 0.566912
0 1.16538 -1.3589 0.566912
0 1.16538 -1.3589 0.566912
0 1.16538 -1.3589 0.566912
0 1.16538 -1.3589 0.566912
0 1.16538 -1.3589 0.566912
0 1.16538 -1.3589 0.566912
0 1.16538 -1.3589 0.566912
0 1.16538 -1.3589 0.566912
0 1.16538 -1.3589 0.566912
0 1.16538 -1.3589 0.566912
0 1.16538 -1.3589 0.566912
0 1.16538 -1.3589 0.566912
0 1.16538 -1.3589 0.566912
0 1.16538 -1.3589 0.566912
0 1.16538 -1.3589 0.566912
0 1.16538 -1.3589 0.566912
0 1.16538 -1.3589 0.566912
0 1.16538 -1.3589 0.566912
0 1.16538 -1.3589 0.566912
0 1.16538 -1.3589 0.566912
0 1.16538 -1.3589 0.566912
0 1.16538 -1.3589 0.566912
0 1.16538 -1.3589 0.566912
0 1.16538 -1.3589 0.566912
0 1.16538 -1.3589 0.566912
0 1.16538 -1.3589 0.566912
0 1.16538 -1.3589 0.566912
0 1.16538 -1.3589 0.566912
0 1.16538 -1.3589 0.566912
0 1.16538 -1.3589 0.566912
0 1.16538 -1.3589 0.566912
0 1.16538 -1.3589 0.566912
0 1.16538 -1.3589 0.566912
0 1.16538 -1.3589 0.566912
0 1.16538 -1.3589 0.566912
0 1.16538 -1.3589 0.566912
0 1.16538 -1.3589 0.566912
0 1.16538 -1.3589 0.566912
0 1.16538 -1.3589 0.566912
0 1.16538 -1.3589 0.566912
0 1.16538 -1.3589 0.566912
0 1.16538 -1.3589 0.566912
0 1.16538 -1.3589 0.566912
0 1.16538 -1.3589 0.566912
0 1.16538 -1.3589 0.566912
0 1.16538 -1.3589 0.566912
0 1.16538 -1.3589 0.566912
0 1.16538 -1.3589 0.566912
0 1.16538 -1.3589 0.566912
0 1.16538 -1.3589 0.566912
0 1.16538 -1.3589 0.566912
0 1.16538 -1.3589 0.566912
0 1.16538 -1.3589 0.566912
0 1.16538 -1.3589 0.566912
0 1.16538 -1.3589 0.566912
0 1.16538 -1.3589 0.566912
0 1.16538 -1.3589 0.566912
0 1.16538 -1.3589 0.566912
0 1.16538 -1.3589 0.566912
0 1.16538 -1.3589 0.566912
0 1.16538 -1.3589 0.566912
0 1.16538 -1.3589 0.566912
0 1.16538 -1.3589 0.566912
0 1.16538 -1.3589 0.566912
0 1.16538 -1.3589 0.566912
0 1.16538 -1.3589 0.566912
0 1.16538 -1.3589 0.566912
0 1.16538 -1.3589 0.566912
0 1.16538 -1.3589 0.566912
0 1.16538 -1.3589 0.566912
0 1.16538 -1.3589 0.566912
0 1.16538 -1.3589 0.566912
0 1.16538 -1.3589 0.566912
0 1.16538 -1.3589 0.566912
0 1.16538 -1.3589 0.566912
0 1.16538 -1.3589 0.566912
0 1.16538 -1.3589 0.566912
0 1.16538 -1.3589 0.566912
0 1.16538 -1.3589 0.566912
0 1.16538 -1.3589 0.566912
0 1.16538 -1.3589 0.566912
0 1.16538 -1.3589 0.566912
0 1.16538 -1.3589 0.566912
0 1.16538 -1.3589 0.566912
0 1.16538 -1.3589 0.566912
0 1.16538 -1.3589 0.566912
0 1.16538 -1.3589 0.566912
0 1.16538 -1.3589 0.566912
0 1.16538 -1.3589 0.566912
0 1.16538 -1.3589 0.566912
0 1.16538 -1.3589 0.566912
0 1.16538 -1.3589 0.566912
0 1.16538 -1.3589 0.566912
0 1.16538 -1.3589 0.566912
0 1.16538 -1.3589 0.566912
0 1.16538 -1.3589 0.566912
0 1.16538 -1.3589 0.566912
0 1.16538 -1.3589 0.566912
0 1.16538 -1.3589 0.566912
0 1.16538 -1.3589 0.566912
0 1.16538 -1.3589 0.566912
0 1.16538 -1.3589 0.566912
0 1.16538 -1.3589 0.566912
0 1.16538 -1.3589 0.566912
0 1.16538 -1.3589 0.566912
0 1.16538 -1.3589 0.566912
0 1.16538 -1.3589 0.566912
0 1.16538 -1.3589 0.566912
0 1.16538 -1.3589 0.566912
0 1.16538 -1.3589 0.566912
0 1.16538 -1.3589 0.566912
0 1.16538 -1.3589 0.566912
0 1.16538 -1.3589 0.566912
0 1.16538 -1.3589 0.566912
0 1.16538 -1.3589 0.566912
0 1.16538 -1.3589 0.566912
0 1.16538 -1.3589 0.566912
0 1.16538 -1.3589 0.566912
0 1.16538 -1.3589 0.566912
0 1.16538 -1.3589 0.566912
0 1.16538 -1.3589 0.566912
0 1.16538 -1.3589 0.566912
0 1.16538 -1.3589 0.566912
0 1.16538 -1.3589 0.566912
0 1.16538 -1.3589 0.566912
0 1.16538 -1.3589 0.566912
0 1.16538 -1.3589 0.566912
0 1.16538 -1.3589 0.566912
0 1.16538 -1.3589 0.566912
0 1.16538 -1.3589 0.566912
0 1.16538 -1.3589 0.566912
0 1.16538 -1.3589 0.566912
0 1.16538 -1.3589 0.566912
0 1.16538 -1.3589 0.566912
0 1.16538 -1.3589 0.566912
0 1.16538 -1.3589 0.566912
0 1.16538 -1.3589 0.566912
0 1.16538 -1.3589 0.566912
0 1.16538 -1.3589 0.566912
0 1.16538 -1.3589 0.566912
0 1.16538 -1.3589 0.566912
0 1.16538 -1.3589 0.566912
0 1.16538 -1.3589 0.566912
0 1.16538 -1.3589 0.566912
0 1.16538 -1.3589 0.566912
0 1.16538 -1.3589 0.566912
0 1.16538 -1.3589 0.566912
0 1.16538 -1.3589 0.566912
0 1.16538 -1.3589 0.566912
0 1.16538 -1.3589 0.566912
0 1.16538 -1.3589 0.566912
0 1.16538 -1.3589 0.566912
0 1.16538 -1.3589 0.566912
0 1.16538 -1.3589 0.566912
0 1.16538 -1.3589 0.566912
0 1.16538 -1.3589 0.566912
0 1.16538 -1.3589 0.566912
0 1.16538 -1.3589 0.566912
0 1.16538 -1.3589 0.566912
0 1.16538 -1.3589 0.566912
0 1.16538 -1.3589 0.566912
0 1.16538 -1.3589 0.566912
0 1.16538 -1.3589 0.566912
0 1.16538 -1.3589 0.566912
0 1.16538 -1.3589 0.566912
0 1.16538 -1.3589 0.566912
0 1.16538 -1.3589 0.566912
0 1.16538 -1.3589 0.566912
0 1.16538 -1.3589 0.566912
0 1.16538 -1.3589 0.566912
0 1.16538 -1.3589 0.566912
0 1.16538 -1.3589 0.566912
0 1.16538 -1.3589 0.566912
0 1.16538 -1.3589 0.566912
0 1.16538 -1.3589 0.566912
0 1.16538 -1.3589 0.566912
0 1.16538 -1.3589 0.566912
0 1.16538 -1.3589 0.566912
0 1.16538 -1.3589 0.566912
0 1.16538 -1.3589 0.566912
0 1.16538 -1.3589 0.566912
0 1.16538 -1.3589 0.566912
0 1.16538 -1.3589 0.566912
0 1.16538 -1.3589 0.566912
0 1.16538 -1.3589 0.566912
0 1.16538 -1.3589 0.566912
0 1.16538 -1.3589 0.566912
0 1.16538 -1.3589 0.566912
0 1.16538 -1.3589 0.566912
0 1.16538 -1.3589 0.566912
0 1.16538 -1.3589 0.566912
0 1.16538 -1.3589 0.566912
0 1.16538 -1.3589 0.566912
0 1.16538 -1.3589 0.566912
0 1.16538 -1.3589 0.566912
0 1.16538 -1.3589 0.566912
0 1.16538 -1.3589 0.566912
0 1.16538 -1.3589 0.566912
0 1.16538 -1.3589 0.566912
0 1.16538 -1.3589 0.566912
0 1.16538 -1.3589 0.566912
0 1.16538 -1.3589 0.566912
0 1.16538 -1.3589 0.566912
0 1.16538 -1.3589 0.566912
0 1.16538 -1.3589 0.566912
0 1.16538 -1.3589 0.566912
0 1.16538 -1.3589 0.566912
0 1.16538 -1.3589 0.566912
0 1.16538 -1.3589 0.566912
0 1.16538 -1.3589 0.566912
0 1.16538 -1.3589 0.566912
0 1.16538 -1.3589 0.566912
0 1.16538 -1.3589 0.566912
0 1.16538 -1.3589 0.566912
0 1.16538 -1.3589 0.566912
0 1.16538 -1.3589 0.566912
0 1.16538 -1.3589 0.566912
0 1.16538 -1.3589 0.566912
0 1.16538 -1.3589 0.566912
0 1.16538 -1.3589 0.566912
0 1.16538 -1.3589 0.566912
0 1.16538 -1.3589 0.566912
0 1.16538 -1.3589 0.566912
0 1.16538 -1.3589 0.566912
0 1.16538 -1.3589 0.566912
0 1.16538 -1.3589 0.566912
0 1.16538 -1.3589 0.566912
0 1.16538 -1.3589 0.566912
0 1.16538 -1.3589 0.566912
0 1.16538 -1.3589 0.566912
0 1.16538 -1.3589 0.566912
0 1.16538 -1.3589 0.566912
0 1.16538 -1.3589 0.566912
0 1.16538 -1.3589 0.566912
0 1.16538 -1.3589 0.566912
0 1.16538 -1.3589 0.566912
0 1.16538 -1.3589 0.566912
0 1.16538 -1.3589 0.566912
0 1.16538 -1.3589 0.566912
0 1.16538 -1.3589 0.566912
0 1.16538 -1.3589 0.566912
0 1.16538 -1.3589 0.566912
0 1.16538 -1.3589 0.566912
0 1.16538 -1.3589 0.566912
0 1.16538 -1.3589 0.566912
0 1.16538 -1.3589 0.566912
0 1.16538 -1.3589 0.566912
0 1.16538 -1.3589 0.566912
0 1.16538 -1.3589 0.566912
0 1.16538 -1.3589 0.566912
0 1.16538 -1.3589 0.566912
0 1.16538 -1.3589 0.566912
0 1.16538 -1.3589 0.566912
0 1.16538 -1.3589 0.566912
0 1.16538 -1.3589 0.566912
0 1.16538 -1.3589 0.566912
0 1.16538 -1.3589 0.566912
0 1.16538 -1.3589 0.566912
0 1.16538 -1.3589 0.566912
0 1.16538 -1.3589 0.566912
0 1.16538 -1.3589 0.566912
0 1.16538 -1.3589 0.566912
0 1.16538 -1.3589 0.566912
0 1.16538 -1.3589 0.566912
0 1.16538 -1.3589 0.566912
0 1.16538 -1.3589 0.566912
0 1.16538 -1.3589 0.566912
0 1.16538 -1.3589 0.566912
0 1.16538 -1.3589 0.566912
0 1.16538 -1.3589 0.566912
0 1.16538 -1.3589 0.566912
0 1.16538 -1.3589 0.566912
0 1.16538 -1.3589 0.566912
0 1.16538 -1.3589 0.566912
0 1.16538 -1.3589 0.566912
0 1.16538 -1.3589 0.566912
0 1.16538 -1.3589 0.566912
0 1.16538 -1.3589 0.566912
0 1.16538 -1.3589 0.566912
0 1.16538 -1.3589 0.566912
0 1.16538 -1.3589 0.566912
0 1.16538 -1.3589 0.566912
0 1.16538 -1.3589 0.566912
0 1.16538 -1.3589 0.566912
0 1.16538 -1.3589 0.566912
0 1.16538 -1.3589 0.566912
0 1.16538 -1.3589 0.566912
0 1.16538 -1.3589 0.566912
0 1.16538 -1.3589 0.566912
0 1.16538 -1.3589 0.566912
0 1.16538 -1.3589 0.566912
0 1.16538 -1.3589 0.566912
0 1.16538 -1.3589 0.566912
0 1.16538 -1.3589 0.566912
0 1.16538 -1.3589 0.566912
0 1.16538 -1.3589 0.566912
0 1.16538 -1.3589 0.566912
0 1.16538 -1.3589 0.566912
0 1.16538 -1.3589 0.566912
0 1.16538 -1.3589 0.566912
0 1.16538 -1.3589 0.566912
0 1.16538 -1.3589 0.566912
0 1.16538 -1.3589 0.566912
0 1.16538 -1.3589 0.566912
0 1.16538 -1.3589 0.566912
0 1.16538 -1.3589 0.566912
0 1.16538 -1.3589 0.566912
0 1.16538 -1.3589 0.566912
0 1.16538 -1.3589 0.566912
0 1.16538 -1.3589 0.566912
0 1.16538 -1.3589 0.566912
0 1.16538 -1.3589 0.566912
0 1.16538 -1.3589 0.566912
0 1.16538 -1.3589 0.566912
0 1.16538 -1.3589 0.566912
0 1.16538 -1.3589 0.566912
0 1.16538 -1.3589 0.566912
0 1.16538 -1.3589 0.566912
0 1.16538 -1.3589 0.566912
0 1.16538 -1.3589 0.566912
0 1.16538 -1.3589 0.566912
0 1.16538 -1.3589 0.566912
0 1.16538 -1.3589 0.566912
0 1.16538 -1.3589 0.566912
0 1.16538 -1.3589 0.566912
0 1.16538 -1.3589 0.566912
0 1.16538 -1.3589 0.566912
0 1.16538 -1.3589 0.566912
0 1.16538 -1.3589 0.566912
0 1.16538 -1.3589 0.566912
0 1.16538 -1.3589 0.566912
0 1.16538 -1.3589 0.566912
0 1.16538 -1.3589 0.566912
0 1.16538 -1.3589 0.566912
0 1.16538 -1.3589 0.566912
0 1.16538 -1.3589 0.566912
0 1.16538 -1.3589 0.566912
0 1.16538 -1.3589 0.566912
0 1.16538 -1.3589 0.566912
0 1.16538 -1.3589 0.566912
0 1.16538 -1.3589 0.566912
0 1.16538 -1.3589 0.566912
0 1.16538 -1.3589 0.566912
0 1.16538 -1.3589 0.566912
0 1.16538 -1.3589 0.566912
0 1.16538 -1.3589 0.566912
0 1.16538 -1.3589 0.566912
0 1.16538 -1.3589 0.566912
0 1.16538 -1.3589 0.566912
0 1.16538 -1.3589 0.566912
0 1.16538 -1.3589 0.566912
0 1.16538 -1.3589 0.566912
0 1.16538 -1.3589 0.566912
0 1.16538 -1.3589 0.566912
0 1.16538 -1.3589 0.566912
0 1.16538 -1.3589 0.566912
0 1.16538 -1.3589 0.566912
0 1.16538 -1.3589 0.566912
0 1.16538 -1.3589 0.566912
0 1.16538 -1.3589 0.566912
0 1.16538 -1.3589 0.566912
0 1.16538 -1.3589 0.566912
0 1.16538 -1.3589 0.566912
0 1.16538 -1.3589 0.566912
0 1.16538 -1.3589 0.566912
0 1.16538 -1.3589 0.566912
0 1.16538 -1.3589 0.566912
0 1.16538 -1.3589 0.566912
0 1.16538 -1.3589 0.566912
0 1.16538 -1.3589 0.566912
0 1.16538 -1.3589 0.566912
0 1.16538 -1.3589 0.566912
0 1.16538 -1.3589 0.566912
0 1.16538 -1.3589 0.566912
0 1.16538 -1.3589 0.566912
0 1.16538 -1.3589 0.566912
0 1.16538 -1.3589 0.566912
0 1.16538 -1.3589 0.566912
0 1.16538 -1.3589 0.566912
0 1.16538 -1.3589 0.566912
0 1.16538 -1.3589 0.566912
0 1.16538 -1.3589 0.566912
0 1.16538 -1.3589 0.566912
0 1.16538 -1.3589 0.566912
0 1.16538 -1.3589 0.566912
0 1.16538 -1.3589 0.566912
0 1.16538 -1.3589 0.566912
0 1.16538 -1.3589 0.566912
0 1.16538 -1.3589 0.566912
0 1.16538 -1.3589 0.566912
0 1.16538 -1.3589 0.566912
0 1.16538 -1.3589 0.566912
0 1.16538 -1.3589 0.566912
0 1.16538 -1.3589 0.566912
0 1.16538 -1.3589 0.566912
0 1.16538 -1.3589 0.566912
0 1.16538 -1.3589 0.566912
0 1.16538 -1.3589 0.566912
0 1.16538 -1.3589 0.566912
0 1.16538 -1.3589 0.566912
0 1.16538 -1.3589 0.566912
0 1.16538 -1.3589 0.566912
0 1.16538 -1.3589 0.566912
0 1.16538 -1.3589 0.566912
0 1.16538 -1.3589 0.566912
0 1.16538 -1.3589 0.566912
0 1.16538 -1.3589 0.566912
0 1.16538 -1.3589 0.566912
0 1.16538 -1.3589 0.566912
0 1.16538 -1.3589 0.566912
0 1.16538 -1.3589 0.566912
0 1.16538 -1.3589 0.566912
0 1.16538 -1.3589 0.566912
0 1.16538 -1.3589 0.566912
0 1.16538 -1.3589 0.566912
0 1.16538 -1.3589 0.566912
0 1.16538 -1.3589 0.566912
0 1.16538 -1.3589 0.566912
0 1.16538 -1.3589 0.566912
0 1.16538 -1.3589 0.566912
0 1.16538 -1.3589 0.566912
0 1.16538 -1.3589 0.566912
0 1.16538 -1.3589 0.566912
0 1.16538 -1.3589 0.566912
0 1.16538 -1.3589 0.566912
0 1.16538 -1.3589 0.566912
0 1.16538 -1.3589 0.566912
0 1.16538 -1.3589 0.566912
0 1.16538 -1.3589 0.566912
0 1.16538 -1.3589 0.566912
0 1.16538 -1.3589 0.566912
0 1.16538 -1.3589 0.566912
0 1.16538 -1.3589 0.566912
0 1.16538 -1.3589 0.566912
0 1.16538 -1.3589 0.566912
0 1.16538 -1.3589 0.566912
0 1.16538 -1.3589 0.566912
0 1.16538 -1.3589 0.566912
0 1.16538 -1.3589 0.566912
0 1.16538 -1.3589 0.566912
0 1.16538 -1.3589 0.566912
0 1.16538 -1.3589 0.566912
0 1.16538 -1.3589 0.566912
0 1.16538 -1.3589 0.566912
0 1.16538 -1.3589 0.566912
0 1.16538 -1.3589 0.566912
0 1.16538 -1.3589 0.566912
0 1.16538 -1.3589 0.566912
0 1.16538 -1.3589 0.566912
0 1.16538 -1.3589 0.566912
0 1.16538 -1.3589 0.566912
0 1.16538 -1.3589 0.566912
0 1.16538 -1.3589 0.566912
0 1.16538 -1.3589 0.566912
0 1.16538 -1.3589 0.566912
0 1.16538 -1.3589 0.566912
0 1.16538 -1.3589 0.566912
0 1.16538 -1.3589 0.566912
0 1.16538 -1.3589 0.566912
0 1.16538 -1.3589 0.566912
0 1.16538 -1.3589 0.566912
0 1.16538 -1.3589 0.566912
0 1.16538 -1.3589 0.566912
0 1.16538 -1.3589 0.566912
0 1.16538 -1.3589 0.566912
0 1.16538 -1.3589 0.566912
0 1.16538 -1.3589 0.566912
0 1.16538 -1.3589 0.566912
0 1.16538 -1.3589 0.566912
0 1.16538 -1.3589 0.566912
0 1.16538 -1.3589 0.566912
0 1.16538 -1.3589 0.566912
0 1.16538 -1.3589 0.566912
0 1.16538 -1.3589 0.566912
0 1.16538 -1.3589 0.566912
0 1.16538 -1.3589 0.566912
0 1.16538 -1.3589 0.566912
0 1.16538 -1.3589 0.566912
0 1.16538 -1.3589 0.566912
0 1.16538 -1.3589 0.566912
0 1.16538 -1.3589 0.566912
0 1.16538 -1.3589 0.566912
0 1.16538 -1.3589 0.566912
0 1.16538 -1.3589 0.566912
0 1.16538 -1.3589 0.566912
0 1.16538 -1.3589 0.566912
0 1.16538 -1.3589 0.566912
0 1.16538 -1.3589 0.566912
0 1.16538 -1.3589 0.566912
0 1.16538 -1.3589 0.566912
0 1.16538 -1.3589 0.566912
0 1.16538 -1.3589 0.566912
0 1.16538 -1.3589 0.566912
0 1.16538 -1.3589 0.566912
0 1.16538 -1.3589 0.566912
0 1.16538 -1.3589 0.566912
0 1.16538 -1.3589 0.566912
0 1.16538 -1.3589 0.566912
0 1.16538 -1.3589 0.566912
0 1.16538 -1.3589 0.566912
0 1.16538 -1.3589 0.566912
0 1.16538 -1.3589 0.566912
0 1.16538 -1.3589 0.566912
0 1.16538 -1.3589 0.566912
0 1.16538 -1.3589 0.566912
0 1.16538 -1.3589 0.566912
0 1.16538 -1.3589 0.566912
0 1.16538 -1.3589 0.566912
0 1.16538 -1.3589 0.566912
0 1.16538 -1.3589 0.566912
0 1.16538 -1.3589 0.566912
0 1.16538 -1.3589 0.566912
0 1.16538 -1.3589 0.566912
0 1.16538 -1.3589 0.566912
0 1.16538 -1.3589 0.566912
0 1.16538 -1.3589 0.566912
0 1.16538 -1.3589 0.566912
0 1.16538 -1.3589 0.566912
0 1.16538 -1.3589 0.566912
0 1.16538 -1.3589 0.566912
0 1.16538 -1.3589 0.566912
0 1.16538 -1.3589 0.566912
0 1.16538 -1.3589 0.566912
0 1.16538 -1.3589 0.566912
0 1.16538 -1.3589 0.566912
0 1.16538 -1.3589 0.566912
0 1.16538 -1.3589 0.566912
0 1.16538 -1.3589 0.566912
0 1.16538 -1.3589 0.566912
0 1.16538 -1.3589 0.566912
0 1.16538 -1.3589 0.566912
0 1.16538 -1.3589 0.566912
0 1.16538 -1.3589 0.566912
0 1.16538 -1.3589 0.566912
0 1.16538 -1.3589 0.566912
0 1.16538 -1.3589 0.566912
0 1.16538 -1.3589 0.566912
0 1.16538 -1.3589 0.566912
0 1.16538 -1.3589 0.566912
0 1.16538 -1.3589 0.566912
0 1.16538 -1.3589 0.566912
0 1.16538 -1.3589 0.566912
0 1.16538 -1.3589 0.566912
0 1.16538 -1.3589 0.566912
0 1.16538 -1.3589 0.566912
0 1.16538 -1.3589 0.566912
0 1.16538 -1.3589 0.566912
0 1.16538 -1.3589 0.566912
0 1.16538 -1.3589 0.566912
0 1.16538 -1.3589 0.566912
0 1.16538 -1.3589 0.566912
0 1.16538 -1.3589 0.566912
0 1.16538 -1.3589 0.566912
0 1.16538 -1.3589 0.566912
0 1.16538 -1.3589 0.566912
0 1.16538 -1.3589 0.566912
0 1.16538 -1.3589 0.566912
0 1.16538 -1.3589 0.566912
0 1.16538 -1.3589 0.566912
0 1.16538 -1.3589 0.566912
0 1.16538 -1.3589 0.566912
0 1.16538 -1.3589 0.566912
0 1.16538 -1.3589 0.566912
0 1.16538 -1.3589 0.566912
0 1.16538 -1.3589 0.566912
0 1.16538 -1.3589 0.566912
0 1.16538 -1.3589 0.566912
0 1.16538 -1.3589 0.566912
0 1.16538 -1.3589 0.566912
0 1.16538 -1.3589 0.566912
0 1.16538 -1.3589 0.566912
0 1.16538 -1.3589 0.566912
0 1.16538 -1.3589 0.566912
0 1.16538 -1.3589 0.566912
0 1.16538 -1.3589 0.566912
0 1.16538 -1.3589 0.566912
0 1.16538 -1.3589 0.566912
0 1.16538 -1.3589 0.566912
0 1.16538 -1.3589 0.566912
0 1.16538 -1.3589 0.566912
0 1.16538 -1.3589 0.566912
0 1.16538 -1.3589 0.566912
0 1.16538 -1.3589 0.566912
0 1.16538 -1.3589 0.566912
0 1.16538 -1.3589 0.566912
0 1.16538 -1.3589 0.566912
0 1.16538 -1.3589 0.566912
0 1.16538 -1.3589 0.566912
0 1.16538 -1.3589 0.566912
0 1.16538 -1.3589 0.566912
0 1.16538 -1.3589 0.566912
0 1.16538 -1.3589 0.566912
0 1.16538 -1.3589 0.566912
0 1.16538 -1.3589 0.566912
0 1.16538 -1.3589 0.566912
0 1.16538 -1.3589 0.566912
0 1.16538 -1.3589 0.566912
0 1.16538 -1.3589 0.566912
0 1.16538 -1.3589 0.566912
0 1.16538 -1.3589 0.566912
0 1.16538 -1.3589 0.566912
0 1.16538 -1.3589 0.566912
0 1.16538 -1.3589 0.566912
0 1.16538 -1.3589 0.566912
0 1.16538 -1.3589 0.566912
0 1.16538 -1.3589 0.566912
0 1.16538 -1.3589 0.566912
0 1.16538 -1.3589 0.566912
0 1.16538 -1.3589 0.566912
0 1.16538 -1.3589 0.566912
0 1.16538 -1.3589 0.566912
0 1.16538 -1.3589 0.566912
0 1.16538 -1.3589 0.566912
0 1.16538 -1.3589 0.566912
0 1.16538 -1.3589 0.566912
0 1.16538 -1.3589 0.566912
0 1.16538 -1.3589 0.566912
0 1.16538 -1.3589 0.566912
0 1.16538 -1.3589 0.566912
0 1.16538 -1.3589 0.566912
0 1.16538 -1.3589 0.566912
0 1.16538 -1.3589 0.566912
0 1.16538 -1.3589 0.566912
0 1.16538 -1.3589 0.566912
0 1.16538 -1.3589 0.566912
0 1.16538 -1.3589 0.566912
0 1.16538 -1.3589 0.566912
0 1.16538 -1.3589 0.566912
0 1.16538 -1.3589 0.566912
0 1.16538 -1.3589 0.566912
0 1.16538 -1.3589 0.566912
0 1.16538 -1.3589 0.566912
0 1.16538 -1.3589 0.566912
0 1.16538 -1.3589 0.566912
0 1.16538 -1.3589 0.566912
0 1.16538 -1.3589 0.566912
0 1.16538 -1.3589 0.566912
0 1.16538 -1.3589 0.566912
0 1.16538 -1.3589 0.566912
0 1.16538 -1.3589 0.566912
0 1.16538 -1.3589 0.566912
0 1.16538 -1.3589 0.566912
0 1.16538 -1.3589 0.566912
0 1.16538 -1.3589 0.566912
0 1.16538 -1.3589 0.566912
0 1.16538 -1.3589 0.566912
0 1.16538 -1.3589 0.566912
0 1.16538 -1.3589 0.566912
0 1.16538 -1.3589 0.566912
0 1.16538 -1.3589 0.566912
0 1.16538 -1.3589 0.566912
0 1.16538 -1.3589 0.566912
0 1.16538 -1.3589 0.566912
0 1.16538 -1.3589 0.566912
0 1.16538 -1.3589 0.566912
0 1.16538 -1.3589 0.566912
0 1.16538 -1.3589 0.566912
0 1.16538 -1.3589 0.566912
0 1.16538 -1.3589 0.566912
0 1.16538 -1.3589 0.566912
0 1.16538 -1.3589 0.566912
0 1.16538 -1.3589 0.566912
0 1.16538 -1.3589 0.566912
0 1.16538 -1.3589 0.566912
0 1.16538 -1.3589 0.566912
0 1.16538 -1.3589 0.566912
0 1.16538 -1.3589 0.566912
0 1.16538 -1.3589 0.566912
0 1.16538 -1.3589 0.566912
0 1.16538 -1.3589 0.566912
0 1.16538 -1.3589 0.566912
0 1.16538 -1.3589 0.566912
0 1.16538 -1.3589 0.566912
0 1.16538 -1.3589 0.566912
0 1.16538 -1.3589 0.566912
0 1.16538 -1.3589 0.566912
0 1.16538 -1.3589 0.566912
0 1.16538 -1.3589 0.566912
0 1.16538 -1.3589 0.566912
0 1.16538 -1.3589 0.566912
0 1.16538 -1.3589 0.566912
0 1.16538 -1.3589 0.566912
0 1.16538 -1.3589 0.566912
0 1.16538 -1.3589 0.566912
0 1.16538 -1.3589 0.566912
0 1.16538 -1.3589 0.566912
0 1.16538 -1.3589 0.566912
0 1.16538 -1.3589 0.566912
0 1.16538 -1.3589 0.566912
0 1.16538 -1.3589 0.566912
0 1.16538 -1.3589 0.566912
0 1.16538 -1.3589 0.566912
0 1.16538 -1.3589 0.566912
0 1.16538 -1.3589 0.566912
0 1.16538 -1.3589 0.566912
0 1.16538 -1.3589 0.566912
0 1.16538 -1.3589 0.566912
0 1.16538 -1.3589 0.566912
0 1.16538 -1.3589 0.566912
0 1.16538 -1.3589 0.566912
0 1.16538 -1.3589 0.566912
0 1.16538 -1.3589 0.566912
0 1.16538 -1.3589 0.566912
0 1.16538 -1.3589 0.566912
0 1.16538 -1.3589 0.566912
0 1.16538 -1.3589 0.566912
0 1.16538 -1.3589 0.566912
0 1.16538 -1.3589 0.566912
0 1.16538 -1.3589 0.566912
0 1.16538 -1.3589 0.566912
0 1.16538 -1.3589 0.566912
0 1.16538 -1.3589 0.566912
0 1.16538 -1.3589 0.566912
0 1.16538 -1.3589 0.566912
0 1.16538 -1.3589 0.566912
0 1.16538 -1.3589 0.566912
0 1.16538 -1.3589 0.566912
0 1.16538 -1.3589 0.566912
0 1.16538 -1.3589 0.566912
0 1.16538 -1.3589 0.566912
0 1.16538 -1.3589 0.566912
0 1.16538 -1.3589 0.566912
0 1.16538 -1.3589 0.566912
0 1.16538 -1.3589 0.566912
0 1.16538 -1.3589 0.566912
0 1.16538 -1.3589 0.566912
0 1.16538 -1.3589 0.566912
0 1.16538 -1.3589 0.566912
0 1.16538 -1.3589 0.566912
0 1.16538 -1.3589 0.566912
0 1.16538 -1.3589 0.566912
0 1.16538 -1.3589 0.566912
0 1.16538 -1.3589 0.566912
0 1.16538 -1.3589 0.566912
0 1.16538 -1.3589 0.566912
0 1.16538 -1.3589 0.566912
0 1.16538 -1.3589 0.566912
0 1.16538 -1.3589 0.566912
0 1.16538 -1.3589 0.566912
0 1.16538 -1.3589 0.566912
0 1.16538 -1.3589 0.566912
0 1.16538 -1.3589 0.566912
0 1.16538 -1.3589 0.566912
0 1.16538 -1.3589 0.566912
0 1.16538 -1.3589 0.566912
0 1.16538 -1.3589 0.566912
0 1.16538 -1.3589 0.566912
0 1.16538 -1.3589 0.566912
0 1.16538 -1.3589 0.566912
0 1.16538 -1.3589 0.566912
0 1.16538 -1.3589 0.566912
0 1.16538 -1.3589 0.566912
0 1.16538 -1.3589 0.566912
0 1.16538 -1.3589 0.566912
0 1.16538 -1.3589 0.566912
0 1.16538 -1.3589 0.566912
0 1.16538 -1.3589 0.566912
0 1.16538 -1.3589 0.566912
0 1.16538 -1.3589 0.566912
0 1.16538 -1.3589 0.566912
0 1.16538 -1.3589 0.566912
0 1.16538 -1.3589 0.566912
0 1.16538 -1.3589 0.566912
0 1.16538 -1.3589 0.566912
0 1.16538 -1.3589 0.566912
0 1.16538 -1.3589 0.566912
0 1.16538 -1.3589 0.566912
0 1.16538 -1.3589 0.566912
0 1.16538 -1.3589 0.566912
0 1.16538 -1.3589 0.566912
0 1.16538 -1.3589 0.566912
0 1.16538 -1.3589 0.566912
0 1.16538 -1.3589 0.566912
0 1.16538 -1.3589 0.566912
0 1.16538 -1.3589 0.566912
0 1.16538 -1.3589 0.566912
0 1.16538 -1.3589 0.566912
0 1.16538 -1.3589 0.566912
0 1.16538 -1.3589 0.566912
0 1.16538 -1.3589 0.566912
0 1.16538 -1.3589 0.566912
0 1.16538 -1.3589 0.566912
0 1.16538 -1.3589 0.566912
0 1.16538 -1.3589 0.566912
0 1.16538 -1.3589 0.566912
0 1.16538 -1.3589 0.566912
0 1.16538 -1.3589 0.566912
0 1.16538 -1.3589 0.566912
0 1.16538 -1.3589 0.566912
0 1.16538 -1.3589 0.566912
0 1.16538 -1.3589 0.566912
0 1.16538 -1.3589 0.566912
0 1.16538 -1.3589 0.566912
0 1.16538 -1.3589 0.566912
0 1.16538 -1.3589 0.566912
0 1.16538 -1.3589 0.566912
0 1.16538 -1.3589 0.566912
0 1.16538 -1.3589 0.566912
0 1.16538 -1.3589 0.566912
0 1.16538 -1.3589 0.566912
0 1.16538 -1.3589 0.566912
0 1.16538 -1.3589 0.566912
0 1.16538 -1.3589 0.566912
0 1.16538 -1.3589 0.566912
0 1.16538 -1.3589 0.566912
0 1.16538 -1.3589 0.566912
0 1.16538 -1.3589 0.566912
0 1.16538 -1.3589 0.566912
0 1.16538 -1.3589 0.566912
0 1.16538 -1.3589 0.566912
0 1.16538 -1.3589 0.566912
0 1.16538 -1.3589 0.566912
0 1.16538 -1.3589 0.566912
0 1.16538 -1.3589 0.566912
0 1.16538 -1.3589 0.566912
0 1.16538 -1.3589 0.566912
0 1.16538 -1.3589 0.566912
0 1.16538 -1.3589 0.566912
