-9.78921e-05 3.52779e-06 -9.57893e-06 -1.77636e-15 -7.16657e-06 -1.08642e-11 9.78921e-05 3.52779e-06 9.57893e-06
-9.78938e-05 3.52796e-06 -9.58016e-06 2.22045e-15 -7.16663e-06 -2.05205e-11 9.78938e-05 3.52796e-06 9.58016e-06
-9.78947e-05 3.52615e-06 -9.5802e-06 1.77636e-15 -7.16588e-06 -3.25713e-11 9.78947e-05 3.52616e-06 9.5802e-06
-9.78975e-05 3.52588e-06 -9.58024e-06 2.17604e-14 -7.16513e-06 -4.06999e-11 9.78975e-05 3.52588e-06 9.58024e-06
-9.78997e-05 3.52491e-06 -9.58028e-06 0 -7.16438e-06 -4.93117e-11 9.78997e-05 3.52491e-06 9.58028e-06
-9.79006e-05 3.52279e-06 -9.58032e-06 -1.24345e-14 -7.16363e-06 -6.19025e-11 9.79006e-05 3.52279e-06 9.58032e-06
-9.79028e-05 3.52723e-06 -9.58036e-06 -3.90799e-14 -7.16288e-06 -6.89511e-11 9.79028e-05 3.52724e-06 9.58036e-06
-9.7904e-05 3.52431e-06 -9.5804e-06 1.77636e-15 -7.16213e-06 -8.14566e-11 9.7904e-05 3.52431e-06 9.5804e-06
-9.7905e-05 3.52598e-06 -9.58043e-06 -4.44089e-15 -7.16139e-06 -9.34506e-11 9.7905e-05 3.52598e-06 9.58043e-06
-9.79085e-05 3.52363e-06 -9.58047e-06 -5.68434e-14 -7.16064e-06 -1.04762e-10 9.79085e-05 3.52364e-06 9.58048e-06
