0.1 0 0 0.000108571 0 0 -0.000108571
0.2 0 0 0.000217141 0 0 -0.000217141
0.3 0 0 0.000325712 0 0 -0.000325712
0.4 0 0 0.000434283 0 0 -0.000434283
0.5 0 0 0.000542854 0 0 -0.000542854
0.6 0 0 0.000651424 0 0 -0.000651424
0.7 0 0 0.000759995 0 0 -0.000759995
0.8 0 0 0.000868566 0 0 -0.000868566
0.9 0 0 0.000977136 0 0 -0.000977136
1 0 0 0.00108571 0 0 -0.00108571
