0.1 -3.36809e-07 -1.89455e-07
0.2 -6.73619e-07 -3.78911e-07
0.3 -1.01043e-06 -5.68366e-07
0.4 -1.34724e-06 -7.57821e-07
0.5 -1.68405e-06 -9.47277e-07
0.6 -2.02086e-06 -1.13673e-06
0.7 -2.35767e-06 -1.32619e-06
0.8 -2.69448e-06 -1.51564e-06
0.9 -3.03128e-06 -1.7051e-06
1 -3.36809e-06 -1.89455e-06
