0.1 8.4876e-05 -0.00832178 -0.000217731 -8.4876e-05 -0.00832178 0.000217731
0.2 0.000169752 -0.0166436 -0.000435462 -0.000169752 -0.0166436 0.000435462
0.3 0.000254628 -0.0249653 -0.000653192 -0.000254628 -0.0249653 0.000653192
0.4 0.000339504 -0.0332871 -0.000870923 -0.000339504 -0.0332871 0.000870923
0.5 0.00042438 -0.0416089 -0.00108865 -0.00042438 -0.0416089 0.00108865
0.6 0.000509256 -0.0499307 -0.00130638 -0.000509256 -0.0499307 0.00130638
0.7 0.000594132 -0.0582525 -0.00152412 -0.000594132 -0.0582525 0.00152412
0.8 0.000679008 -0.0665743 -0.00174185 -0.000679008 -0.0665743 0.00174185
0.9 0.000763884 -0.074896 -0.00195958 -0.000763884 -0.074896 0.00195958
1 0.00084876 -0.0832178 -0.00217731 -0.00084876 -0.0832178 0.00217731
