0.1 6.99377 200 3021.31 -6.99377 200 -3021.31
0.2 13.9875 400 6042.62 -13.9875 400 -6042.62
0.3 20.9813 600 9063.93 -20.9813 600 -9063.93
0.4 27.9751 800 12085.2 -27.9751 800 -12085.2
0.5 34.9689 1000 15106.6 -34.9689 1000 -15106.6
0.6 41.9626 1200 18127.9 -41.9626 1200 -18127.9
0.7 48.9564 1400 21149.2 -48.9564 1400 -21149.2
0.8 55.9502 1600 24170.5 -55.9502 1600 -24170.5
0.9 62.944 1800 27191.8 -62.944 1800 -27191.8
1 69.9377 2000 30213.1 -69.9377 2000 -30213.1
