0.0011733900000
0.0013168700000
0.0010349800000
0.0005613600000
0.0013336200000
0.0030697300000
0.0039646900000
0.0024746700000
0.0003661850000
-0.0008190460000
-0.0018124300000
-0.0041981900000
-0.0073217100000
-0.0074644100000
-0.0027381000000
0.0055889600000
0.0061420400000
-0.0006362630000
0.0019678300000
0.0040733800000
0.0004607690000
0.0024801700000
0.0010898400000
-0.0058815800000
-0.0040360500000
0.0053302500000
0.0142250000000
0.0207235000000
0.0069132600000
-0.0215708000000
-0.0283903000000
-0.0190117000000
-0.0162680000000
-0.0076637800000
0.0153693000000
0.0192562000000
-0.0046060800000
-0.0160274000000
-0.0060500200000
0.0033803700000
0.0175223000000
0.0510372000000
0.0692207000000
0.0294220000000
-0.0559744000000
-0.0913083000000
-0.0263855000000
0.0421716000000
0.0663663000000
0.0486042000000
-0.0221831000000
-0.0571827000000
-0.0154149000000
0.0102214000000
0.0080092900000
0.0050976500000
-0.0180176000000
-0.0351820000000
-0.0212081000000
0.0021434400000
0.0049774400000
-0.0199622000000
-0.0482516000000
-0.0529480000000
-0.0330736000000
0.0025660000000
0.0404958000000
0.0319772000000
-0.0136267000000
-0.0036792300000
0.0539990000000
0.0590602000000
-0.0077256500000
-0.0528618000000
-0.0334715000000
-0.0010071300000
0.0290753000000
0.0499088000000
0.0414431000000
0.0103462000000
-0.0295975000000
-0.0366095000000
-0.0058073600000
0.0014202000000
-0.0075151500000
0.0011283400000
0.0130188000000
0.0333284000000
0.0507491000000
0.0132201000000
-0.0439474000000
-0.0471548000000
-0.0022612700000
0.0474634000000
0.0694175000000
0.0614736000000
0.0045487700000
-0.0692638000000
-0.0670769000000
-0.0301762000000
-0.0300073000000
-0.0070112400000
0.0325755000000
0.0237735000000
0.0051513100000
-0.0016816900000
-0.0220345000000
-0.0253171000000
-0.0054608700000
-0.0079371300000
-0.0204115000000
-0.0122933000000
0.0054852300000
0.0327436000000
0.0478847000000
0.0186294000000
-0.0387763000000
-0.0777586000000
-0.0500497000000
0.0010041700000
0.0260589000000
0.0043683300000
-0.0526479000000
-0.0442196000000
0.0278944000000
0.0765001000000
0.0841284000000
0.0549644000000
-0.0353949000000
-0.1252360000000
-0.1042730000000
0.0096897100000
0.1111600000000
0.0950181000000
-0.0058012100000
-0.0410541000000
-0.0020110800000
0.0143497000000
-0.0051682200000
-0.0411822000000
-0.0819231000000
-0.0701681000000
-0.0231365000000
0.0551376000000
0.1359210000000
0.0733802000000
-0.0721952000000
-0.1188510000000
-0.0260779000000
0.0540279000000
0.0135310000000
-0.0412554000000
-0.0435094000000
-0.0185078000000
0.0144814000000
0.0250930000000
0.0015808800000
-0.0226505000000
-0.0122862000000
0.0120211000000
0.0167303000000
0.0297673000000
0.0616709000000
0.0541066000000
-0.0023684400000
-0.0353733000000
-0.0177410000000
0.0094395000000
0.0132007000000
0.0421352000000
0.0845894000000
0.0516195000000
-0.0272287000000
-0.0775121000000
-0.0387861000000
0.0468682000000
0.0654774000000
0.0264104000000
-0.0249622000000
-0.0752923000000
-0.0610284000000
0.0227209000000
0.0552879000000
0.0256158000000
0.0154258000000
0.0109593000000
-0.0067161500000
0.0003196720000
0.0295361000000
0.0302606000000
0.0083892700000
0.0055438000000
0.0082054100000
-0.0066771400000
-0.0241581000000
-0.0345019000000
-0.0385064000000
-0.0325579000000
-0.0156109000000
0.0287868000000
0.0631948000000
0.0379974000000
0.0075217900000
0.0045071300000
0.0048869700000
-0.0015109500000
-0.0227551000000
-0.0433355000000
-0.0254717000000
0.0118382000000
0.0156988000000
0.0039839400000
0.0088501700000
0.0093742800000
-0.0075969000000
-0.0402196000000
-0.0655774000000
-0.0466193000000
-0.0037715700000
0.0408596000000
0.0736462000000
0.0182665000000
-0.0926837000000
-0.0905346000000
-0.0136182000000
0.0407982000000
0.0925734000000
0.0780232000000
0.0198618000000
-0.0065870400000
-0.0180280000000
-0.0159455000000
-0.0207803000000
-0.0442417000000
-0.0583892000000
-0.0480168000000
-0.0244400000000
-0.0004090120000
0.0260089000000
0.0396354000000
0.0200067000000
-0.0286392000000
-0.0695081000000
-0.0551267000000
0.0219730000000
0.0722036000000
0.0276003000000
-0.0293311000000
-0.0561652000000
-0.0345863000000
0.0521161000000
0.0692857000000
-0.0036383300000
-0.0413977000000
-0.0445855000000
-0.0349147000000
0.0286150000000
0.0899309000000
0.0682429000000
0.0074642100000
-0.0313937000000
-0.0215762000000
0.0230118000000
0.0383751000000
0.0144634000000
-0.0035710000000
-0.0052346700000
-0.0032444700000
-0.0065939700000
-0.0192973000000
-0.0180603000000
-0.0032550000000
-0.0008178550000
0.0223366000000
0.0729262000000
0.0640771000000
-0.0061819000000
-0.0452804000000
-0.0334694000000
-0.0113949000000
-0.0024158200000
-0.0019514100000
-0.0158079000000
-0.0362671000000
-0.0287135000000
-0.0044447600000
0.0042517900000
0.0023171600000
-0.0105104000000
-0.0276496000000
-0.0307998000000
-0.0320450000000
-0.0214885000000
0.0098773900000
0.0461990000000
0.0703303000000
0.0411820000000
-0.0036090900000
0.0102143000000
0.0396427000000
0.0458571000000
0.0411588000000
0.0226208000000
0.0179300000000
0.0327873000000
0.0215796000000
-0.0124836000000
-0.0192587000000
0.0022555100000
0.0141207000000
-0.0027139800000
-0.0351678000000
-0.0402436000000
-0.0181770000000
-0.0034378300000
0.0139269000000
0.0322643000000
0.0125862000000
-0.0196277000000
-0.0101187000000
0.0204555000000
0.0563900000000
0.0895176000000
0.0686170000000
0.0201336000000
-0.0390697000000
-0.1003110000000
-0.0542077000000
0.0509450000000
0.0752236000000
0.0352965000000
0.0018030500000
-0.0235409000000
-0.0561633000000
-0.0472387000000
0.0219645000000
0.0858036000000
0.0676835000000
-0.0057902100000
-0.0389218000000
-0.0229292000000
-0.0019819000000
0.0013600000000
0.0035300100000
0.0175781000000
0.0383599000000
0.0537002000000
0.0292847000000
-0.0153811000000
-0.0281195000000
-0.0162981000000
-0.0182254000000
-0.0511464000000
-0.0995217000000
-0.1130440000000
-0.0783363000000
-0.0507476000000
-0.0404983000000
-0.0112786000000
0.0176313000000
0.0255598000000
0.0230589000000
-0.0145286000000
-0.0718057000000
-0.0658809000000
-0.0060472200000
0.0125424000000
0.0484743000000
0.1011780000000
0.0218326000000
-0.0570435000000
-0.0326277000000
-0.0021612400000
0.0473509000000
0.0606927000000
0.0042883200000
-0.0318008000000
-0.0321592000000
-0.0104855000000
0.0054694000000
-0.0044615200000
-0.0128185000000
-0.0045586200000
0.0126449000000
0.0221890000000
0.0082950400000
-0.0228030000000
-0.0233717000000
0.0195226000000
0.0442269000000
0.0318539000000
0.0051315200000
-0.0286331000000
-0.0559042000000
-0.0597401000000
-0.0178905000000
0.0307531000000
0.0472586000000
0.0419702000000
0.0085980400000
-0.0226896000000
-0.0264712000000
-0.0024730700000
0.0401630000000
0.0630335000000
0.0504313000000
0.0286524000000
0.0195776000000
0.0063018200000
-0.0154987000000
-0.0228011000000
-0.0114997000000
0.0068828800000
0.0259023000000
0.0288332000000
0.0077867400000
-0.0147048000000
-0.0285215000000
-0.0275995000000
-0.0120278000000
0.0072226200000
0.0320037000000
0.0339107000000
-0.0066208300000
-0.0571810000000
-0.0662936000000
-0.0087999300000
0.0584193000000
0.0531683000000
-0.0074828000000
-0.0338371000000
-0.0147829000000
0.0088183500000
0.0269442000000
0.0517768000000
0.0641212000000
0.0158572000000
-0.0323038000000
-0.0127751000000
0.0094365200000
0.0109172000000
0.0135485000000
-0.0111767000000
-0.0579434000000
-0.0691590000000
-0.0359904000000
-0.0115729000000
0.0241998000000
0.0604693000000
0.0128856000000
-0.0463222000000
-0.0393842000000
-0.0150387000000
0.0214059000000
0.0509813000000
0.0325453000000
0.0119586000000
0.0176496000000
0.0157679000000
-0.0023471100000
-0.0267414000000
-0.0330535000000
-0.0057269400000
0.0071215000000
0.0033993100000
0.0353246000000
0.0619550000000
0.0340664000000
-0.0146509000000
-0.0303740000000
-0.0051978000000
0.0047566200000
-0.0086799300000
-0.0121172000000
-0.0071576800000
0.0001966850000
0.0080942600000
0.0118043000000
0.0048510500000
-0.0086190300000
-0.0230887000000
-0.0277989000000
-0.0155040000000
-0.0055969600000
0.0030219500000
0.0198346000000
0.0234616000000
0.0108614000000
0.0017950600000
-0.0059950100000
-0.0320042000000
-0.0639721000000
-0.0583900000000
-0.0289519000000
-0.0112258000000
0.0124682000000
0.0372363000000
0.0202007000000
-0.0252987000000
-0.0252160000000
0.0183455000000
0.0295778000000
-0.0130112000000
-0.0574242000000
-0.0627325000000
-0.0445319000000
-0.0169518000000
-0.0066453300000
-0.0150066000000
-0.0030724900000
0.0110510000000
0.0031007700000
-0.0063257400000
-0.0108668000000
-0.0243284000000
-0.0214885000000
0.0224209000000
0.0564786000000
0.0496324000000
0.0194600000000
-0.0247830000000
-0.0401633000000
-0.0199696000000
-0.0172898000000
-0.0194006000000
0.0001247840000
0.0007088290000
-0.0193622000000
-0.0174559000000
-0.0103626000000
-0.0222686000000
-0.0366294000000
-0.0197661000000
0.0363451000000
0.0687464000000
0.0436806000000
0.0016727700000
-0.0207250000000
-0.0057785400000
0.0184204000000
0.0109283000000
0.0075539500000
0.0235125000000
0.0206335000000
0.0146421000000
0.0082639200000
-0.0291948000000
-0.0553826000000
-0.0295475000000
0.0151086000000
0.0394772000000
0.0269359000000
0.0083648100000
0.0088652900000
-0.0078410200000
-0.0339285000000
-0.0160456000000
0.0361662000000
0.0793212000000
0.0600873000000
-0.0105930000000
-0.0213156000000
0.0174438000000
0.0220117000000
0.0154474000000
0.0036032800000
-0.0176736000000
-0.0162093000000
0.0006701900000
0.0127147000000
0.0047326300000
-0.0108389000000
-0.0004781510000
0.0364254000000
0.0661386000000
0.0491285000000
-0.0062481700000
-0.0682073000000
-0.0719480000000
-0.0134194000000
0.0162970000000
0.0328270000000
0.0368223000000
0.0019587100000
-0.0095130600000
0.0013499100000
0.0138390000000
0.0385622000000
0.0413713000000
0.0096233300000
-0.0210069000000
-0.0278987000000
-0.0174294000000
-0.0069365100000
-0.0023777100000
-0.0026388800000
-0.0084128800000
-0.0134791000000
-0.0122679000000
-0.0091314400000
-0.0072620900000
-0.0030595700000
0.0057131600000
0.0081861500000
0.0038731300000
0.0051992800000
0.0080847500000
0.0059088800000
0.0004902560000
-0.0029026200000
-0.0245368000000
-0.0684161000000
-0.0686948000000
-0.0352364000000
-0.0247839000000
-0.0024185400000
0.0319589000000
0.0330792000000
0.0065884400000
-0.0194818000000
-0.0461424000000
-0.0582121000000
-0.0268214000000
-0.0033246100000
-0.0127070000000
-0.0149189000000
-0.0104708000000
-0.0135873000000
-0.0123899000000
-0.0015175800000
0.0112617000000
0.0188299000000
0.0144948000000
0.0083882200000
0.0089925100000
0.0053902500000
-0.0112489000000
-0.0265140000000
-0.0166898000000
-0.0004794720000
-0.0044163600000
-0.0070709900000
0.0049285900000
0.0159750000000
0.0277643000000
0.0532358000000
0.0700723000000
0.0430056000000
-0.0034489600000
-0.0354381000000
-0.0306493000000
0.0160407000000
0.0402890000000
0.0308572000000
0.0202549000000
0.0021389400000
-0.0102479000000
-0.0104258000000
-0.0118281000000
-0.0112748000000
-0.0042587600000
-0.0038931100000
-0.0141316000000
-0.0151718000000
-0.0068765200000
-0.0041540300000
0.0002127670000
0.0043634400000
-0.0011754400000
-0.0032287900000
0.0011673900000
0.0002611190000
-0.0022211300000
0.0097827200000
0.0306386000000
0.0201841000000
-0.0123995000000
-0.0218518000000
-0.0206359000000
-0.0141993000000
0.0022656000000
-0.0032695600000
-0.0293710000000
-0.0353926000000
-0.0156612000000
0.0051111600000
0.0210476000000
0.0259977000000
0.0089195800000
-0.0128124000000
-0.0170619000000
0.0002531540000
0.0174710000000
0.0026189700000
-0.0373581000000
-0.0614135000000
-0.0383569000000
0.0122801000000
0.0517981000000
0.0500987000000
0.0119026000000
-0.0098923100000
-0.0043970200000
0.0126281000000
0.0310053000000
0.0306327000000
0.0186622000000
0.0145021000000
0.0187953000000
0.0228418000000
0.0202514000000
0.0133907000000
0.0087880200000
0.0068215700000
0.0075495700000
0.0137525000000
0.0212897000000
0.0161396000000
0.0012707500000
-0.0003171370000
0.0141446000000
0.0283216000000
0.0299589000000
0.0140636000000
-0.0060117200000
-0.0053753200000
0.0113061000000
0.0237633000000
0.0309904000000
0.0254422000000
0.0107751000000
0.0108036000000
0.0168260000000
0.0108126000000
-0.0020838000000
-0.0156224000000
-0.0185277000000
-0.0061055700000
0.0065955400000
0.0107924000000
0.0035491300000
-0.0146368000000
-0.0307770000000
-0.0276824000000
-0.0117752000000
0.0047146400000
0.0141223000000
-0.0053124400000
-0.0278047000000
-0.0202346000000
-0.0077391000000
-0.0063749000000
-0.0098562900000
-0.0109421000000
-0.0033130000000
0.0094795600000
0.0193700000000
0.0206719000000
0.0125945000000
0.0014193800000
-0.0026412600000
0.0046496400000
0.0131234000000
0.0130439000000
0.0071193900000
-0.0009092540000
-0.0058689100000
-0.0039826500000
-0.0008106740000
0.0031280300000
0.0149764000000
0.0212631000000
0.0056496900000
-0.0129225000000
-0.0192472000000
-0.0151880000000
-0.0006005190000
0.0088602500000
0.0028325300000
-0.0127196000000
-0.0287970000000
-0.0301133000000
-0.0171283000000
-0.0039750700000
0.0059826900000
0.0052550600000
-0.0119284000000
-0.0221429000000
-0.0142261000000
-0.0072915500000
-0.0046545400000
-0.0012347800000
0.0011668100000
0.0015246000000
-0.0035433600000
-0.0090576600000
-0.0116128000000
-0.0185013000000
-0.0275472000000
-0.0337411000000
-0.0315669000000
-0.0169154000000
0.0057004500000
0.0224599000000
0.0113827000000
-0.0082631900000
-0.0021475400000
0.0119238000000
0.0172415000000
0.0194307000000
0.0148216000000
0.0055769400000
-0.0053518900000
-0.0100798000000
-0.0036757800000
-0.0021489300000
-0.0056255800000
-0.0063780100000
-0.0034818000000
0.0060570700000
0.0172124000000
0.0171314000000
0.0046500600000
0.0001908240000
0.0082760500000
0.0138780000000
0.0141023000000
0.0124752000000
0.0077500000000
0.0026699000000
0.0031508300000
0.0053051100000
0.0033336200000
-0.0024428700000
-0.0079279800000
-0.0011713800000
0.0129058000000
0.0125003000000
0.0059002500000
0.0115300000000
0.0205927000000
0.0236742000000
0.0207854000000
0.0051257100000
-0.0129346000000
-0.0143714000000
-0.0079197800000
-0.0034295300000
-0.0021184100000
-0.0047492000000
-0.0016166600000
0.0052049400000
0.0016931900000
-0.0095678900000
-0.0178204000000
-0.0198324000000
-0.0162430000000
-0.0118193000000
-0.0079859200000
0.0002028140000
0.0048913100000
-0.0033419200000
-0.0154725000000
-0.0189454000000
-0.0094227800000
0.0070085700000
0.0253515000000
0.0313373000000
0.0110037000000
-0.0063143600000
-0.0051104700000
-0.0040815000000
-0.0006122620000
0.0063719300000
0.0085413700000
0.0107879000000
0.0134790000000
0.0097755000000
0.0021636200000
-0.0087177000000
-0.0188006000000
-0.0127759000000
-0.0009941480000
0.0021702000000
0.0131279000000
0.0308039000000
0.0295844000000
0.0084590700000
-0.0149806000000
-0.0241131000000
-0.0145054000000
-0.0007138180000
0.0057105300000
0.0020901100000
-0.0015090800000
0.0034096000000
0.0077596200000
0.0090619400000
0.0082647100000
0.0025184500000
-0.0071722800000
-0.0173772000000
-0.0179329000000
-0.0095265900000
-0.0039095200000
-0.0043622600000
-0.0123112000000
-0.0231928000000
-0.0257916000000
-0.0213058000000
-0.0194925000000
-0.0222246000000
-0.0278652000000
-0.0345396000000
-0.0346712000000
-0.0234928000000
-0.0041613700000
0.0093328200000
0.0053259400000
-0.0030312300000
-0.0068536800000
-0.0163043000000
-0.0181025000000
-0.0008039040000
0.0031646100000
-0.0136462000000
-0.0204422000000
-0.0158568000000
-0.0104234000000
-0.0033382900000
-0.0033182700000
-0.0101561000000
-0.0130880000000
-0.0139870000000
-0.0164665000000
-0.0186545000000
-0.0184496000000
-0.0148408000000
-0.0083716100000
0.0004883600000
0.0078022300000
0.0042667900000
-0.0114976000000
-0.0257475000000
-0.0229744000000
-0.0058366200000
0.0084199700000
0.0085832500000
-0.0046718900000
-0.0195592000000
-0.0227320000000
-0.0128805000000
0.0033217700000
0.0155699000000
0.0119679000000
-0.0000404034000
-0.0063639500000
-0.0063355300000
0.0042327700000
0.0174805000000
0.0133672000000
-0.0026072300000
-0.0116399000000
-0.0141085000000
-0.0150267000000
-0.0092777300000
0.0021561200000
0.0115623000000
0.0147344000000
0.0105735000000
0.0071327300000
0.0128008000000
0.0219210000000
0.0305843000000
0.0357007000000
0.0298459000000
0.0204798000000
0.0229853000000
0.0332527000000
0.0373941000000
0.0342734000000
0.0281275000000
0.0254102000000
0.0281681000000
0.0302558000000
0.0297163000000
0.0300047000000
0.0317518000000
0.0307803000000
0.0273713000000
0.0240358000000
0.0218553000000
0.0229802000000
0.0223294000000
0.0132902000000
0.0016759500000
0.0006704710000
0.0085332700000
0.0080587100000
0.0002315000000
-0.0031662600000
-0.0050281800000
-0.0083906800000
-0.0106237000000
-0.0100513000000
-0.0072439300000
-0.0036651600000
0.0016507300000
0.0056050300000
0.0039366300000
-0.0043242300000
-0.0145505000000
-0.0180182000000
-0.0134831000000
-0.0058064400000
-0.0009149350000
-0.0022211800000
-0.0064863200000
-0.0093256700000
-0.0125001000000
-0.0179484000000
-0.0217619000000
-0.0233546000000
-0.0252311000000
-0.0243250000000
-0.0184006000000
-0.0089023000000
-0.0044013400000
-0.0088244600000
-0.0094167300000
-0.0033875100000
0.0033963200000
0.0110122000000
0.0104815000000
-0.0010494700000
-0.0072113800000
-0.0073209400000
-0.0112279000000
-0.0132106000000
-0.0111258000000
-0.0105690000000
-0.0063936900000
0.0056427800000
0.0131753000000
0.0060161500000
-0.0088944200000
-0.0156626000000
-0.0076621400000
0.0068368300000
0.0153160000000
0.0136296000000
0.0071806100000
0.0023643300000
0.0035068800000
0.0062510600000
0.0054972500000
0.0050106000000
0.0048263700000
0.0021826500000
0.0017465500000
0.0053590600000
0.0085866400000
0.0111911000000
0.0129819000000
0.0118148000000
0.0087282200000
0.0058388500000
0.0033950000000
-0.0008295390000
-0.0065973700000
-0.0088420700000
-0.0051740900000
0.0012511700000
0.0041004800000
0.0015036500000
0.0007035150000
0.0023526700000
0.0014225800000
0.0001423270000
0.0007795840000
0.0027129000000
0.0056455600000
0.0053247000000
-0.0017981900000
-0.0070163100000
-0.0054814000000
-0.0036249900000
-0.0000507429000
0.0071756100000
0.0109900000000
0.0078697100000
0.0030725400000
0.0001954000000
-0.0007331250000
-0.0002852530000
-0.0015294500000
-0.0033840000000
-0.0017938200000
0.0015443900000
0.0058408300000
0.0135634000000
0.0109603000000
-0.0050056500000
-0.0112400000000
-0.0033522900000
0.0093995300000
0.0176896000000
0.0143920000000
0.0048960100000
-0.0039781100000
-0.0078575800000
-0.0059681700000
0.0022924500000
0.0140412000000
0.0066592600000
-0.0178427000000
-0.0231132000000
-0.0066363400000
0.0086870100000
0.0109796000000
0.0002920490000
-0.0126081000000
-0.0174526000000
-0.0156345000000
-0.0087640100000
0.0019657300000
0.0040466700000
-0.0046765500000
-0.0096447700000
-0.0098877900000
-0.0146326000000
-0.0196738000000
-0.0174861000000
-0.0114755000000
-0.0076156600000
-0.0061785300000
-0.0053137900000
-0.0050608700000
-0.0067361700000
-0.0091349100000
-0.0100711000000
-0.0089224300000
-0.0062730900000
-0.0032929300000
-0.0009698250000
-0.0005064260000
-0.0031718800000
-0.0053200300000
-0.0011321000000
0.0044351300000
0.0053834500000
0.0022568900000
-0.0042477400000
-0.0097529100000
-0.0079996100000
-0.0020213000000
-0.0003061090000
-0.0003576580000
0.0015169100000
0.0033154600000
0.0042015800000
0.0017893000000
-0.0028225600000
-0.0052945200000
-0.0030017600000
0.0016425800000
0.0016406500000
-0.0026975400000
-0.0048718400000
-0.0006319890000
0.0066517200000
0.0113624000000
0.0123948000000
0.0075252800000
0.0013026200000
-0.0015282600000
-0.0015307600000
0.0019651800000
0.0023474000000
-0.0010127600000
0.0001777990000
0.0039658400000
0.0058252600000
0.0078489600000
0.0080336500000
0.0047473600000
0.0023558100000
-0.0004469240000
-0.0054000400000
-0.0098577300000
-0.0100679000000
-0.0034861600000
0.0044827100000
0.0043859000000
-0.0003075020000
0.0010968400000
0.0034202400000
0.0010526200000
-0.0001596790000
0.0026176000000
0.0078345100000
0.0122951000000
0.0097781700000
0.0055836200000
0.0094055000000
0.0127401000000
0.0091687300000
0.0015718000000
-0.0062592800000
-0.0084817000000
-0.0025323100000
0.0054825600000
0.0105944000000
0.0111962000000
0.0035799900000
-0.0024395200000
0.0000417406000
0.0023318500000
0.0020029400000
0.0003355900000
-0.0043255900000
-0.0079748700000
-0.0077019200000
-0.0071423600000
-0.0072210500000
-0.0070383800000
-0.0062599000000
-0.0040528800000
-0.0004828100000
0.0032406800000
0.0067497300000
0.0075962500000
0.0041567000000
0.0001186250000
-0.0054565400000
-0.0099722400000
-0.0055379800000
0.0007162110000
0.0011155800000
0.0003235270000
0.0000454270000
0.0009556320000
0.0047973700000
0.0089600900000
0.0082013400000
0.0022774700000
-0.0007310910000
-0.0000569477000
0.0009646720000
0.0041828500000
0.0061694400000
0.0042240600000
0.0022041000000
0.0009839570000
-0.0013125300000
-0.0005670470000
0.0038765500000
0.0056005200000
0.0060508400000
0.0052492000000
0.0005301430000
-0.0042509800000
-0.0087517500000
-0.0086040000000
-0.0028005900000
-0.0016244700000
-0.0036298900000
-0.0035590300000
-0.0032363400000
-0.0029555800000
-0.0023821400000
0.0000906705000
0.0040514700000
0.0019531500000
-0.0055035300000
-0.0092328900000
-0.0092044400000
-0.0098951900000
-0.0110808000000
-0.0076028400000
-0.0018376000000
0.0003367600000
0.0024345600000
-0.0012780600000
-0.0114047000000
-0.0124604000000
-0.0074453400000
-0.0053876900000
-0.0036550400000
-0.0011049500000
-0.0004058890000
-0.0025963400000
-0.0031688900000
-0.0003766970000
0.0007112090000
-0.0011380600000
-0.0024828300000
-0.0019223400000
0.0015204000000
0.0061321200000
0.0090345300000
0.0086687500000
0.0050822300000
0.0027787800000
0.0017941700000
0.0005845430000
-0.0000079800600
0.0004779840000
0.0038516000000
0.0074876100000
0.0072860700000
0.0046954600000
0.0040154800000
0.0049121400000
0.0046880400000
0.0037405200000
0.0018837700000
0.0008831730000
0.0027899100000
0.0035552600000
0.0006419100000
-0.0027244300000
-0.0044764300000
-0.0045155600000
-0.0024256000000
0.0006978120000
0.0051701500000
0.0104740000000
0.0132595000000
0.0117545000000
0.0072686700000
0.0030607400000
-0.0022105400000
-0.0076167000000
-0.0045191200000
0.0073834400000
0.0180879000000
0.0178978000000
0.0031644100000
-0.0116071000000
-0.0088687000000
0.0038565800000
0.0115427000000
0.0142657000000
0.0128804000000
0.0012973500000
-0.0083866300000
-0.0038356900000
0.0002395510000
-0.0011411000000
-0.0011432400000
-0.0028519800000
-0.0056287800000
-0.0059470700000
-0.0062776700000
-0.0091992200000
-0.0125830000000
-0.0128500000000
-0.0101059000000
-0.0079565500000
-0.0094869000000
-0.0119085000000
-0.0101281000000
-0.0058076900000
-0.0016893400000
-0.0011554000000
-0.0053427100000
-0.0093066100000
-0.0143027000000
-0.0207653000000
-0.0232431000000
-0.0187045000000
-0.0057889400000
0.0039256300000
0.0012560500000
-0.0007026880000
0.0000101899000
-0.0013192700000
0.0010310400000
0.0058029700000
0.0062756100000
0.0001702430000
-0.0043694500000
-0.0031038600000
-0.0008138380000
0.0021985300000
0.0054775800000
0.0082453600000
0.0107266000000
0.0105540000000
0.0039992500000
-0.0059721200000
-0.0057777800000
0.0030520900000
0.0088188300000
0.0113422000000
0.0084962100000
0.0034810700000
0.0010781000000
0.0009462230000
0.0053012500000
0.0073222200000
0.0019686300000
-0.0014253600000
0.0006915470000
0.0025075000000
0.0052894800000
0.0076230400000
0.0059679000000
0.0056597800000
0.0091552400000
0.0141228000000
0.0178258000000
0.0149602000000
0.0088966200000
0.0072050400000
0.0084274200000
0.0113870000000
0.0146415000000
0.0120235000000
0.0044490100000
0.0021116900000
0.0056466200000
0.0080198100000
0.0085180500000
0.0094690700000
0.0112651000000
0.0128896000000
0.0141559000000
0.0130199000000
0.0066527900000
-0.0004462290000
0.0020125600000
0.0103289000000
0.0130310000000
0.0100166000000
0.0017610400000
-0.0076729900000
-0.0100390000000
-0.0059797100000
-0.0012378100000
-0.0019548000000
-0.0072466600000
-0.0083227700000
-0.0046104500000
-0.0005990910000
0.0032716800000
0.0041025100000
0.0010541300000
-0.0007449900000
0.0010139300000
0.0021851700000
-0.0003711760000
-0.0032067400000
-0.0044342100000
-0.0061410900000
-0.0071023700000
-0.0063141100000
-0.0055049900000
-0.0039806400000
-0.0018653600000
-0.0044215200000
-0.0121419000000
-0.0168697000000
-0.0161199000000
-0.0141397000000
-0.0122216000000
-0.0120837000000
-0.0139795000000
-0.0123044000000
-0.0062066200000
-0.0032408100000
-0.0070795300000
-0.0134812000000
-0.0167715000000
-0.0164087000000
-0.0134408000000
-0.0073673000000
-0.0020933200000
-0.0002429450000
0.0018189500000
0.0035631400000
-0.0014839100000
-0.0111198000000
-0.0151022000000
-0.0132588000000
-0.0094945800000
-0.0004195170000
0.0076018400000
0.0083154000000
0.0055356100000
-0.0022707400000
-0.0081353600000
-0.0045884700000
0.0070776200000
0.0178912000000
0.0120099000000
-0.0015919200000
-0.0063387900000
-0.0055469800000
-0.0013879400000
0.0085525800000
0.0160080000000
0.0131189000000
0.0028221900000
-0.0062158800000
-0.0061905700000
0.0008412730000
0.0095989800000
0.0142724000000
0.0104502000000
0.0008425430000
-0.0067523200000
-0.0060674400000
-0.0017744900000
0.0003287850000
0.0002538100000
-0.0026428800000
-0.0059072200000
-0.0052127000000
-0.0020100800000
-0.0009448500000
-0.0038996200000
-0.0075022900000
-0.0082059300000
-0.0078202500000
-0.0085412600000
-0.0089937100000
-0.0079552000000
-0.0078104800000
-0.0093572600000
-0.0090442900000
-0.0066839900000
-0.0061485000000
-0.0087834100000
-0.0125095000000
-0.0136111000000
-0.0086972000000
-0.0013483500000
0.0018071700000
-0.0018845800000
-0.0106074000000
-0.0146150000000
-0.0105702000000
-0.0059671700000
-0.0031523500000
0.0004492620000
0.0046023100000
0.0070504800000
0.0061123900000
0.0036644700000
0.0029445400000
0.0020568100000
0.0031351200000
0.0087324600000
0.0116404000000
0.0090767700000
0.0066809700000
0.0067231500000
0.0075221800000
0.0086176800000
0.0094227200000
0.0092881000000
0.0083384400000
0.0076039900000
0.0088222800000
0.0110102000000
0.0123877000000
0.0112541000000
0.0072038900000
0.0044957000000
0.0039099300000
0.0023424500000
0.0002814220000
-0.0011855500000
-0.0031031100000
-0.0015459500000
0.0084722100000
0.0178769000000
0.0177927000000
0.0132275000000
0.0059320000000
-0.0017528100000
-0.0015120200000
0.0037554200000
0.0092967800000
0.0128964000000
0.0081142900000
0.0000461367000
-0.0022920800000
0.0003182120000
0.0042898800000
0.0047909300000
0.0016418100000
0.0006812040000
0.0049780500000
0.0109107000000
0.0134483000000
0.0110687000000
0.0078355100000
0.0092317900000
0.0121655000000
0.0111699000000
0.0062461200000
0.0016793300000
0.0003623850000
-0.0012337800000
-0.0037932000000
-0.0017745800000
0.0028244000000
0.0045724300000
0.0053946600000
0.0046998700000
0.0023386800000
0.0017521000000
0.0009965430000
-0.0012232700000
-0.0034260300000
-0.0046404500000
-0.0035518500000
-0.0020526300000
-0.0018444400000
-0.0015372400000
-0.0025825600000
-0.0048849200000
-0.0060682400000
-0.0097615900000
-0.0147053000000
-0.0141862000000
-0.0131555000000
-0.0147942000000
-0.0130292000000
-0.0098121400000
-0.0085262000000
-0.0068182400000
-0.0071322900000
-0.0104574000000
-0.0123603000000
-0.0115681000000
-0.0088553500000
-0.0065941300000
-0.0056025800000
-0.0059738400000
-0.0082772200000
-0.0099520100000
-0.0089334300000
-0.0049005800000
-0.0013430200000
0.0004397550000
0.0023690900000
0.0007190410000
-0.0032687400000
-0.0044896700000
-0.0032528000000
-0.0003341670000
0.0019232300000
0.0024951900000
0.0012534300000
-0.0010976900000
-0.0002136560000
0.0030034500000
0.0032327100000
0.0001161390000
-0.0022220600000
-0.0028047000000
-0.0040125400000
-0.0045377500000
-0.0033910900000
-0.0031208300000
-0.0034277800000
-0.0017018700000
0.0020630100000
0.0046687600000
0.0056857400000
0.0052715400000
0.0022104300000
0.0003362190000
0.0012123300000
0.0011845600000
0.0001843730000
0.0006003050000
0.0015096500000
0.0022589300000
0.0042410300000
0.0065794800000
0.0066015300000
0.0031279700000
-0.0007877540000
-0.0024034300000
-0.0001230380000
0.0048406900000
0.0074686900000
0.0073956900000
0.0055278600000
0.0040417700000
0.0059359800000
0.0082936600000
0.0079553900000
0.0022444500000
-0.0067113400000
-0.0083002000000
-0.0012033400000
0.0052499500000
0.0077314800000
0.0076861700000
0.0048785300000
0.0017242300000
0.0027768600000
0.0060669100000
0.0065116600000
0.0046616200000
0.0029867900000
0.0036762600000
0.0065975100000
0.0070482200000
0.0047735800000
0.0037255500000
0.0031476900000
0.0013716700000
0.0006189340000
0.0018908200000
0.0009675140000
-0.0041736800000
-0.0083447600000
-0.0081270100000
-0.0030411300000
0.0040834000000
0.0060467600000
0.0036575300000
0.0031718100000
0.0041769400000
0.0030062200000
-0.0001904920000
-0.0033120300000
-0.0068479200000
-0.0085314200000
-0.0053379800000
-0.0022348000000
-0.0044168700000
-0.0092698700000
-0.0118204000000
-0.0102179000000
-0.0062682700000
-0.0046753200000
-0.0074837100000
-0.0111020000000
-0.0119909000000
-0.0123648000000
-0.0127941000000
-0.0108480000000
-0.0080135300000
-0.0051861100000
-0.0044358700000
-0.0067689600000
-0.0081702200000
-0.0087519000000
-0.0076951300000
-0.0026046300000
0.0011738100000
0.0027394300000
0.0036524800000
0.0010059300000
-0.0039399700000
-0.0089047700000
-0.0109891000000
-0.0081560800000
-0.0036325500000
0.0000931942000
0.0016928200000
0.0017661000000
0.0038064400000
0.0049332300000
0.0025899700000
0.0006165150000
-0.0015229100000
-0.0041925400000
-0.0045675900000
-0.0033891100000
-0.0009272270000
0.0032347300000
0.0063610900000
0.0064029000000
0.0034828400000
-0.0006039730000
-0.0019654900000
-0.0018187300000
-0.0032728100000
-0.0024499000000
0.0033271700000
0.0111508000000
0.0146501000000
0.0123020000000
0.0103066000000
0.0099959000000
0.0092690900000
0.0103970000000
0.0140649000000
0.0160909000000
0.0141574000000
0.0102340000000
0.0078566600000
0.0078455000000
0.0076596100000
0.0062196800000
0.0068073200000
0.0100358000000
0.0121866000000
0.0128032000000
0.0118667000000
0.0104615000000
0.0117562000000
0.0140639000000
0.0150477000000
0.0141729000000
0.0101158000000
0.0039824800000
-0.0003709210000
0.0003811040000
0.0040330000000
0.0064344000000
0.0077433700000
0.0071026900000
0.0040621800000
0.0022572800000
0.0021199300000
0.0032139700000
0.0052290300000
0.0046025700000
0.0008991040000
-0.0021985800000
-0.0029447600000
-0.0000487723000
0.0051897800000
0.0061856900000
0.0022815300000
-0.0016035000000
-0.0040381300000
-0.0057091700000
-0.0075905400000
-0.0091689900000
-0.0078162800000
-0.0056495100000
-0.0053175400000
-0.0056555600000
-0.0065400200000
-0.0072413700000
-0.0069277000000
-0.0059162900000
-0.0049185600000
-0.0027345500000
-0.0003935490000
-0.0033646600000
-0.0082241000000
-0.0090937600000
-0.0076397400000
-0.0051693000000
-0.0036883100000
-0.0034704500000
-0.0022954600000
-0.0007161500000
-0.0008831420000
-0.0026408100000
-0.0037499400000
-0.0049346500000
-0.0060680800000
-0.0055839000000
-0.0053664200000
-0.0059443300000
-0.0058606300000
-0.0055142700000
-0.0055162600000
-0.0051995900000
-0.0035833200000
-0.0014551000000
0.0012144000000
0.0035612300000
0.0017477200000
-0.0010766000000
-0.0013297600000
-0.0029004800000
-0.0049863500000
-0.0046221800000
-0.0043763800000
-0.0055783700000
-0.0066447700000
-0.0063248100000
-0.0040924300000
-0.0018611500000
-0.0007334750000
0.0009557010000
0.0032988100000
0.0043192400000
0.0033635000000
0.0028111300000
0.0021700700000
-0.0009181770000
-0.0037643900000
-0.0046086900000
-0.0056443300000
-0.0077003700000
-0.0071187300000
-0.0025524500000
0.0015685000000
0.0030497400000
0.0011558400000
-0.0014670700000
-0.0018990300000
-0.0021773100000
-0.0013841900000
0.0002363970000
0.0005278500000
0.0010784600000
0.0025400800000
0.0025813600000
-0.0002903120000
-0.0034487800000
-0.0052591200000
-0.0037580500000
0.0019759800000
0.0063069700000
0.0053092300000
0.0004291150000
-0.0024278800000
-0.0008994400000
0.0015874700000
0.0033838100000
0.0037686200000
0.0020788100000
0.0001349180000
-0.0002848650000
-0.0007036800000
-0.0020049400000
-0.0017728100000
0.0010530800000
0.0035137700000
0.0030181200000
0.0005103580000
-0.0001512750000
0.0019290900000
0.0027073100000
0.0006883830000
-0.0009069220000
0.0012731300000
0.0057038200000
0.0087093900000
0.0097167000000
0.0069428000000
0.0013769000000
0.0005629790000
0.0047904200000
0.0058434300000
0.0021901700000
-0.0007256300000
-0.0020005600000
-0.0029132000000
-0.0007042540000
0.0031198900000
0.0038906300000
0.0007117920000
-0.0031772500000
-0.0040226800000
-0.0045556700000
-0.0052637500000
-0.0042299600000
-0.0038859400000
-0.0039043200000
-0.0038936300000
-0.0050197000000
-0.0060121500000
-0.0055379700000
-0.0034953300000
-0.0015539100000
-0.0000274980000
0.0008052640000
-0.0008862270000
-0.0025701000000
-0.0028319100000
-0.0039964200000
-0.0057045200000
-0.0073022100000
-0.0080874000000
-0.0066446200000
-0.0047900000000
-0.0046652900000
-0.0068768400000
-0.0101836000000
-0.0121353000000
-0.0110686000000
-0.0074588200000
-0.0050217500000
-0.0042706600000
-0.0048989200000
-0.0065434000000
-0.0068795900000
-0.0064609200000
-0.0056355600000
-0.0050518200000
-0.0057123200000
-0.0059428000000
-0.0039611800000
-0.0011038600000
0.0005935760000
0.0010618000000
0.0007943160000
0.0010427200000
0.0018916300000
0.0023973900000
0.0028558000000
0.0033257000000
0.0023191700000
-0.0000257647000
-0.0018351500000
-0.0017146600000
0.0017005000000
0.0049829800000
0.0051793900000
0.0045535100000
0.0041121900000
0.0037768600000
0.0022923000000
-0.0002825600000
-0.0021069100000
-0.0015640100000
0.0012982800000
0.0030088200000
0.0040646800000
0.0052190200000
0.0041793000000
0.0033254900000
0.0034485200000
0.0016258200000
-0.0008370810000
0.0013080300000
0.0074060700000
0.0104784000000
0.0120414000000
0.0137509000000
0.0108901000000
0.0073005500000
0.0068465700000
0.0077287100000
0.0092564800000
0.0097949900000
0.0085563500000
0.0065376600000
0.0064710300000
0.0087968200000
0.0100155000000
0.0080882100000
0.0044279600000
0.0016684300000
0.0023951400000
0.0078920700000
0.0131285000000
0.0159233000000
0.0160055000000
0.0116830000000
0.0084876800000
0.0080933000000
0.0089110100000
0.0103575000000
0.0085626200000
0.0048915900000
0.0030467400000
0.0027230900000
0.0038675700000
0.0050047200000
0.0041411800000
0.0027269400000
0.0027201900000
0.0041719900000
0.0043649000000
0.0005781610000
-0.0035502000000
-0.0042251300000
-0.0019891300000
0.0018042100000
0.0049164300000
0.0057698400000
0.0028267600000
-0.0006333360000
-0.0020273300000
-0.0042280700000
-0.0048796200000
-0.0035597800000
-0.0039820100000
-0.0044752300000
-0.0038647000000
-0.0035313900000
-0.0041911500000
-0.0060076800000
-0.0075393800000
-0.0072980400000
-0.0057840000000
-0.0050314800000
-0.0047420200000
-0.0039952400000
-0.0037758400000
-0.0036886000000
-0.0030983800000
-0.0033564400000
-0.0053404400000
-0.0072674900000
-0.0086803900000
-0.0099164600000
-0.0075648100000
-0.0029694600000
-0.0004838680000
-0.0005206220000
-0.0034843300000
-0.0061192200000
-0.0066454900000
-0.0060822300000
-0.0040989900000
-0.0035304800000
-0.0050006600000
-0.0058241500000
-0.0049536500000
-0.0031868100000
-0.0034691200000
-0.0059429800000
-0.0072494300000
-0.0069544600000
-0.0061736600000
-0.0056504800000
-0.0061096700000
-0.0070476400000
-0.0074650900000
-0.0068048100000
-0.0056909700000
-0.0065205600000
-0.0091745000000
-0.0106605000000
-0.0094363300000
-0.0064926400000
-0.0042874100000
-0.0026139300000
-0.0028060400000
-0.0052377100000
-0.0042852400000
-0.0011486300000
-0.0008389140000
-0.0025332400000
-0.0043864700000
-0.0054937300000
-0.0068216600000
-0.0069855700000
-0.0042329900000
-0.0023776700000
-0.0016302300000
0.0003761160000
0.0025589400000
0.0055433900000
0.0078393000000
0.0059981800000
0.0038374900000
0.0049313300000
0.0065333300000
0.0063257000000
0.0041144800000
0.0015458200000
0.0005883700000
0.0015597700000
0.0030421200000
0.0034649500000
0.0040179400000
0.0049747300000
0.0052270500000
0.0055794300000
0.0062706200000
0.0064694800000
0.0059363500000
0.0053805300000
0.0052753700000
0.0045487400000
0.0027303200000
0.0008299740000
0.0000132473000
0.0017562100000
0.0044257100000
0.0053316000000
0.0047323600000
0.0033659100000
0.0026931700000
0.0025078700000
0.0014764300000
0.0005585740000
0.0011161400000
0.0024138600000
0.0030645300000
0.0034461000000
0.0030360500000
0.0018398400000
0.0012772500000
0.0007008280000
0.0016762200000
0.0051327500000
0.0067344200000
0.0070435700000
0.0081178300000
0.0069521600000
0.0049751800000
0.0043432400000
0.0026145900000
-0.0001471340000
-0.0014538900000
0.0002776010000
0.0029082800000
0.0037708400000
0.0024391200000
-0.0009446090000
-0.0036717200000
-0.0037886900000
-0.0011133600000
0.0020575300000
0.0028071800000
0.0006671530000
-0.0022321500000
-0.0025031700000
-0.0025964100000
-0.0032189200000
-0.0013853800000
0.0002256740000
0.0008116420000
0.0024287000000
0.0022689400000
-0.0004562640000
-0.0018669800000
-0.0026469100000
-0.0034992700000
-0.0019613500000
-0.0002476220000
-0.0015332100000
-0.0041001900000
-0.0042641000000
-0.0026810500000
-0.0026590800000
-0.0042504700000
-0.0061929200000
-0.0065363600000
-0.0042568000000
-0.0020458800000
-0.0016460600000
-0.0028152300000
-0.0040619300000
-0.0032214600000
-0.0020206300000
-0.0026370600000
-0.0036099700000
-0.0024537700000
0.0001309750000
0.0017348200000
0.0009237670000
-0.0027290000000
-0.0060057900000
-0.0073419700000
-0.0058798200000
-0.0021867700000
-0.0009428400000
-0.0004357660000
0.0004549480000
-0.0008423400000
-0.0005637310000
0.0027592900000
0.0049400300000
0.0055752000000
0.0049991800000
0.0027177700000
0.0015078100000
0.0019836700000
0.0020206500000
0.0014058000000
0.0011626900000
0.0020059000000
0.0034059000000
0.0043926600000
0.0050868400000
0.0047458000000
0.0033938300000
0.0027139100000
0.0029390700000
0.0041336900000
0.0053560900000
0.0047007100000
0.0030380800000
0.0022662400000
0.0024957700000
0.0032822100000
0.0037425800000
0.0020538200000
-0.0013606500000
-0.0039925800000
-0.0045306900000
-0.0021907400000
0.0006337880000
0.0011928400000
-0.0000069753400
-0.0017571200000
-0.0023788700000
-0.0013963000000
0.0002689200000
0.0012253600000
0.0007045050000
-0.0006105560000
-0.0012850200000
-0.0003470410000
0.0016218400000
0.0026312600000
0.0016440100000
-0.0000109662000
0.0005020690000
0.0038731400000
0.0072215900000
0.0077121100000
0.0042300400000
0.0001866660000
-0.0004527460000
-0.0002397180000
-0.0016209200000
-0.0029049500000
-0.0036324000000
-0.0037850700000
-0.0022519200000
-0.0002064810000
0.0001532350000
-0.0021325500000
-0.0051356900000
-0.0065678300000
-0.0061286400000
-0.0040092800000
-0.0027022200000
-0.0019443000000
-0.0002620100000
-0.0006370850000
-0.0027352200000
-0.0033830900000
-0.0030369200000
-0.0026834000000
-0.0025912700000
-0.0026376700000
-0.0022872300000
-0.0019025800000
-0.0016303600000
-0.0012978900000
-0.0020821300000
-0.0043807800000
-0.0056418400000
-0.0044121600000
-0.0028852300000
-0.0024430600000
-0.0022301700000
-0.0030813700000
-0.0048128000000
-0.0052535200000
-0.0027362100000
0.0011837100000
0.0028365500000
0.0034752300000
0.0024728400000
-0.0010933400000
-0.0028563700000
-0.0043310900000
-0.0068962900000
-0.0056991900000
-0.0025766400000
-0.0013492500000
0.0014327000000
0.0045221300000
0.0028266200000
-0.0000103074000
0.0002103630000
0.0015619800000
0.0026090200000
0.0032001600000
0.0035695700000
0.0040183000000
0.0047368000000
0.0043849600000
0.0014760800000
-0.0012117000000
-0.0024773000000
-0.0046449600000
-0.0053549900000
-0.0027902100000
-0.0011891200000
-0.0011518800000
-0.0016692900000
-0.0032193800000
-0.0037309800000
-0.0025147400000
-0.0012607600000
-0.0007027820000
-0.0000198833000
0.0003740170000
0.0000198273000
0.0000883792000
0.0005967830000
0.0009646140000
0.0012463100000
0.0015833600000
0.0019041000000
0.0021759300000
0.0024726300000
0.0023087500000
0.0016685800000
0.0013162100000
0.0016535900000
0.0024478900000
0.0030489700000
0.0029658800000
0.0020962000000
0.0011622900000
0.0012239500000
0.0025387500000
0.0036575300000
0.0033457100000
0.0029782800000
0.0038471200000
0.0052814800000
0.0053236200000
0.0036473700000
0.0024512900000
0.0027233500000
0.0042086000000
0.0059239100000
0.0060888100000
0.0041500800000
0.0020565300000
0.0014845800000
0.0011640100000
0.0000545493000
-0.0005716140000
0.0005392520000
0.0019019500000
0.0025058800000
0.0030619800000
0.0021771800000
0.0003279330000
-0.0002446100000
0.0005568150000
0.0021034200000
0.0031548600000
0.0030168100000
0.0020376900000
0.0013626200000
0.0011809900000
0.0010778100000
0.0015364100000
0.0017963200000
0.0008550570000
-0.0005676800000
-0.0014573600000
-0.0019427600000
-0.0021876100000
-0.0024143700000
-0.0029069800000
-0.0035292800000
-0.0044175900000
-0.0048579200000
-0.0031676200000
-0.0006622280000
0.0004364940000
0.0014751600000
0.0021248800000
0.0015442800000
0.0016728600000
0.0017712600000
0.0005164970000
-0.0006404070000
-0.0012612000000
-0.0021773100000
-0.0031656600000
-0.0033302800000
-0.0029129100000
-0.0028701900000
-0.0026944700000
-0.0020901800000
-0.0021732600000
-0.0030603700000
-0.0030249200000
-0.0008281610000
0.0014023900000
0.0021689300000
0.0020303800000
0.0007989300000
-0.0000837775000
-0.0005615880000
-0.0003897790000
0.0018161900000
0.0035661900000
0.0044599300000
0.0040511300000
0.0011168900000
-0.0007296650000
-0.0017189900000
-0.0021444000000
0.0005466080000
0.0011870100000
-0.0023571700000
-0.0045318500000
-0.0046924600000
-0.0034184400000
-0.0008457550000
-0.0006621040000
-0.0022504100000
-0.0018455000000
-0.0001268100000
0.0010416700000
0.0012216100000
0.0000060050300
-0.0016143600000
-0.0019103000000
-0.0004701950000
0.0003227980000
-0.0017894500000
-0.0039243400000
-0.0033982800000
-0.0014543300000
0.0000024939900
-0.0005889210000
-0.0028383100000
-0.0038665700000
-0.0041944800000
-0.0042337200000
-0.0036359300000
-0.0034970900000
-0.0040614800000
-0.0048721100000
-0.0055565300000
-0.0054871500000
-0.0044615200000
-0.0034180100000
-0.0040198700000
-0.0063589800000
-0.0077852800000
-0.0069630700000
-0.0061091500000
-0.0063945400000
-0.0063102700000
-0.0049234600000
-0.0029389900000
-0.0015844100000
-0.0022317900000
-0.0041594800000
-0.0038698000000
-0.0019102400000
-0.0015626100000
-0.0023556800000
-0.0031128300000
-0.0032576800000
-0.0021708800000
-0.0008519400000
-0.0010528900000
-0.0025760700000
-0.0037999800000
-0.0037780300000
-0.0019624000000
-0.0000560159000
-0.0001002000000
-0.0001948270000
0.0010328400000
0.0022527900000
0.0030126600000
0.0040341400000
0.0044055400000
0.0026856900000
0.0008296690000
-0.0001074760000
-0.0004555720000
0.0010913200000
0.0028485000000
0.0033365100000
0.0029209500000
0.0013602200000
0.0006977090000
0.0018690200000
0.0028156000000
0.0028013800000
0.0022337400000
0.0017456500000
0.0028194700000
0.0045561300000
0.0045332400000
0.0026867400000
0.0007857310000
0.0008961490000
0.0027675400000
0.0039541200000
0.0043519500000
0.0055806500000
0.0061888300000
0.0047808400000
0.0035018000000
0.0033795800000
0.0038750400000
0.0045198000000
0.0047388700000
0.0049495800000
0.0045078800000
0.0032115400000
0.0023913100000
0.0025611900000
0.0037320400000
0.0047608200000
0.0054716700000
0.0063250800000
0.0056803500000
0.0040587200000
0.0038118600000
0.0043314400000
0.0042325600000
0.0033306200000
0.0020841200000
0.0014329700000
0.0017048300000
0.0020814800000
0.0020157100000
0.0022544300000
0.0028582000000
0.0029566000000
0.0026860500000
0.0027278500000
0.0024102000000
0.0010884600000
0.0006750420000
0.0025557100000
0.0041659800000
0.0039124500000
0.0041938700000
0.0045466400000
0.0028333500000
0.0010783100000
-0.0001153840000
-0.0019264600000
-0.0021567100000
-0.0007006250000
-0.0005648300000
-0.0013601300000
-0.0015018400000
-0.0013745400000
-0.0015496500000
-0.0021521800000
-0.0029366300000
-0.0036508600000
-0.0032708900000
-0.0013290600000
0.0018977000000
0.0057586700000
0.0055132900000
0.0007891620000
-0.0020804400000
-0.0029394100000
-0.0041248900000
-0.0030846400000
-0.0001468600000
-0.0000598015000
-0.0028045600000
-0.0039025800000
-0.0024768900000
-0.0016921100000
-0.0025080000000
-0.0030612100000
-0.0029094000000
-0.0024397100000
-0.0017026600000
-0.0013264700000
-0.0015120900000
-0.0016055200000
-0.0012504000000
-0.0008883150000
-0.0007535560000
-0.0010776300000
-0.0019768300000
-0.0024305500000
-0.0023027300000
-0.0022331800000
-0.0014365700000
0.0000768029000
0.0008539300000
0.0003260600000
-0.0006294140000
-0.0008967310000
-0.0011149500000
-0.0018148900000
-0.0017171500000
-0.0007356940000
-0.0003111840000
-0.0004262820000
-0.0002769430000
0.0000387028000
0.0000046862800
-0.0004345330000
-0.0007298110000
-0.0006835720000
-0.0005704470000
-0.0006387950000
-0.0008422440000
-0.0009846520000
-0.0010668100000
-0.0006200330000
0.0004498890000
0.0012433900000
0.0009537200000
-0.0001929360000
-0.0008597350000
-0.0010191300000
-0.0009165040000
-0.0003642830000
-0.0000587805000
0.0001749440000
-0.0000907674000
-0.0011599900000
-0.0015685400000
-0.0014342100000
-0.0013437800000
-0.0009981370000
-0.0007487720000
-0.0008674950000
-0.0010510300000
-0.0010039400000
-0.0007449020000
-0.0004605180000
-0.0002489900000
-0.0000297951000
0.0000418396000
-0.0000168607000
0.0001941640000
0.0003205480000
-0.0001864550000
-0.0007513750000
-0.0008529310000
-0.0005268960000
0.0001747130000
0.0005935330000
0.0005831690000
0.0006585150000
0.0005411060000
-0.0002865650000
-0.0011126900000
-0.0009324720000
0.0000027037200
0.0008882330000
0.0010415300000
0.0005925910000
0.0001680430000
0.0000146059000
0.0001349110000
0.0005240530000
0.0009201410000
0.0009216740000
0.0006771910000
0.0005050220000
0.0004168790000
0.0004232520000
0.0005630610000
0.0006807050000
0.0007474760000
0.0007062120000
0.0004803590000
0.0003036400000
0.0002401280000
0.0002248360000
0.0003897020000
0.0006690310000
0.0007383000000
0.0006125560000
0.0004829800000
0.0003891420000
0.0004033500000
0.0004650990000
0.0004436330000
0.0003747050000
0.0003164990000
0.0002797570000
0.0002471490000
0.0002076220000
0.0001725900000
0.0001566500000
0.0001569960000
0.0001412430000
0.0001046350000
0.0000712582000
0.0000460769000
0.0000178676000
-0.0000115906000
-0.0000317332000
-0.0000494670000
-0.0000755032000
-0.0001045400000
-0.0001360640000
-0.0001689900000
-0.0001960340000
-0.0002193540000
-0.0002417440000
-0.0002664230000
-0.0002948730000
-0.0003243280000
-0.0003536230000
-0.0003816310000
-0.0004083580000