0.0016558100000
0.0054530800000
0.0072417200000
0.0034119300000
0.0006565280000
0.0026446600000
0.0100915000000
0.0099605200000
-0.0031235800000
-0.0065254400000
0.0036352500000
0.0084882900000
0.0053138800000
-0.0033186500000
-0.0009431250000
0.0049680800000
-0.0032779400000
-0.0019968600000
-0.0076437800000
-0.0037671100000
0.0028576200000
0.0038789300000
0.0053890600000
-0.0034689700000
0.0134409000000
0.0155627000000
-0.0084898500000
-0.0057100100000
0.0033661900000
-0.0037935300000
-0.0027195500000
-0.0013086700000
0.0086722500000
0.0071299700000
-0.0003637740000
-0.0051145800000
-0.0185184000000
0.0045081100000
0.0147893000000
0.0004515980000
0.0017875800000
0.0035087100000
0.0064709200000
0.0007089470000
-0.0019433200000
-0.0056296500000
-0.0049303300000
-0.0102358000000
-0.0094045300000
-0.0041858000000
0.0150566000000
0.0114478000000
-0.0089361600000
-0.0029820800000
-0.0104981000000
-0.0075542900000
0.0109004000000
0.0156405000000
-0.0020281200000
-0.0005590220000
0.0115668000000
0.0019803800000
0.0083490000000
0.0101612000000
0.0039669200000
-0.0110665000000
-0.0094964500000
-0.0266506000000
-0.0189290000000
0.0070913400000
0.0010520100000
0.0221856000000
-0.0061400800000
-0.0269966000000
0.0154616000000
0.0053007300000
-0.0126817000000
-0.0098322500000
-0.0129582000000
0.0129733000000
0.0217539000000
0.0207196000000
-0.0221141000000
-0.0294210000000
0.0003071600000
-0.0029428800000
0.0096079800000
-0.0039520800000
-0.0004625220000
-0.0091998300000
-0.0044539100000
0.0014807300000
-0.0038885500000
0.0236389000000
0.0142714000000
0.0120060000000
-0.0208643000000
-0.0535165000000
0.0122916000000
0.0554292000000
0.0327525000000
0.0068639300000
-0.0083419400000
-0.0338618000000
-0.0450016000000
-0.0095231400000
0.0385281000000
0.0113327000000
-0.0412036000000
0.0087191200000
0.0303519000000
-0.0075886200000
-0.0216535000000
-0.0214583000000
-0.0257517000000
-0.0020967600000
0.0150296000000
0.0087754200000
0.0043196800000
-0.0417992000000
-0.0500119000000
-0.0021903900000
0.0362655000000
0.0310524000000
-0.0372119000000
-0.0352099000000
0.0066880900000
-0.0043952600000
0.0003090570000
-0.0083811200000
0.0228631000000
0.0344342000000
0.0206377000000
0.0069860900000
-0.0236899000000
0.0164439000000
0.0225201000000
0.0192036000000
-0.0212062000000
-0.0590679000000
-0.0015533400000
0.0048337100000
-0.0414843000000
-0.0242008000000
0.0029853500000
0.0028506500000
0.0072495600000
0.0259735000000
-0.0174858000000
-0.0443692000000
0.0024952900000
0.0347708000000
0.0190131000000
-0.0301554000000
-0.0462751000000
0.0119807000000
0.0491941000000
0.0022915100000
0.0036211400000
-0.0227941000000
-0.0519664000000
0.0078285400000
0.0097350900000
-0.0062422800000
-0.0086963700000
0.0050307300000
0.0454661000000
0.0219648000000
0.0199830000000
-0.0403904000000
-0.0280444000000
0.0224892000000
-0.0115778000000
-0.0151095000000
-0.0257812000000
-0.0330837000000
-0.0175606000000
0.0428279000000
0.0041573600000
-0.0448073000000
-0.0314659000000
-0.0151704000000
0.0113147000000
0.0161290000000
0.0190667000000
0.0232072000000
0.0126597000000
0.0141292000000
-0.0030320200000
-0.0205027000000
-0.0032173200000
0.0172752000000
0.0204741000000
0.0038737400000
-0.0157288000000
-0.0056178200000
-0.0084961800000
-0.0040335500000
0.0189503000000
0.0284347000000
-0.0013268700000
-0.0043080200000
0.0040897500000
0.0153076000000
-0.0124870000000
-0.0198116000000
0.0324994000000
0.0398406000000
-0.0126098000000
-0.0475964000000
-0.0240898000000
0.0157469000000
0.0152109000000
0.0037252200000
0.0002360750000
-0.0343807000000
-0.0030563400000
0.0439597000000
0.0366281000000
0.0194496000000
0.0366643000000
0.0158237000000
-0.0090658400000
-0.0251696000000
-0.0241572000000
0.0109523000000
0.0074206500000
0.0365062000000
0.0374780000000
-0.0104884000000
-0.0176636000000
-0.0011914700000
0.0174672000000
0.0068709600000
-0.0051929900000
-0.0141969000000
-0.0091376900000
-0.0010380300000
-0.0082560500000
0.0181202000000
0.0343932000000
0.0401921000000
0.0277375000000
0.0198145000000
0.0097551100000
-0.0107433000000
-0.0220615000000
0.0080072300000
0.0286220000000
0.0407293000000
0.0517436000000
0.0371250000000
0.0125444000000
-0.0108971000000
-0.0399916000000
-0.0156537000000
0.0330632000000
0.0333539000000
0.0033239400000
0.0243112000000
0.0363240000000
-0.0159436000000
-0.0324494000000
-0.0086023100000
-0.0154831000000
-0.0256356000000
-0.0128312000000
0.0162033000000
0.0332067000000
0.0391628000000
0.0318630000000
0.0025784700000
-0.0495865000000
-0.0910056000000
-0.0817078000000
-0.0281292000000
0.0452261000000
0.0235839000000
0.0082247800000
0.0152549000000
0.0264028000000
0.0126440000000
-0.1098240000000
-0.1556350000000
-0.0464817000000
0.0485997000000
0.0905425000000
0.0879156000000
-0.0809926000000
-0.2472910000000
-0.2833130000000
-0.2022650000000
-0.1517980000000
-0.1397870000000
-0.0722556000000
-0.0219150000000
0.0215273000000
0.1727660000000
0.1965880000000
0.0887519000000
0.0309372000000
-0.0198989000000
0.0450844000000
0.1374690000000
0.2467430000000
0.3055460000000
0.1970060000000
0.0348553000000
-0.0488972000000
-0.1101610000000
-0.3419440000000
-0.4384390000000
-0.4096870000000
-0.3569560000000
-0.1285340000000
-0.0339209000000
-0.0150417000000
0.0639297000000
0.1694920000000
0.2885510000000
0.3205670000000
0.3176370000000
0.3089790000000
0.1936670000000
-0.0364101000000
-0.2532690000000
-0.4042300000000
-0.3676850000000
-0.0609333000000
0.2104630000000
0.2038620000000
0.1646620000000
0.0456249000000
-0.0799628000000
0.0671986000000
0.1307650000000
0.0838867000000
0.0945057000000
0.1477790000000
0.1172640000000
0.1769310000000
0.1979290000000
0.1686250000000
0.0881980000000
-0.0882143000000
-0.2569780000000
-0.3740850000000
-0.2749910000000
-0.0772059000000
0.0876463000000
0.0414051000000
0.0484371000000
0.1107530000000
-0.0104376000000
0.0426955000000
0.0874035000000
0.0103296000000
-0.0603791000000
0.1247780000000
0.1570020000000
0.0021488700000
0.0081502500000
-0.0977362000000
-0.1522150000000
-0.1114950000000
-0.0867813000000
0.0331763000000
0.0628773000000
0.0442961000000
0.0419764000000
-0.0141904000000
0.0464739000000
-0.0089634200000
-0.0497675000000
0.0168175000000
0.0142934000000
0.0260215000000
0.0376147000000
0.0438232000000
0.0248517000000
0.0394758000000
0.1426080000000
0.1561780000000
0.0698463000000
0.0525581000000
-0.0301362000000
-0.1241750000000
-0.0863802000000
0.0540670000000
0.0778746000000
0.0271928000000
0.1029460000000
0.0723235000000
-0.0426578000000
-0.0024234600000
-0.0229097000000
-0.1372210000000
-0.1229680000000
-0.0260530000000
0.0203317000000
0.0530707000000
0.0744957000000
-0.0255001000000
-0.1295950000000
-0.0670445000000
-0.0441590000000
-0.0309992000000
0.0093231100000
-0.0328480000000
0.0348185000000
0.1032130000000
0.0883992000000
-0.0434658000000
-0.1391140000000
-0.1137770000000
-0.0993848000000
-0.0921498000000
-0.0744033000000
0.0327812000000
0.0492978000000
-0.0526038000000
-0.0840600000000
0.0609614000000
0.1460470000000
-0.0122047000000
-0.0532878000000
0.0014078600000
0.0062040600000
0.0202023000000
-0.0504863000000
-0.0794230000000
-0.0251219000000
-0.0519518000000
-0.1293780000000
-0.1369410000000
-0.1012100000000
0.1915700000000
0.2704520000000
0.0274652000000
-0.0739445000000
-0.0985576000000
-0.0588496000000
0.0764720000000
0.0846117000000
0.0759865000000
0.2399460000000
0.2403970000000
0.0671775000000
-0.1166730000000
-0.1400410000000
-0.0113873000000
0.1876380000000
0.0367602000000
-0.2788220000000
-0.1164440000000
-0.0648093000000
-0.0409868000000
-0.0057606500000
0.1583520000000
0.3151780000000
0.2745570000000
0.2896200000000
0.2032710000000
0.1146080000000
0.0056842100000
-0.0241289000000
-0.0202558000000
-0.0566077000000
-0.1205090000000
-0.2655990000000
-0.3119910000000
-0.2567070000000
0.0887192000000
0.2193030000000
0.1729540000000
0.3279250000000
0.3390700000000
0.0770965000000
-0.2340250000000
-0.2391560000000
0.0366611000000
-0.0759812000000
-0.1898890000000
0.1424820000000
0.0587868000000
0.1283870000000
-0.0047117800000
-0.2890840000000
-0.0135387000000
-0.2128450000000
-0.2666550000000
0.1272640000000
0.2139250000000
0.1915860000000
0.1221550000000
-0.2137450000000
-0.3488590000000
-0.1327300000000
0.0337126000000
0.3047400000000
0.1130690000000
-0.4363320000000
-0.3202390000000
-0.0729777000000
-0.1663850000000
-0.2043400000000
-0.0212570000000
-0.0081286200000
0.0426409000000
0.1513730000000
0.1455950000000
0.1362570000000
0.0268216000000
-0.2200370000000
-0.2120730000000
0.2463470000000
0.1149540000000
-0.2032990000000
-0.0714209000000
-0.1391800000000
0.0493064000000
-0.0440692000000
-0.1586650000000
0.1043810000000
0.1247270000000
-0.0332713000000
-0.1863070000000
-0.2546060000000
-0.3468820000000
-0.2908070000000
-0.0665236000000
0.0770849000000
0.0856908000000
-0.0882874000000
-0.2001270000000
-0.0447191000000
-0.0424964000000
-0.1396980000000
0.0739474000000
0.1523040000000
0.0117287000000
-0.1413140000000
-0.1677780000000
0.0775028000000
0.3082610000000
0.5145620000000
0.4852030000000
0.1062730000000
-0.1268360000000
-0.2168100000000
-0.3376500000000
-0.1892280000000
0.2605300000000
0.3594940000000
0.2754970000000
0.4276310000000
0.2893590000000
-0.1564020000000
-0.2787420000000
-0.3094020000000
-0.2929440000000
0.0791342000000
0.1693800000000
-0.0318564000000
0.0629189000000
-0.0690179000000
-0.3254940000000
-0.4180210000000
-0.3551830000000
-0.2964260000000
-0.2786150000000
0.0821595000000
0.2630340000000
0.0114161000000
0.1216690000000
0.2817840000000
0.0701176000000
-0.0245573000000
0.1796200000000
0.1698350000000
0.0200898000000
0.2174480000000
0.2255750000000
0.1109250000000
0.1515550000000
0.1334910000000
0.1787920000000
0.1172330000000
0.0841752000000
0.1052580000000
0.0906812000000
0.1085750000000
0.1028860000000
0.0763688000000
0.0783506000000
0.1454800000000
0.0835356000000
0.0511376000000
-0.0005020770000
-0.0936833000000
-0.1077350000000
-0.0754558000000
-0.0720170000000
-0.1273410000000
-0.2144980000000
-0.2210970000000
-0.2430260000000
-0.1173710000000
0.1780860000000
0.2437650000000
0.2234640000000
0.0519573000000
-0.1887910000000
-0.2857150000000
-0.1038960000000
0.0888438000000
0.1752340000000
0.1716040000000
0.1801810000000
0.1553530000000
0.0843665000000
0.0651777000000
0.0708281000000
0.1660550000000
0.0742231000000
-0.0575159000000
-0.1477770000000
-0.1622950000000
-0.0114765000000
0.0279652000000
-0.0745189000000
-0.0997935000000
-0.0778694000000
-0.0405708000000
0.1413220000000
0.1114410000000
-0.1607930000000
-0.2323730000000
-0.2066100000000
-0.2705490000000
-0.2400760000000
-0.0758970000000
0.0866675000000
0.1225540000000
0.0702506000000
0.1624200000000
0.1937230000000
0.1550540000000
0.1771970000000
0.0181958000000
-0.1084290000000
-0.0313961000000
-0.1282780000000
-0.1651860000000
-0.0343551000000
-0.0594081000000
-0.0105268000000
0.0213282000000
-0.0333683000000
-0.0339135000000
-0.1290140000000
-0.1669880000000
-0.1062650000000
-0.0896812000000
0.0487941000000
0.1346390000000
0.0863383000000
0.0893967000000
-0.0066326600000
-0.1650290000000
-0.1571810000000
-0.1003440000000
-0.1363440000000
0.0521285000000
0.2945070000000
0.2854870000000
0.2269350000000
0.3640130000000
0.1454990000000
-0.3029560000000
-0.0742982000000
0.0490083000000
-0.0535323000000
0.0504772000000
-0.0749726000000
-0.1574490000000
0.0067189900000
0.0558533000000
0.1009660000000
0.1813020000000
-0.0186567000000
-0.1197340000000
-0.0028562300000
0.0122690000000
-0.0409518000000
-0.0817814000000
-0.1352900000000
-0.0597438000000
-0.0299814000000
-0.0523306000000
0.0676921000000
0.1019150000000
0.1132600000000
0.1212320000000
-0.0004355720000
-0.0367816000000
0.0297067000000
0.0201147000000
0.0961020000000
0.2313140000000
0.0809262000000
-0.0279053000000
-0.0271351000000
-0.0919180000000
-0.1003070000000
-0.0379561000000
0.0218945000000
0.0336955000000
0.0289737000000
0.0285101000000
0.0226060000000
0.0815609000000
0.1077180000000
0.0796089000000
0.0805803000000
0.0346470000000
-0.0114504000000
-0.0313409000000
-0.0619992000000
-0.0910874000000
-0.0712889000000
0.0042716800000
0.0462022000000
0.0217771000000
-0.0776263000000
-0.1830840000000
-0.2566210000000
-0.2722580000000
-0.1808490000000
0.0082383500000
0.2417900000000
0.2770450000000
0.2036440000000
0.2620710000000
0.2016170000000
-0.0619748000000
-0.1149960000000
-0.0250618000000
-0.0908112000000
-0.0590147000000
0.0260090000000
0.0339043000000
0.0063425400000
-0.0519070000000
-0.0195522000000
0.0540426000000
0.1017720000000
0.0254517000000
-0.1829880000000
-0.0044118800000
0.0752136000000
-0.2069510000000
-0.0924362000000
0.0282732000000
-0.0948763000000
-0.0952150000000
-0.0129992000000
-0.1293480000000
-0.1685360000000
-0.1441240000000
-0.1390510000000
0.0818811000000
0.1324420000000
0.0215465000000
-0.0429006000000
-0.0443852000000
0.0109051000000
0.0772167000000
0.1131730000000
0.0698294000000
-0.0221600000000
-0.0778661000000
-0.0337681000000
0.0662252000000
0.0730646000000
0.0587922000000
-0.0099315200000
-0.0615388000000
-0.0156011000000
-0.0277969000000
-0.0640401000000
-0.0726139000000
-0.0334555000000
-0.0040578700000
-0.0336884000000
-0.0419405000000
0.0025217100000
0.0221293000000
0.0086977900000
0.0094906000000
0.0096336200000
0.0338323000000
0.0353857000000
0.0033067600000
-0.0041873400000
-0.0084677900000
-0.0232974000000
-0.0092493100000
-0.0116049000000
-0.0320632000000
0.0008865720000
-0.0074193100000
-0.0499601000000
-0.0303051000000
-0.0175004000000
-0.0273500000000
-0.0039992900000
0.0077731300000
0.0019218400000
0.0043697000000
-0.0195333000000
-0.0492728000000
-0.0407349000000
-0.0209946000000
-0.0251705000000
0.0152947000000
0.0287182000000
0.0321764000000
0.0509007000000
0.0112701000000
0.0317765000000
0.0460306000000
0.0150613000000
-0.0169467000000
-0.0224371000000
0.0352504000000
0.0926911000000
0.1014540000000
0.0936630000000
0.0754438000000
-0.0133834000000
-0.0605454000000
-0.0568773000000
-0.0388372000000
-0.0234943000000
-0.0542851000000
-0.0531127000000
-0.0578449000000
-0.0623030000000
-0.0297877000000
0.0115371000000
0.0221344000000
0.0338918000000
0.0220065000000
0.0074377900000
-0.0038439800000
-0.0204491000000
0.0149011000000
0.0150550000000
-0.0132518000000
-0.0107514000000
-0.0286326000000
-0.0174629000000
-0.0000386740000
0.0023782500000
0.0366394000000
0.0343102000000
0.0027402000000
0.0297772000000
0.0386782000000
0.0226967000000
0.0588060000000
0.0708636000000
0.0271096000000
-0.0240559000000
-0.0438315000000
-0.0235485000000
-0.0159264000000
-0.0283364000000
-0.0150864000000
0.0247612000000
0.0495206000000
0.0156067000000
-0.0386087000000
-0.0487012000000
-0.0185349000000
0.0083775400000
-0.0025960700000
-0.0363366000000
-0.0348950000000
-0.0075506900000
0.0145347000000
-0.0116120000000
-0.0304029000000
-0.0031573400000
0.0028302000000
-0.0099139200000
-0.0058781500000
0.0142943000000
0.0125763000000
0.0036671700000
0.0370724000000
0.0648580000000
0.0701990000000
0.0620933000000
0.0649804000000
0.0420824000000
0.0100353000000
0.0243646000000
0.0445262000000
0.0464569000000
0.0135997000000
-0.0046355500000
0.0143125000000
0.0346209000000
0.0411731000000
0.0223830000000
0.0111728000000
0.0301256000000
0.0137981000000
-0.0053186900000
0.0157695000000
0.0326968000000
0.0158548000000
-0.0280809000000
-0.0424259000000
-0.0443064000000
-0.0605742000000
-0.0556986000000
-0.0385936000000
-0.0161071000000
0.0259757000000
0.0368066000000
0.0367717000000
0.0250241000000
0.0096103400000
-0.0085382000000
-0.0255683000000
-0.0507455000000
-0.0609004000000
-0.0403996000000
-0.0510267000000
-0.0265708000000
-0.0145437000000
-0.0425237000000
-0.0663423000000
-0.0624029000000
-0.0159179000000
0.0339588000000
0.0274418000000
-0.0105723000000
-0.0057414700000
-0.0142480000000
0.0019910000000
0.0272777000000
0.0143575000000
0.0103653000000
-0.0114739000000
-0.0376546000000
-0.0354519000000
-0.0250488000000
0.0020239700000
0.0150578000000
0.0163330000000
0.0402527000000
0.0671650000000
0.0604803000000
0.0356630000000
0.0143221000000
-0.0136455000000
-0.0221235000000
-0.0160677000000
-0.0184563000000
-0.0027430500000
-0.0106477000000
-0.0086281700000
0.0092512300000
0.0130246000000
0.0141947000000
-0.0130831000000
0.0111912000000
0.0613531000000
0.0262094000000
-0.0415065000000
-0.0308382000000
0.0317941000000
0.0396380000000
0.0045158900000
-0.0183921000000
-0.0175018000000
-0.0148337000000
0.0352115000000
0.0431528000000
0.0116489000000
0.0321843000000
0.0116678000000
-0.0089009900000
0.0063540900000
-0.0081621400000
-0.0166670000000
0.0066437000000
0.0239659000000
0.0440873000000
0.0319850000000
-0.0145351000000
-0.0346013000000
-0.0573570000000
-0.0593461000000
-0.0209476000000
0.0138061000000
0.0078587900000
-0.0455670000000
-0.0702368000000
-0.0540056000000
-0.0596732000000
-0.0358536000000
0.0061855400000
-0.0083590800000
-0.0248855000000
-0.0016334100000
-0.0093110200000
-0.0403553000000
-0.0107816000000
0.0042889400000
-0.0294325000000
-0.0403948000000
-0.0211609000000
-0.0005798070000
-0.0141443000000
-0.0335094000000
0.0028456200000
0.0136098000000
-0.0037303900000
0.0103106000000
0.0027443700000
0.0032605100000
0.0195889000000
0.0386992000000
0.0247384000000
0.0030314200000
0.0421485000000
0.0635490000000
0.0518158000000
0.0214634000000
0.0212206000000
0.0305786000000
0.0012790900000
0.0043613700000
0.0405915000000
0.0295940000000
0.0031986900000
0.0090875800000
0.0048738800000
-0.0054174200000
-0.0095292800000
-0.0053792000000
0.0264626000000
0.0597882000000
0.0520680000000
0.0159828000000
0.0057705300000
0.0289263000000
0.0195758000000
-0.0189347000000
-0.0147663000000
0.0203383000000
0.0174063000000
-0.0207859000000
-0.0214362000000
0.0003926130000
-0.0099892100000
0.0038367300000
0.0267937000000
0.0123125000000
0.0023255600000
0.0157145000000
0.0103999000000
-0.0023829100000
0.0178159000000
0.0133663000000
-0.0233080000000
-0.0299071000000
-0.0121078000000
-0.0038097800000
-0.0100658000000
-0.0282858000000
-0.0359070000000
-0.0074009800000
0.0461524000000
0.0558912000000
0.0003014980000
-0.0185472000000
-0.0180697000000
0.0014710600000
0.0601789000000
0.0463135000000
0.0113745000000
-0.0142837000000
-0.0355563000000
-0.0426276000000
-0.0561936000000
-0.0017498600000
0.0475248000000
0.0289729000000
-0.0068506900000
-0.0516335000000
-0.0362520000000
-0.0360925000000
-0.0495098000000
-0.0146864000000
-0.0135906000000
-0.0143325000000
-0.0117847000000
0.0007487920000
-0.0071110000000
-0.0148840000000
0.0109931000000
-0.0073872100000
-0.0139928000000
0.0043459000000
0.0029629000000
-0.0050649400000
-0.0137040000000
-0.0079044000000
0.0021194600000
-0.0169398000000
-0.0188050000000
0.0304419000000
0.0496543000000
0.0144401000000
-0.0359974000000
-0.0377367000000
0.0084937700000
0.0208070000000
0.0319848000000
0.0262511000000
-0.0068007100000
-0.0151873000000
-0.0197004000000
-0.0143052000000
-0.0023811700000
0.0198077000000
0.0388065000000
0.0244652000000
0.0114225000000
-0.0062434700000
-0.0138031000000
-0.0062171600000
-0.0104242000000
-0.0120653000000
-0.0040807400000
0.0364290000000
0.0597091000000
0.0337987000000
-0.0095388200000
-0.0328593000000
-0.0189148000000
-0.0037603600000
0.0113208000000
0.0113568000000
-0.0136788000000
-0.0126879000000
-0.0029288400000
0.0029016500000
-0.0012518600000
-0.0244502000000
-0.0069441000000
0.0195252000000
0.0317822000000
0.0193058000000
-0.0032518400000
-0.0224336000000
-0.0188915000000
0.0024620500000
-0.0090772400000
-0.0065937700000
0.0248585000000
0.0216951000000
-0.0043672600000
-0.0049385800000
-0.0153096000000
-0.0171294000000
0.0169270000000
0.0483286000000
0.0334060000000
-0.0158412000000
-0.0726109000000
-0.0880577000000
-0.0336576000000
0.0034481100000
-0.0076362400000
0.0013671500000
0.0335023000000
0.0240092000000
-0.0107123000000
-0.0111682000000
-0.0166866000000
-0.0373374000000
-0.0687600000000
-0.0780436000000
-0.0360293000000
0.0143346000000
0.0487671000000
0.0415283000000
-0.0046420100000
-0.0161820000000
0.0253621000000
0.0326082000000
-0.0155535000000
-0.0198891000000
0.0269786000000
0.0255334000000
-0.0083616000000
-0.0169911000000
-0.0080485700000
0.0053128500000
0.0171783000000
0.0311918000000
0.0234220000000
0.0018034600000
-0.0092369500000
-0.0391890000000
-0.0507095000000
-0.0186214000000
0.0208940000000
0.0454551000000
0.0287524000000
-0.0173049000000
0.0005724100000
0.0433876000000
0.0277385000000
0.0327470000000
0.0422444000000
0.0158628000000
0.0080774700000
0.0137522000000
0.0283983000000
0.0187707000000
-0.0213515000000
-0.0088157100000
0.0128495000000
-0.0209204000000
-0.0116126000000
0.0340170000000
0.0297146000000
0.0186003000000
0.0489064000000
0.0315227000000
-0.0537103000000
-0.0555177000000
0.0085294200000
0.0463713000000
0.0243950000000
-0.0204530000000
0.0117432000000
-0.0115874000000
-0.0812643000000
-0.0666696000000
-0.0278904000000
-0.0119603000000
-0.0167480000000
-0.0381414000000
-0.0234641000000
0.0235886000000
0.0227979000000
0.0276109000000
0.0200816000000
-0.0227074000000
-0.0116349000000
-0.0072215900000
-0.0373190000000
-0.0612470000000
-0.0505574000000
0.0069247400000
0.0405620000000
0.0314151000000
0.0351143000000
0.0262742000000
0.0152146000000
0.0237148000000
-0.0127727000000
-0.0153961000000
0.0416523000000
0.0273449000000
-0.0171539000000
0.0146461000000
-0.0098779200000
-0.0611630000000
-0.0563353000000
-0.0001758440000
0.0641972000000
-0.0100757000000
-0.0706336000000
-0.0497816000000
0.0209775000000
0.0843603000000
0.0600245000000
0.0079397300000
0.0114905000000
0.0172670000000
-0.0164231000000
-0.0162552000000
-0.0064603600000
-0.0251329000000
-0.0305921000000
0.0042848400000
-0.0091144400000
-0.0390067000000
-0.0006104990000
0.0534088000000
0.0706149000000
-0.0101074000000
-0.0609564000000
-0.0152225000000
0.0345553000000
0.0512741000000
-0.0012762100000
-0.0434784000000
-0.0289055000000
-0.0156142000000
0.0213990000000
0.0453892000000
0.0677536000000
0.0597762000000
-0.0163983000000
-0.0318700000000
0.0101213000000
0.0023504800000
-0.0092096700000
0.0271005000000
0.0455418000000
0.0078991100000
-0.0257847000000
-0.0383910000000
-0.0357808000000
-0.0047156100000
-0.0061046600000
-0.0431225000000
-0.0350492000000
-0.0105649000000
-0.0068503200000
0.0240589000000
0.0170902000000
-0.0319529000000
-0.0110691000000
0.0353913000000
0.0120826000000
0.0023096000000
0.0433589000000
0.0484571000000
-0.0047548800000
-0.0242578000000
0.0170692000000
0.0281949000000
-0.0169951000000
-0.0665692000000
-0.0360299000000
0.0175156000000
0.0029455400000
0.0090971400000
0.0247843000000
0.0327769000000
0.0229982000000
-0.0253083000000
-0.0209170000000
0.0263550000000
0.0057452100000
-0.0693893000000
-0.0720621000000
-0.0077472800000
0.0002351900000
-0.0109809000000
-0.0076035900000
-0.0008088690000
0.0457893000000
0.0588137000000
0.0174479000000
-0.0342667000000
-0.0229100000000
0.0138760000000
0.0073190400000
0.0082069200000
0.0179401000000
0.0010015400000
-0.0182989000000
-0.0129411000000
-0.0225051000000
0.0061901400000
0.0593951000000
0.0867016000000
0.0350826000000
-0.0257174000000
-0.0412245000000
-0.0163374000000
0.0075456300000
-0.0223808000000
-0.0253758000000
-0.0410152000000
-0.0593434000000
0.0044238700000
0.0413336000000
0.0095545100000
0.0048750900000
0.0019422100000
-0.0586821000000
-0.0681461000000
-0.0293144000000
-0.0128447000000
0.0120682000000
0.0151633000000
-0.0115468000000
-0.0396964000000
-0.0248910000000
0.0493634000000
0.0768391000000
0.0449951000000
0.0293768000000
0.0117912000000
-0.0282768000000
-0.0122758000000
0.0396517000000
0.0136227000000
-0.0136153000000
0.0013890700000
0.0137778000000
0.0486651000000
0.0282329000000
-0.0047974500000
0.0162817000000
0.0348315000000
0.0285705000000
0.0052867900000
-0.0155037000000
0.0203902000000
0.0179978000000
-0.0210741000000
-0.0559012000000
-0.0393754000000
0.0143171000000
0.0275027000000
0.0159544000000
-0.0496752000000
-0.0621103000000
-0.0532049000000
-0.0650867000000
-0.0585781000000
-0.0472461000000
-0.0444847000000
-0.0760501000000
-0.0517261000000
-0.0002133710000
0.0093867400000
-0.0048400500000
-0.0253769000000
-0.0130191000000
-0.0050214700000
-0.0112885000000
-0.0064940600000
-0.0018462900000
-0.0034368200000
-0.0202967000000
-0.0183250000000
-0.0074615700000
0.0067183500000
0.0306667000000
0.0531702000000
0.0482374000000
0.0050422000000
-0.0424084000000
-0.0566583000000
-0.0507762000000
-0.0241805000000
0.0403814000000
0.0788212000000
0.0460464000000
0.0209718000000
0.0556768000000
0.0397076000000
-0.0058501000000
-0.0264617000000
-0.0231661000000
0.0208729000000
0.0391205000000
0.0387849000000
0.0675950000000
0.0561477000000
-0.0181505000000
-0.0344826000000
0.0282371000000
0.0458620000000
0.0211335000000
0.0100369000000
-0.0135801000000
-0.0623697000000
-0.0374431000000
0.0227300000000
0.0079776100000
-0.0511745000000
-0.0426494000000
0.0349542000000
0.0226743000000
-0.0223940000000
-0.0227634000000
-0.0147908000000
0.0027166000000
-0.0161821000000
-0.0388076000000
-0.0197176000000
0.0186177000000
0.0301984000000
0.0138995000000
-0.0178170000000
-0.0106931000000
0.0259016000000
0.0633430000000
0.0415128000000
-0.0713751000000
-0.0977786000000
-0.0314847000000
-0.0137502000000
0.0026284200000
0.0600572000000
0.0506539000000
-0.0225844000000
-0.0489361000000
-0.0375978000000
-0.0320654000000
0.0189801000000
0.0659231000000
0.0810030000000
0.0584096000000
-0.0131482000000
-0.0210944000000
0.0104371000000
-0.0173622000000
-0.0129474000000
0.0389456000000
0.0317179000000
-0.0073374800000
-0.0141416000000
0.0049817900000
-0.0091462300000
-0.0404103000000
-0.0283768000000
-0.0262955000000
-0.0538214000000
-0.0383859000000
-0.0062775900000
0.0025031600000
0.0135564000000
-0.0006461150000
-0.0238131000000
-0.0292138000000
-0.0128484000000
0.0117829000000
0.0303464000000
0.0347981000000
0.0378617000000
0.0670636000000
0.0802335000000
0.0757744000000
0.0843231000000
0.0811199000000
0.0726116000000
0.0756638000000
0.0696204000000
0.0634997000000
0.0729977000000
0.0546729000000
-0.0049805100000
-0.0116613000000
0.0351235000000
0.0531572000000
0.0642455000000
0.0623516000000
0.0399892000000
0.0202831000000
-0.0133135000000
-0.0420905000000
-0.0703185000000
-0.0461481000000
0.0446953000000
0.0713700000000
0.0034586200000
-0.0421030000000
0.0011115800000
0.0064881900000
-0.0142410000000
-0.0078687500000
-0.0648628000000
-0.0955982000000
-0.0744044000000
-0.0610004000000
-0.0697777000000
-0.1150170000000
-0.1401300000000
-0.1213290000000
-0.1000790000000
-0.1120990000000
-0.1255100000000
-0.1217950000000
-0.0850373000000
0.0306437000000
0.1413030000000
0.1423130000000
0.0636120000000
0.0129952000000
-0.0041014200000
-0.0031499400000
0.0463036000000
0.0356122000000
0.0225081000000
0.0713695000000
0.0792538000000
0.1146470000000
0.1255220000000
0.0889593000000
0.0578512000000
0.0107871000000
-0.0275062000000
-0.0389620000000
-0.0483959000000
-0.0270406000000
0.0036027300000
0.0209674000000
0.0716076000000
0.0384927000000
-0.0575943000000
-0.0602668000000
-0.0219639000000
0.0195908000000
0.0934268000000
0.1268970000000
0.0740603000000
-0.0164630000000
-0.0292894000000
0.0299347000000
0.0473547000000
0.0075500900000
-0.0010712300000
0.0368464000000
0.0344046000000
0.0207959000000
0.0015401400000
-0.0578311000000
-0.1181950000000
-0.1193960000000
-0.0729108000000
0.0117887000000
0.1233300000000
0.0735576000000
-0.0164530000000
0.0160224000000
0.0064436000000
-0.0579116000000
-0.0482720000000
-0.0410689000000
-0.0703614000000
-0.0584343000000
-0.0251615000000
0.0206648000000
0.0198003000000
-0.0149555000000
-0.0313849000000
0.0054837300000
0.0329667000000
0.0324088000000
-0.0226315000000
-0.0819819000000
0.0034060700000
0.0798194000000
0.1216770000000
0.1203690000000
0.0265986000000
-0.0639389000000
-0.0767811000000
-0.0823821000000
-0.0781532000000
-0.0425727000000
-0.0007621800000
0.1016360000000
0.1021130000000
-0.0126950000000
-0.0562124000000
0.0011160600000
0.0188844000000
-0.0239995000000
-0.0522568000000
-0.0670554000000
-0.0437281000000
-0.0359343000000
-0.0330137000000
0.0021843700000
0.0025399300000
-0.0250780000000
-0.0283324000000
-0.0208265000000
-0.0205996000000
-0.0016658400000
0.0209808000000
0.0266316000000
0.0320817000000
0.0625113000000
0.0991881000000
0.1425510000000
0.1201170000000
0.0326960000000
0.0251643000000
0.0171567000000
-0.0543946000000
-0.1064760000000
-0.1474640000000
-0.1961180000000
-0.2369300000000
-0.2311040000000
-0.1577290000000
-0.0667547000000
0.0171292000000
0.1347340000000
0.1518020000000
0.0834772000000
0.1084630000000
0.1179000000000
0.1491660000000
0.1006020000000
-0.0492996000000
-0.1217790000000
-0.1406780000000
-0.1315330000000
-0.1191960000000
-0.0729302000000
-0.0055829100000
0.0345984000000
0.0338383000000
0.0316600000000
0.0922389000000
0.1026440000000
0.0172565000000
-0.0215894000000
-0.0285546000000
-0.0624783000000
-0.0430341000000
-0.0501197000000
-0.1016680000000
-0.1034170000000
-0.0727292000000
-0.0788828000000
-0.0659420000000
0.0123772000000
0.0208507000000
-0.0001766780000
0.0352281000000
0.0417875000000
0.0121650000000
-0.0017478900000
0.0020640300000
0.0171535000000
0.0160796000000
0.0137400000000
0.0196504000000
-0.0027594700000
-0.0168816000000
-0.0103685000000
-0.0080754100000
-0.0145082000000
-0.0587317000000
-0.0977780000000
-0.0861032000000
-0.0194875000000
0.0061128800000
0.0310050000000
0.0897091000000
0.0642021000000
0.0122445000000
0.0161374000000
0.0283772000000
-0.0038478100000
-0.0011688600000
0.0269438000000
0.0246527000000
-0.0182992000000
-0.0504246000000
-0.0291920000000
0.0054309500000
-0.0056535700000
-0.0125509000000
0.0453485000000
0.0394003000000
-0.0285207000000
-0.0357772000000
-0.0265675000000
-0.0326501000000
-0.0202707000000
-0.0283198000000
-0.0272321000000
-0.0063416000000
0.0257785000000
0.0514160000000
0.0324314000000
0.0027299100000
-0.0005254760000
0.0268520000000
0.0215474000000
-0.0292618000000
-0.0081315300000
0.0415808000000
0.0198789000000
-0.0162611000000
-0.0124880000000
0.0338845000000
0.0659537000000
0.0587679000000
0.0297148000000
0.0070902600000
-0.0080453800000
-0.0133072000000
0.0182550000000
0.0503371000000
0.0285074000000
-0.0160026000000
-0.0498797000000
-0.0670597000000
-0.0178181000000
-0.0159383000000
-0.0402546000000
0.0029972900000
0.0138817000000
0.0131494000000
0.0191766000000
0.0149855000000
0.0044578300000
0.0128560000000
0.0646565000000
0.0715206000000
0.0308090000000
0.0029373300000
-0.0240861000000
-0.0042328700000
0.0228643000000
-0.0013077800000
-0.0296583000000
-0.0147303000000
0.0175650000000
-0.0034085300000
-0.0173975000000
0.0010912500000
0.0242819000000
0.0213001000000
0.0021316500000
0.0295663000000
0.0384257000000
-0.0027747600000
-0.0113923000000
0.0165603000000
0.0317944000000
0.0401254000000
0.0604094000000
0.0749987000000
0.0425793000000
-0.0169895000000
-0.0421583000000
-0.0145991000000
-0.0041796900000
-0.0223248000000
0.0172518000000
0.0644980000000
0.0636136000000
0.0438710000000
0.0191888000000
-0.0013867000000
-0.0317947000000
-0.0465151000000
-0.0236370000000
-0.0206635000000
-0.0358501000000
-0.0369136000000
-0.0165658000000
-0.0100300000000
-0.0251252000000
-0.0191023000000
0.0123687000000
0.0173105000000
0.0119767000000
0.0644360000000
0.0768535000000
0.0453051000000
0.0411520000000
0.0574483000000
0.0470539000000
0.0179517000000
0.0184386000000
0.0314044000000
0.0390434000000
0.0052309900000
-0.0415244000000
-0.0566889000000
-0.0129831000000
0.0135452000000
0.0300130000000
0.0858538000000
0.0930290000000
0.0483220000000
0.0199811000000
0.0130634000000
-0.0291379000000
-0.0243265000000
0.0103068000000
0.0032904600000
0.0443779000000
0.0517401000000
-0.0054065700000
-0.0329699000000
-0.0000475209000
0.0295722000000
-0.0001362860000
-0.0407715000000
-0.0247308000000
0.0481092000000
0.0489382000000
0.0124970000000
-0.0022463000000
-0.0006067570000
0.0284828000000
0.0001757160000
-0.0422744000000
-0.0443043000000
-0.0204422000000
-0.0183236000000
-0.0356012000000
-0.0057697900000
0.0037805100000
-0.0208314000000
-0.0447222000000
-0.0514338000000
-0.0437627000000
-0.0519459000000
-0.0671429000000
-0.0564608000000
-0.0192737000000
0.0056347300000
0.0397608000000
0.0442625000000
-0.0051127000000
-0.0575181000000
-0.0575428000000
-0.0118244000000
0.0186214000000
0.0606514000000
0.0981104000000
0.0743901000000
0.0161558000000
-0.0225062000000
-0.0105918000000
0.0045376700000
-0.0277385000000
-0.0322836000000
-0.0017356700000
-0.0303490000000
-0.0531156000000
-0.0225372000000
0.0228175000000
0.0436332000000
0.0200473000000
0.0117014000000
0.0379395000000
0.0268798000000
-0.0423222000000
-0.0465896000000
-0.0043922900000
0.0046645100000
0.0303874000000
0.0340703000000
-0.0123552000000
-0.0376938000000
-0.0104506000000
0.0238380000000
0.0431786000000
0.0518519000000
0.0443524000000
0.0143349000000
-0.0030739700000
0.0164844000000
0.0266057000000
0.0053954200000
-0.0040162600000
-0.0059806700000
-0.0475495000000
-0.0849305000000
-0.0810584000000
-0.0651210000000
-0.0667999000000
-0.0667068000000
-0.0740572000000
-0.0659816000000
-0.0363341000000
-0.0291775000000
-0.0390411000000
-0.0317299000000
0.0200761000000
0.0398608000000
0.0273511000000
0.0274471000000
0.0380905000000
0.0617642000000
0.0417948000000
0.0088179900000
0.0002135300000
-0.0162872000000
-0.0098346800000
-0.0055470100000
-0.0349436000000
-0.0477601000000
-0.0389291000000
-0.0102886000000
0.0201348000000
0.0246332000000
0.0073590700000
-0.0197489000000
-0.0332689000000
-0.0161257000000
0.0102694000000
0.0267586000000
0.0326588000000
0.0459071000000
0.0392710000000
-0.0127292000000
-0.0175529000000
0.0213421000000
0.0321979000000
0.0093896800000
-0.0020799900000
0.0116470000000
0.0259368000000
0.0218154000000
-0.0148304000000
-0.0351212000000
-0.0002432090000
0.0467734000000
0.0247306000000
-0.0071775600000
-0.0253230000000
-0.0210178000000
-0.0088118000000
-0.0429793000000
-0.0282323000000
0.0165880000000
0.0099935500000
-0.0346123000000
-0.0560798000000
-0.0472121000000
-0.0165654000000
-0.0148194000000
-0.0031672700000
0.0395746000000
0.0085271100000
-0.0228450000000
-0.0060119600000
-0.0163013000000
-0.0296929000000
-0.0084478700000
0.0011161900000
-0.0066180600000
-0.0150627000000
-0.0222392000000
-0.0619809000000
-0.0550486000000
-0.0032006100000
-0.0009026530000
-0.0210816000000
-0.0415295000000
-0.0584110000000
-0.0404439000000
-0.0153084000000
0.0194691000000
0.0280290000000
0.0113103000000
0.0230930000000
-0.0113078000000
-0.0693322000000
-0.0534623000000
0.0232473000000
0.0654477000000
0.0524508000000
0.0384915000000
0.0342601000000
0.0150798000000
-0.0171862000000
-0.0366009000000
0.0168675000000
0.0377212000000
0.0132126000000
0.0215745000000
0.0265009000000
0.0245694000000
0.0039360300000
0.0125809000000
0.0165525000000
-0.0303148000000
-0.0425231000000
0.0108667000000
0.0388214000000
0.0100887000000
-0.0233288000000
-0.0173241000000
0.0026327200000
-0.0178348000000
-0.0184455000000
0.0171411000000
0.0233465000000
0.0019909900000
0.0064797100000
0.0267960000000
0.0197770000000
-0.0024565800000
0.0149980000000
0.0019129500000
-0.0452050000000
-0.0309424000000
-0.0091474200000
-0.0169993000000
-0.0196671000000
0.0200891000000
0.0230871000000
-0.0146887000000
-0.0106612000000
-0.0234630000000
-0.0327055000000
-0.0297706000000
-0.0325912000000
0.0112699000000
0.0575285000000
0.0814645000000
0.0875083000000
0.0667448000000
0.0321186000000
0.0023955000000
-0.0016272600000
0.0330419000000
0.0493457000000
0.0146544000000
-0.0135017000000
-0.0071058100000
0.0030923700000
-0.0018668000000
0.0044595900000
-0.0113346000000
-0.0292286000000
-0.0070168600000
0.0115050000000
0.0116379000000
-0.0175149000000
-0.0494418000000
-0.0244357000000
-0.0153151000000
-0.0251268000000
0.0023303200000
0.0062815900000
0.0046352100000
0.0227750000000
0.0393266000000
0.0496152000000
0.0320788000000
-0.0365623000000
-0.0530016000000
0.0045928600000
0.0392359000000
0.0589064000000
0.0950367000000
0.0767700000000
-0.0310748000000
-0.0788923000000
-0.0421900000000
-0.0090000700000
-0.0149075000000
-0.0521001000000
-0.0416964000000
-0.0116692000000
-0.0077037900000
-0.0433490000000
-0.0493192000000
0.0031071300000
0.0025200600000
-0.0301454000000
-0.0203163000000
-0.0023024100000
-0.0162645000000
-0.0104554000000
0.0298886000000
0.0208380000000
-0.0090501400000
0.0017688600000
0.0162680000000
0.0082477300000
0.0062571500000
0.0306450000000
-0.0124837000000
-0.0617990000000
-0.0261426000000
0.0202897000000
-0.0011388700000
-0.0368894000000
-0.0136108000000
0.0159602000000
0.0306768000000
0.0431270000000
0.0573327000000
0.0535879000000
0.0055923300000
-0.0213346000000
0.0083082100000
0.0190921000000
-0.0045612700000
-0.0069050700000
-0.0059235900000
-0.0207724000000
0.0049410000000
0.0553686000000
0.0495521000000
-0.0132721000000
-0.0423970000000
-0.0101041000000
-0.0045961900000
-0.0252306000000
0.0034960700000
0.0484069000000
0.0561890000000
0.0372684000000
0.0408626000000
0.0370962000000
-0.0158478000000
-0.0493293000000
-0.0459429000000
-0.0267731000000
0.0112287000000
0.0153608000000
0.0106003000000
-0.0090178000000
-0.0213621000000
-0.0095087400000
-0.0103896000000
0.0144420000000
0.0333845000000
0.0166726000000
-0.0101276000000
-0.0195304000000
-0.0168712000000
-0.0230404000000
-0.0163341000000
0.0121222000000
0.0064078600000
-0.0413093000000
-0.0252875000000
0.0170212000000
0.0167276000000
0.0115032000000
0.0075195700000
0.0220449000000
0.0373802000000
0.0410313000000
0.0388429000000
0.0560685000000
0.0505533000000
-0.0113666000000
-0.0368875000000
0.0159182000000
0.0445315000000
0.0264754000000
0.0329226000000
0.0158787000000
-0.0403885000000
-0.0411122000000
-0.0053161900000
-0.0168582000000
-0.0221456000000
0.0124202000000
0.0181084000000
-0.0006732890000
0.0080214500000
0.0316161000000
0.0417120000000
0.0362272000000
-0.0023656500000
-0.0347719000000
0.0049627600000
0.0451113000000
0.0462707000000
0.0128988000000
-0.0415035000000
-0.0293128000000
0.0173574000000
0.0083028000000
0.0179265000000
0.0364046000000
-0.0093246700000
-0.0295165000000
0.0146552000000
0.0126465000000
-0.0127620000000
-0.0201485000000
-0.0188205000000
-0.0267749000000
-0.0224467000000
0.0114561000000
-0.0074623200000
-0.0278544000000
-0.0019605400000
0.0080573000000
-0.0216732000000
-0.0285711000000
0.0080405300000
0.0183993000000
-0.0032498800000
-0.0233473000000
-0.0329345000000
-0.0328299000000
-0.0180818000000
0.0119870000000
0.0130328000000
-0.0289041000000
-0.0230022000000
0.0298823000000
0.0284159000000
-0.0129000000000
-0.0244843000000
-0.0008353900000
0.0025825400000
-0.0139189000000
-0.0246893000000
-0.0395310000000
-0.0475452000000
-0.0314409000000
-0.0032756400000
0.0084925800000
-0.0057173900000
-0.0160444000000
-0.0025705600000
-0.0053448700000
-0.0368900000000
-0.0362532000000
-0.0263652000000
-0.0314672000000
-0.0230896000000
-0.0065695400000
0.0045215700000
0.0107807000000
0.0047326900000
-0.0124631000000
-0.0111079000000
0.0133050000000
0.0360872000000
0.0199210000000
0.0059793700000
0.0093594600000
-0.0158935000000
-0.0300755000000
-0.0211595000000
-0.0167258000000
-0.0387253000000
-0.0460627000000
0.0000519661000
0.0284754000000
0.0456215000000
0.0610687000000
0.0341022000000
0.0051935300000
-0.0195607000000
-0.0395526000000
-0.0191479000000
-0.0074143000000
0.0061649000000
0.0357654000000
0.0313264000000
0.0103759000000
0.0177485000000
0.0404181000000
0.0268846000000
-0.0206240000000
-0.0124888000000
0.0076536700000
0.0021948300000
0.0078087500000
0.0365913000000
0.0577239000000
0.0181017000000
-0.0079568800000
-0.0009866870000
-0.0160698000000
-0.0385673000000
-0.0300737000000
0.0083880800000
0.0258825000000
-0.0024359100000
-0.0335587000000
-0.0257010000000
-0.0180738000000
-0.0344287000000
-0.0396443000000
-0.0069390000000
0.0187133000000
0.0010694900000
-0.0212647000000
-0.0327221000000
-0.0183562000000
-0.0031122100000
0.0035659000000
0.0028784300000
-0.0232528000000
-0.0248312000000
-0.0005026640000
-0.0012049700000
-0.0182263000000
-0.0269442000000
-0.0080003700000
0.0093257200000
-0.0032654800000
-0.0190125000000
-0.0196677000000
0.0056057400000
0.0289341000000
0.0263518000000
0.0151037000000
0.0157673000000
-0.0000256702000
-0.0269997000000
-0.0286042000000
0.0059053200000
0.0141229000000
-0.0001972480000
0.0159644000000
0.0161599000000
0.0239143000000
0.0457626000000
0.0329050000000
-0.0067704000000
-0.0020920000000
0.0256118000000
0.0358006000000
0.0406374000000
0.0269830000000
0.0107513000000
0.0245100000000
0.0439427000000
0.0378963000000
0.0377252000000
0.0523649000000
0.0364774000000
0.0003401590000
-0.0209904000000
-0.0173710000000
0.0039680000000
0.0113576000000
0.0213506000000
0.0148463000000
-0.0116371000000
-0.0273356000000
-0.0156000000000
0.0086992800000
0.0080794800000
0.0183968000000
0.0154994000000
-0.0092433900000
0.0222354000000
0.0461196000000
0.0138191000000
-0.0205720000000
-0.0477157000000
-0.0289207000000
-0.0019336400000
0.0011274300000
0.0129951000000
0.0055557500000
-0.0005854870000
0.0034013900000
-0.0082530400000
-0.0215580000000
-0.0304878000000
-0.0302053000000
-0.0053523400000
0.0307943000000
0.0201023000000
-0.0110212000000
-0.0186642000000
-0.0249676000000
-0.0207115000000
-0.0115167000000
-0.0041643600000
-0.0131755000000
-0.0262070000000
-0.0355236000000
-0.0152817000000
0.0084287900000
0.0144093000000
0.0219718000000
0.0028983600000
-0.0123948000000
-0.0034042900000
0.0000015079000
-0.0070606500000
0.0054288900000
0.0189180000000
0.0020276700000
-0.0120194000000
0.0222781000000
0.0397224000000
0.0220281000000
-0.0159259000000
-0.0266759000000
0.0085762400000
-0.0246009000000
-0.0466694000000
-0.0080816800000
0.0220631000000
0.0260437000000
-0.0060781600000
-0.0053572200000
0.0257340000000
-0.0141663000000
-0.0375068000000
0.0082123700000
0.0200757000000
-0.0068590400000
-0.0268796000000
-0.0302484000000
-0.0185797000000
-0.0053463900000
0.0010299800000
-0.0149233000000
-0.0349543000000
-0.0303346000000
-0.0188971000000
-0.0119860000000
-0.0117538000000
-0.0064250300000
-0.0075740600000
-0.0111138000000
-0.0053773200000
-0.0257847000000
-0.0469629000000
-0.0323070000000
-0.0041322500000
0.0305267000000
0.0263689000000
-0.0308655000000
-0.0353481000000
0.0138925000000
0.0012892000000
-0.0192491000000
-0.0210300000000
-0.0358823000000
-0.0031380300000
0.0451790000000
0.0378455000000
-0.0259568000000
-0.0045691400000
0.0562177000000
0.0107675000000
-0.0241898000000
0.0055310700000
0.0214511000000
0.0090236000000
0.0252987000000
0.0454687000000
0.0276875000000
0.0134897000000
0.0135181000000
-0.0041294600000
-0.0085956100000
0.0179207000000
0.0343218000000
0.0257129000000
0.0074975300000
0.0096101200000
0.0133829000000
-0.0023250000000
0.0014813400000
0.0151844000000
0.0090763800000
0.0048388900000
0.0082134300000
-0.0002648930000
-0.0042938900000
-0.0127190000000
-0.0190388000000
-0.0057654300000
0.0040779400000
0.0274583000000
0.0300905000000
0.0021526000000
-0.0029158000000
-0.0093521300000
-0.0190023000000
-0.0092615800000
0.0057677000000
0.0072799800000
-0.0035734000000
0.0036243900000
0.0111964000000
-0.0068971900000
-0.0164758000000
-0.0097673700000
-0.0102395000000
0.0018292400000
0.0069956100000
-0.0064615800000
-0.0016057100000
0.0075750300000
0.0027609600000
0.0046796100000
0.0078562900000
-0.0003873650000
0.0029712700000
0.0069720200000
-0.0068832000000
-0.0136846000000
-0.0055698400000
0.0014191100000
0.0045465300000
0.0095648000000
0.0067666100000
0.0069081400000
0.0062725300000
0.0022790300000
0.0021973700000
-0.0029813000000
-0.0032949000000
0.0046986700000
0.0069569400000
0.0021763900000
0.0011388100000
-0.0018107500000
0.0009217720000
0.0080452200000
0.0086478400000
0.0089929100000
0.0074363200000
0.0061703000000
0.0046834500000
0.0007994930000
0.0017739000000
0.0032597300000
0.0018492700000
0.0025997600000
0.0024620900000
-0.0002510790000
-0.0024631600000
-0.0018639100000
-0.0012048900000
-0.0024258100000
-0.0030392300000
-0.0035723100000
-0.0032581700000
-0.0022979900000
-0.0022042700000
-0.0035606800000
-0.0048838700000
-0.0046759400000
-0.0046689500000
-0.0049444600000
-0.0050321000000
-0.0045899800000
-0.0043635100000
-0.0044311100000
-0.0043719200000
-0.0039843200000
-0.0033694200000
-0.0031343000000
-0.0028502300000
-0.0025214200000
-0.0024157400000
-0.0022260000000
-0.0019249300000
-0.0017127900000
-0.0014987500000
-0.0012100300000
-0.0009538210000
-0.0007581150000
0.0000000000000
0.0000000000000
0.0000000000000
0.0000000000000
