0.0000032393600
0.0000032340700
0.0000032312600
0.0000032533200
0.0000032262000
0.0000031537300
0.0000030819000
0.0000031018600
0.0000030883100
0.0000030156200
0.0000030012100
0.0000027178200
0.0000023859700
0.0000023776500
0.0000028920900
0.0000036680300
0.0000037624200
0.0000034643800
0.0000056913900
0.0000065337800
0.0000046654400
0.0000035305500
0.0000012362900
-0.0000002153700
0.0000015041100
0.0000044721900
0.0000006854130
-0.0000139027000
-0.0000167761000
-0.0000016839700
0.0000168156000
0.0000203887000
0.0000146397000
0.0000103278000
0.0000070410600
0.0000048556400
0.0000071806600
0.0000065526700
0.0000002481330
0.0000019826600
0.0000101405000
0.0000111189000
0.0000102620000
0.0000142848000
0.0000148233000
0.0000077024600
0.0000030717000
0.0000136482000
0.0000283721000
0.0000278126000
0.0000141845000
-0.0000014779700
-0.0000029636600
0.0000101352000
0.0000223276000
0.0000213128000
0.0000247133000
0.0000286745000
0.0000183709000
-0.0000050381500
-0.0000114122000
0.0000144913000
0.0000325166000
0.0000062544400
-0.0000081067900
0.0000322968000
0.0000591790000
0.0000342625000
0.0000013516800
0.0000229848000
0.0000496983000
0.0000243372000
-0.0000254330000
-0.0000211899000
0.0000203333000
0.0000239944000
0.0000038701300
0.0000036318300
0.0000044391900
-0.0000010414700
0.0000126008000
0.0000411081000
0.0000444355000
0.0000036107800
-0.0000299742000
-0.0000377055000
-0.0000013125100
0.0000457295000
0.0000373692000
0.0000027717700
0.0000017233200
0.0000285150000
0.0000153644000
-0.0000121308000
-0.0000084284800
0.0000043581100
0.0000245570000
0.0000464817000
0.0000047078100
-0.0000192747000
0.0000130863000
0.0000429443000
0.0000429829000
0.0000333952000
0.0000218599000
0.0000185691000
-0.0000214233000
-0.0000095747000
0.0000391888000
0.0000757646000
0.0000792926000
-0.0000108510000
-0.0000677275000
0.0000032324500
0.0001006960000
0.0001028150000
0.0000461326000
0.0000087800700
0.0000122466000
0.0000217178000
0.0000268003000
0.0000181236000
0.0000587743000
0.0000858021000
0.0000007940690
-0.0000256596000
0.0000288570000
0.0000053457800
-0.0000577087000
-0.0000519642000
0.0000116421000
0.0000644815000
0.0000414015000
-0.0000169109000
-0.0000501513000
-0.0000631183000
-0.0000269814000
-0.0000010033800
0.0000354170000
0.0001125610000
0.0001343100000
0.0001108660000
0.0000447306000
-0.0000625684000
-0.0001353170000
-0.0001772890000
-0.0001827200000
-0.0000379974000
0.0001901020000
0.0002685490000
0.0000831721000
-0.0001105900000
-0.0000749367000
0.0000872320000
0.0001558340000
0.0000887890000
-0.0000137875000
-0.0000602704000
-0.0000037601400
0.0000375579000
0.0000303717000
0.0000419858000
0.0000132833000
-0.0000275873000
-0.0000989475000
-0.0001277280000
-0.0001101610000
-0.0001552300000
-0.0001844580000
-0.0000753424000
0.0001019910000
0.0001385350000
0.0000452887000
0.0000159189000
0.0000699271000
0.0001022530000
0.0000535539000
-0.0000020956700
0.0000264321000
0.0001202940000
0.0002046680000
0.0001727660000
0.0000625140000
0.0000154589000
0.0000180296000
0.0000850432000
0.0001199620000
0.0000185445000
-0.0000928509000
-0.0000883416000
-0.0001036080000
-0.0001754180000
-0.0001743470000
-0.0001520040000
-0.0001222770000
-0.0000054171300
0.0001418410000
0.0001198300000
-0.0000206861000
-0.0000540296000
-0.0000259949000
-0.0000542952000
-0.0000981410000
-0.0001155330000
-0.0001198620000
-0.0000087424100
0.0001246720000
0.0001177480000
0.0000431999000
0.0000417360000
-0.0000382626000
-0.0003512220000
-0.0004062380000
-0.0000185751000
0.0002475880000
0.0001327620000
-0.0000996731000
-0.0000856323000
0.0000434155000
0.0000945382000
0.0000960548000
0.0000926833000
0.0000867305000
-0.0000364939000
-0.0002002930000
-0.0001804440000
-0.0000406324000
-0.0000071413000
-0.0000735146000
-0.0001309830000
-0.0001295130000
-0.0000742782000
0.0000531985000
0.0000986224000
0.0000483401000
-0.0000071878700
-0.0000126298000
0.0000305452000
0.0000047070000
-0.0000593188000
-0.0000197904000
0.0000377887000
-0.0000161644000
-0.0000834153000
-0.0000552663000
0.0000369464000
0.0001407070000
0.0001168460000
-0.0000257431000
-0.0001007060000
-0.0001055840000
0.0000022859700
0.0001044430000
0.0000972860000
0.0000683859000
0.0000566659000
-0.0000452940000
-0.0001628080000
-0.0001250960000
-0.0000419128000
0.0000000684987
-0.0000085962200
0.0000106935000
0.0001110820000
0.0001291200000
0.0000096422800
-0.0000361653000
0.0000496983000
0.0000501285000
-0.0001032100000
-0.0002275360000
-0.0001847530000
-0.0001225180000
-0.0001263610000
-0.0000846542000
0.0000329087000
0.0000903102000
-0.0000162056000
-0.0000472699000
0.0001263650000
0.0002305090000
0.0000756301000
-0.0001218450000
-0.0000391483000
0.0001863690000
0.0001895770000
-0.0000660899000
-0.0002370680000
-0.0001820000000
-0.0000700165000
-0.0001218130000
-0.0000735157000
0.0000875620000
0.0001255650000
0.0000410397000
-0.0000545376000
-0.0000623063000
0.0000316377000
0.0001065540000
-0.0000233651000
-0.0002243910000
-0.0002774500000
-0.0002567030000
-0.0002450580000
-0.0001945520000
-0.0000820483000
0.0000158194000
0.0000506952000
0.0000159788000
-0.0000376857000
-0.0000089757700
0.0000212577000
-0.0000454488000
-0.0000652575000
0.0000297445000
0.0001499520000
0.0001702450000
0.0001100700000
0.0001254260000
0.0001497140000
0.0000204143000
-0.0001946530000
-0.0001795610000
-0.0000196014000
-0.0000602948000
-0.0002700720000
-0.0003352830000
-0.0001736500000
-0.0000417699000
-0.0000128161000
0.0000053896900
0.0000180418000
0.0000052583000
0.0000176513000
0.0000075595000
-0.0000556538000
-0.0000708371000
-0.0000793834000
-0.0000930979000
-0.0000564509000
0.0000473059000
0.0000650344000
-0.0000021446100
0.0000029868900
0.0000780089000
0.0000809779000
0.0000206162000
-0.0000369141000
-0.0001165990000
-0.0000755477000
-0.0000028728800
-0.0000265772000
-0.0000417262000
0.0000197637000
0.0000891187000
0.0000358430000
-0.0001166630000
-0.0001958180000
-0.0000653183000
0.0000497975000
0.0000603867000
0.0000810764000
0.0001157420000
0.0000942799000
0.0000014454600
-0.0001152320000
-0.0001032980000
0.0000292453000
0.0000661144000
-0.0000584178000
-0.0001491730000
-0.0000912772000
-0.0000342318000
-0.0000211732000
0.0001303390000
0.0001655510000
-0.0000326238000
-0.0002443020000
-0.0004858920000
-0.0003787260000
-0.0000199436000
0.0001846780000
0.0001659770000
0.0001015600000
0.0000304781000
-0.0000411387000
-0.0001137930000
-0.0001500380000
0.0000157402000
0.0001666990000
0.0000834604000
0.0000724423000
0.0001581200000
0.0000204932000
-0.0003456260000
-0.0004458140000
-0.0001321070000
0.0001736240000
0.0001734100000
0.0000039088700
0.0000572585000
0.0002217980000
0.0001428700000
-0.0000238204000
-0.0000232211000
0.0001099140000
0.0001206060000
0.0000076728300
0.0000499382000
0.0001415250000
0.0001405200000
0.0001113590000
0.0000480948000
0.0000123262000
0.0000328068000
-0.0000379052000
-0.0002100300000
-0.0002978540000
-0.0002326730000
-0.0000901983000
-0.0000211619000
-0.0000132297000
0.0000648271000
0.0001489950000
0.0001230440000
-0.0000481650000
-0.0001811630000
-0.0001481590000
-0.0001014520000
-0.0001078730000
-0.0000054027700
0.0001750190000
0.0002180200000
0.0000732052000
-0.0001083600000
-0.0001399020000
-0.0000991025000
-0.0000927597000
-0.0001057850000
-0.0000820707000
-0.0000340054000
0.0000069237900
-0.0000823256000
-0.0002762890000
-0.0001727760000
0.0000878849000
0.0001340230000
0.0000197250000
-0.0000426798000
-0.0000434747000
-0.0000336737000
-0.0000666642000
-0.0000513016000
0.0000039194700
-0.0000054729700
-0.0000876514000
-0.0001492360000
-0.0001072810000
-0.0000844292000
-0.0002160820000
-0.0004153650000
-0.0004996560000
-0.0003619510000
-0.0001981020000
-0.0002491400000
-0.0004044090000
-0.0005109650000
-0.0004811800000
-0.0004530200000
-0.0004300680000
-0.0002884940000
-0.0001043720000
0.0000787154000
0.0001946660000
0.0001048700000
-0.0001307460000
-0.0003024500000
-0.0005107290000
-0.0007872270000
-0.0008736580000
-0.0006577050000
-0.0004751300000
-0.0005553800000
-0.0007633830000
-0.0009525650000
-0.0010283800000
-0.0010258700000
-0.0009177300000
-0.0007567570000
-0.0005627410000
-0.0003303980000
-0.0001838880000
-0.0001833030000
-0.0002280250000
-0.0000434328000
0.0003822080000
0.0008103870000
0.0010978800000
0.0012277800000
0.0011466400000
0.0009425950000
0.0007293830000
0.0004612550000
0.0001210280000
-0.0001942820000
-0.0004389450000
-0.0007254680000
-0.0010574700000
-0.0013107800000
-0.0015390900000
-0.0018346000000
-0.0021238700000
-0.0022502800000
-0.0023127400000
-0.0026098400000
-0.0032007400000
-0.0037005900000
-0.0037534100000
-0.0035421700000
-0.0033065000000
-0.0031697700000
-0.0032073600000
-0.0032526600000
-0.0029937300000
-0.0020657800000
-0.0002664260000
0.0020320600000
0.0040963400000
0.0053558100000
0.0057654000000
0.0055678500000
0.0051411000000
0.0048519100000
0.0049668100000
0.0052256300000
0.0050889600000
0.0044290700000
0.0035726100000
0.0029990900000
0.0028344900000
0.0026814500000
0.0023386500000
0.0021199400000
0.0021911600000
0.0023641700000
0.0025308600000
0.0027917200000
0.0031687000000
0.0035528100000
0.0037318400000
0.0035339500000
0.0029516000000
0.0025477100000
0.0027858800000
0.0032743800000
0.0031890400000
0.0022713200000
0.0011000200000
0.0003941100000
0.0004425940000
0.0009797870000
0.0014882100000
0.0016002200000
0.0010820600000
0.0000734603000
-0.0008909320000
-0.0012364300000
-0.0006260210000
0.0008517840000
0.0025876500000
0.0041495300000
0.0052467200000
0.0055871900000
0.0052518300000
0.0046343600000
0.0040911600000
0.0033048900000
0.0014654700000
-0.0015587100000
-0.0048823300000
-0.0072828300000
-0.0083430000000
-0.0086111600000
-0.0088250400000
-0.0094607900000
-0.0106471000000
-0.0122143000000
-0.0137079000000
-0.0142162000000
-0.0133039000000
-0.0112844000000
-0.0086266100000
-0.0058975600000
-0.0037248400000
-0.0022130400000
-0.0009471360000
0.0004787030000
0.0020116400000
0.0031760400000
0.0037544200000
0.0039364300000
0.0035137100000
0.0019747000000
-0.0004606700000
-0.0028014000000
-0.0041469700000
-0.0044123600000
-0.0037904500000
-0.0025591800000
-0.0010788600000
0.0002473590000
0.0011226900000
0.0016068200000
0.0019676100000
0.0021078100000
0.0015972700000
0.0006296370000
0.0001083310000
0.0006146630000
0.0013971200000
0.0011359400000
-0.0004263940000
-0.0025950200000
-0.0049953000000
-0.0074318300000
-0.0090949600000
-0.0087418700000
-0.0061486500000
-0.0028804000000
-0.0010288000000
-0.0011800800000
-0.0024755600000
-0.0039242900000
-0.0051963200000
-0.0062624400000
-0.0069422000000
-0.0070004500000
-0.0062349800000
-0.0043715800000
-0.0010339700000
0.0039012600000
0.0097919800000
0.0153232000000
0.0190888000000
0.0207971000000
0.0217569000000
0.0235957000000
0.0268011000000
0.0308202000000
0.0344188000000
0.0359181000000
0.0338242000000
0.0278604000000
0.0192131000000
0.0097859000000
0.0017061900000
-0.0026883300000
-0.0027726200000
-0.0006795190000
0.0005082900000
-0.0005771430000
-0.0028315200000
-0.0051481900000
-0.0076248600000
-0.0102157000000
-0.0117065000000
-0.0110426000000
-0.0084149200000
-0.0047578300000
-0.0014178900000
0.0003182470000
-0.0000767912000
-0.0016454000000
-0.0025997700000
-0.0017268700000
0.0009592690000
0.0043295600000
0.0069411600000
0.0076485400000
0.0064715000000
0.0049624400000
0.0045347500000
0.0048427800000
0.0044390200000
0.0023755300000
-0.0011857900000
-0.0054272500000
-0.0091984800000
-0.0114034000000
-0.0118946000000
-0.0114393000000
-0.0107260000000
-0.0100877000000
-0.0099572200000
-0.0107756000000
-0.0122837000000
-0.0141583000000
-0.0160346000000
-0.0171551000000
-0.0166641000000
-0.0141531000000
-0.0098808800000
-0.0048882000000
-0.0006410340000
0.0019183900000
0.0026939800000
0.0020887600000
0.0009479750000
-0.0000251071000
-0.0010213600000
-0.0023928200000
-0.0034802500000
-0.0028988400000
-0.0002962470000
0.0026912700000
0.0038450500000
0.0026520000000
0.0009886180000
0.0009587180000
0.0027562600000
0.0051075600000
0.0066629500000
0.0069188600000
0.0057191500000
0.0026922200000
-0.0015602300000
-0.0051432800000
-0.0063933100000
-0.0050759900000
-0.0022970200000
0.0004057500000
0.0019155500000
0.0018385700000
0.0007391090000
-0.0001827510000
-0.0003804250000
-0.0005063230000
-0.0015541900000
-0.0038368600000
-0.0067884900000
-0.0093377300000
-0.0103402000000
-0.0092549600000
-0.0065721000000
-0.0031922200000
0.0002436530000
0.0027507200000
0.0025457700000
-0.0010564400000
-0.0059910500000
-0.0092656400000
-0.0095696400000
-0.0076461000000
-0.0054209000000
-0.0045016000000
-0.0048664300000
-0.0053519500000
-0.0049006100000
-0.0033218400000
-0.0012950300000
0.0004601050000
0.0018643600000
0.0029299900000
0.0035621000000
0.0034816700000
0.0021392400000
-0.0009365380000
-0.0056690000000
-0.0110165000000
-0.0153894000000
-0.0178572000000
-0.0183586000000
-0.0169314000000
-0.0135207000000
-0.0091849300000
-0.0057657600000
-0.0040253600000
-0.0030970700000
-0.0019269500000
-0.0004327640000
0.0011795600000
0.0035977400000
0.0072801500000
0.0106392000000
0.0112471000000
0.0089391200000
0.0062927200000
0.0055003900000
0.0060943900000
0.0066734900000
0.0073131500000
0.0090339100000
0.0113943000000
0.0122730000000
0.0101966000000
0.0059324800000
0.0014980100000
-0.0016332000000
-0.0024714000000
-0.0003679710000
0.0040846300000
0.0090784200000
0.0128408000000
0.0150934000000
0.0167996000000
0.0183607000000
0.0184336000000
0.0155905000000
0.0105392000000
0.0056406600000
0.0026584200000
0.0019639000000
0.0034228000000
0.0063225400000
0.0094053300000
0.0120392000000
0.0143958000000
0.0164453000000
0.0177049000000
0.0179613000000
0.0173396000000
0.0157068000000
0.0126434000000
0.0080878700000
0.0028454100000
-0.0010855700000
-0.0022527800000
-0.0014372800000
-0.0005252260000
-0.0007341080000
-0.0019987700000
-0.0035714800000
-0.0049677600000
-0.0058739200000
-0.0062921900000
-0.0068486200000
-0.0079390400000
-0.0090560900000
-0.0097968100000
-0.0101595000000
-0.0099642100000
-0.0094104300000
-0.0097733800000
-0.0121372000000
-0.0156695000000
-0.0177573000000
-0.0162521000000
-0.0114806000000
-0.0060091300000
-0.0023617800000
-0.0013547800000
-0.0024304300000
-0.0047598700000
-0.0076233800000
-0.0103179000000
-0.0122328000000
-0.0125201000000
-0.0104975000000
-0.0063297000000
-0.0007718480000
0.0052485200000
0.0102470000000
0.0124081000000
0.0111867000000
0.0084153500000
0.0070583300000
0.0083700300000
0.0105757000000
0.0112447000000
0.0094059000000
0.0056755000000
0.0017014700000
-0.0008049580000
-0.0013743600000
-0.0011526900000
-0.0017435200000
-0.0038894000000
-0.0077022300000
-0.0123639000000
-0.0162915000000
-0.0181832000000
-0.0176788000000
-0.0155483000000
-0.0133767000000
-0.0119781000000
-0.0098808900000
-0.0043877400000
0.0049781100000
0.0153035000000
0.0220933000000
0.0222910000000
0.0164171000000
0.0088056700000
0.0054592700000
0.0091712900000
0.0170532000000
0.0229035000000
0.0223222000000
0.0154869000000
0.0058071400000
-0.0028943600000
-0.0084784200000
-0.0113932000000
-0.0141838000000
-0.0192619000000
-0.0262662000000
-0.0320459000000
-0.0329753000000
-0.0279477000000
-0.0194139000000
-0.0118210000000
-0.0086113300000
-0.0101283000000
-0.0140214000000
-0.0171191000000
-0.0166322000000
-0.0110800000000
-0.0017486900000
0.0076778700000
0.0134951000000
0.0145350000000
0.0124341000000
0.0098365300000
0.0083734400000
0.0080264200000
0.0079801300000
0.0074627300000
0.0065189200000
0.0059604100000
0.0065012600000
0.0082708400000
0.0105337000000
0.0118893000000
0.0108283000000
0.0072152200000
0.0031836200000
0.0015952700000
0.0038047900000
0.0095427900000
0.0174257000000
0.0246580000000
0.0275573000000
0.0248547000000
0.0200703000000
0.0185471000000
0.0220131000000
0.0270053000000
0.0284401000000
0.0246177000000
0.0185193000000
0.0147457000000
0.0157475000000
0.0199895000000
0.0243048000000
0.0265781000000
0.0259166000000
0.0221891000000
0.0159444000000
0.0081130600000
-0.0004154750000
-0.0083404800000
-0.0138485000000
-0.0160448000000
-0.0161985000000
-0.0169228000000
-0.0199118000000
-0.0243956000000
-0.0276995000000
-0.0276614000000
-0.0241574000000
-0.0191391000000
-0.0150423000000
-0.0133142000000
-0.0142221000000
-0.0173292000000
-0.0208959000000
-0.0219128000000
-0.0182331000000
-0.0103521000000
-0.0011287000000
0.0063185900000
0.0097365500000
0.0083721900000
0.0035699100000
-0.0014830700000
-0.0034214900000
-0.0010170800000
0.0036051000000
0.0062437200000
0.0033629800000
-0.0051646600000
-0.0160856000000
-0.0250435000000
-0.0292602000000
-0.0292501000000
-0.0287513000000
-0.0314675000000
-0.0367508000000
-0.0395703000000
-0.0352021000000
-0.0235623000000
-0.0089976100000
0.0032347600000
0.0097065400000
0.0094250500000
0.0039768100000
-0.0021616200000
-0.0048047700000
-0.0038203800000
-0.0020216400000
-0.0014232900000
-0.0015636500000
-0.0006183520000
0.0031467800000
0.0101137000000
0.0178928000000
0.0226399000000
0.0222422000000
0.0170694000000
0.0086345600000
-0.0012070800000
-0.0102679000000
-0.0164446000000
-0.0186970000000
-0.0175473000000
-0.0145197000000
-0.0110924000000
-0.0073211700000
-0.0020768200000
0.0048152400000
0.0114304000000
0.0151647000000
0.0151253000000
0.0124707000000
0.0089704000000
0.0062453800000
0.0055338500000
0.0072138000000
0.0101228000000
0.0122347000000
0.0124458000000
0.0110312000000
0.0086357500000
0.0057120600000
0.0028048100000
0.0010396600000
0.0013714000000
0.0037282400000
0.0071670300000
0.0103011000000
0.0122080000000
0.0129945000000
0.0130410000000
0.0123437000000
0.0105823000000
0.0079186100000
0.0050888200000
0.0025073500000
0.0003673230000
-0.0008434490000
-0.0005327260000
0.0009353400000
0.0019145300000
0.0009784890000
-0.0014138300000
-0.0026260900000
-0.0003853310000
0.0043116300000
0.0072502800000
0.0047644900000
-0.0024728200000
-0.0096480600000
-0.0113634000000
-0.0054053600000
0.0061192300000
0.0181732000000
0.0262281000000
0.0283943000000
0.0256904000000
0.0209578000000
0.0162382000000
0.0114206000000
0.0050454400000
-0.0038205800000
-0.0145686000000
-0.0249854000000
-0.0319191000000
-0.0331087000000
-0.0294054000000
-0.0241453000000
-0.0201322000000
-0.0174918000000
-0.0148737000000
-0.0111989000000
-0.0061358700000
-0.0004352530000
0.0036529300000
0.0034855900000
-0.0011240200000
-0.0072780100000
-0.0111694000000
-0.0104467000000
-0.0048621600000
0.0035313400000
0.0106409000000
0.0123594000000
0.0077420800000
-0.0003327350000
-0.0075890300000
-0.0111007000000
-0.0103000000000
-0.0065523300000
-0.0021946300000
0.0006725450000
0.0010752600000
-0.0005305470000
-0.0026897800000
-0.0032147900000
-0.0000818119000
0.0067623100000
0.0154151000000
0.0231797000000
0.0270459000000
0.0247706000000
0.0171626000000
0.0080584300000
0.0009183490000
-0.0043900800000
-0.0096753600000
-0.0145267000000
-0.0163374000000
-0.0139182000000
-0.0091893100000
-0.0046205500000
-0.0012539700000
0.0008639390000
0.0020344000000
0.0022808800000
0.0019231000000
0.0015583000000
0.0015412600000
0.0022241100000
0.0042472900000
0.0082454200000
0.0139600000000
0.0196723000000
0.0233305000000
0.0239535000000
0.0219322000000
0.0181603000000
0.0137549000000
0.0099050800000
0.0071863200000
0.0049512100000
0.0018380700000
-0.0026896400000
-0.0075437300000
-0.0111353000000
-0.0127969000000
-0.0124321000000
-0.0099379700000
-0.0058178000000
-0.0019704400000
-0.0011011600000
-0.0042809800000
-0.0093944300000
-0.0131186000000
-0.0139987000000
-0.0129778000000
-0.0113352000000
-0.0094084800000
-0.0071897300000
-0.0046155700000
-0.0018959100000
-0.0002510320000
-0.0018714800000
-0.0083917700000
-0.0188297000000
-0.0293810000000
-0.0357641000000
-0.0352358000000
-0.0269918000000
-0.0126064000000
0.0041649700000
0.0188138000000
0.0280037000000
0.0304730000000
0.0271000000000
0.0204329000000
0.0129060000000
0.0057748000000
-0.0002368860000
-0.0045045700000
-0.0061533400000
-0.0044555600000
0.0001597360000
0.0056531100000
0.0093983800000
0.0101982000000
0.0091452300000
0.0084457400000
0.0087658000000
0.0083458500000
0.0051506000000
-0.0004993740000
-0.0059125200000
-0.0084692900000
-0.0074616700000
-0.0036577200000
0.0013031000000
0.0059239400000
0.0095493800000
0.0121419000000
0.0143497000000
0.0176490000000
0.0236776000000
0.0322161000000
0.0406438000000
0.0451487000000
0.0429194000000
0.0336423000000
0.0195566000000
0.0049517500000
-0.0059417600000
-0.0109652000000
-0.0102310000000
-0.0058972100000
-0.0012868500000
0.0006459620000
-0.0012432400000
-0.0056864400000
-0.0103096000000
-0.0136884000000
-0.0157118000000
-0.0166270000000
-0.0166474000000
-0.0163142000000
-0.0167334000000
-0.0187663000000
-0.0220088000000
-0.0244987000000
-0.0239025000000
-0.0191121000000
-0.0116013000000
-0.0051472400000
-0.0034508100000
-0.0077654800000
-0.0159585000000
-0.0238181000000
-0.0275886000000
-0.0261023000000
-0.0215658000000
-0.0181052000000
-0.0183085000000
-0.0207440000000
-0.0223575000000
-0.0216059000000
-0.0191453000000
-0.0157197000000
-0.0098802400000
-0.0000843569000
0.0120689000000
0.0227182000000
0.0289566000000
0.0306545000000
0.0292199000000
0.0257890000000
0.0206040000000
0.0135844000000
0.0048411500000
-0.0054352500000
-0.0168549000000
-0.0276577000000
-0.0346299000000
-0.0347119000000
-0.0273696000000
-0.0161159000000
-0.0068348400000
-0.0035629000000
-0.0054230100000
-0.0074380600000
-0.0043441000000
0.0048454200000
0.0153802000000
0.0205559000000
0.0165479000000
0.0047712700000
-0.0093928600000
-0.0203510000000
-0.0253136000000
-0.0249592000000
-0.0223024000000
-0.0206044000000
-0.0222920000000
-0.0275628000000
-0.0334341000000
-0.0357546000000
-0.0322441000000
-0.0234140000000
-0.0112290000000
0.0022249500000
0.0146094000000
0.0234313000000
0.0274478000000
0.0274068000000
0.0245946000000
0.0191728000000
0.0110384000000
0.0017150700000
-0.0061325100000
-0.0104696000000
-0.0109972000000
-0.0086968000000
-0.0042950000000
0.0018056800000
0.0078999400000
0.0113535000000
0.0110258000000
0.0080543200000
0.0042941200000
0.0010991900000
-0.0003264410000
0.0012923400000
0.0069678900000
0.0163257000000
0.0266171000000
0.0340626000000
0.0366143000000
0.0348681000000
0.0307126000000
0.0256525000000
0.0203289000000
0.0151505000000
0.0107787000000
0.0080333100000
0.0073520400000
0.0083524300000
0.0105456000000
0.0141442000000
0.0191181000000
0.0236333000000
0.0240670000000
0.0179152000000
0.0063910300000
-0.0062486700000
-0.0153146000000
-0.0193786000000
-0.0205789000000
-0.0218162000000
-0.0243049000000
-0.0269070000000
-0.0279139000000
-0.0269451000000
-0.0245355000000
-0.0217585000000
-0.0195361000000
-0.0181946000000
-0.0177974000000
-0.0185776000000
-0.0211101000000
-0.0252654000000
-0.0294981000000
-0.0316716000000
-0.0304169000000
-0.0259132000000
-0.0194848000000
-0.0123142000000
-0.0051268500000
0.0015914000000
0.0073288900000
0.0121026000000
0.0164472000000
0.0202750000000
0.0231883000000
0.0257595000000
0.0291891000000
0.0333873000000
0.0366095000000
0.0373071000000
0.0361544000000
0.0351555000000
0.0352246000000
0.0360135000000
0.0376056000000
0.0396280000000
0.0411379000000
0.0420409000000
0.0431780000000
0.0452297000000
0.0482114000000
0.0519199000000
0.0558944000000
0.0587470000000
0.0579913000000
0.0516720000000
0.0403022000000
0.0266925000000
0.0137891000000
0.0027488100000
-0.0062624500000
-0.0125884000000
-0.0150383000000
-0.0125785000000
-0.0050144600000
0.0061671300000
0.0174087000000
0.0243395000000
0.0244812000000
0.0185057000000
0.0091602200000
-0.0007140700000
-0.0097509800000
-0.0175921000000
-0.0237477000000
-0.0271307000000
-0.0263600000000
-0.0209026000000
-0.0121003000000
-0.0023956200000
0.0064649100000
0.0129248000000
0.0142741000000
0.0083569300000
-0.0033205500000
-0.0154970000000
-0.0228349000000
-0.0235279000000
-0.0194660000000
-0.0139177000000
-0.0093714900000
-0.0069032200000
-0.0062401700000
-0.0064844900000
-0.0068234800000
-0.0069878000000
-0.0071853700000
-0.0078211800000
-0.0095802600000
-0.0126649000000
-0.0164086000000
-0.0193223000000
-0.0198450000000
-0.0174852000000
-0.0131384000000
-0.0082877200000
-0.0045683000000
-0.0034832400000
-0.0055836000000
-0.0100213000000
-0.0152014000000
-0.0196731000000
-0.0228166000000
-0.0247967000000
-0.0260691000000
-0.0268423000000
-0.0270924000000
-0.0265227000000
-0.0250457000000
-0.0228582000000
-0.0199020000000
-0.0157471000000
-0.0102917000000
-0.0054412500000
-0.0040429200000
-0.0070605500000
-0.0127345000000
-0.0184752000000
-0.0227693000000
-0.0258549000000
-0.0291225000000
-0.0335801000000
-0.0386377000000
-0.0422171000000
-0.0422080000000
-0.0375882000000
-0.0288070000000
-0.0177510000000
-0.0072236400000
-0.0000470141000
0.0027580800000
0.0023598600000
0.0007532760000
-0.0003557990000
-0.0004241820000
-0.0001390790000
-0.0008098670000
-0.0028245000000
-0.0043122500000
-0.0038612100000
-0.0025690100000
-0.0029339300000
-0.0057434700000
-0.0085378700000
-0.0084552500000
-0.0049199100000
0.0002982860000
0.0051525400000
0.0090984500000
0.0121926000000
0.0140784000000
0.0151689000000
0.0162204000000
0.0172817000000
0.0174778000000
0.0156564000000
0.0117406000000
0.0074941300000
0.0057443000000
0.0085882500000
0.0147871000000
0.0197298000000
0.0196770000000
0.0154703000000
0.0110743000000
0.0094645100000
0.0111259000000
0.0150479000000
0.0194735000000
0.0225015000000
0.0224732000000
0.0186499000000
0.0118958000000
0.0043359700000
-0.0017132300000
-0.0051165600000
-0.0060093200000
-0.0052225100000
-0.0032122100000
0.0003706020000
0.0059163500000
0.0127607000000
0.0193300000000
0.0237433000000
0.0244143000000
0.0208598000000
0.0144824000000
0.0080166900000
0.0036832500000
0.0023807200000
0.0042167700000
0.0082675700000
0.0129729000000
0.0171178000000
0.0202553000000
0.0223901000000
0.0236312000000
0.0241996000000
0.0248021000000
0.0261641000000
0.0278559000000
0.0285611000000
0.0275303000000
0.0251100000000
0.0218813000000
0.0181392000000
0.0142865000000
0.0114834000000
0.0108466000000
0.0126235000000
0.0160904000000
0.0198040000000
0.0221416000000
0.0214923000000
0.0170219000000
0.0093660600000
0.0006275970000
-0.0068503900000
-0.0117353000000
-0.0143135000000
-0.0158555000000
-0.0173537000000
-0.0189623000000
-0.0202342000000
-0.0206662000000
-0.0197858000000
-0.0179164000000
-0.0163563000000
-0.0165225000000
-0.0190239000000
-0.0235354000000
-0.0287918000000
-0.0334368000000
-0.0368222000000
-0.0385852000000
-0.0381796000000
-0.0351224000000
-0.0301750000000
-0.0254071000000
-0.0224127000000
-0.0210173000000
-0.0197089000000
-0.0172504000000
-0.0137600000000
-0.0101022000000
-0.0069075100000
-0.0043922100000
-0.0024546000000
-0.0006489010000
0.0014491100000
0.0036189200000
0.0051304000000
0.0051816000000
0.0031454600000
-0.0008973390000
-0.0059944300000
-0.0114009000000
-0.0168936000000
-0.0218126000000
-0.0246133000000
-0.0240215000000
-0.0203435000000
-0.0156509000000
-0.0121164000000
-0.0102694000000
-0.0094599700000
-0.0089271400000
-0.0081453400000
-0.0075216300000
-0.0071813800000
-0.0063058200000
-0.0039152600000
0.0002050040000
0.0052026500000
0.0098350500000
0.0129681000000
0.0137361000000
0.0122369000000
0.0097266700000
0.0074949100000
0.0058666100000
0.0045899800000
0.0035958400000
0.0031868700000
0.0034194600000
0.0037370200000
0.0034241200000
0.0020115300000
-0.0003997310000
-0.0033144300000
-0.0062443500000
-0.0086397900000
-0.0098225200000
-0.0090288600000
-0.0061538100000
-0.0022162800000
0.0013225600000
0.0032662400000
0.0031920400000
0.0015451100000
-0.0005594440000
-0.0018527200000
-0.0015439200000
0.0005226020000
0.0036872600000
0.0071150100000
0.0104225000000
0.0140056000000
0.0187253000000
0.0246964000000
0.0308164000000
0.0355831000000
0.0380628000000
0.0377970000000
0.0349658000000
0.0305701000000
0.0257600000000
0.0215578000000
0.0188845000000
0.0179357000000
0.0178256000000
0.0173265000000
0.0161630000000
0.0150841000000
0.0150322000000
0.0160298000000
0.0171207000000
0.0173175000000
0.0155507000000
0.0107587000000
0.0030043200000
-0.0055232400000
-0.0116565000000
-0.0131936000000
-0.0098273600000
-0.0033107200000
0.0037876500000
0.0094797400000
0.0131500000000
0.0155045000000
0.0172833000000
0.0183890000000
0.0180883000000
0.0156735000000
0.0115710000000
0.0072359300000
0.0040812900000
0.0030233900000
0.0038441400000
0.0052498500000
0.0059419100000
0.0054619700000
0.0041379100000
0.0030596600000
0.0033013600000
0.0045146600000
0.0049651400000
0.0029868500000
-0.0020089000000
-0.0094138900000
-0.0177537000000
-0.0252841000000
-0.0301442000000
-0.0312372000000
-0.0290160000000
-0.0251296000000
-0.0209060000000
-0.0166486000000
-0.0123663000000
-0.0086591600000
-0.0062680800000
-0.0053598300000
-0.0058484100000
-0.0075757400000
-0.0100069000000
-0.0122125000000
-0.0131524000000
-0.0123833000000
-0.0098802900000
-0.0057228800000
-0.0004336420000
0.0050382900000
0.0096593700000
0.0126506000000
0.0134457000000
0.0116159000000
0.0077046300000
0.0031353100000
-0.0003859500000
-0.0022775600000
-0.0036501000000
-0.0057555000000
-0.0083592700000
-0.0100282000000
-0.0096436200000
-0.0078087200000
-0.0060255500000
-0.0050261600000
-0.0048291400000
-0.0050935600000
-0.0053182400000
-0.0051889000000
-0.0046028000000
-0.0034751200000
-0.0016524700000
0.0009240920000
0.0033403000000
0.0041137800000
0.0024619300000
-0.0012232500000
-0.0057646700000
-0.0104611000000
-0.0150251000000
-0.0185826000000
-0.0198717000000
-0.0186492000000
-0.0159927000000
-0.0136895000000
-0.0131159000000
-0.0144728000000
-0.0171188000000
-0.0198098000000
-0.0210761000000
-0.0198961000000
-0.0166007000000
-0.0130176000000
-0.0105973000000
-0.0090662600000
-0.0068367500000
-0.0025484800000
0.0038414600000
0.0111142000000
0.0176290000000
0.0218467000000
0.0232046000000
0.0223720000000
0.0200704000000
0.0167705000000
0.0131270000000
0.0097298400000
0.0067910800000
0.0041863200000
0.0018870700000
0.0001311990000
-0.0007413330000
-0.0005053000000
0.0003546470000
0.0007417310000
0.0001946770000
-0.0012171400000
-0.0033121700000
-0.0056679100000
-0.0075079100000
-0.0077347600000
-0.0056998200000
-0.0017338500000
0.0025249900000
0.0051435200000
0.0053888300000
0.0039519500000
0.0019230300000
-0.0000714821000
-0.0017532500000
-0.0026469800000
-0.0021722800000
-0.0001726610000
0.0026395700000
0.0051981600000
0.0070578800000
0.0085698600000
0.0103236000000
0.0125861000000
0.0147188000000
0.0155961000000
0.0145945000000
0.0120422000000
0.0088930900000
0.0061439400000
0.0044696800000
0.0037606400000
0.0032599900000
0.0022992500000
0.0006131830000
-0.0016772700000
-0.0040388300000
-0.0057579500000
-0.0060853100000
-0.0054481100000
-0.0048406900000
-0.0045834500000
-0.0046524800000
-0.0045947200000
-0.0037856300000
-0.0019209200000
0.0005338320000
0.0027507300000
0.0042245000000
0.0047934900000
0.0044858100000
0.0033005900000
0.0012324600000
-0.0014607300000
-0.0042798000000
-0.0067441400000
-0.0086574800000
-0.0103486000000
-0.0121666000000
-0.0139898000000
-0.0155355000000
-0.0171341000000
-0.0195278000000
-0.0228388000000
-0.0262337000000
-0.0287285000000
-0.0297004000000
-0.0292338000000
-0.0277005000000
-0.0250618000000
-0.0215404000000
-0.0178348000000
-0.0145933000000
-0.0117181000000
-0.0086445500000
-0.0052415600000
-0.0017643400000
0.0015083600000
0.0039913400000
0.0048384000000
0.0035502900000
0.0004974940000
-0.0030127500000
-0.0051131400000
-0.0047004900000
-0.0021572000000
0.0014511200000
0.0052883800000
0.0087206000000
0.0110188000000
0.0115621000000
0.0100593000000
0.0069093400000
0.0032048800000
0.0000019812100
-0.0025518400000
-0.0051563900000
-0.0083476000000
-0.0119175000000
-0.0153285000000
-0.0181759000000
-0.0200303000000
-0.0199519000000
-0.0177704000000
-0.0142865000000
-0.0106616000000
-0.0075182000000
-0.0048164000000
-0.0020801400000
0.0013067400000
0.0055373600000
0.0103318000000
0.0144681000000
0.0161450000000
0.0147126000000
0.0113956000000
0.0077623000000
0.0044561700000
0.0017694900000
-0.0000816413000
-0.0007300190000
0.0000182002000
0.0019039200000
0.0042349300000
0.0060032700000
0.0063350000000
0.0048257300000
0.0018765100000
-0.0015039400000
-0.0044081800000
-0.0065257400000
-0.0078570500000
-0.0083730700000
-0.0078562300000
-0.0060051500000
-0.0029680500000
0.0007779510000
0.0048428300000
0.0084503600000
0.0106837000000
0.0112984000000
0.0110295000000
0.0107834000000
0.0109974000000
0.0114306000000
0.0113188000000
0.0101580000000
0.0083378300000
0.0068054800000
0.0068543200000
0.0093212200000
0.0137453000000
0.0185245000000
0.0220809000000
0.0238976000000
0.0239721000000
0.0223093000000
0.0196130000000
0.0170468000000
0.0151672000000
0.0136474000000
0.0119623000000
0.0100435000000
0.0084854800000
0.0078458100000
0.0076811000000
0.0071985900000
0.0060825400000
0.0046181300000
0.0028320900000
0.0004876670000
-0.0024297600000
-0.0057582300000
-0.0094406900000
-0.0133355000000
-0.0165731000000
-0.0180358000000
-0.0172124000000
-0.0148298000000
-0.0122601000000
-0.0102063000000
-0.0087240100000
-0.0078599600000
-0.0076785700000
-0.0082199300000
-0.0093211300000
-0.0104377000000
-0.0107251000000
-0.0093499600000
-0.0061358900000
-0.0018807700000
0.0020139700000
0.0044891800000
0.0049341000000
0.0035582200000
0.0014015200000
-0.0004677700000
-0.0009064380000
0.0003455300000
0.0021543100000
0.0031898100000
0.0030614200000
0.0023197200000
0.0014963000000
0.0007351110000
0.0002249520000
0.0001983080000
0.0006789910000
0.0011531100000
0.0012237700000
0.0013728200000
0.0025463800000
0.0049137600000
0.0080461200000
0.0114133000000
0.0145595000000
0.0172571000000
0.0192847000000
0.0205739000000
0.0210639000000
0.0204587000000
0.0185646000000
0.0155380000000
0.0116695000000
0.0074123500000
0.0034412100000
0.0002337640000
-0.0015482000000
-0.0013633600000
0.0002236080000
0.0023315100000
0.0040777800000
0.0047767100000
0.0043249400000
0.0032238700000
0.0024555500000
0.0027916000000
0.0040210600000
0.0051770200000
0.0055455900000
0.0052846200000
0.0049080900000
0.0043783200000
0.0034756300000
0.0026516100000
0.0026445000000
0.0033208900000
0.0039333700000
0.0038065000000
0.0026021100000
0.0004155600000
-0.0024013000000
-0.0057139600000
-0.0092244300000
-0.0121715000000
-0.0137696000000
-0.0137376000000
-0.0122307000000
-0.0095945200000
-0.0063828100000
-0.0033922300000
-0.0009042070000
0.0014343900000
0.0040644600000
0.0073881900000
0.0109579000000
0.0139523000000
0.0158514000000
0.0163964000000
0.0159985000000
0.0156758000000
0.0160789000000
0.0167255000000
0.0168387000000
0.0163739000000
0.0158068000000
0.0152534000000
0.0144221000000
0.0132975000000
0.0123628000000
0.0120857000000
0.0120955000000
0.0116020000000
0.0099561100000
0.0073675300000
0.0047940300000
0.0031082900000
0.0025735500000
0.0027822600000
0.0027990700000
0.0020484600000
0.0006717510000
-0.0011757800000
-0.0037907400000
-0.0072880700000
-0.0109686000000
-0.0137696000000
-0.0150191000000
-0.0150343000000
-0.0146454000000
-0.0141171000000
-0.0133012000000
-0.0121306000000
-0.0106103000000
-0.0089401400000
-0.0075271800000
-0.0068648600000
-0.0072460200000
-0.0085119400000
-0.0102229000000
-0.0117434000000
-0.0128553000000
-0.0137615000000
-0.0143460000000
-0.0145556000000
-0.0146821000000
-0.0149565000000
-0.0149865000000
-0.0139497000000
-0.0116954000000
-0.0086365000000
-0.0052225400000
-0.0017929200000
0.0013793300000
0.0037992000000
0.0048585300000
0.0042857800000
0.0023761300000
-0.0003479280000
-0.0034249700000
-0.0065613500000
-0.0094603400000
-0.0120823000000
-0.0144637000000
-0.0161037000000
-0.0163766000000
-0.0150855000000
-0.0125152000000
-0.0090548800000
-0.0053381400000
-0.0023982300000
-0.0011006600000
-0.0017411300000
-0.0038434700000
-0.0061911000000
-0.0078079800000
-0.0087383900000
-0.0093213900000
-0.0097203900000
-0.0097578100000
-0.0089794600000
-0.0070641700000
-0.0044500900000
-0.0021631900000
-0.0010247700000
-0.0011702800000
-0.0020570600000
-0.0031127500000
-0.0041237500000
-0.0046860900000
-0.0044246000000
-0.0034634800000
-0.0023724000000
-0.0019851600000
-0.0026412700000
-0.0038728100000
-0.0046452400000
-0.0044694400000
-0.0040663700000
-0.0041794500000
-0.0051254300000
-0.0064780500000
-0.0072884300000
-0.0069643900000
-0.0056690300000
-0.0040384900000
-0.0023330000000
-0.0004089990000
0.0016581400000
0.0034307600000
0.0044821900000
0.0048964400000
0.0048900900000
0.0044555100000
0.0037976500000
0.0037176300000
0.0049088100000
0.0068010400000
0.0080030300000
0.0074703200000
0.0054366500000
0.0028905900000
0.0005848730000
-0.0010246300000
-0.0016218000000
-0.0013160500000
-0.0004613880000
0.0007313090000
0.0024018900000
0.0044846000000
0.0065529300000
0.0079944700000
0.0083723200000
0.0075900300000
0.0058604600000
0.0035330800000
0.0010957800000
-0.0005159700000
-0.0005574690000
0.0008691050000
0.0030473900000
0.0053268400000
0.0074433800000
0.0091787900000
0.0100101000000
0.0094204100000
0.0075900900000
0.0053302100000
0.0033056000000
0.0014961700000
-0.0004224540000
-0.0023894600000
-0.0040980200000
-0.0051164700000
-0.0050317700000
-0.0037690100000
-0.0017710100000
0.0002236350000
0.0016168000000
0.0023344400000
0.0027085500000
0.0032090700000
0.0042525400000
0.0059802900000
0.0081022300000
0.0099335800000
0.0111128000000
0.0118065000000
0.0121733000000
0.0119940000000
0.0113326000000
0.0104436000000
0.0094168900000
0.0085328100000
0.0079983400000
0.0076556500000
0.0075650300000
0.0078263300000
0.0083808900000
0.0092943600000
0.0103594000000
0.0108417000000
0.0102712000000
0.0089681100000
0.0078082400000
0.0074430700000
0.0077147300000
0.0079564400000
0.0077334500000
0.0072148300000
0.0067249400000
0.0065461800000
0.0070613700000
0.0082657300000
0.0094690000000
0.0096503600000
0.0080659200000
0.0046584100000
0.0003539640000
-0.0037138500000
-0.0070669600000
-0.0097716400000
-0.0115169000000
-0.0117738000000
-0.0108676000000
-0.0093623400000
-0.0073379700000
-0.0051295300000
-0.0036202500000
-0.0034355400000
-0.0043965500000
-0.0055837800000
-0.0059296100000
-0.0050356000000
-0.0032221600000
-0.0010179300000
0.0011375300000
0.0025685500000
0.0025195100000
0.0008867270000
-0.0015578800000
-0.0041079300000
-0.0067155300000
-0.0092945300000
-0.0113703000000
-0.0123158000000
-0.0122011000000
-0.0114991000000
-0.0105588000000
-0.0094110300000
-0.0081817200000
-0.0071300900000
-0.0062215200000
-0.0057425700000
-0.0060516900000
-0.0070354900000
-0.0082914400000
-0.0093757600000
-0.0100356000000
-0.0098911000000
-0.0087356500000
-0.0067326000000
-0.0043383800000
-0.0020293800000
0.0000225408000
0.0017333100000
0.0029725000000
0.0033684300000
0.0025089800000
0.0005597310000
-0.0015977100000
-0.0034548800000
-0.0052455400000
-0.0071375100000
-0.0085884300000
-0.0092781100000
-0.0095016800000
-0.0091292600000
-0.0080385400000
-0.0067617200000
-0.0061868500000
-0.0069719300000
-0.0092499400000
-0.0123352000000
-0.0151252000000
-0.0167043000000
-0.0169773000000
-0.0163283000000
-0.0150116000000
-0.0136695000000
-0.0127286000000
-0.0121060000000
-0.0114972000000
-0.0108878000000
-0.0102842000000
-0.0094980700000
-0.0082241700000
-0.0065169400000
-0.0048401800000
-0.0036569700000
-0.0028929900000
-0.0019330500000
-0.0005119840000
0.0011128700000
0.0027642300000
0.0041195600000
0.0047991700000
0.0048509300000
0.0046152900000
0.0042459600000
0.0037976000000
0.0034576400000
0.0035721100000
0.0044312600000
0.0058507400000
0.0072526400000
0.0083366100000
0.0092988500000
0.0103986000000
0.0117338000000
0.0132606000000
0.0145973000000
0.0152062000000
0.0148542000000
0.0138209000000
0.0125821000000
0.0114557000000
0.0106200000000
0.0098140600000
0.0088653800000
0.0078564700000
0.0069201600000
0.0061632100000
0.0057290900000
0.0058161100000
0.0065222800000
0.0078015400000
0.0095457500000
0.0116403000000
0.0135943000000
0.0148489000000
0.0151841000000
0.0146711000000
0.0136129000000
0.0121914000000
0.0104837000000
0.0087554500000
0.0073094400000
0.0065189100000
0.0066724900000
0.0078597600000
0.0098296300000
0.0116928000000
0.0125209000000
0.0120069000000
0.0103359000000
0.0081360500000
0.0061929400000
0.0049853400000
0.0047492900000
0.0055993500000
0.0073236000000
0.0092427600000
0.0106621000000
0.0115039000000
0.0120280000000
0.0123874000000
0.0124634000000
0.0122655000000
0.0120311000000
0.0118390000000
0.0113038000000
0.0102568000000
0.0092974800000
0.0087265600000
0.0080562200000
0.0071171400000
0.0062115400000
0.0055758900000
0.0052215700000
0.0049642800000
0.0048741900000
0.0050089500000
0.0047762700000
0.0037196200000
0.0019630400000
-0.0003506130000
-0.0030452300000
-0.0059298200000
-0.0086415400000
-0.0107684000000
-0.0121902000000
-0.0130787000000
-0.0134605000000
-0.0131460000000
-0.0126999000000
-0.0128809000000
-0.0137815000000
-0.0150084000000
-0.0161856000000
-0.0173019000000
-0.0184333000000
-0.0195150000000
-0.0203800000000
-0.0209007000000
-0.0210874000000
-0.0213182000000
-0.0219246000000
-0.0226478000000
-0.0229350000000
-0.0224725000000
-0.0212991000000
-0.0198046000000
-0.0184614000000
-0.0175282000000
-0.0167120000000
-0.0156260000000
-0.0143747000000
-0.0126968000000
-0.0105032000000
-0.0081455400000
-0.0060254800000
-0.0043900700000
-0.0033968800000
-0.0032030200000
-0.0038589200000
-0.0053255900000
-0.0074377800000
-0.0096340700000
-0.0112667000000
-0.0121057000000
-0.0121194000000
-0.0109177000000
-0.0086070500000
-0.0062488200000
-0.0045320300000
-0.0031974000000
-0.0016827200000
0.0002343940000
0.0020627100000
0.0032955800000
0.0036772800000
0.0032497100000
0.0023129300000
0.0012032300000
0.0001975490000
-0.0003704820000
-0.0003510880000
0.0002355440000
0.0012735700000
0.0023844200000
0.0031934400000
0.0033883600000
0.0032321700000
0.0034396100000
0.0042303100000
0.0051342100000
0.0056635200000
0.0055632600000
0.0050029500000
0.0045314400000
0.0045875900000
0.0051260100000
0.0059572100000
0.0069176200000
0.0076949000000
0.0080043600000
0.0079145600000
0.0075814300000
0.0073187700000
0.0074801600000
0.0080332800000
0.0086108100000
0.0090621400000
0.0093974400000
0.0097750300000
0.0105001000000
0.0114328000000
0.0120842000000
0.0120551000000
0.0115332000000
0.0109860000000
0.0109169000000
0.0113876000000
0.0122219000000
0.0131611000000
0.0138117000000
0.0139936000000
0.0137587000000
0.0133804000000
0.0128955000000
0.0121788000000
0.0112414000000
0.0099571700000
0.0082921500000
0.0071647800000
0.0070128300000
0.0073639200000
0.0077329100000
0.0079588200000
0.0079939400000
0.0077363800000
0.0071882800000
0.0062697700000
0.0050508200000
0.0037992900000
0.0024711100000
0.0009213030000
-0.0004470800000
-0.0011929600000
-0.0012920300000
-0.0010361900000
-0.0009695770000
-0.0012899600000
-0.0018379700000
-0.0025659300000
-0.0034707900000
-0.0042586400000
-0.0045040300000
-0.0040735600000
-0.0032389600000
-0.0020867300000
-0.0008668920000
0.0000729425000
0.0004297320000
0.0000805200000
-0.0007954770000
-0.0019013200000
-0.0030087200000
-0.0041031600000
-0.0051655100000
-0.0059930600000
-0.0064941600000
-0.0064882000000
-0.0056240300000
-0.0039807000000
-0.0020821500000
-0.0006815730000
-0.0003289790000
-0.0011974200000
-0.0029624200000
-0.0047019600000
-0.0057010800000
-0.0060424500000
-0.0059863300000
-0.0058999500000
-0.0060405800000
-0.0063681300000
-0.0068350600000
-0.0073707300000
-0.0078739700000
-0.0082338500000
-0.0082306000000
-0.0079418100000
-0.0078613600000
-0.0079702300000
-0.0077496200000
-0.0069716700000
-0.0056651000000
-0.0043103500000
-0.0032914700000
-0.0026124800000
-0.0021016600000
-0.0018438400000
-0.0019209700000
-0.0020411700000
-0.0018633500000
-0.0014957100000
-0.0012835700000
-0.0015119500000
-0.0022693700000
-0.0033255700000
-0.0041280700000
-0.0043204600000
-0.0042056500000
-0.0042431700000
-0.0045922700000
-0.0050358000000
-0.0052613300000
-0.0052265800000
-0.0052184800000
-0.0052764100000
-0.0054117100000
-0.0058369300000
-0.0064914300000
-0.0068388600000
-0.0064976600000
-0.0053881900000
-0.0035638300000
-0.0011896900000
0.0015443200000
0.0039281200000
0.0050190500000
0.0046225700000
0.0034351000000
0.0024571900000
0.0021204300000
0.0024641700000
0.0031668700000
0.0037021300000
0.0036938100000
0.0031945200000
0.0024197500000
0.0014697400000
0.0001597020000
-0.0015271700000
-0.0032696600000
-0.0047026300000
-0.0054675100000
-0.0054910000000
-0.0049583900000
-0.0040890100000
-0.0030354700000
-0.0019938100000
-0.0015605100000
-0.0017766800000
-0.0020478500000
-0.0020566600000
-0.0019325400000
-0.0019065200000
-0.0019542900000
-0.0018165500000
-0.0013247700000
-0.0005161510000
0.0004994920000
0.0016120000000
0.0026524900000
0.0034419700000
0.0039660000000
0.0042685900000
0.0040269500000
0.0031091400000
0.0019900200000
0.0010337600000
0.0003664760000
0.0002042640000
0.0006027590000
0.0012557700000
0.0018725000000
0.0021265800000
0.0018094100000
0.0013535600000
0.0012134900000
0.0014371300000
0.0017373800000
0.0018760100000
0.0019963800000
0.0023526700000
0.0030620400000
0.0040903400000
0.0054539700000
0.0071932900000
0.0090736400000
0.0103371000000
0.0107319000000
0.0104108000000
0.0093941900000
0.0079013100000
0.0062055900000
0.0045450500000
0.0028883900000
0.0011645400000
-0.0004928160000
-0.0018238100000
-0.0026441000000
-0.0030518600000
-0.0030566900000
-0.0026546100000
-0.0020138900000
-0.0013196300000
-0.0004372310000
0.0006437760000
0.0017230300000
0.0025495200000
0.0029988800000
0.0032012800000
0.0033679700000
0.0034654600000
0.0030853200000
0.0022422000000
0.0014515500000
0.0009811330000
0.0007829400000
0.0009513030000
0.0017345500000
0.0030173400000
0.0043792900000
0.0056007500000
0.0066235700000
0.0073695200000
0.0077372900000
0.0076478400000
0.0069926200000
0.0057966700000
0.0040548600000
0.0019140400000
0.0000072831300
-0.0010908600000
-0.0015579700000
-0.0019246500000
-0.0020022000000
-0.0017363100000
-0.0017320000000
-0.0024662700000
-0.0036173500000
-0.0044438500000
-0.0047670800000
-0.0050501400000
-0.0057011200000
-0.0064919800000
-0.0068278200000
-0.0065019700000
-0.0057078200000
-0.0045731700000
-0.0031799100000
-0.0017827000000
-0.0008308860000
-0.0006765410000
-0.0012899400000
-0.0024478900000
-0.0040047000000
-0.0053684300000
-0.0061327700000
-0.0063925500000
-0.0061702900000
-0.0053487800000
-0.0040212600000
-0.0025806800000
-0.0014137900000
-0.0007386980000
-0.0001679440000
0.0006353560000
0.0013793500000
0.0016734900000
0.0016303400000
0.0016715200000
0.0017555400000
0.0016610400000
0.0012938600000
0.0008185450000
0.0006072980000
0.0005207870000
0.0000504720000
-0.0009897360000
-0.0022732400000
-0.0032154800000
-0.0034151900000
-0.0027596100000
-0.0014164700000
0.0000072148300
0.0009942060000
0.0015110700000
0.0016622500000
0.0015286700000
0.0012573800000
0.0010996400000
0.0014292100000
0.0020808500000
0.0024760500000
0.0022270500000
0.0016056100000
0.0011270300000
0.0008502100000
0.0006428930000
0.0006814390000
0.0012176000000
0.0019963100000
0.0026360300000
0.0034008200000
0.0044602600000
0.0055527000000
0.0063833000000
0.0068333600000
0.0070505300000
0.0070486700000
0.0067519300000
0.0065135500000
0.0063391300000
0.0057314000000
0.0044632800000
0.0028614800000
0.0013832300000
0.0000902047000
-0.0011396600000
-0.0019330000000
-0.0017429200000
-0.0006083160000
0.0008858910000
0.0021877400000
0.0029912900000
0.0031666900000
0.0027391300000
0.0017901100000
0.0005513720000
-0.0006043160000
-0.0012968500000
-0.0014203500000
-0.0012178900000
-0.0009318410000
-0.0006945560000
-0.0006524020000
-0.0007246440000
-0.0007956060000
-0.0008345510000
-0.0008472970000
-0.0010038500000
-0.0014979400000
-0.0023184100000
-0.0033940900000
-0.0042945700000
-0.0046326800000
-0.0045408700000
-0.0042844800000
-0.0040966800000
-0.0042468500000
-0.0046605500000
-0.0050750900000
-0.0052606400000
-0.0050510200000
-0.0043973600000
-0.0032767400000
-0.0019013800000
-0.0005811120000
0.0005777620000
0.0016177500000
0.0025754200000
0.0035830500000
0.0049404900000
0.0067160500000
0.0086365400000
0.0103136000000
0.0112804000000
0.0112485000000
0.0103404000000
0.0087500600000
0.0065758000000
0.0041929000000
0.0019547600000
-0.0000651027000
-0.0017977300000
-0.0028010600000
-0.0030214500000
-0.0029744500000
-0.0030541700000
-0.0033379400000
-0.0036447100000
-0.0038006400000
-0.0037194800000
-0.0033612300000
-0.0025407500000
-0.0012673500000
0.0000371229000
0.0009344250000
0.0014644600000
0.0016762400000
0.0016357900000
0.0014187100000
0.0011588600000
0.0008683190000
0.0005245390000
-0.0000476379000
-0.0009585350000
-0.0020877600000
-0.0033250800000
-0.0043466900000
-0.0048265000000
-0.0046636700000
-0.0040197900000
-0.0033069500000
-0.0028056300000
-0.0022775900000
-0.0015697900000
-0.0009742360000
-0.0009001920000
-0.0014503300000
-0.0026226300000
-0.0041154500000
-0.0053970100000
-0.0059956700000
-0.0058324600000
-0.0052788000000
-0.0045327800000
-0.0038311800000
-0.0032362900000
-0.0023414900000
-0.0010248600000
0.0001919970000
0.0009662870000
0.0012219000000
0.0006779520000
-0.0005072870000
-0.0017379600000
-0.0028295600000
-0.0036623100000
-0.0041585700000
-0.0042757500000
-0.0038356600000
-0.0030525600000
-0.0024378000000
-0.0020837700000
-0.0019540700000
-0.0019740700000
-0.0020501200000
-0.0022297700000
-0.0023717100000
-0.0023245500000
-0.0019797100000
-0.0013588000000
-0.0004874400000
0.0007252630000
0.0020700600000
0.0031045300000
0.0035286200000
0.0035005600000
0.0033211700000
0.0028392600000
0.0020095900000
0.0011828700000
0.0006299440000
0.0002284570000
-0.0001552520000
-0.0003873760000
-0.0002703040000
0.0001275260000
0.0006605760000
0.0013824500000
0.0020438900000
0.0023083000000
0.0022558800000
0.0020042200000
0.0016703100000
0.0013773100000
0.0008691720000
-0.0000361456000
-0.0009349840000
-0.0015128600000
-0.0018253800000
-0.0019020900000
-0.0016464300000
-0.0011282100000
-0.0009322330000
-0.0013707200000
-0.0021773600000
-0.0030389400000
-0.0038129100000
-0.0043265800000
-0.0042240000000
-0.0035054000000
-0.0021843900000
-0.0005954380000
0.0006882290000
0.0015839400000
0.0022568900000
0.0026386200000
0.0027104500000
0.0026639400000
0.0024668800000
0.0020871200000
0.0016410000000
0.0011700900000
0.0008276160000
0.0007071940000
0.0005619540000
0.0001601620000
-0.0003216150000
-0.0006615790000
-0.0009744570000
-0.0015827700000
-0.0025756200000
-0.0036349000000
-0.0042838700000
-0.0043892400000
-0.0040354800000
-0.0030639700000
-0.0016047500000
-0.0001570010000
0.0008780340000
0.0015661400000
0.0021847200000
0.0027700900000
0.0033537000000
0.0039997200000
0.0046764400000
0.0054665800000
0.0063067100000
0.0070898300000
0.0077564900000
0.0081920500000
0.0083153500000
0.0079601300000
0.0071112000000
0.0058965000000
0.0045161700000
0.0032778400000
0.0022741300000
0.0013185600000
0.0003289500000
-0.0005014410000
-0.0009785030000
-0.0012211200000
-0.0013496400000
-0.0013468000000
-0.0012368300000
-0.0012207900000
-0.0014839600000
-0.0019194100000
-0.0022696400000
-0.0023725900000
-0.0022384400000
-0.0020354600000
-0.0019018900000
-0.0018050600000
-0.0017216200000
-0.0018603300000
-0.0021440300000
-0.0019345300000
-0.0011706600000
-0.0002960940000
0.0005851070000
0.0014275400000
0.0020535300000
0.0024167200000
0.0024113900000
0.0020989700000
0.0015790400000
0.0010807700000
0.0007558270000
0.0003580130000
-0.0003750440000
-0.0010578700000
-0.0014393600000
-0.0017171500000
-0.0019733900000
-0.0020650600000
-0.0018496200000
-0.0014438100000
-0.0010724100000
-0.0007728950000
-0.0004523430000
-0.0002974730000
-0.0005908060000
-0.0011846800000
-0.0017058900000
-0.0020545900000
-0.0020712200000
-0.0014735100000
-0.0006112250000
0.0000806708000
0.0005115340000
0.0007549900000
0.0009262760000
0.0010908300000
0.0012107800000
0.0011543500000
0.0009139410000
0.0004252330000
-0.0003373660000
-0.0011397700000
-0.0016459100000
-0.0017220700000
-0.0016106100000
-0.0014724200000
-0.0014545500000
-0.0016041500000
-0.0017671600000
-0.0019386700000
-0.0024439200000
-0.0033665400000
-0.0042945300000
-0.0053661300000
-0.0067076800000
-0.0081185300000
-0.0091988500000
-0.0095997900000
-0.0091898500000
-0.0081606000000
-0.0067713600000
-0.0053531100000
-0.0042668800000
-0.0035846400000
-0.0032260900000
-0.0029905800000
-0.0028089000000
-0.0026906400000
-0.0024742100000
-0.0021337100000
-0.0019157900000
-0.0018779800000
-0.0016618500000
-0.0010758500000
-0.0003837770000
0.0001017630000
0.0003329880000
0.0003793990000
0.0003466660000
0.0003100840000
0.0003865990000
0.0007555360000
0.0013633000000
0.0018348000000
0.0019587300000
0.0020177000000
0.0021347900000
0.0021188100000
0.0017661300000
0.0011481600000
0.0005519530000
0.0001190890000
-0.0000338680000
0.0000713894000
0.0003356880000
0.0007865110000
0.0012890300000
0.0017638800000
0.0022582600000
0.0026376900000
0.0027523400000
0.0025929500000
0.0021634900000
0.0015777300000
0.0010707500000
0.0008706820000
0.0010013300000
0.0013620200000
0.0016032900000
0.0015111100000
0.0011984000000
0.0008781870000
0.0006292780000
0.0002053710000
-0.0003956210000
-0.0008601180000
-0.0011221500000
-0.0014664000000
-0.0018665900000
-0.0019167200000
-0.0014504300000
-0.0006179700000
0.0002502160000
0.0009553950000
0.0015202500000
0.0019722600000
0.0022177700000
0.0021546700000
0.0019143900000
0.0016934100000
0.0014788500000
0.0012677300000
0.0010378000000
0.0006691180000
0.0003027720000
0.0000834184000
-0.0001995600000
-0.0006345720000
-0.0010814900000
-0.0016682000000
-0.0023911300000
-0.0028783800000
-0.0030215100000
-0.0030309700000
-0.0029093300000
-0.0024208300000
-0.0020115700000
-0.0022050700000
-0.0028585000000
-0.0035932300000
-0.0042200500000
-0.0046448000000
-0.0047784800000
-0.0045758900000
-0.0039279400000
-0.0027998600000
-0.0014663700000
-0.0001487000000
0.0009420360000
0.0016486500000
0.0019457100000
0.0016782900000
0.0009884210000
0.0003019520000
-0.0001291660000
-0.0003216580000
-0.0003395820000
-0.0001182180000
0.0003189080000
0.0007037180000
0.0008086700000
0.0004011370000
-0.0005627680000
-0.0017800900000
-0.0028958500000
-0.0035345500000
-0.0035600800000
-0.0032000100000
-0.0024285800000
-0.0011693300000
0.0003072840000
0.0017624000000
0.0031948700000
0.0045116100000
0.0056409100000
0.0064635900000
0.0068449800000
0.0066232400000
0.0059143200000
0.0050763500000
0.0045485300000
0.0044377100000
0.0045982800000
0.0049070700000
0.0053845900000
0.0059566500000
0.0063171300000
0.0063634300000
0.0062199000000
0.0060614900000
0.0056940600000
0.0051988300000
0.0047455500000
0.0041526800000
0.0034396600000
0.0029176300000
0.0028366600000
0.0031050400000
0.0034562400000
0.0036787100000
0.0036055900000
0.0031493800000
0.0023604200000
0.0013390600000
0.0003589250000
-0.0000667272000
-0.0000229931000
0.0001449780000
0.0005131020000
0.0012041900000
0.0018501000000
0.0020563400000
0.0021042000000
0.0022964100000
0.0023402300000
0.0018736800000
0.0010733600000
0.0003375360000
-0.0000345732000
-0.0000313970000
0.0001529060000
0.0006118480000
0.0012385400000
0.0014808000000
0.0010304300000
0.0002423470000
-0.0006736140000
-0.0016969400000
-0.0027882600000
-0.0038092900000
-0.0043797800000
-0.0045252700000
-0.0046084400000
-0.0048226000000
-0.0049029400000
-0.0047530400000
-0.0045592900000
-0.0043379400000
-0.0041165600000
-0.0040806600000
-0.0043552900000
-0.0047486300000
-0.0050928800000
-0.0052427100000
-0.0050522800000
-0.0045936300000
-0.0039544900000
-0.0029094400000
-0.0015575000000
-0.0004727880000
0.0001343360000
0.0004127610000
0.0002578020000
-0.0004011780000
-0.0013066200000
-0.0021299200000
-0.0026141000000
-0.0026712400000
-0.0024849600000
-0.0021164600000
-0.0014176800000
-0.0005955180000
0.0000250369000
0.0005200500000
0.0010535100000
0.0013920100000
0.0014365900000
0.0011592800000
0.0007727990000
0.0007142750000
0.0009659350000
0.0013497400000
0.0017070300000
0.0019829700000
0.0023015600000
0.0025593700000
0.0025838200000
0.0025720700000
0.0025941000000
0.0024752800000
0.0022551300000
0.0020618800000
0.0019436700000
0.0019233000000
0.0018858000000
0.0019189600000
0.0022763800000
0.0028036600000
0.0032745900000
0.0036242600000
0.0039376700000
0.0041304800000
0.0038888000000
0.0033614400000
0.0028985700000
0.0024380200000
0.0018922400000
0.0013484000000
0.0007826150000
0.0002507740000
-0.0000961784000
-0.0001929670000
0.0000154929000
0.0004299720000
0.0007705460000
0.0009390960000
0.0009954050000
0.0009560870000
0.0009879750000
0.0011021700000
0.0012744200000
0.0016175000000
0.0020873500000
0.0024237400000
0.0025061900000
0.0024878600000
0.0022593400000
0.0016212700000
0.0007603180000
0.0001086340000
0.0001250930000
0.0006214430000
0.0009943760000
0.0010237900000
0.0008157730000
0.0005156310000
0.0001646830000
-0.0001802020000
-0.0005043360000
-0.0008485380000
-0.0012450000000
-0.0015483900000
-0.0017433900000
-0.0018747500000
-0.0017910700000
-0.0014954800000
-0.0012570800000
-0.0011452900000
-0.0010365100000
-0.0009306210000
-0.0009207880000
-0.0009733720000
-0.0010941900000
-0.0013033000000
-0.0015853100000
-0.0020090800000
-0.0024611100000
-0.0027096200000
-0.0026080000000
-0.0022416700000
-0.0016742900000
-0.0010481400000
-0.0006586270000
-0.0004412750000
-0.0002097650000
-0.0000381918000
0.0000119288000
-0.0002247420000
-0.0007019970000
-0.0011807800000
-0.0016247500000
-0.0021860800000
-0.0024542200000
-0.0022527700000
-0.0019625100000
-0.0019194300000
-0.0019425500000
-0.0017068800000
-0.0011667000000
-0.0004874440000
0.0002141310000
0.0009971980000
0.0018765300000
0.0026740400000
0.0031425300000
0.0032342100000
0.0028542800000
0.0020393200000
0.0009282320000
-0.0003080680000
-0.0014850300000
-0.0025458900000
-0.0034626800000
-0.0040786000000
-0.0041134000000
-0.0035870700000
-0.0028253300000
-0.0020514000000
-0.0011153300000
0.0001120790000
0.0013142000000
0.0022706200000
0.0029579800000
0.0032312800000
0.0032323500000
0.0030778500000
0.0026949100000
0.0023836000000
0.0025295600000
0.0025804400000
0.0021567200000
0.0017183000000
0.0016488900000
0.0016651700000
0.0015629300000
0.0017153600000
0.0020311600000
0.0020693300000
0.0016884100000
0.0011332500000
0.0006403930000
0.0004025550000
0.0003128440000
0.0001669560000
0.0000540241000
0.0000913374000
0.0000524369000
-0.0002975690000
-0.0006565970000
-0.0008892470000
-0.0012195500000
-0.0017593500000
-0.0023775700000
-0.0028256500000
-0.0028108900000
-0.0024405700000
-0.0020353800000
-0.0014653300000
-0.0004209200000
0.0007970610000
0.0017900700000
0.0026930800000
0.0035431600000
0.0040251400000
0.0040232800000
0.0038491200000
0.0037895000000
0.0037673100000
0.0037281600000
0.0037682400000
0.0038047700000
0.0036681400000
0.0032609300000
0.0026918900000
0.0021076400000
0.0013421400000
0.0006482710000
0.0002385220000
0.0000285366000
0.0001166390000
0.0003498590000
0.0004345080000
0.0003901930000
0.0003019150000
0.0001982010000
-0.0000280719000
-0.0003535480000
-0.0006555910000
-0.0009046890000
-0.0012203800000
-0.0016950100000
-0.0020052500000
-0.0019466200000
-0.0018275600000
-0.0019874700000
-0.0022621100000
-0.0023542800000
-0.0024055600000
-0.0026664300000
-0.0029724100000
-0.0030414200000
-0.0029667500000
-0.0030557100000
-0.0032109100000
-0.0031867100000
-0.0029262500000
-0.0024643800000
-0.0019494600000
-0.0014517600000
-0.0009122790000
-0.0005157600000
-0.0002492260000
0.0000277880000
0.0002340970000
0.0002094700000
-0.0001042600000
-0.0007696100000
-0.0016554800000
-0.0024729000000
-0.0031438500000
-0.0035726000000
-0.0035264700000
-0.0030254700000
-0.0024156700000
-0.0020152500000
-0.0018683500000
-0.0018384000000
-0.0017547500000
-0.0015849300000
-0.0013093800000
-0.0008359400000
-0.0000414646000
0.0009209790000
0.0015634100000
0.0017702900000
0.0019140200000
0.0021752700000
0.0024431700000
0.0026462700000
0.0026788800000
0.0026213700000
0.0026850300000
0.0028247700000
0.0029213100000
0.0029813400000
0.0027978800000
0.0022887200000
0.0016027700000
0.0009807410000
0.0004908430000
0.0000119876000
-0.0004263320000
-0.0008387550000
-0.0012251800000
-0.0014384500000
-0.0015613700000
-0.0015611200000
-0.0012257800000
-0.0005735580000
0.0002027650000
0.0008502570000
0.0012299200000
0.0014652900000
0.0015888400000
0.0014369000000
0.0010301000000
0.0005593800000
0.0000740401000
-0.0004466040000
-0.0007783050000
-0.0008018490000
-0.0006958700000
-0.0006141020000
-0.0005758110000
-0.0006133180000
-0.0007335010000
-0.0009939120000
-0.0012589000000
-0.0014285400000
-0.0015363600000
-0.0015481600000
-0.0014590600000
-0.0012352500000
-0.0007699440000
-0.0002112540000
0.0004950610000
0.0014500100000
0.0024349800000
0.0034041800000
0.0043451100000
0.0051409500000
0.0055715500000
0.0055462500000
0.0051117900000
0.0044107500000
0.0036654600000
0.0030022500000
0.0022650700000
0.0013589200000
0.0005736900000
0.0001656460000
0.0000520183000
-0.0000002393880
0.0000281635000
0.0003432150000
0.0007703500000
0.0009818810000
0.0010828600000
0.0012201500000
0.0014317500000
0.0016671800000
0.0017400800000
0.0015154200000
0.0010558400000
0.0005019900000
0.0000820222000
-0.0001866160000
-0.0004570000000
-0.0006654450000
-0.0007402910000
-0.0006711890000
-0.0005091770000
-0.0005661270000
-0.0006979630000
-0.0007445320000
-0.0009304660000
-0.0013975400000
-0.0018290700000
-0.0019928700000
-0.0019770100000
-0.0018327500000
-0.0016045900000
-0.0015418500000
-0.0016827000000
-0.0017151600000
-0.0015243500000
-0.0012824600000
-0.0010825800000
-0.0008173140000
-0.0004208150000
-0.0000434637000
0.0001510600000
0.0002821660000
0.0004236870000
0.0002688660000
-0.0002108290000
-0.0007383360000
-0.0011299500000
-0.0015203800000
-0.0020248500000
-0.0024962600000
-0.0027356800000
-0.0027683000000
-0.0026612200000
-0.0023773700000
-0.0019753300000
-0.0015286100000
-0.0011748200000
-0.0009381600000
-0.0006974200000
-0.0003744850000
0.0000060563700
0.0002892530000
0.0003652660000
0.0003185070000
0.0002665060000
0.0003324950000
0.0006210000000
0.0009111780000
0.0009938720000
0.0007242240000
0.0001240560000
-0.0006350200000
-0.0012485700000
-0.0016196400000
-0.0017297100000
-0.0014343200000
-0.0008899570000
-0.0003540340000
0.0003187920000
0.0010672000000
0.0017206500000
0.0022119800000
0.0024222700000
0.0024186100000
0.0024261400000
0.0023659000000
0.0022432800000
0.0021635300000
0.0021994500000
0.0021312600000
0.0019196900000
0.0020111200000
0.0022692100000
0.0022515900000
0.0019768800000
0.0016396400000
0.0015165000000
0.0015655700000
0.0015009200000
0.0012317500000
0.0009708760000
0.0009117820000
0.0009862530000
0.0010492700000
0.0011209900000
0.0014398200000
0.0019544900000
0.0023813100000
0.0025831500000
0.0026798000000
0.0028157100000
0.0027586900000
0.0023656900000
0.0018249800000
0.0013204600000
0.0008057480000
0.0001984200000
-0.0002679460000
-0.0004848170000
-0.0005628690000
-0.0007674590000
-0.0010262200000
-0.0011969500000
-0.0014260400000
-0.0018984200000
-0.0024238500000
-0.0027720300000
-0.0028706300000
-0.0028775100000
-0.0028027800000
-0.0023994500000
-0.0018686800000
-0.0017004300000
-0.0020183100000
-0.0025249600000
-0.0029131400000
-0.0031530400000
-0.0033213500000
-0.0033961000000
-0.0033196000000
-0.0030316900000
-0.0025297900000
-0.0020634300000
-0.0018842200000
-0.0019922700000
-0.0022709800000
-0.0026739700000
-0.0031240000000
-0.0033064800000
-0.0033680400000
-0.0037087300000
-0.0041156500000
-0.0042639600000
-0.0042692200000
-0.0042273000000
-0.0040696000000
-0.0037066800000
-0.0031461300000
-0.0023870400000
-0.0016368300000
-0.0010879400000
-0.0006395380000
-0.0001402450000
0.0003257850000
0.0006478390000
0.0008517280000
0.0009553570000
0.0009364460000
0.0010051100000
0.0010522400000
0.0008573130000
0.0004050760000
-0.0000873199000
-0.0003658460000
-0.0004162900000
-0.0002982670000
-0.0001270370000
-0.0000029807600
0.0001830600000
0.0003534750000
0.0004281450000
0.0004668210000
0.0004451260000
0.0003462640000
0.0002118340000
0.0000710341000
-0.0000606517000
-0.0001311540000
-0.0001675230000
-0.0002690960000
-0.0003839300000
-0.0004360290000
-0.0005301650000
-0.0006321190000
-0.0006773170000
-0.0006189450000
-0.0004273060000
-0.0002620860000
-0.0001016180000
0.0001371050000
0.0003191510000
0.0002498150000
0.0000068969000
-0.0002066160000
-0.0002857620000
-0.0002459820000
-0.0002203190000
-0.0002071080000
-0.0000652630000
0.0001141560000
0.0001726080000
0.0001148320000
0.0001076480000
0.0001854290000
0.0002172580000
0.0001570340000
0.0000813158000
0.0000084928300
-0.0000586559000
0.0000751034000
0.0003656860000
0.0006499460000
0.0008126260000
0.0008139230000
0.0007243490000
0.0006237340000
0.0004679150000
0.0001867970000
-0.0000887824000
-0.0002730300000
-0.0003621730000
-0.0002900400000
-0.0000523913000
0.0002405770000
0.0004914820000
0.0005829960000
0.0005380470000
0.0003898730000
0.0000862126000
-0.0004168570000
-0.0010499000000
-0.0016387800000
-0.0020355500000
-0.0022745300000
-0.0024245900000
-0.0024622100000
-0.0023768000000
-0.0021644300000
-0.0019209600000
-0.0017617400000
-0.0015562900000
-0.0011977000000
-0.0007816410000
-0.0004988600000
-0.0003910020000
-0.0002795780000
-0.0001936710000
-0.0001198670000
0.0000803346000
0.0003971800000
0.0007087240000
0.0009036380000
0.0009657980000
0.0009307690000
0.0008125130000
0.0006253820000
0.0004084200000
0.0002377360000
0.0001994080000
0.0002917960000
0.0004667690000
0.0006729590000
0.0008559080000
0.0009236520000
0.0008797420000
0.0008077190000
0.0007464330000
0.0006632690000
0.0005669380000
0.0004901400000
0.0004253710000
0.0004241560000
0.0005202350000
0.0006094030000
0.0006185600000
0.0005954750000
0.0005774510000
0.0005696600000
0.0005977620000
0.0006580540000
0.0007488490000
0.0008364820000
0.0008620650000
0.0008268620000
0.0007847830000
0.0007405770000
0.0007065000000
0.0007024320000
0.0007172670000
0.0007493530000
0.0007593400000
0.0007351370000
0.0006740670000
0.0005728090000
0.0004621580000
0.0004231700000
0.0004468590000
0.0004354850000
0.0003388040000
0.0001975890000
0.0000739644000
-0.0000314417000
-0.0000864832000
-0.0000709574000
-0.0000362225000
-0.0000091432000
0.0000042213200
-0.0000041326900
-0.0000152625000
-0.0000174500000
0.0000013515500
0.0000510011000
0.0001074320000
0.0001712280000
0.0002483910000
0.0003002750000
0.0003026630000
0.0002825340000
0.0002677780000
0.0002431600000
0.0001872270000
0.0001610350000
0.0001906980000
0.0002399790000
0.0002775780000
0.0003004930000
0.0003206620000
0.0003332130000
0.0003195630000
0.0002822020000
0.0002485320000
0.0002380960000
0.0002165540000
0.0001785690000
0.0001516480000
0.0001493500000
0.0001620360000
0.0001736310000
0.0001658900000
0.0001620350000
0.0001751030000
0.0001831160000
0.0001762600000
0.0001706250000
0.0001780810000
0.0001950590000
0.0002047700000
0.0002010780000
0.0002006160000
0.0002144430000
0.0002392620000
0.0002620480000
0.0002740300000
0.0002806660000
0.0002826290000
0.0002738090000
0.0002653060000
0.0002669850000
0.0002702350000
0.0002674700000
0.0002624270000
0.0002618940000
0.0002645020000
0.0002664290000
0.0002701290000
0.0002766950000
0.0002798780000
0.0002782640000
0.0002702720000
0.0002555010000
0.0002385900000
0.0002208680000
0.0002053570000
0.0001965480000
0.0001935170000
0.0001882380000
0.0001782200000
0.0001716630000
0.0001694820000
0.0001651850000
0.0001583030000
0.0001513030000
0.0001460940000
0.0001415860000
0.0001365610000
0.0001312380000
0.0001265370000
0.0001219110000
0.0001148120000
0.0001056150000
0.0000965663000
0.0000877582000
0.0000785636000
0.0000689552000
0.0000592830000
0.0000507135000
0.0000436581000
0.0000378170000
0.0000323439000
0.0000265628000
0.0000207023000
0.0000148828000
0.0000092297000
0.0000040903400
-0.0000002249950
-0.0000039300200
-0.0000077500000
-0.0000118420000
-0.0000160353000
-0.0000203279000
-0.0000245530000
-0.0000284384000
-0.0000319333000
-0.0000351737000
-0.0000383311000
-0.0000412907000
-0.0000441136000
-0.0000469645000
-0.0000497741000
-0.0000524320000
-0.0000548783000
-0.0000571101000
-0.0000591868000
-0.0000611455000
-0.0000629811000
-0.0000646900000
-0.0000662862000
-0.0000677856000
-0.0000692079000
-0.0000705589000
-0.0000718313000
-0.0000730166000
-0.0000741111000
-0.0000751165000
-0.0000760340000
-0.0000768656000
-0.0000776110000
-0.0000782703000
-0.0000788443000
-0.0000793339000
-0.0000797396000
-0.0000800623000
0.0000000000000
0.0000000000000
0.0000000000000
0.0000000000000
