0.0000361174000
0.0214550000000
0.0227278000000
0.0072889800000
-0.0083385500000
-0.0144178000000
-0.0046055300000
0.0081331700000
0.0141205000000
0.0091968900000
0.0040142100000
-0.0070069400000
-0.0014898000000
0.0168436000000
0.0257859000000
0.0119303000000
-0.0148703000000
-0.0228130000000
0.0040548200000
0.0351067000000
0.0376689000000
0.0032929400000
-0.0312677000000
-0.0349315000000
-0.0113103000000
0.0150364000000
0.0143173000000
-0.0018475500000
-0.0108724000000
-0.0080744900000
-0.0022502000000
-0.0018104700000
-0.0062830700000
-0.0140349000000
-0.0203048000000
-0.0272886000000
-0.0332116000000
-0.0282430000000
-0.0011924700000
0.0159325000000
0.0121892000000
0.0186113000000
0.0278966000000
0.0117379000000
-0.0247575000000
-0.0283477000000
-0.0036522500000
0.0098639800000
-0.0007346130000
-0.0168779000000
-0.0258680000000
-0.0094090000000
0.0149784000000
0.0140117000000
-0.0116573000000
-0.0347703000000
-0.0337163000000
-0.0219983000000
0.0053155900000
0.0335271000000
0.0343117000000
0.0055419400000
-0.0131900000000
-0.0110885000000
0.0016883500000
0.0111227000000
0.0071623600000
-0.0052190600000
-0.0179758000000
-0.0147859000000
-0.0057667100000
-0.0080694900000
-0.0112913000000
-0.0149772000000
-0.0277196000000
-0.0332762000000
-0.0193222000000
0.0068494400000
0.0159075000000
0.0071083700000
-0.0056381300000
-0.0128358000000
-0.0078924400000
0.0035544700000
0.0073860600000
0.0079965000000
0.0086406000000
0.0110197000000
0.0151074000000
0.0084442100000
-0.0165769000000
-0.0491093000000
-0.0594515000000
-0.0495917000000
-0.0291106000000
0.0002537170000
0.0231431000000
0.0176448000000
-0.0085992300000
0.0027213000000
0.0196926000000
0.0149665000000
-0.0012937200000
0.0104705000000
0.0655471000000
0.0702356000000
0.0191036000000
-0.0348099000000
-0.0548615000000
-0.0310602000000
0.0133156000000
0.0398689000000
0.0422441000000
0.0355780000000
0.0102317000000
-0.0122903000000
-0.0139257000000
0.0264293000000
0.0790650000000
0.0833517000000
0.0425749000000
0.0045061400000
-0.0121059000000
-0.0034922900000
0.0261660000000
0.0302722000000
0.0066303400000
-0.0204122000000
-0.0291202000000
-0.0252128000000
-0.0159821000000
0.0092198200000
0.0452837000000
0.0916047000000
0.0818992000000
-0.0113658000000
-0.0976447000000
-0.1241530000000
-0.0696777000000
0.0097953300000
0.0433062000000
0.0335303000000
-0.0009835850000
-0.0394643000000
-0.0581784000000
-0.0450930000000
-0.0100286000000
0.0155029000000
0.0140828000000
-0.0149883000000
-0.0359831000000
-0.0327029000000
-0.0169818000000
-0.0024724200000
-0.0000398425000
0.0005088050000
0.0007667580000
0.0019498600000
-0.0052657200000
-0.0126241000000
-0.0139379000000
0.0006000470000
0.0163947000000
0.0103338000000
-0.0014248600000
-0.0041483100000
0.0074939200000
0.0157803000000
0.0202581000000
0.0255529000000
0.0271400000000
0.0244910000000
0.0286322000000
0.0077986900000
-0.0284623000000
-0.0400760000000
-0.0169200000000
0.0192798000000
0.0184037000000
0.0183720000000
0.0290933000000
0.0274470000000
0.0213128000000
0.0013443000000
-0.0320290000000
-0.0441843000000
-0.0315862000000
0.0172300000000
0.0561655000000
0.0543969000000
0.0390980000000
0.0312533000000
0.0213971000000
-0.0066130400000
-0.0251004000000
-0.0207643000000
0.0006619090000
0.0120279000000
0.0084529000000
0.0141263000000
0.0154973000000
0.0099781900000
-0.0011049900000
-0.0111345000000
-0.0079509400000
-0.0093940800000
-0.0129711000000
-0.0136665000000
0.0055086100000
0.0230752000000
0.0285253000000
0.0012832900000
-0.0340840000000
-0.0381842000000
-0.0213102000000
0.0084149000000
0.0322219000000
0.0085101800000
-0.0470582000000
-0.0611554000000
-0.0543324000000
-0.0218400000000
0.0001922010000
-0.0154503000000
-0.0235397000000
-0.0286914000000
-0.0240349000000
-0.0107634000000
-0.0074583100000
0.0573160000000
0.1074680000000
0.0967049000000
0.0405175000000
-0.0522155000000
-0.1147690000000
-0.0922255000000
-0.0421574000000
-0.0179617000000
0.0143043000000
0.0433950000000
0.0687913000000
0.0724677000000
0.0649975000000
0.0592063000000
0.0719811000000
0.0762002000000
0.0664157000000
0.0473216000000
0.0122983000000
-0.0332107000000
-0.0827385000000
-0.0863560000000
-0.0539084000000
-0.0176318000000
0.0069822300000
0.0329947000000
0.0519324000000
0.0710210000000
0.0872293000000
-0.0009197530000
-0.1124070000000
-0.1840680000000
-0.1953650000000
-0.0960922000000
0.0017924900000
0.0455672000000
0.0651762000000
0.0687925000000
0.0703964000000
0.0354170000000
-0.0169800000000
-0.0307730000000
-0.0339437000000
-0.0085656300000
0.0109219000000
-0.0068898400000
-0.0249852000000
-0.0643098000000
-0.0839341000000
-0.0452950000000
-0.0066334200000
-0.0100010000000
-0.0300638000000
-0.0468974000000
-0.0463951000000
-0.0391883000000
-0.0242814000000
-0.0095409000000
0.0299693000000
0.0818430000000
0.0939989000000
0.0684882000000
0.0283140000000
-0.0114369000000
-0.0351605000000
-0.0197712000000
0.0024224900000
0.0078219100000
0.0016025200000
0.0000751336000
0.0214947000000
0.0647565000000
0.0926551000000
0.1192100000000
0.1306080000000
0.0897989000000
0.0564516000000
0.0251515000000
0.0045745900000
0.0034705400000
0.0076021500000
0.0210260000000
0.0298985000000
0.0376940000000
0.0231291000000
-0.0004578130000
-0.0302677000000
-0.0487903000000
-0.0478890000000
-0.0679058000000
-0.0865528000000
-0.1004310000000
-0.0998186000000
-0.0803013000000
-0.0554126000000
-0.0305617000000
-0.0117247000000
0.0105243000000
0.0213421000000
0.0142150000000
0.0029824000000
-0.0002758080000
-0.0100253000000
-0.0290965000000
-0.0418795000000
-0.0337831000000
-0.0148726000000
-0.0050706800000
-0.0172192000000
-0.0305896000000
-0.0282786000000
-0.0138286000000
0.0132899000000
0.0367782000000
0.0389872000000
0.0266755000000
0.0149004000000
0.0168003000000
0.0278916000000
0.0404516000000
0.0584574000000
0.0714274000000
0.0667515000000
0.0639564000000
0.0670672000000
0.0608245000000
0.0518218000000
0.0387615000000
0.0245220000000
0.0111200000000
0.0032015300000
-0.0045150000000
-0.0134861000000
-0.0164076000000
-0.0149564000000
-0.0202647000000
-0.0281209000000
-0.0456641000000
-0.0647414000000
-0.0717398000000
-0.0713391000000
-0.0652448000000
-0.0535619000000
-0.0329377000000
-0.0136844000000
-0.0011273600000
0.0027158300000
-0.0017713300000
-0.0036442200000
-0.0049673300000
-0.0123666000000
-0.0206440000000
-0.0304699000000
-0.0231821000000
0.0048840400000
0.0289304000000
0.0436560000000
0.0459478000000
0.0491178000000
0.0590790000000
0.0634791000000
0.0555832000000
0.0302636000000
0.0039596800000
-0.0049919700000
-0.0020830500000
0.0012807900000
-0.0059042100000
-0.0136992000000
-0.0204955000000
-0.0321043000000
-0.0461130000000
-0.0535173000000
-0.0454758000000
-0.0346088000000
-0.0252198000000
-0.0209246000000
-0.0169212000000
-0.0162206000000
-0.0165124000000
-0.0191328000000
-0.0224622000000
-0.0208813000000
-0.0070756400000
0.0227807000000
0.0530502000000
0.0748455000000
0.0807287000000
0.0669352000000
0.0395553000000
0.0220317000000
0.0185014000000
0.0191164000000
0.0166265000000
0.0131850000000
0.0150087000000
0.0169681000000
0.0146955000000
0.0087142000000
0.0012936700000
-0.0087645800000
-0.0083066200000
-0.0074824800000
-0.0080741100000
-0.0044021200000
0.0022492800000
0.0097829900000
0.0189089000000
0.0284224000000
0.0190772000000
0.0012781900000
-0.0151020000000
-0.0188607000000
-0.0213780000000
-0.0236894000000
-0.0239342000000
-0.0258405000000
-0.0294931000000
-0.0281845000000
-0.0244982000000
-0.0197776000000
-0.0174173000000
-0.0232323000000
-0.0287800000000
-0.0368247000000
-0.0434690000000
-0.0435638000000
-0.0388361000000
-0.0340645000000
-0.0218764000000
-0.0021373700000
0.0063735500000
0.0010624600000
-0.0042904500000
-0.0080429800000
-0.0044912900000
0.0089421700000
0.0201806000000
0.0229785000000
0.0197544000000
0.0143607000000
0.0112620000000
0.0017291100000
-0.0124315000000
-0.0194113000000
-0.0209249000000
-0.0170243000000
-0.0057848600000
0.0069142200000
0.0200295000000
0.0275276000000
0.0285375000000
0.0295698000000
0.0240180000000
0.0194230000000
0.0204064000000
0.0294508000000
0.0382086000000
0.0426121000000
0.0510353000000
0.0542689000000
0.0540905000000
0.0335998000000
0.0070686800000
-0.0076294000000
-0.0096080900000
-0.0087725900000
-0.0093528600000
-0.0108460000000
-0.0164702000000
-0.0200421000000
-0.0202704000000
-0.0136770000000
-0.0043133100000
0.0010336700000
0.0038235000000
0.0065031700000
0.0045928500000
-0.0003091300000
-0.0058812500000
-0.0098172900000
-0.0089134200000
-0.0096619600000
-0.0084775900000
-0.0166517000000
-0.0287069000000
-0.0257539000000
-0.0187453000000
0.0017221500000
0.0209748000000
0.0272011000000
0.0203234000000
0.0091137100000
0.0047146200000
0.0042986300000
0.0103780000000
0.0115389000000
0.0116003000000
0.0121737000000
0.0114976000000
0.0105951000000
0.0021863900000
-0.0066894700000
-0.0070136500000
0.0036873600000
0.0164977000000
0.0278179000000
0.0255118000000
0.0072519800000
-0.0141760000000
-0.0349746000000
-0.0411464000000
-0.0354822000000
-0.0358533000000
-0.0322362000000
-0.0253367000000
-0.0202569000000
-0.0141601000000
-0.0122791000000
-0.0176563000000
-0.0195053000000
-0.0156475000000
-0.0097588200000
-0.0042618400000
-0.0067239000000
-0.0098846700000
-0.0063277200000
-0.0020985800000
-0.0002001420000
-0.0004416640000
-0.0106476000000
-0.0175915000000
-0.0088182600000
0.0029517400000
0.0101828000000
0.0154656000000
0.0160502000000
0.0147275000000
0.0057782800000
-0.0053792600000
-0.0101169000000
-0.0078053800000
-0.0018667000000
0.0052184600000
0.0035163100000
-0.0029828900000
-0.0067148300000
-0.0084791900000
-0.0047845000000
0.0004248810000
0.0087411900000
0.0077000100000
0.0042924400000
0.0088092500000
0.0172908000000
0.0215904000000
0.0238417000000
0.0210921000000
0.0140982000000
0.0127102000000
0.0157837000000
0.0181412000000
0.0240932000000
0.0252236000000
0.0200749000000
0.0158177000000
0.0125233000000
0.0094493300000
0.0018720100000
-0.0086735000000
-0.0159356000000
-0.0131426000000
-0.0059768300000
0.0029688300000
0.0074010100000
0.0024920200000
-0.0073690700000
-0.0106828000000
0.0014585600000
0.0126054000000
0.0144866000000
0.0057872500000
-0.0043492300000
0.0030919500000
0.0151170000000
0.0248920000000
0.0230981000000
0.0171885000000
0.0114227000000
0.0042686900000
-0.0006290630000
-0.0076729000000
-0.0152441000000
-0.0108129000000
-0.0008645500000
0.0051608800000
0.0000295516000
-0.0077905000000
-0.0090845800000
-0.0102573000000
-0.0083393900000
-0.0099853800000
-0.0083153400000
-0.0026826100000
0.0059142500000
0.0073354100000
0.0006618480000
-0.0072693700000
-0.0147763000000
-0.0204023000000
-0.0250012000000
-0.0208515000000
-0.0109674000000
-0.0069330000000
0.0000114681000
-0.0025902500000
-0.0088425400000
-0.0069695100000
-0.0028759500000
-0.0046902200000
-0.0106661000000
-0.0100242000000
-0.0138519000000
-0.0131784000000
-0.0087452100000
-0.0099627700000
-0.0142230000000
-0.0171664000000
-0.0163154000000
-0.0183021000000
-0.0226898000000
-0.0195999000000
-0.0105930000000
-0.0095094100000
-0.0142654000000
-0.0168660000000
-0.0166882000000
-0.0148907000000
-0.0147618000000
-0.0180551000000
-0.0159271000000
-0.0049342000000
0.0029027800000
0.0061263000000
0.0092886200000
0.0100886000000
0.0001041720000
-0.0114348000000
-0.0172576000000
-0.0153968000000
-0.0022721500000
0.0075191600000
0.0066402400000
0.0033531100000
0.0044734000000
0.0120176000000
0.0029991300000
-0.0174169000000
-0.0247840000000
-0.0064399800000
0.0285402000000
0.0473106000000
0.0392029000000
-0.0057063000000
-0.0322596000000
-0.0120031000000
0.0233688000000
0.0369443000000
0.0174881000000
-0.0092304500000
-0.0205287000000
-0.0074458100000
0.0061144100000
0.0075039800000
0.0037751900000
0.0004778700000
-0.0057682800000
-0.0152937000000
-0.0189797000000
-0.0122443000000
-0.0045949600000
-0.0040091400000
-0.0099615200000
-0.0175102000000
-0.0241440000000
-0.0295527000000
-0.0244687000000
-0.0181474000000
-0.0196699000000
-0.0231661000000
-0.0198691000000
-0.0055826900000
0.0090291500000
0.0108461000000
-0.0006448740000
-0.0080364800000
0.0026983400000
0.0161137000000
0.0245535000000
0.0290796000000
0.0285751000000
0.0301064000000
0.0292683000000
0.0236474000000
0.0154266000000
0.0129310000000
0.0074967600000
0.0019115800000
0.0008735560000
0.0020428200000
0.0009497160000
-0.0006850040000
0.0005903360000
0.0050134000000
0.0084256400000
0.0057362400000
0.0007926370000
-0.0082707400000
-0.0129665000000
-0.0078039200000
-0.0004687620000
0.0046438200000
0.0024797200000
0.0033093200000
0.0078833400000
0.0082345600000
0.0061235000000
0.0032086800000
0.0087384400000
0.0162011000000
0.0128987000000
-0.0022479800000
-0.0142143000000
-0.0171883000000
-0.0176316000000
-0.0166296000000
-0.0093811800000
0.0015443800000
0.0095925100000
0.0045183500000
-0.0075713700000
-0.0195591000000
-0.0220782000000
-0.0134506000000
-0.0040979300000
-0.0010814500000
-0.0050529900000
-0.0137818000000
-0.0154788000000
-0.0049591600000
0.0041885400000
0.0105108000000
0.0126154000000
0.0152963000000
0.0168287000000
0.0163150000000
0.0072373000000
-0.0037222700000
-0.0068553700000
-0.0016877100000
0.0027924600000
0.0020471800000
-0.0041755100000
-0.0146118000000
-0.0179510000000
-0.0113941000000
-0.0033540900000
-0.0013392600000
-0.0017928200000
-0.0057031700000
-0.0095921000000
-0.0126834000000
-0.0057439900000
0.0078845600000
0.0214764000000
0.0271010000000
0.0227765000000
0.0183011000000
0.0141490000000
0.0121450000000
0.0136448000000
0.0215144000000
0.0280845000000
0.0270088000000
0.0143662000000
0.0002935980000
0.0009905850000
0.0111216000000
0.0249551000000
0.0300820000000
0.0312114000000
0.0294196000000
0.0170861000000
0.0006674880000
-0.0094801700000
-0.0040544600000
0.0082746000000
0.0195765000000
0.0188220000000
0.0146424000000
0.0132708000000
0.0135649000000
0.0136326000000
0.0112889000000
0.0072071900000
0.0054051700000
0.0128709000000
0.0210628000000
0.0261550000000
0.0219804000000
0.0147510000000
0.0055682400000
-0.0032493400000
-0.0115539000000
-0.0154765000000
-0.0085350600000
0.0054576200000
0.0168972000000
0.0176207000000
0.0072007200000
-0.0122402000000
-0.0229927000000
-0.0169305000000
-0.0051951200000
0.0045839300000
0.0070302000000
0.0015408700000
0.0003712380000
-0.0009799550000
0.0028147500000
0.0032628400000
-0.0020296400000
-0.0073088500000
-0.0111550000000
-0.0108680000000
-0.0134504000000
-0.0167957000000
-0.0204919000000
-0.0248949000000
-0.0229025000000
-0.0150207000000
-0.0142452000000
-0.0171264000000
-0.0175086000000
-0.0166892000000
-0.0116705000000
-0.0069394800000
-0.0087109200000
-0.0176734000000
-0.0290012000000
-0.0298985000000
-0.0207396000000
-0.0060544000000
0.0061226500000
0.0121175000000
0.0112763000000
0.0057338900000
-0.0006785650000
-0.0014483800000
0.0035917300000
0.0076098000000
0.0094797400000
0.0062894700000
0.0074953900000
0.0073620600000
0.0033527200000
0.0019392800000
-0.0016426700000
-0.0033753700000
-0.0010341900000
0.0007082450000
-0.0018761600000
-0.0014158600000
0.0023584200000
0.0068140500000
0.0108056000000
0.0106631000000
0.0057122600000
0.0011612900000
-0.0007050350000
-0.0041482800000
-0.0077547300000
-0.0088989000000
-0.0075348900000
-0.0055017600000
-0.0024598600000
-0.0027319300000
0.0010668200000
0.0061018000000
0.0056532600000
0.0042479700000
0.0030864500000
-0.0028853900000
-0.0115113000000
-0.0201259000000
-0.0226645000000
-0.0137933000000
-0.0068702500000
-0.0072076200000
-0.0121309000000
-0.0141278000000
-0.0085583500000
0.0018357000000
0.0107049000000
0.0125401000000
0.0082379800000
-0.0001594360000
-0.0025888300000
0.0042882600000
0.0116611000000
0.0125579000000
0.0059934200000
-0.0030976000000
-0.0048895000000
0.0032972700000
0.0107466000000
0.0100114000000
0.0052502700000
-0.0002880960000
-0.0027419800000
-0.0041850400000
-0.0079802300000
-0.0084267500000
-0.0028950600000
0.0049846700000
0.0112763000000
0.0101514000000
-0.0021291300000
-0.0116037000000
-0.0138811000000
-0.0087635500000
0.0021190500000
0.0071438000000
0.0042727200000
0.0018596200000
0.0011336100000
-0.0000728327000
-0.0002980330000
0.0010261500000
-0.0023926800000
-0.0107922000000
-0.0149209000000
-0.0179062000000
-0.0184578000000
-0.0164513000000
-0.0123109000000
-0.0000839426000
0.0110006000000
0.0190619000000
0.0229819000000
0.0242725000000
0.0225356000000
0.0217626000000
0.0233102000000
0.0219701000000
0.0167459000000
0.0166767000000
0.0194370000000
0.0177308000000
0.0134714000000
0.0031512700000
-0.0059979300000
-0.0094657400000
-0.0070012300000
-0.0018714600000
-0.0004799880000
-0.0073005400000
-0.0151523000000
-0.0216852000000
-0.0258517000000
-0.0224162000000
-0.0138103000000
-0.0068679700000
-0.0059518300000
-0.0064228900000
-0.0096652900000
-0.0167919000000
-0.0297090000000
-0.0368794000000
-0.0312774000000
-0.0199827000000
-0.0120041000000
-0.0056207900000
0.0000424206000
0.0040909700000
0.0064432600000
-0.0007159570000
-0.0096734300000
-0.0117337000000
-0.0010245300000
0.0121714000000
0.0235986000000
0.0272901000000
0.0158449000000
-0.0104139000000
-0.0334279000000
-0.0372528000000
-0.0283093000000
-0.0160855000000
-0.0001110840000
0.0085927300000
0.0031073100000
-0.0064152600000
-0.0117507000000
-0.0073513300000
0.0007914760000
0.0071339800000
0.0073789200000
0.0078666200000
0.0072017200000
0.0036369600000
0.0001252320000
-0.0039505500000
-0.0050367200000
-0.0007944060000
0.0013059000000
0.0006797550000
0.0056462600000
0.0110554000000
0.0148632000000
0.0170360000000
0.0196646000000
0.0300198000000
0.0405739000000
0.0461728000000
0.0455813000000
0.0422613000000
0.0378958000000
0.0314546000000
0.0271136000000
0.0208254000000
0.0144312000000
0.0091578700000
0.0024178200000
-0.0064224200000
-0.0138081000000
-0.0148637000000
-0.0105766000000
-0.0084701600000
-0.0070492000000
-0.0074030400000
-0.0091420400000
-0.0105342000000
-0.0157372000000
-0.0160604000000
-0.0122975000000
-0.0041037900000
0.0037401000000
0.0056057700000
0.0025183200000
-0.0029916300000
-0.0036096700000
0.0041954600000
0.0189539000000
0.0322885000000
0.0333177000000
0.0246692000000
0.0142214000000
0.0028077100000
0.0009534270000
0.0106965000000
0.0217830000000
0.0313507000000
0.0350533000000
0.0301023000000
0.0180776000000
0.0059957700000
0.0007112170000
-0.0002567000000
0.0012590800000
0.0002289410000
-0.0011112800000
0.0008828770000
-0.0001931670000
-0.0038416500000
-0.0069403600000
-0.0087671300000
-0.0052725600000
0.0010769900000
0.0050550400000
0.0058751700000
0.0023521300000
-0.0015360700000
-0.0066931400000
-0.0073367200000
-0.0075294600000
-0.0084137600000
-0.0056546300000
-0.0071958100000
-0.0089767000000
-0.0085829500000
-0.0060706500000
-0.0032666400000
0.0013529600000
0.0043089500000
0.0036582200000
0.0005523410000
-0.0028677000000
-0.0062785500000
-0.0110205000000
-0.0155126000000
-0.0161154000000
-0.0143763000000
-0.0111633000000
-0.0090242900000
-0.0111908000000
-0.0119680000000
-0.0090987200000
-0.0035693000000
0.0005035700000
0.0005494750000
-0.0033346800000
-0.0076309200000
-0.0092017200000
-0.0044587200000
0.0011013000000
0.0024527900000
-0.0001808520000
-0.0042680000000
-0.0080685300000
-0.0118160000000
-0.0105451000000
-0.0066609600000
-0.0036325900000
-0.0037539900000
-0.0024902300000
0.0017488800000
0.0052280800000
0.0057074600000
0.0059828300000
0.0092049900000
0.0140316000000
0.0183778000000
0.0178015000000
0.0146894000000
0.0114784000000
0.0109970000000
0.0112132000000
0.0113396000000
0.0094750100000
0.0052225900000
0.0019840500000
-0.0014931700000
-0.0055946300000
-0.0103479000000
-0.0134885000000
-0.0142648000000
-0.0139374000000
-0.0143618000000
-0.0168863000000
-0.0150483000000
-0.0122005000000
-0.0108144000000
-0.0126688000000
-0.0134217000000
-0.0099210700000
-0.0071508200000
-0.0060615200000
-0.0079414400000
-0.0081495900000
-0.0062779600000
-0.0037239500000
-0.0046063100000
-0.0069034300000
-0.0093229400000
-0.0080245500000
-0.0028328300000
0.0019468100000
0.0039918300000
0.0036633100000
0.0025952900000
-0.0006402330000
-0.0048386400000
-0.0024794600000
0.0020920900000
0.0053917000000
0.0042400300000
-0.0011375000000
-0.0060825600000
-0.0080492100000
-0.0076668100000
-0.0076046900000
-0.0041041500000
-0.0002629270000
0.0015352300000
0.0011240700000
-0.0001061590000
-0.0044555500000
-0.0066965900000
-0.0051259000000
-0.0026810800000
-0.0017805300000
-0.0020754200000
-0.0018552200000
-0.0020420000000
0.0006792460000
0.0035412400000
0.0038522200000
0.0038337400000
0.0033807400000
0.0014181300000
0.0008284430000
0.0009853940000
0.0012851400000
-0.0005560890000
-0.0053073800000
-0.0079860400000
-0.0082574900000
-0.0050201500000
-0.0019276500000
0.0008639480000
0.0044368700000
0.0065930000000
0.0071742600000
0.0068823900000
0.0073922400000
0.0075369300000
0.0058568400000
0.0021479700000
-0.0001645260000
-0.0028217800000
-0.0052709600000
-0.0073396800000
-0.0094216600000
-0.0075032000000
-0.0051522600000
-0.0018098900000
-0.0006778520000
-0.0008993600000
-0.0027528700000
-0.0041361600000
-0.0037579100000
-0.0023372200000
0.0021648800000
0.0067332800000
0.0079193700000
0.0047745300000
0.0003230670000
-0.0032675100000
-0.0024292600000
0.0012109400000
0.0044410900000
0.0051222600000
0.0047803700000
0.0050759800000
0.0048044700000
0.0056661700000
0.0060250200000
0.0050180800000
0.0046568000000
0.0023544600000
0.0017932600000
-0.0006671810000
0.0006830950000
0.0020547900000
-0.0019081200000
-0.0069675300000
-0.0119321000000
-0.0141793000000
-0.0151761000000
-0.0148336000000
-0.0151571000000
-0.0152798000000
-0.0148689000000
-0.0151272000000
-0.0141503000000
-0.0113179000000
-0.0074534000000
-0.0048342700000
-0.0077690300000
-0.0092329600000
-0.0094494300000
-0.0085092300000
-0.0064725200000
-0.0039768100000
0.0022673900000
0.0070642100000
0.0087765500000
0.0101421000000
0.0107569000000
0.0105516000000
0.0107248000000
0.0110101000000
0.0099827700000
0.0055159300000
0.0020905200000
0.0025768100000
0.0054662200000
0.0079200800000
0.0068845300000
0.0040088900000
0.0003886480000
-0.0011691500000
-0.0030860000000
-0.0055118200000
-0.0076489800000
-0.0096005100000
-0.0092896800000
-0.0076997700000
-0.0043401600000
-0.0041966100000
-0.0062695300000
-0.0087718600000
-0.0081101600000
-0.0056236800000
-0.0036472000000
-0.0011821400000
0.0008494170000
0.0026616700000
0.0022676700000
0.0025999000000
0.0033911300000
0.0023932800000
0.0027071500000
0.0016613600000
0.0009511440000
0.0029378100000
0.0027967500000
0.0031809900000
0.0014732100000
-0.0018074100000
-0.0037069500000
-0.0055299900000
-0.0033781000000
-0.0020564900000
-0.0021118700000
-0.0022600800000
-0.0011955200000
0.0008074520000
0.0015119600000
0.0040983600000
0.0062145500000
0.0087040500000
0.0094932100000
0.0080567300000
0.0050780100000
0.0033773400000
0.0015563200000
0.0004584710000
0.0007223240000
-0.0014087900000
0.0004370840000
0.0028470100000
0.0045694600000
0.0066060600000
0.0047217900000
0.0036830900000
0.0016651900000
0.0007407320000
0.0000161902000
-0.0001626530000
0.0016005800000
0.0032567200000
0.0048832700000
0.0058447800000
0.0053150500000
0.0056594600000
0.0091128300000
0.0096836700000
0.0102300000000
0.0118433000000
0.0124172000000
0.0119548000000
0.0099919700000
0.0066347800000
0.0042792400000
0.0032568400000
0.0004841100000
-0.0027996400000
-0.0044105900000
-0.0042753000000
-0.0018735700000
0.0011218000000
0.0000759264000
-0.0016482500000
-0.0018006100000
0.0014732200000
0.0063015200000
0.0075322800000
0.0075165900000
0.0075029500000
0.0076525100000
0.0072992000000
0.0049364900000
0.0047820900000
0.0042054000000
0.0007319050000
-0.0024508900000
-0.0059111200000
-0.0094856000000
-0.0118820000000
-0.0142804000000
-0.0153028000000
-0.0150034000000
-0.0127598000000
-0.0092901100000
-0.0062886600000
-0.0025640200000
-0.0006968080000
-0.0006482560000
-0.0017543500000
-0.0051013700000
-0.0065277500000
-0.0063812800000
-0.0064459500000
-0.0063923100000
-0.0064580100000
-0.0063574400000
-0.0064751600000
-0.0037093400000
-0.0004600460000
0.0014071500000
-0.0006108330000
-0.0001604180000
0.0019709600000
0.0046633300000
0.0071721000000
0.0088669100000
0.0109034000000
0.0100635000000
0.0062391100000
0.0025962500000
0.0012178000000
0.0003034390000
0.0018483000000
0.0017836000000
0.0030724400000
0.0049100400000
0.0050166900000
0.0049825900000
0.0050943400000
0.0073827700000
0.0079208900000
0.0077133800000
0.0077261800000
0.0058652500000
0.0063901000000
0.0067711200000
0.0064024500000
0.0036857300000
0.0022103500000
0.0016284900000
0.0019554500000
0.0020733100000
0.0012211500000
0.0020693300000
0.0008479210000
-0.0016852100000
-0.0055769700000
-0.0066606800000
-0.0065999500000
-0.0064525200000
-0.0062234900000
-0.0043685900000
-0.0013774000000
-0.0006771370000
-0.0027757500000
-0.0030557100000
-0.0008591100000
0.0011008500000
0.0033229500000
0.0026166300000
0.0021734600000
0.0018578000000
-0.0002224660000
-0.0004993730000
-0.0016392000000
-0.0045171100000
-0.0063801200000
-0.0062612700000
-0.0044237200000
-0.0033307700000
-0.0052254100000
-0.0066080100000
-0.0047684200000
-0.0035255400000
-0.0035280800000
-0.0037652200000
-0.0058332600000
-0.0066212000000
-0.0050386600000
-0.0033541300000
-0.0035555700000
-0.0034143000000
-0.0035494400000
-0.0031541900000
-0.0008943810000
0.0001138890000
0.0019616200000
0.0006993660000
-0.0007342470000
-0.0018037200000
-0.0037402000000
-0.0030338500000
-0.0039809300000
-0.0043710900000
-0.0032618500000
-0.0045088100000
-0.0041084700000
-0.0025228900000
-0.0003191950000
-0.0011908000000
-0.0039840800000
-0.0042630700000
-0.0022909200000
0.0007073540000
0.0046368900000
0.0078248700000
0.0069349000000
0.0058705100000
0.0059730000000
0.0055471200000
0.0033423700000
0.0034366900000
0.0050355200000
0.0063813800000
0.0067592600000
0.0067485200000
0.0066725000000
0.0070728200000
0.0072446600000
0.0072818500000
0.0095916100000
0.0103102000000
0.0101974000000
0.0071113700000
0.0044098600000
0.0048754500000
0.0052727000000
0.0055689700000
0.0046371600000
0.0057728900000
0.0067097200000
0.0069264200000
0.0069432100000
0.0047333300000
0.0014585800000
-0.0000250616000
0.0013911600000
0.0032296600000
0.0048478400000
0.0051889800000
0.0035809000000
0.0019157000000
-0.0009214880000
-0.0014116500000
-0.0004360770000
0.0009872770000
0.0038508700000
0.0043450000000
0.0031286000000
0.0020906900000
0.0031417400000
0.0062083100000
0.0094727500000
0.0108482000000
0.0082771900000
0.0041792700000
0.0013461600000
0.0007182850000
0.0029902700000
0.0062975500000
0.0080574900000
0.0074612400000
0.0049994000000
0.0019316800000
-0.0006882640000
-0.0027166000000
-0.0036260100000
-0.0031329100000
-0.0005763540000
0.0004083820000
-0.0018800600000
-0.0054761500000
-0.0083184600000
-0.0074071600000
-0.0059236500000
-0.0060089000000
-0.0060380500000
-0.0065904600000
-0.0057821900000
-0.0038366200000
-0.0032955900000
-0.0040203800000
-0.0059763200000
-0.0062472100000
-0.0060009700000
-0.0067400400000
-0.0083879400000
-0.0089984900000
-0.0093820300000
-0.0097796900000
-0.0091759000000
-0.0072446400000
-0.0047929800000
-0.0039585000000
-0.0039084200000
-0.0042689100000
-0.0051251400000
-0.0049676800000
-0.0030675600000
-0.0009631650000
0.0000501623000
-0.0005010730000
-0.0026779500000
-0.0050532200000
-0.0067121900000
-0.0066014000000
-0.0066132700000
-0.0062449800000
-0.0045492600000
-0.0035996700000
-0.0022826200000
-0.0010227200000
-0.0017075300000
-0.0009449590000
-0.0007275230000
-0.0007748650000
-0.0008328740000
-0.0031185400000
-0.0033884000000
-0.0035909800000
-0.0047628700000
-0.0053047300000
-0.0037139100000
-0.0028050700000
-0.0031957400000
-0.0011020600000
-0.0000062514800
-0.0001991210000
0.0000042576700
-0.0001154600000
0.0000865442000
-0.0000660280000
0.0002198210000
-0.0002857260000
-0.0009494430000
-0.0000602759000
0.0013929300000
0.0028631200000
0.0023971800000
0.0032325800000
0.0045635800000
0.0064330700000
0.0084158300000
0.0094588400000
0.0097006800000
0.0084603700000
0.0065880200000
0.0041609600000
0.0028931100000
0.0019028400000
0.0020232400000
0.0015407200000
0.0012488000000
0.0005890480000
-0.0004661770000
-0.0005785290000
-0.0007455560000
-0.0009742970000
-0.0020934200000
-0.0025491600000
-0.0019349500000
-0.0006376520000
-0.0002761450000
-0.0004437730000
-0.0002766610000
-0.0010105700000
-0.0017409000000
-0.0021837300000
-0.0020913700000
-0.0017136900000
-0.0007393360000
-0.0006234020000
-0.0011655800000
-0.0008175260000
-0.0004758330000
-0.0004182350000
-0.0008256260000
-0.0007701750000
-0.0007859730000
-0.0012156100000
-0.0016658200000
-0.0017153100000
-0.0018238800000
-0.0013233700000
-0.0005822700000
0.0002161730000
-0.0004750240000
-0.0009557650000
-0.0009404230000
-0.0013103800000
-0.0009210860000
-0.0006844140000
0.0002026720000
0.0007394130000
0.0006283150000
0.0006546340000
0.0006229460000
0.0008920690000
0.0015625000000
0.0023984600000
0.0025011700000
0.0023410100000
0.0018734900000
0.0014400400000
0.0017135800000
0.0019980400000
0.0018039700000
0.0013335400000
0.0012735800000
0.0012347200000
0.0013342200000
0.0010943800000
0.0006863140000
0.0006389400000
0.0005559070000
0.0005365370000
0.0004465240000
0.0003141110000
0.0002596210000
0.0001071890000
0.0001849420000
0.0000539241000
-0.0000711048000
-0.0002241570000
-0.0004642530000
-0.0003410820000
-0.0001301000000
0.0000831526000
0.0000672596000
0.0000613095000
0.0000572577000
0.0000780803000
0.0000644637000
0.0001169880000
0.0002458370000
0.0002011710000
0.0001091630000
0.0000559571000
0.0000454487000
0.0001429140000
0.0001992820000
0.0001630680000
0.0001105150000
0.0000202171000
-0.0000131307000
-0.0000754838000
-0.0000770489000
-0.0000627729000
-0.0000501297000
-0.0000446406000
-0.0000130444000
0.0000219508000
0.0000568735000
0.0001133190000
0.0001364960000
0.0001655870000
0.0001579790000
0.0001265400000
0.0000970056000
0.0000647474000
0.0000342093000
0.0000034735900
-0.0000343036000
-0.0000728365000
-0.0001079010000
-0.0001398640000
-0.0001718900000
-0.0002040040000
