-0.0000095576900
-0.0000077145000
0.0000015721700
0.0000353245000
0.0000617862000
0.0000510819000
0.0000630495000
0.0001513620000
0.0002502500000
0.0001807630000
0.0000450498000
0.0000521442000
0.0000548161000
-0.0000661155000
-0.0003768680000
-0.0005694800000
-0.0002831010000
0.0000531629000
-0.0002905680000
-0.0012090600000
-0.0018095000000
-0.0011011500000
0.0005364250000
0.0012390100000
0.0012680100000
0.0016125600000
0.0017812600000
0.0009699300000
0.0004604160000
0.0017276000000
0.0018790700000
0.0002548740000
-0.0005030320000
0.0003096560000
0.0025427600000
0.0042946900000
0.0035002900000
0.0010576800000
-0.0011746400000
-0.0008115590000
0.0001714430000
-0.0037751100000
-0.0088765100000
-0.0088848600000
-0.0054610200000
-0.0019763100000
0.0005902840000
0.0028908900000
0.0046002800000
0.0035394000000
0.0009666780000
0.0007193890000
0.0018487900000
0.0018202900000
-0.0002868070000
-0.0018493800000
0.0007455840000
0.0052705600000
0.0087417000000
0.0085159900000
0.0042286100000
0.0014954000000
0.0008930510000
-0.0014697400000
-0.0033049800000
-0.0038028400000
-0.0049851300000
-0.0047401500000
-0.0021573400000
0.0018444600000
0.0059378700000
0.0078796300000
0.0052364600000
-0.0012715300000
-0.0045492100000
-0.0038288200000
-0.0053349300000
-0.0073145300000
-0.0064217200000
-0.0038181100000
0.0009912120000
0.0053187900000
0.0059227700000
0.0059461400000
0.0049604500000
0.0020372400000
0.0013574300000
0.0017827000000
0.0003822060000
-0.0019686300000
-0.0036489200000
-0.0013956000000
0.0044981100000
0.0072798300000
0.0049072100000
0.0031349500000
0.0025800800000
-0.0000195923000
-0.0038151700000
-0.0061565000000
-0.0047216900000
-0.0041882000000
-0.0072479500000
-0.0055518400000
0.0015942400000
0.0061942500000
0.0054266000000
0.0036946600000
0.0060921000000
0.0070522900000
0.0024586200000
-0.0023840800000
-0.0034936500000
-0.0014695900000
-0.0013734200000
-0.0025324800000
-0.0016730500000
0.0020682900000
0.0076525900000
0.0074949100000
0.0039494500000
0.0035570700000
0.0013137200000
-0.0021142400000
-0.0016203900000
0.0008041720000
0.0039223500000
0.0061648800000
0.0055841800000
0.0034413900000
0.0016495300000
0.0032503400000
0.0035026000000
-0.0011978800000
-0.0040820100000
-0.0059377700000
-0.0109250000000
-0.0173879000000
-0.0174493000000
-0.0068290700000
0.0023235700000
0.0064596600000
0.0096905400000
0.0095552700000
0.0121359000000
0.0154443000000
0.0108142000000
0.0050149600000
0.0052255300000
0.0054466400000
-0.0000261057000
-0.0055558900000
-0.0100124000000
-0.0122150000000
-0.0031210300000
0.0099393800000
0.0164211000000
0.0175574000000
0.0104243000000
-0.0001035580000
-0.0078847500000
-0.0177009000000
-0.0225475000000
-0.0149484000000
-0.0054023900000
-0.0032689900000
-0.0029201500000
0.0031539200000
0.0095464300000
0.0152342000000
0.0249326000000
0.0294692000000
0.0224967000000
0.0043633400000
-0.0159528000000
-0.0239538000000
-0.0240700000000
-0.0182671000000
-0.0077747300000
-0.0021968000000
0.0032544600000
0.0113027000000
0.0170466000000
0.0201706000000
0.0215495000000
0.0227289000000
0.0212325000000
0.0125940000000
0.0006350530000
-0.0054817400000
-0.0066935500000
-0.0098012500000
-0.0091632800000
-0.0034582600000
-0.0013794100000
-0.0044504300000
-0.0128531000000
-0.0213451000000
-0.0200445000000
-0.0128107000000
-0.0089039300000
-0.0068535400000
-0.0012292500000
0.0089207800000
0.0184172000000
0.0211888000000
0.0161861000000
0.0111218000000
0.0086470600000
0.0038994600000
0.0040040600000
0.0037286800000
-0.0043108100000
-0.0083681500000
-0.0082204900000
-0.0114765000000
-0.0139425000000
-0.0097823700000
-0.0033224500000
0.0016221200000
-0.0003911040000
-0.0053100400000
-0.0000473707000
0.0066994300000
0.0085013700000
0.0121064000000
0.0153756000000
0.0137484000000
0.0092966900000
0.0062587200000
0.0054812300000
0.0055368700000
0.0080233800000
0.0127074000000
0.0101745000000
0.0005549570000
-0.0113133000000
-0.0218230000000
-0.0216865000000
-0.0145345000000
-0.0064245500000
0.0001441900000
0.0014961100000
-0.0034379500000
-0.0125260000000
-0.0147800000000
-0.0080041300000
-0.0046196600000
-0.0025342400000
0.0076475700000
0.0138435000000
0.0085127600000
0.0003743800000
-0.0063610800000
-0.0035498200000
0.0102183000000
0.0211532000000
0.0186264000000
0.0018956300000
-0.0083323000000
-0.0084244400000
-0.0201571000000
-0.0261301000000
-0.0151790000000
-0.0025856000000
0.0145922000000
0.0251811000000
0.0263493000000
0.0230954000000
0.0063497700000
-0.0060300900000
-0.0079715500000
-0.0048897800000
0.0004549040000
-0.0070967400000
-0.0104870000000
0.0024935700000
0.0100643000000
0.0050487100000
0.0034512600000
0.0122057000000
0.0191892000000
0.0185999000000
0.0055661500000
-0.0155579000000
-0.0239245000000
-0.0209417000000
-0.0191930000000
-0.0150844000000
-0.0042675700000
0.0028598400000
0.0018850000000
0.0042911700000
0.0053048600000
0.0007875380000
-0.0032464400000
-0.0072134700000
-0.0051945300000
-0.0007730080000
0.0044243900000
0.0201544000000
0.0297166000000
0.0202829000000
0.0138262000000
0.0191028000000
0.0228992000000
0.0155086000000
-0.0006148160000
-0.0173418000000
-0.0295024000000
-0.0230652000000
-0.0017496400000
0.0041707700000
-0.0150690000000
-0.0326027000000
-0.0257743000000
-0.0039640800000
0.0108413000000
0.0063593100000
0.0036352500000
0.0115416000000
0.0114210000000
0.0053610400000
-0.0007709470000
0.0026457700000
0.0186211000000
0.0343327000000
0.0334692000000
0.0112592000000
-0.0233659000000
-0.0624809000000
-0.0696829000000
-0.0375917000000
-0.0136443000000
-0.0098176900000
0.0010453800000
0.0226493000000
0.0361067000000
0.0447569000000
0.0427437000000
0.0209235000000
0.0006680990000
0.0001199580000
0.0137006000000
-0.0013513800000
-0.0378720000000
-0.0419642000000
-0.0237763000000
-0.0046401800000
0.0051452600000
0.0051678600000
0.0028052700000
-0.0100452000000
-0.0168416000000
-0.0127620000000
-0.0187561000000
-0.0309046000000
-0.0333240000000
-0.0293642000000
-0.0184457000000
0.0093586200000
0.0261341000000
0.0233996000000
0.0256271000000
0.0156915000000
-0.0122713000000
-0.0297620000000
-0.0274446000000
-0.0187143000000
-0.0213250000000
-0.0363636000000
-0.0515765000000
-0.0525110000000
-0.0384619000000
-0.0229671000000
-0.0116959000000
-0.0227285000000
-0.0448559000000
-0.0368317000000
-0.0092336900000
0.0068387700000
0.0035712000000
0.0120113000000
0.0438167000000
0.0611698000000
0.0677263000000
0.0695940000000
0.0520530000000
0.0295234000000
0.0177646000000
0.0044775500000
-0.0193787000000
-0.0144650000000
0.0178508000000
0.0313004000000
0.0285830000000
0.0200820000000
0.0019103100000
-0.0159551000000
-0.0110976000000
0.0060207800000
0.0136680000000
0.0213428000000
0.0251811000000
0.0140128000000
-0.0076421200000
-0.0186394000000
-0.0075965200000
0.0092224100000
0.0154293000000
0.0119935000000
0.0159799000000
0.0294617000000
0.0349389000000
0.0243745000000
0.0178332000000
0.0182560000000
0.0059904800000
-0.0115425000000
-0.0345465000000
-0.0716534000000
-0.0953187000000
-0.0847940000000
-0.0706368000000
-0.0683917000000
-0.0642104000000
-0.0569268000000
-0.0472416000000
-0.0358476000000
-0.0149577000000
0.0151164000000
0.0385653000000
0.0476924000000
0.0451439000000
0.0361706000000
0.0227468000000
0.0079299200000
-0.0117897000000
-0.0319599000000
-0.0392399000000
-0.0427072000000
-0.0585702000000
-0.0748577000000
-0.0748254000000
-0.0686732000000
-0.0611572000000
-0.0607197000000
-0.0716008000000
-0.0706187000000
-0.0591937000000
-0.0541914000000
-0.0677663000000
-0.0895759000000
-0.0935564000000
-0.0903042000000
-0.0926547000000
-0.0938086000000
-0.0940563000000
-0.0974432000000
-0.1036430000000
-0.1075220000000
-0.0976142000000
-0.0759924000000
-0.0579629000000
-0.0430482000000
-0.0271400000000
-0.0152929000000
-0.0072972000000
0.0019164800000
0.0113888000000
0.0257646000000
0.0530156000000
0.0881134000000
0.1244370000000
0.1499850000000
0.1480340000000
0.1209260000000
0.0833339000000
0.0462676000000
0.0192768000000
0.0005328080000
-0.0151974000000
-0.0234817000000
-0.0331912000000
-0.0459508000000
-0.0504345000000
-0.0536771000000
-0.0548770000000
-0.0493714000000
-0.0451428000000
-0.0367281000000
-0.0161003000000
0.0055681700000
0.0070216400000
-0.0102493000000
-0.0140405000000
0.0107651000000
0.0425100000000
0.0591089000000
0.0650205000000
0.0729879000000
0.0871950000000
0.1035900000000
0.1145460000000
0.1204290000000
0.1210980000000
0.1166700000000
0.1131540000000
0.1108850000000
0.1070830000000
0.1027380000000
0.0972723000000
0.0883704000000
0.0745015000000
0.0635663000000
0.0724133000000
0.0919320000000
0.1029950000000
0.1148660000000
0.1371450000000
0.1680370000000
0.2030750000000
0.2318530000000
0.2476510000000
0.2501530000000
0.2416570000000
0.2204170000000
0.1850000000000
0.1397020000000
0.0896763000000
0.0406002000000
-0.0081895400000
-0.0564529000000
-0.0974509000000
-0.1170480000000
-0.0937096000000
-0.0355508000000
0.0004637610000
-0.0224654000000
-0.0420914000000
-0.0193863000000
-0.0114887000000
-0.0091474800000
-0.0016461000000
-0.0253849000000
-0.0597696000000
-0.0953027000000
-0.1237070000000
-0.1435720000000
-0.1676030000000
-0.1843620000000
-0.1841560000000
-0.1640270000000
-0.1503250000000
-0.1479580000000
-0.1359900000000
-0.1076610000000
-0.0648902000000
-0.0255774000000
-0.0002800520000
0.0188960000000
0.0313925000000
0.0320414000000
0.0304443000000
0.0353136000000
0.0505914000000
0.0685080000000
0.0780333000000
0.0743698000000
0.0515152000000
0.0160622000000
-0.0076192500000
-0.0023608200000
-0.0010031400000
-0.0384870000000
-0.0862983000000
-0.1115890000000
-0.1135600000000
-0.1023030000000
-0.0980437000000
-0.1018710000000
-0.0982213000000
-0.0853928000000
-0.0665759000000
-0.0608508000000
-0.0822729000000
-0.1122620000000
-0.1298400000000
-0.1384830000000
-0.1558300000000
-0.1810330000000
-0.1979080000000
-0.1947380000000
-0.1804410000000
-0.1746420000000
-0.1792110000000
-0.1896440000000
-0.1997500000000
-0.1989000000000
-0.1898630000000
-0.1788950000000
-0.1674830000000
-0.1597890000000
-0.1524800000000
-0.1399760000000
-0.1228700000000
-0.1094210000000
-0.1051370000000
-0.0972403000000
-0.0828255000000
-0.0654844000000
-0.0336154000000
0.0044608200000
0.0352766000000
0.0617176000000
0.0798243000000
0.0921435000000
0.1061550000000
0.1248400000000
0.1562670000000
0.1962940000000
0.2237740000000
0.2272320000000
0.2066530000000
0.1682080000000
0.1351810000000
0.1228590000000
0.1251130000000
0.1356020000000
0.1474460000000
0.1590830000000
0.1704940000000
0.1776210000000
0.1798520000000
0.1742070000000
0.1634510000000
0.1464120000000
0.1206390000000
0.0855579000000
0.0394319000000
0.0008659730000
-0.0138524000000
-0.0052062600000
0.0331347000000
0.0992593000000
0.1288800000000
0.1025950000000
0.1062730000000
0.1328890000000
0.1333860000000
0.1353970000000
0.1355220000000
0.1306090000000
0.1327070000000
0.1354810000000
0.1445500000000
0.1479900000000
0.1379590000000
0.1266620000000
0.1206470000000
0.1166640000000
0.1012490000000
0.0739081000000
0.0617585000000
0.0735594000000
0.0703787000000
0.0433583000000
0.0268530000000
0.0243854000000
0.0247155000000
0.0348648000000
0.0529906000000
0.0682762000000
0.0819631000000
0.0998416000000
0.1181900000000
0.1298550000000
0.1302190000000
0.1135190000000
0.0852952000000
0.0590956000000
0.0412077000000
0.0353128000000
0.0379992000000
0.0366615000000
0.0253439000000
0.0082701300000
-0.0156039000000
-0.0489965000000
-0.0833947000000
-0.1115560000000
-0.1292790000000
-0.1331860000000
-0.1283890000000
-0.1228790000000
-0.1191700000000
-0.1165790000000
-0.1198510000000
-0.1295630000000
-0.1348270000000
-0.1288420000000
-0.1106580000000
-0.0847516000000
-0.0645708000000
-0.0573881000000
-0.0596713000000
-0.0618020000000
-0.0560043000000
-0.0450829000000
-0.0291717000000
-0.0087651600000
0.0057958800000
0.0091947000000
0.0089862300000
0.0139099000000
0.0123033000000
-0.0078662800000
-0.0370605000000
-0.0619516000000
-0.0743798000000
-0.0684057000000
-0.0412655000000
-0.0169450000000
-0.0176953000000
-0.0227867000000
-0.0090112900000
0.0184951000000
0.0442857000000
0.0659991000000
0.0846491000000
0.0989145000000
0.1120950000000
0.1191800000000
0.1179880000000
0.1092340000000
0.0820627000000
0.0363395000000
-0.0071472700000
-0.0331491000000
-0.0546594000000
-0.0837396000000
-0.1056180000000
-0.1133270000000
-0.1167310000000
-0.1120260000000
-0.1022520000000
-0.1056360000000
-0.1165180000000
-0.1140370000000
-0.0842541000000
-0.0404203000000
-0.0084113200000
0.0083906800000
0.0216342000000
0.0441356000000
0.0723969000000
0.0919910000000
0.0914499000000
0.0736460000000
0.0518481000000
0.0385133000000
0.0426443000000
0.0537224000000
0.0489731000000
0.0153092000000
-0.0410015000000
-0.0951894000000
-0.1205730000000
-0.1169020000000
-0.1034500000000
-0.0947260000000
-0.0969428000000
-0.1043290000000
-0.1020700000000
-0.0810819000000
-0.0527995000000
-0.0358693000000
-0.0311535000000
-0.0221135000000
-0.0037282400000
0.0103150000000
0.0149408000000
0.0073286900000
-0.0142111000000
-0.0373068000000
-0.0521895000000
-0.0493599000000
-0.0199333000000
0.0109392000000
0.0141146000000
0.0159510000000
0.0361461000000
0.0397597000000
0.0360016000000
0.0610071000000
0.0950463000000
0.1218590000000
0.1342120000000
0.1327600000000
0.1264010000000
0.0942888000000
0.0204718000000
-0.0822860000000
-0.1805290000000
-0.2551380000000
-0.2715680000000
-0.1959500000000
-0.1307300000000
-0.1685230000000
-0.1978520000000
-0.1637750000000
-0.1459880000000
-0.1233100000000
-0.1054430000000
-0.1082770000000
-0.0845190000000
-0.0668442000000
-0.0482474000000
-0.0318500000000
-0.0307938000000
-0.0270613000000
-0.0227354000000
-0.0104843000000
-0.0240566000000
-0.0607714000000
-0.0934940000000
-0.1192560000000
-0.1526460000000
-0.1876630000000
-0.1953970000000
-0.1842290000000
-0.1526970000000
-0.1004860000000
-0.0412551000000
-0.0007614840000
0.0135043000000
0.0319746000000
0.0596936000000
0.0905733000000
0.1408840000000
0.2122780000000
0.2850220000000
0.3337190000000
0.3367690000000
0.2972450000000
0.2320420000000
0.1644070000000
0.1121290000000
0.0873812000000
0.0899618000000
0.0871768000000
0.0729528000000
0.0667713000000
0.0633506000000
0.0582674000000
0.0539834000000
0.0538435000000
0.0583067000000
0.0563795000000
0.0470835000000
0.0311330000000
0.0114919000000
0.0029008600000
0.0055068800000
0.0089572500000
-0.0077708700000
-0.0487514000000
-0.0746359000000
-0.0585736000000
-0.0105748000000
0.0171078000000
-0.0076870500000
-0.0283067000000
-0.0054491700000
0.0253579000000
0.0291474000000
0.0114036000000
-0.0066336800000
-0.0075638500000
0.0151531000000
0.0366842000000
0.0341883000000
0.0230876000000
0.0141224000000
0.0018551400000
-0.0152673000000
-0.0310993000000
-0.0300800000000
-0.0170683000000
-0.0066643900000
-0.0069710900000
-0.0167960000000
-0.0175340000000
0.0024148400000
0.0280361000000
0.0360826000000
0.0400899000000
0.0542260000000
0.0653548000000
0.0706030000000
0.0694924000000
0.0641605000000
0.0591919000000
0.0476394000000
0.0250674000000
0.0007367190000
-0.0130385000000
-0.0184645000000
-0.0223784000000
-0.0240000000000
-0.0286284000000
-0.0437940000000
-0.0626860000000
-0.0739240000000
-0.0783058000000
-0.0751918000000
-0.0594700000000
-0.0519592000000
-0.0703556000000
-0.0927055000000
-0.1016860000000
-0.1071040000000
-0.1143690000000
-0.1155560000000
-0.1098130000000
-0.0998938000000
-0.0865760000000
-0.0745806000000
-0.0677940000000
-0.0683265000000
-0.0697354000000
-0.0662827000000
-0.0574005000000
-0.0413116000000
-0.0266848000000
-0.0171792000000
-0.0070656000000
0.0015948100000
0.0002391100000
-0.0158011000000
-0.0353817000000
-0.0434783000000
-0.0377927000000
-0.0380029000000
-0.0579206000000
-0.0765829000000
-0.0759868000000
-0.0611282000000
-0.0470012000000
-0.0482431000000
-0.0587705000000
-0.0645238000000
-0.0606592000000
-0.0437274000000
-0.0258085000000
-0.0141654000000
0.0048831300000
0.0308961000000
0.0565200000000
0.0835052000000
0.1030000000000
0.1018830000000
0.0880980000000
0.0795254000000
0.0822818000000
0.0846288000000
0.0805681000000
0.0856282000000
0.1052370000000
0.1221520000000
0.1164530000000
0.0901514000000
0.0596465000000
0.0375713000000
0.0329027000000
0.0406886000000
0.0528968000000
0.0684450000000
0.0843390000000
0.0971797000000
0.1001230000000
0.0869489000000
0.0622537000000
0.0360638000000
0.0185365000000
0.0113729000000
0.0047338400000
-0.0079177000000
-0.0230239000000
-0.0315496000000
-0.0275196000000
-0.0154902000000
-0.0126716000000
-0.0302930000000
-0.0547263000000
-0.0706993000000
-0.0789670000000
-0.0844564000000
-0.0885507000000
-0.0868796000000
-0.0811036000000
-0.0750809000000
-0.0563608000000
-0.0258004000000
-0.0045247700000
0.0063940400000
0.0210781000000
0.0421088000000
0.0611581000000
0.0756741000000
0.0898302000000
0.1030280000000
0.1130900000000
0.1223410000000
0.1351750000000
0.1529510000000
0.1748030000000
0.1957210000000
0.2063290000000
0.1998580000000
0.1723880000000
0.1268570000000
0.0786233000000
0.0413942000000
0.0172372000000
0.0060597100000
0.0027216800000
-0.0045584000000
-0.0190909000000
-0.0314787000000
-0.0355977000000
-0.0359451000000
-0.0367588000000
-0.0433009000000
-0.0557593000000
-0.0561170000000
-0.0301506000000
0.0015463100000
0.0069131500000
-0.0130128000000
-0.0306149000000
-0.0249503000000
-0.0079529300000
-0.0053151800000
-0.0158278000000
-0.0238191000000
-0.0243888000000
-0.0241349000000
-0.0274117000000
-0.0290073000000
-0.0287184000000
-0.0292898000000
-0.0232147000000
-0.0074926200000
0.0035009900000
-0.0047925700000
-0.0229193000000
-0.0384271000000
-0.0568834000000
-0.0752287000000
-0.0849959000000
-0.0800540000000
-0.0580855000000
-0.0367334000000
-0.0318446000000
-0.0305584000000
-0.0172090000000
-0.0088469500000
-0.0216184000000
-0.0356714000000
-0.0303129000000
-0.0099820500000
0.0130936000000
0.0329222000000
0.0515850000000
0.0756899000000
0.0924198000000
0.0867993000000
0.0747304000000
0.0630547000000
0.0354495000000
-0.0116711000000
-0.0605598000000
-0.1049970000000
-0.1405380000000
-0.1456600000000
-0.1270020000000
-0.1027870000000
-0.0751243000000
-0.0465383000000
-0.0217886000000
-0.0137784000000
-0.0278827000000
-0.0485910000000
-0.0627930000000
-0.0623818000000
-0.0487225000000
-0.0325956000000
-0.0157826000000
-0.0097380800000
-0.0260698000000
-0.0495939000000
-0.0567965000000
-0.0528130000000
-0.0611834000000
-0.0801268000000
-0.0960346000000
-0.1048490000000
-0.1048580000000
-0.0954116000000
-0.0877939000000
-0.0942713000000
-0.1053510000000
-0.1093310000000
-0.0943090000000
-0.0588830000000
-0.0300967000000
-0.0177123000000
-0.0034030100000
0.0233275000000
0.0560554000000
0.0868026000000
0.1075830000000
0.1141790000000
0.1239000000000
0.1504050000000
0.1822560000000
0.2065390000000
0.2227510000000
0.2318350000000
0.2319020000000
0.2217070000000
0.1966420000000
0.1527250000000
0.0988025000000
0.0527373000000
0.0162766000000
-0.0190379000000
-0.0562738000000
-0.0928651000000
-0.1077180000000
-0.0963949000000
-0.0788788000000
-0.0703185000000
-0.0702744000000
-0.0562577000000
-0.0426816000000
-0.0518804000000
-0.0663336000000
-0.0846335000000
-0.1021480000000
-0.1154390000000
-0.1355810000000
-0.1540230000000
-0.1538910000000
-0.1282430000000
-0.0935536000000
-0.0659287000000
-0.0545089000000
-0.0598665000000
-0.0732785000000
-0.0884747000000
-0.1008940000000
-0.1195790000000
-0.1368880000000
-0.1387560000000
-0.1249560000000
-0.1019610000000
-0.0837009000000
-0.0693490000000
-0.0541699000000
-0.0374888000000
-0.0151178000000
0.0120985000000
0.0358858000000
0.0530102000000
0.0705642000000
0.0977051000000
0.1352170000000
0.1684260000000
0.1869110000000
0.2005130000000
0.2261710000000
0.2601410000000
0.2822390000000
0.2840050000000
0.2684070000000
0.2413410000000
0.2052060000000
0.1600950000000
0.1112670000000
0.0702509000000
0.0399568000000
0.0124442000000
-0.0166561000000
-0.0466884000000
-0.0720133000000
-0.0894274000000
-0.1031630000000
-0.1156520000000
-0.1257240000000
-0.1275130000000
-0.1220270000000
-0.1248940000000
-0.1348400000000
-0.1323730000000
-0.1116420000000
-0.0831155000000
-0.0540032000000
-0.0209618000000
0.0130955000000
0.0250706000000
0.0047873100000
-0.0136822000000
-0.0003803300000
0.0339190000000
0.0649763000000
0.0868868000000
0.1136900000000
0.1419210000000
0.1566050000000
0.1611370000000
0.1637510000000
0.1681250000000
0.1704030000000
0.1680080000000
0.1634800000000
0.1565680000000
0.1479870000000
0.1379510000000
0.1279540000000
0.1181970000000
0.1035850000000
0.0905775000000
0.0891343000000
0.0997118000000
0.1192160000000
0.1366610000000
0.1446540000000
0.1460620000000
0.1394640000000
0.1165420000000
0.0818025000000
0.0427079000000
0.0007372370000
-0.0403452000000
-0.0771250000000
-0.1042510000000
-0.1149000000000
-0.1045670000000
-0.0970834000000
-0.1119570000000
-0.1296570000000
-0.1408780000000
-0.1509510000000
-0.1545740000000
-0.1644570000000
-0.1964690000000
-0.2336380000000
-0.2545170000000
-0.2508450000000
-0.2338120000000
-0.2195570000000
-0.2123170000000
-0.2032290000000
-0.1827130000000
-0.1538640000000
-0.1191180000000
-0.0849223000000
-0.0629580000000
-0.0592215000000
-0.0541738000000
-0.0242012000000
0.0266826000000
0.0866713000000
0.1399670000000
0.1741160000000
0.1946830000000
0.2107820000000
0.2221430000000
0.2265370000000
0.2254500000000
0.2238620000000
0.2226950000000
0.2204430000000
0.2181700000000
0.2125190000000
0.2004940000000
0.1824800000000
0.1575020000000
0.1125990000000
0.0470179000000
-0.0147396000000
-0.0665260000000
-0.1147890000000
-0.1682280000000
-0.2385700000000
-0.3036190000000
-0.3222920000000
-0.2966170000000
-0.2601300000000
-0.2445820000000
-0.2536810000000
-0.2403340000000
-0.2024470000000
-0.1630680000000
-0.1208720000000
-0.0977872000000
-0.0823965000000
-0.0545883000000
-0.0285691000000
-0.0072367400000
0.0025402700000
0.0013243700000
0.0172469000000
0.0417431000000
0.0539676000000
0.0578357000000
0.0596405000000
0.0652555000000
0.0805701000000
0.1107230000000
0.1367000000000
0.1430390000000
0.1434700000000
0.1503320000000
0.1568300000000
0.1608990000000
0.1654070000000
0.1650620000000
0.1618430000000
0.1578070000000
0.1539150000000
0.1506430000000
0.1483350000000
0.1487620000000
0.1492950000000
0.1493430000000
0.1434160000000
0.1246930000000
0.1096630000000
0.1094700000000
0.1123410000000
0.1114280000000
0.1005740000000
0.0838134000000
0.0650977000000
0.0400346000000
0.0071189600000
-0.0419616000000
-0.0929455000000
-0.1279200000000
-0.1481640000000
-0.1546450000000
-0.1763090000000
-0.2099270000000
-0.2257580000000
-0.2395020000000
-0.2358910000000
-0.2064340000000
-0.1759230000000
-0.1586810000000
-0.1460220000000
-0.1189490000000
-0.0921227000000
-0.0679823000000
-0.0390932000000
-0.0089790700000
0.0176403000000
0.0335270000000
0.0413585000000
0.0530286000000
0.0672384000000
0.0755639000000
0.0773751000000
0.0719420000000
0.0557190000000
0.0259997000000
-0.0075407000000
-0.0242373000000
-0.0164031000000
-0.0080668300000
-0.0182748000000
-0.0363111000000
-0.0471191000000
-0.0474336000000
-0.0392393000000
-0.0353189000000
-0.0543791000000
-0.0861215000000
-0.1025750000000
-0.0920534000000
-0.0679821000000
-0.0555092000000
-0.0648775000000
-0.0854027000000
-0.0976221000000
-0.0953194000000
-0.0846192000000
-0.0775372000000
-0.0789351000000
-0.0722498000000
-0.0473315000000
-0.0139630000000
0.0160005000000
0.0377593000000
0.0508269000000
0.0622106000000
0.0703026000000
0.0767455000000
0.0855540000000
0.0845815000000
0.0755961000000
0.0717275000000
0.0772853000000
0.0795521000000
0.0735683000000
0.0681508000000
0.0634013000000
0.0587127000000
0.0570842000000
0.0620565000000
0.0667866000000
0.0609020000000
0.0509564000000
0.0527677000000
0.0710168000000
0.0933156000000
0.1030290000000
0.0968178000000
0.0794481000000
0.0560361000000
0.0345621000000
0.0229722000000
0.0237392000000
0.0281080000000
0.0220926000000
-0.0000534609000
-0.0254903000000
-0.0397294000000
-0.0470471000000
-0.0550200000000
-0.0659224000000
-0.0761118000000
-0.0752434000000
-0.0600987000000
-0.0349553000000
-0.0126490000000
-0.0131748000000
-0.0291165000000
-0.0306897000000
-0.0206571000000
-0.0211344000000
-0.0253528000000
-0.0197533000000
-0.0147310000000
-0.0185212000000
-0.0175613000000
-0.0058324300000
0.0009600290000
-0.0043142300000
-0.0086481500000
-0.0054564400000
-0.0029236000000
-0.0092244300000
-0.0222331000000
-0.0285578000000
-0.0236640000000
-0.0191626000000
-0.0190518000000
-0.0128703000000
0.0035351600000
0.0146229000000
0.0030971400000
-0.0224651000000
-0.0375926000000
-0.0366477000000
-0.0337334000000
-0.0334020000000
-0.0317016000000
-0.0323587000000
-0.0358655000000
-0.0369388000000
-0.0407403000000
-0.0558418000000
-0.0742960000000
-0.0802909000000
-0.0708699000000
-0.0570156000000
-0.0484581000000
-0.0457051000000
-0.0427124000000
-0.0353081000000
-0.0221464000000
-0.0055349500000
0.0041121800000
0.0066160000000
0.0079922100000
0.0093292700000
0.0128124000000
0.0179440000000
0.0213111000000
0.0161043000000
-0.0003742990000
-0.0204908000000
-0.0306033000000
-0.0256544000000
-0.0131902000000
-0.0016565500000
-0.0009045850000
-0.0136920000000
-0.0240581000000
-0.0199511000000
-0.0168981000000
-0.0274274000000
-0.0341038000000
-0.0217552000000
-0.0002493510000
0.0169236000000
0.0253224000000
0.0263026000000
0.0176324000000
-0.0000166346000
-0.0126186000000
-0.0150587000000
-0.0114982000000
-0.0022733000000
0.0130411000000
0.0270353000000
0.0361698000000
0.0457994000000
0.0485966000000
0.0424306000000
0.0381451000000
0.0383143000000
0.0374786000000
0.0367303000000
0.0403110000000
0.0421042000000
0.0378671000000
0.0343763000000
0.0405882000000
0.0498989000000
0.0474789000000
0.0333428000000
0.0170173000000
0.0058157200000
0.0014102700000
-0.0024816300000
-0.0152521000000
-0.0311070000000
-0.0368339000000
-0.0300740000000
-0.0159401000000
-0.0030308400000
0.0026613200000
0.0034042900000
0.0034758700000
0.0025997800000
0.0069777800000
0.0204535000000
0.0382043000000
0.0538732000000
0.0560470000000
0.0481577000000
0.0410126000000
0.0388712000000
0.0469786000000
0.0539377000000
0.0448634000000
0.0255534000000
0.0102022000000
0.0058964600000
0.0040553600000
-0.0049055500000
-0.0139410000000
-0.0173284000000
-0.0184177000000
-0.0152841000000
-0.0076401100000
-0.0010943100000
0.0016097800000
0.0023283900000
0.0018479900000
-0.0029866600000
-0.0052441200000
0.0059062900000
0.0250079000000
0.0377582000000
0.0402130000000
0.0367975000000
0.0253933000000
0.0072999100000
-0.0084310200000
-0.0156544000000
-0.0188655000000
-0.0267158000000
-0.0368482000000
-0.0397814000000
-0.0354905000000
-0.0383966000000
-0.0499179000000
-0.0567292000000
-0.0551019000000
-0.0490049000000
-0.0437075000000
-0.0397315000000
-0.0363411000000
-0.0371834000000
-0.0425945000000
-0.0442064000000
-0.0378342000000
-0.0324092000000
-0.0340173000000
-0.0378374000000
-0.0338473000000
-0.0266318000000
-0.0279725000000
-0.0316371000000
-0.0330347000000
-0.0363933000000
-0.0380912000000
-0.0327446000000
-0.0248062000000
-0.0206497000000
-0.0181607000000
-0.0170053000000
-0.0228011000000
-0.0338738000000
-0.0440509000000
-0.0506510000000
-0.0524851000000
-0.0516001000000
-0.0490533000000
-0.0441545000000
-0.0401755000000
-0.0359829000000
-0.0296876000000
-0.0273513000000
-0.0299561000000
-0.0319981000000
-0.0305770000000
-0.0245671000000
-0.0109050000000
0.0076727300000
0.0227512000000
0.0327626000000
0.0375995000000
0.0412922000000
0.0464472000000
0.0461888000000
0.0397916000000
0.0371556000000
0.0461435000000
0.0560410000000
0.0566217000000
0.0555725000000
0.0536694000000
0.0478211000000
0.0459873000000
0.0474224000000
0.0481340000000
0.0500757000000
0.0443518000000
0.0271631000000
0.0124744000000
0.0075049900000
0.0031020700000
-0.0020543100000
-0.0000115502000
0.0039775600000
0.0031764000000
0.0041195700000
0.0098776200000
0.0135071000000
0.0116045000000
0.0033593900000
-0.0050466300000
-0.0016346200000
0.0035472300000
-0.0024774000000
-0.0081985100000
-0.0043026800000
0.0031388600000
0.0043112900000
0.0026566900000
0.0096833500000
0.0224972000000
0.0317298000000
0.0335614000000
0.0306932000000
0.0292440000000
0.0338133000000
0.0430182000000
0.0515709000000
0.0548327000000
0.0544053000000
0.0579198000000
0.0562083000000
0.0398648000000
0.0236174000000
0.0154372000000
0.0070266200000
-0.0009004560000
-0.0045958800000
-0.0075451700000
-0.0122427000000
-0.0236142000000
-0.0383663000000
-0.0442393000000
-0.0409011000000
-0.0356456000000
-0.0304524000000
-0.0254386000000
-0.0240430000000
-0.0251945000000
-0.0246464000000
-0.0269537000000
-0.0347032000000
-0.0358716000000
-0.0228123000000
-0.0081267700000
-0.0043363000000
-0.0047406000000
-0.0003842320000
0.0002366520000
-0.0101922000000
-0.0161668000000
-0.0071740500000
0.0025499700000
0.0023797600000
-0.0030239100000
-0.0056878300000
-0.0016803600000
-0.0010126500000
-0.0132950000000
-0.0217220000000
-0.0086702700000
0.0138035000000
0.0258719000000
0.0254459000000
0.0215384000000
0.0202349000000
0.0208651000000
0.0146143000000
-0.0029372600000
-0.0160786000000
-0.0153890000000
-0.0154676000000
-0.0216640000000
-0.0292228000000
-0.0416182000000
-0.0559626000000
-0.0624809000000
-0.0612760000000
-0.0570155000000
-0.0460718000000
-0.0301730000000
-0.0200192000000
-0.0195039000000
-0.0250084000000
-0.0276171000000
-0.0229243000000
-0.0217488000000
-0.0314799000000
-0.0424004000000
-0.0474890000000
-0.0460100000000
-0.0353696000000
-0.0185086000000
-0.0025735400000
0.0098799900000
0.0209116000000
0.0265541000000
0.0247347000000
0.0241748000000
0.0271263000000
0.0311647000000
0.0379139000000
0.0433248000000
0.0436733000000
0.0434985000000
0.0461703000000
0.0475476000000
0.0404945000000
0.0233862000000
0.0011712500000
-0.0151950000000
-0.0196935000000
-0.0204761000000
-0.0214226000000
-0.0169245000000
-0.0052682400000
0.0080054800000
0.0120688000000
0.0075888000000
0.0065781000000
0.0101052000000
0.0152797000000
0.0207717000000
0.0244489000000
0.0293345000000
0.0351782000000
0.0341179000000
0.0258738000000
0.0209898000000
0.0188559000000
0.0112690000000
0.0055211800000
0.0118602000000
0.0229940000000
0.0282741000000
0.0292306000000
0.0271848000000
0.0219435000000
0.0214766000000
0.0290939000000
0.0406029000000
0.0528004000000
0.0578371000000
0.0495530000000
0.0358555000000
0.0257287000000
0.0160426000000
0.0081562000000
0.0122975000000
0.0273991000000
0.0373874000000
0.0305591000000
0.0142895000000
0.0045994300000
0.0044626400000
0.0038465600000
0.0054175800000
0.0190926000000
0.0356167000000
0.0396804000000
0.0330332000000
0.0260357000000
0.0183170000000
0.0068709700000
-0.0031943000000
-0.0077548100000
-0.0095442800000
-0.0138111000000
-0.0176090000000
-0.0187255000000
-0.0224745000000
-0.0284298000000
-0.0277679000000
-0.0156415000000
-0.0028299100000
0.0001410330000
0.0011926600000
0.0113636000000
0.0237173000000
0.0286541000000
0.0279813000000
0.0223636000000
0.0163218000000
0.0135911000000
0.0099050200000
0.0058306000000
0.0007511440000
-0.0079907400000
-0.0168313000000
-0.0218543000000
-0.0265137000000
-0.0365533000000
-0.0465289000000
-0.0470897000000
-0.0406931000000
-0.0375086000000
-0.0394190000000
-0.0372052000000
-0.0275186000000
-0.0172476000000
-0.0109451000000
-0.0092399300000
-0.0113431000000
-0.0122292000000
-0.0089028800000
-0.0045878100000
0.0005413320000
0.0059992100000
0.0041451300000
-0.0048892900000
-0.0110028000000
-0.0117035000000
-0.0087613300000
-0.0031297600000
0.0001045670000
-0.0000364110000
0.0002786600000
0.0020731400000
0.0033482800000
0.0013247400000
-0.0042539700000
-0.0087324000000
-0.0080954700000
-0.0051878500000
-0.0038653300000
-0.0041598600000
-0.0064787000000
-0.0123035000000
-0.0175533000000
-0.0180832000000
-0.0183073000000
-0.0240330000000
-0.0334145000000
-0.0377334000000
-0.0345678000000
-0.0319499000000
-0.0346696000000
-0.0359426000000
-0.0274939000000
-0.0142673000000
-0.0109029000000
-0.0187358000000
-0.0206953000000
-0.0116586000000
-0.0034949200000
-0.0026423100000
-0.0082306700000
-0.0147903000000
-0.0153264000000
-0.0100898000000
-0.0089260600000
-0.0138861000000
-0.0126026000000
-0.0045136900000
-0.0013329300000
-0.0039852400000
-0.0035306800000
-0.0032336200000
-0.0117646000000
-0.0200103000000
-0.0195153000000
-0.0152614000000
-0.0133528000000
-0.0140635000000
-0.0109277000000
0.0001428680000
0.0115592000000
0.0156630000000
0.0154184000000
0.0182841000000
0.0270630000000
0.0356682000000
0.0397226000000
0.0407878000000
0.0429459000000
0.0465420000000
0.0485876000000
0.0469832000000
0.0339816000000
0.0136030000000
0.0064716300000
0.0126904000000
0.0144717000000
0.0094943800000
0.0025767100000
-0.0019673300000
0.0007502920000
0.0072549200000
0.0124326000000
0.0144979000000
0.0172672000000
0.0180015000000
0.0102684000000
0.0020377700000
-0.0047013500000
-0.0117129000000
-0.0141895000000
-0.0120103000000
-0.0095859000000
-0.0120059000000
-0.0163701000000
-0.0183335000000
-0.0150898000000
-0.0054228600000
0.0026039200000
0.0031345900000
-0.0002970030000
-0.0002523930000
0.0043862900000
0.0070621900000
0.0066770700000
0.0059375300000
0.0086847500000
0.0193010000000
0.0294640000000
0.0288349000000
0.0178293000000
0.0019770400000
-0.0109072000000
-0.0149909000000
-0.0086175600000
-0.0000232919000
-0.0001906270000
-0.0049095400000
-0.0031638200000
0.0027714200000
0.0044385200000
0.0012542700000
-0.0018159300000
0.0000020385000
0.0048252300000
0.0074177100000
0.0074152400000
0.0085315000000
0.0110165000000
0.0127397000000
0.0145189000000
0.0146113000000
0.0085822800000
0.0006102750000
-0.0027083300000
-0.0043371500000
-0.0071848900000
-0.0091634700000
-0.0103658000000
-0.0151976000000
-0.0207454000000
-0.0208160000000
-0.0167621000000
-0.0118433000000
-0.0053061400000
0.0080870700000
0.0203940000000
0.0184361000000
0.0087337400000
0.0026275900000
0.0026986500000
0.0064124000000
0.0065048100000
0.0016903200000
-0.0011922600000
-0.0016981300000
-0.0049138700000
-0.0110403000000
-0.0161789000000
-0.0143265000000
-0.0051380300000
0.0022912400000
0.0036489000000
0.0034809000000
0.0065022600000
0.0104066000000
0.0111747000000
0.0088458800000
0.0059884900000
0.0042690900000
0.0034732700000
0.0042280400000
0.0051049500000
0.0052562400000
0.0043156100000
0.0044584700000
0.0085671100000
0.0131304000000
0.0168271000000
0.0176014000000
0.0126823000000
0.0076888600000
0.0058736400000
0.0029670100000
-0.0011544400000
-0.0010250100000
0.0017226300000
-0.0006672000000
-0.0061301500000
-0.0050443600000
0.0017851000000
0.0060452000000
0.0021413600000
-0.0077175400000
-0.0124532000000
-0.0118824000000
-0.0119127000000
-0.0125507000000
-0.0155681000000
-0.0184361000000
-0.0176526000000
-0.0153346000000
-0.0157135000000
-0.0157930000000
-0.0095459600000
-0.0012495700000
0.0035591100000
0.0049880900000
0.0057777800000
0.0063391400000
0.0042587300000
0.0003838860000
-0.0034557100000
-0.0088058000000
-0.0141129000000
-0.0142212000000
-0.0106532000000
-0.0084652900000
-0.0090651600000
-0.0100305000000
-0.0102116000000
-0.0130284000000
-0.0177824000000
-0.0192477000000
-0.0156791000000
-0.0093080300000
-0.0023362400000
0.0051955100000
0.0102428000000
0.0069431000000
-0.0015941400000
-0.0051940200000
-0.0050748600000
-0.0103396000000
-0.0192677000000
-0.0239721000000
-0.0224307000000
-0.0185629000000
-0.0177596000000
-0.0189009000000
-0.0159377000000
-0.0079144600000
0.0026959000000
0.0127088000000
0.0175995000000
0.0163625000000
0.0121831000000
0.0074734200000
0.0021390000000
-0.0031907400000
-0.0058324600000
-0.0060065800000
-0.0067038300000
-0.0058318500000
-0.0023900600000
-0.0066202300000
-0.0191636000000
-0.0252333000000
-0.0220165000000
-0.0180579000000
-0.0195671000000
-0.0214238000000
-0.0150432000000
-0.0044776600000
0.0043842000000
0.0076690000000
0.0068475300000
0.0073930400000
0.0068087800000
0.0032056800000
-0.0026770700000
-0.0112652000000
-0.0190848000000
-0.0236242000000
-0.0277415000000
-0.0310335000000
-0.0300210000000
-0.0255659000000
-0.0195061000000
-0.0134458000000
-0.0107852000000
-0.0103157000000
-0.0070138800000
-0.0018768100000
0.0019624300000
0.0041904700000
0.0034054500000
-0.0005471430000
-0.0030530900000
-0.0010663400000
-0.0010075700000
-0.0057018100000
-0.0088500600000
-0.0105726000000
-0.0102147000000
-0.0022126100000
0.0083926500000
0.0128065000000
0.0116683000000
0.0086521700000
0.0072200700000
0.0110430000000
0.0151571000000
0.0115908000000
0.0046045400000
0.0023807300000
0.0055704100000
0.0092968900000
0.0080708800000
0.0035817100000
0.0022725600000
0.0037980100000
0.0033145900000
-0.0006484300000
-0.0032874100000
0.0003623720000
0.0023412900000
-0.0019872300000
-0.0022026800000
0.0058511500000
0.0126491000000
0.0114949000000
0.0072605100000
0.0059318800000
0.0104102000000
0.0171979000000
0.0204772000000
0.0245416000000
0.0347383000000
0.0428342000000
0.0403641000000
0.0326970000000
0.0233137000000
0.0121530000000
0.0020760800000
-0.0023008600000
0.0025795800000
0.0099429300000
0.0130578000000
0.0119250000000
0.0085213800000
0.0072388700000
0.0096211900000
0.0120593000000
0.0130004000000
0.0162747000000
0.0224552000000
0.0282640000000
0.0316135000000
0.0305058000000
0.0267226000000
0.0247601000000
0.0256256000000
0.0272808000000
0.0267081000000
0.0244790000000
0.0240279000000
0.0230686000000
0.0158341000000
0.0039553200000
-0.0039251100000
-0.0033227200000
0.0008762010000
0.0023438100000
0.0032094000000
0.0059646800000
0.0058677400000
0.0015990500000
-0.0039599000000
-0.0090691700000
-0.0111965000000
-0.0092314800000
-0.0049180500000
-0.0027530900000
-0.0034004400000
-0.0035436100000
-0.0055156700000
-0.0093696100000
-0.0100939000000
-0.0075478500000
-0.0042388300000
0.0009393730000
0.0075054200000
0.0122606000000
0.0160816000000
0.0182222000000
0.0166376000000
0.0175269000000
0.0236294000000
0.0257673000000
0.0212480000000
0.0143334000000
0.0053533600000
-0.0013061000000
-0.0025743800000
-0.0041372100000
-0.0075070300000
-0.0087232100000
-0.0087836700000
-0.0098937300000
-0.0094611500000
-0.0064716100000
-0.0055308700000
-0.0084210300000
-0.0108072000000
-0.0111242000000
-0.0117863000000
-0.0140121000000
-0.0171569000000
-0.0208059000000
-0.0253341000000
-0.0293247000000
-0.0307781000000
-0.0306120000000
-0.0317304000000
-0.0341701000000
-0.0354039000000
-0.0343168000000
-0.0328999000000
-0.0335548000000
-0.0345751000000
-0.0348446000000
-0.0356659000000
-0.0363852000000
-0.0337266000000
-0.0272748000000
-0.0214585000000
-0.0175614000000
-0.0141099000000
-0.0107220000000
-0.0080514100000
-0.0067570600000
-0.0048063900000
-0.0013905200000
0.0004973370000
0.0011363500000
0.0031495700000
0.0052980200000
0.0059363100000
0.0037159900000
0.0011013100000
0.0036699700000
0.0084859600000
0.0102559000000
0.0108835000000
0.0123526000000
0.0143294000000
0.0172818000000
0.0192385000000
0.0176932000000
0.0119786000000
0.0035558000000
-0.0037822800000
-0.0104243000000
-0.0169724000000
-0.0188309000000
-0.0151044000000
-0.0106127000000
-0.0073551600000
-0.0043404400000
-0.0006153290000
0.0060790200000
0.0137004000000
0.0156789000000
0.0130034000000
0.0123107000000
0.0137015000000
0.0136729000000
0.0128150000000
0.0129646000000
0.0142204000000
0.0185673000000
0.0257566000000
0.0312418000000
0.0349935000000
0.0383669000000
0.0406453000000
0.0408565000000
0.0367259000000
0.0296525000000
0.0239436000000
0.0201641000000
0.0161206000000
0.0119652000000
0.0094557200000
0.0071086100000
0.0031624200000
-0.0000848761000
0.0003507350000
0.0044799700000
0.0073637700000
0.0040156900000
-0.0009055530000
-0.0003086310000
0.0023102000000
-0.0009875920000
-0.0089427800000
-0.0144724000000
-0.0155538000000
-0.0136474000000
-0.0101791000000
-0.0068552600000
-0.0061756700000
-0.0069054600000
-0.0037932000000
0.0010517400000
-0.0005490570000
-0.0073701800000
-0.0108994000000
-0.0109971000000
-0.0110272000000
-0.0094441300000
-0.0050882900000
0.0008040610000
0.0057042100000
0.0070236000000
0.0055640200000
0.0049404400000
0.0062881700000
0.0077686500000
0.0087113600000
0.0108281000000
0.0113495000000
0.0066290800000
0.0004613860000
-0.0053022600000
-0.0121775000000
-0.0178568000000
-0.0186707000000
-0.0174576000000
-0.0207254000000
-0.0259229000000
-0.0244454000000
-0.0143981000000
-0.0046957900000
-0.0034390400000
-0.0057893000000
-0.0057708900000
-0.0058923900000
-0.0060900700000
-0.0050158600000
-0.0025969300000
0.0018603300000
0.0044607700000
0.0051328300000
0.0076939400000
0.0123991000000
0.0166603000000
0.0188928000000
0.0193153000000
0.0162179000000
0.0114382000000
0.0072804800000
0.0041655800000
0.0048231800000
0.0090254300000
0.0132797000000
0.0151439000000
0.0154898000000
0.0154612000000
0.0148227000000
0.0143579000000
0.0139950000000
0.0136994000000
0.0142893000000
0.0160675000000
0.0174162000000
0.0150417000000
0.0103608000000
0.0092089900000
0.0129127000000
0.0162930000000
0.0165519000000
0.0145929000000
0.0098119700000
0.0046263100000
0.0012655300000
-0.0014044800000
-0.0031925300000
-0.0044797200000
-0.0049577200000
-0.0058917000000
-0.0083452600000
-0.0093137000000
-0.0087748200000
-0.0066261500000
-0.0012331900000
0.0063861800000
0.0137147000000
0.0169455000000
0.0134778000000
0.0053642800000
-0.0010240500000
-0.0010695100000
0.0052585800000
0.0135852000000
0.0168741000000
0.0140498000000
0.0095484300000
0.0043631600000
-0.0025841200000
-0.0097630100000
-0.0154609000000
-0.0175272000000
-0.0144236000000
-0.0087052300000
-0.0040845300000
-0.0016529700000
0.0002729770000
0.0007403700000
-0.0027569600000
-0.0053567900000
-0.0028735600000
-0.0010572400000
-0.0046300600000
-0.0118824000000
-0.0191023000000
-0.0225560000000
-0.0221713000000
-0.0224446000000
-0.0246420000000
-0.0233029000000
-0.0160875000000
-0.0093332600000
-0.0082514600000
-0.0111506000000
-0.0137908000000
-0.0118923000000
-0.0058113100000
0.0005048740000
0.0042031200000
0.0053096900000
0.0048883300000
0.0007555900000
-0.0056603100000
-0.0113510000000
-0.0156865000000
-0.0179084000000
-0.0206410000000
-0.0263264000000
-0.0327021000000
-0.0334808000000
-0.0287125000000
-0.0255006000000
-0.0256330000000
-0.0241676000000
-0.0166077000000
-0.0088567300000
-0.0068023500000
-0.0056559400000
-0.0021336600000
0.0011334900000
0.0015080500000
-0.0008915610000
-0.0038401500000
-0.0037909000000
-0.0025182000000
-0.0040527600000
-0.0058114500000
-0.0069350300000
-0.0059757200000
-0.0020505900000
-0.0011589300000
-0.0025192000000
-0.0017775600000
-0.0003725990000
0.0004707110000
0.0004679080000
0.0003780950000
0.0017514500000
0.0043097200000
0.0067522400000
0.0067514800000
0.0024240000000
-0.0036126200000
-0.0054306700000
-0.0025705100000
0.0014172200000
0.0065374600000
0.0113342000000
0.0121324000000
0.0085939700000
0.0035295800000
-0.0008307190000
-0.0032722800000
-0.0037790900000
-0.0047397700000
-0.0051284800000
-0.0029419000000
-0.0004181960000
0.0005821580000
0.0003869460000
0.0010675300000
0.0045531400000
0.0100090000000
0.0155079000000
0.0191205000000
0.0192428000000
0.0173701000000
0.0170623000000
0.0191901000000
0.0202737000000
0.0188806000000
0.0168862000000
0.0130512000000
0.0066211900000
-0.0003424190000
-0.0050696400000
-0.0044022300000
0.0001275310000
0.0037180000000
0.0064109300000
0.0093759800000
0.0085548900000
0.0024329000000
-0.0030297500000
-0.0033795000000
-0.0012884400000
-0.0013636500000
-0.0013048400000
0.0017736600000
0.0033521400000
0.0038142000000
0.0064416500000
0.0100496000000
0.0141284000000
0.0168092000000
0.0172069000000
0.0169653000000
0.0169709000000
0.0164579000000
0.0147292000000
0.0142037000000
0.0162460000000
0.0200245000000
0.0238618000000
0.0249711000000
0.0234027000000
0.0225097000000
0.0215889000000
0.0149416000000
0.0050294400000
0.0000380940000
-0.0020567400000
-0.0050441000000
-0.0057853300000
-0.0045782600000
-0.0037530700000
-0.0033189300000
-0.0052747400000
-0.0100125000000
-0.0153466000000
-0.0200630000000
-0.0232892000000
-0.0246712000000
-0.0232707000000
-0.0211804000000
-0.0223603000000
-0.0248600000000
-0.0250578000000
-0.0225137000000
-0.0199021000000
-0.0193166000000
-0.0171752000000
-0.0109188000000
-0.0053603500000
-0.0038317800000
-0.0026436900000
0.0005446380000
0.0034241700000
0.0047326300000
0.0065583900000
0.0101349000000
0.0125293000000
0.0107347000000
0.0058609500000
-0.0002825280000
-0.0071437400000
-0.0121319000000
-0.0136640000000
-0.0130767000000
-0.0108754000000
-0.0083229200000
-0.0078173400000
-0.0093983900000
-0.0101668000000
-0.0083745200000
-0.0060761500000
-0.0056350900000
-0.0073153100000
-0.0089927200000
-0.0085416300000
-0.0067039700000
-0.0048587000000
-0.0034156400000
-0.0033479800000
-0.0053985400000
-0.0071563600000
-0.0070683500000
-0.0071402100000
-0.0068877800000
-0.0052420600000
-0.0044862800000
-0.0047215600000
-0.0037866100000
-0.0027760200000
-0.0037297600000
-0.0044686200000
-0.0031896300000
-0.0020005300000
-0.0003229700000
0.0019443900000
0.0013143100000
-0.0004137210000
-0.0007523990000
-0.0011268300000
-0.0000374508000
0.0024144000000
0.0039309500000
0.0056279600000
0.0067494700000
0.0060187400000
0.0051279500000
0.0052091600000
0.0077642000000
0.0119135000000
0.0132408000000
0.0113575000000
0.0083918300000
0.0054578600000
0.0059170900000
0.0089418000000
0.0088159900000
0.0069296800000
0.0071423200000
0.0073538700000
0.0063996100000
0.0044441400000
-0.0004577090000
-0.0059472400000
-0.0099158700000
-0.0148095000000
-0.0182373000000
-0.0178302000000
-0.0169789000000
-0.0163068000000
-0.0117480000000
-0.0032483500000
0.0014369100000
-0.0013773200000
-0.0064664600000
-0.0103984000000
-0.0129201000000
-0.0140559000000
-0.0140152000000
-0.0124836000000
-0.0125827000000
-0.0155740000000
-0.0177910000000
-0.0189458000000
-0.0193312000000
-0.0174513000000
-0.0130219000000
-0.0080709000000
-0.0048452400000
-0.0025537900000
-0.0008556720000
0.0013604700000
0.0054503600000
0.0091689000000
0.0117166000000
0.0144813000000
0.0176398000000
0.0202414000000
0.0208131000000
0.0176929000000
0.0109088000000
0.0042295000000
0.0018387300000
0.0029934300000
0.0050011100000
0.0076136800000
0.0098369200000
0.0107463000000
0.0108260000000
0.0100542000000
0.0093708000000
0.0106206000000
0.0143081000000
0.0170489000000
0.0156115000000
0.0123566000000
0.0100208000000
0.0082818800000
0.0055462200000
0.0013503900000
-0.0020691300000
-0.0031372400000
-0.0010126800000
0.0037228700000
0.0079902200000
0.0101852000000
0.0106840000000
0.0110036000000
0.0110402000000
0.0103431000000
0.0121374000000
0.0161489000000
0.0176199000000
0.0159004000000
0.0124378000000
0.0084967600000
0.0066772100000
0.0060583400000
0.0042420200000
0.0033149800000
0.0053696900000
0.0080278300000
0.0084155200000
0.0076960700000
0.0075124100000
0.0068603800000
0.0074633300000
0.0132359000000
0.0200949000000
0.0200695000000
0.0131718000000
0.0059106600000
0.0019757400000
-0.0013845600000
-0.0054245500000
-0.0082699200000
-0.0097270500000
-0.0115290000000
-0.0135878000000
-0.0130902000000
-0.0106919000000
-0.0097817100000
-0.0108333000000
-0.0103631000000
-0.0065380300000
-0.0025657200000
-0.0012298800000
-0.0018630800000
-0.0019039600000
-0.0006008250000
0.0005177210000
0.0021900700000
0.0051646800000
0.0067394200000
0.0055804900000
0.0039568200000
0.0035187200000
0.0034545600000
0.0032064900000
0.0029127600000
0.0014964200000
-0.0018427400000
-0.0052556000000
-0.0059335300000
-0.0039889300000
-0.0023815300000
-0.0021448200000
-0.0020527700000
-0.0028213000000
-0.0041382900000
-0.0034040900000
-0.0015347400000
-0.0008900000000
-0.0006366690000
0.0013504700000
0.0054030800000
0.0084004000000
0.0077231700000
0.0057834900000
0.0039545700000
0.0010041600000
-0.0007635630000
-0.0004262900000
-0.0015901000000
-0.0041896600000
-0.0039249900000
0.0001965500000
0.0042221400000
0.0051154800000
0.0044537900000
0.0042891800000
0.0051977800000
0.0064764100000
0.0051538700000
0.0020273400000
0.0021810900000
0.0056218100000
0.0084840200000
0.0083940800000
0.0060571700000
0.0049936900000
0.0050414600000
0.0037667100000
0.0017513900000
0.0003837900000
-0.0003784390000
-0.0024976000000
-0.0058692200000
-0.0092166800000
-0.0135605000000
-0.0179078000000
-0.0209342000000
-0.0227604000000
-0.0218952000000
-0.0178087000000
-0.0124162000000
-0.0085727800000
-0.0076624500000
-0.0086216400000
-0.0096508100000
-0.0086885900000
-0.0062414700000
-0.0045428200000
-0.0040251300000
-0.0063054700000
-0.0115680000000
-0.0155762000000
-0.0168340000000
-0.0174921000000
-0.0176185000000
-0.0159972000000
-0.0146464000000
-0.0154381000000
-0.0154870000000
-0.0140458000000
-0.0135024000000
-0.0129882000000
-0.0105389000000
-0.0067934400000
-0.0034068800000
0.0008085450000
0.0073067500000
0.0134825000000
0.0160595000000
0.0147846000000
0.0118339000000
0.0097813900000
0.0087750400000
0.0069481200000
0.0056861000000
0.0063326600000
0.0059680000000
0.0034892500000
-0.0009261050000
-0.0065670900000
-0.0095997600000
-0.0083328900000
-0.0050685900000
-0.0016782900000
0.0033002900000
0.0106710000000
0.0165793000000
0.0183912000000
0.0182576000000
0.0183671000000
0.0195993000000
0.0218596000000
0.0222916000000
0.0194220000000
0.0150499000000
0.0120811000000
0.0117868000000
0.0110075000000
0.0096096800000
0.0103349000000
0.0104957000000
0.0087879100000
0.0084950400000
0.0090672500000
0.0076185800000
0.0057266900000
0.0064275700000
0.0096207300000
0.0130211000000
0.0132373000000
0.0095981000000
0.0055870000000
0.0029951200000
0.0017419600000
0.0017700600000
0.0014203700000
0.0013769600000
0.0046794900000
0.0099216100000
0.0137619000000
0.0163928000000
0.0178214000000
0.0166492000000
0.0142571000000
0.0123003000000
0.0096721000000
0.0058696600000
0.0016683900000
-0.0025578200000
-0.0055134900000
-0.0069685300000
-0.0080888300000
-0.0077866800000
-0.0056211500000
-0.0028069400000
-0.0001137360000
0.0018098000000
0.0020935600000
-0.0002579040000
-0.0042239500000
-0.0077890900000
-0.0088710400000
-0.0065654800000
-0.0037185700000
-0.0012207600000
0.0020112200000
0.0033482600000
0.0019148900000
-0.0004634630000
-0.0032505000000
-0.0050888000000
-0.0045275900000
-0.0026181300000
-0.0027878500000
-0.0056920800000
-0.0081729600000
-0.0094353500000
-0.0109900000000
-0.0137346000000
-0.0171007000000
-0.0190441000000
-0.0193628000000
-0.0196796000000
-0.0187748000000
-0.0149473000000
-0.0096644300000
-0.0050230800000
-0.0029567700000
-0.0024370100000
0.0001884270000
0.0027909300000
0.0015415200000
-0.0012667200000
-0.0019196100000
-0.0010175000000
-0.0021727100000
-0.0054995000000
-0.0074086500000
-0.0066400400000
-0.0058117400000
-0.0078746000000
-0.0119649000000
-0.0139523000000
-0.0135074000000
-0.0155092000000
-0.0202617000000
-0.0220361000000
-0.0199966000000
-0.0174732000000
-0.0151469000000
-0.0138830000000
-0.0125040000000
-0.0097219200000
-0.0091294500000
-0.0111720000000
-0.0123317000000
-0.0116241000000
-0.0096642500000
-0.0071676900000
-0.0048631700000
-0.0028576400000
-0.0016051300000
-0.0006288720000
0.0007298270000
0.0012130900000
0.0008893470000
0.0006115670000
-0.0011129400000
-0.0043861000000
-0.0063039600000
-0.0061344700000
-0.0048898100000
-0.0040748200000
-0.0057006700000
-0.0083677800000
-0.0099077800000
-0.0098758500000
-0.0075668000000
-0.0040762800000
-0.0015998600000
-0.0001452190000
0.0015453900000
0.0039343300000
0.0063609500000
0.0074617100000
0.0065849500000
0.0057490800000
0.0072644600000
0.0097538100000
0.0106870000000
0.0105488000000
0.0104953000000
0.0102348000000
0.0101362000000
0.0102183000000
0.0092605600000
0.0072726700000
0.0052801600000
0.0037282300000
0.0035346300000
0.0053090100000
0.0069912800000
0.0074375300000
0.0083106500000
0.0095476800000
0.0097832700000
0.0089727200000
0.0068227500000
0.0041620100000
0.0034530300000
0.0043624700000
0.0051333900000
0.0057253000000
0.0064709200000
0.0074417300000
0.0080812500000
0.0082465500000
0.0078749800000
0.0056545900000
0.0027133200000
0.0016748900000
0.0012538100000
0.0007657940000
0.0030483100000
0.0081732300000
0.0133265000000
0.0161579000000
0.0155028000000
0.0120271000000
0.0077825300000
0.0043722400000
0.0025136100000
0.0031871600000
0.0053127100000
0.0062162800000
0.0056918700000
0.0044685800000
0.0024697900000
0.0004423490000
-0.0009438100000
-0.0016137900000
-0.0000122963000
0.0040196400000
0.0061474000000
0.0039976800000
0.0016885300000
0.0019991200000
0.0017835300000
-0.0012492700000
-0.0057612200000
-0.0084217100000
-0.0063140800000
-0.0019822400000
0.0010005200000
0.0027551100000
0.0035944500000
0.0037808900000
0.0033856800000
0.0033307900000
0.0042686900000
0.0045129200000
0.0038360400000
0.0035176200000
0.0033590300000
0.0021594100000
0.0012356700000
0.0021246500000
0.0037784200000
0.0047710400000
0.0041947000000
0.0032073200000
0.0021954300000
0.0006551390000
-0.0007443150000
-0.0028750200000
-0.0052413500000
-0.0055342600000
-0.0047330000000
-0.0043987800000
-0.0037035300000
-0.0028614500000
-0.0027696100000
-0.0030882400000
-0.0027744900000
-0.0018485300000
-0.0020889400000
-0.0032876100000
-0.0038637400000
-0.0037225400000
-0.0034356600000
-0.0033917000000
-0.0033888100000
-0.0033677200000
-0.0025108500000
-0.0000645344000
0.0024969200000
0.0030894100000
0.0014066600000
0.0001182660000
0.0010313500000
0.0025543200000
0.0028613200000
0.0019744600000
0.0010601500000
-0.0000195026000
-0.0013636500000
-0.0028604300000
-0.0046776900000
-0.0047592700000
-0.0035311600000
-0.0037952300000
-0.0048270700000
-0.0049551400000
-0.0033543000000
-0.0010652400000
-0.0010067000000
-0.0020972000000
-0.0011803700000
0.0007661570000
0.0015105800000
0.0003948270000
-0.0022395500000
-0.0044246300000
-0.0045921500000
-0.0045151600000
-0.0070481600000
-0.0104798000000
-0.0107648000000
-0.0077428300000
-0.0041811700000
-0.0032069500000
-0.0042141900000
-0.0039924300000
-0.0028749300000
-0.0016796700000
-0.0013007900000
-0.0036734400000
-0.0061306100000
-0.0062703600000
-0.0060052800000
-0.0056596800000
-0.0049819400000
-0.0044621100000
-0.0039990700000
-0.0044515900000
-0.0066508000000
-0.0084399000000
-0.0073755700000
-0.0054648000000
-0.0055455800000
-0.0067457500000
-0.0066634700000
-0.0047991100000
-0.0026891500000
-0.0024211900000
-0.0042776100000
-0.0057201300000
-0.0042752700000
-0.0004057390000
0.0024861900000
0.0031045600000
0.0038628500000
0.0050021700000
0.0042087800000
0.0016460800000
-0.0009445150000
-0.0024715000000
-0.0031475400000
-0.0045166700000
-0.0052347800000
-0.0042495300000
-0.0024684000000
-0.0001922210000
0.0011704200000
0.0026937700000
0.0056580600000
0.0076158300000
0.0080089100000
0.0086517700000
0.0090369500000
0.0085578500000
0.0082842600000
0.0081662600000
0.0079520100000
0.0079433000000
0.0078828600000
0.0070556500000
0.0059633000000
0.0057265200000
0.0055392600000
0.0046967000000
0.0035199300000
0.0016273800000
-0.0008460680000
-0.0028365900000
-0.0043231400000
-0.0056175500000
-0.0059853500000
-0.0052711800000
-0.0046443000000
-0.0048840500000
-0.0046453200000
-0.0028452200000
-0.0007839670000
0.0011409500000
0.0031143400000
0.0048923400000
0.0070398000000
0.0092667600000
0.0107645000000
0.0107991000000
0.0096750000000
0.0085253800000
0.0070562800000
0.0056190700000
0.0052171400000
0.0056110800000
0.0057434100000
0.0044712400000
0.0025464200000
0.0017963100000
0.0023456800000
0.0028282500000
0.0025740300000
0.0020895900000
0.0007580290000
-0.0019694000000
-0.0048625100000
-0.0073659400000
-0.0091383100000
-0.0098049200000
-0.0103638000000
-0.0108160000000
-0.0103369000000
-0.0095717200000
-0.0099570400000
-0.0115748000000
-0.0116182000000
-0.0088977400000
-0.0060343500000
-0.0042508900000
-0.0031891600000
-0.0022573400000
-0.0004639150000
0.0016994100000
0.0030249700000
0.0033178500000
0.0030476400000
0.0025511900000
0.0023600600000
0.0021933600000
0.0012541000000
-0.0001494760000
-0.0020962700000
-0.0042882600000
-0.0062759800000
-0.0085305500000
-0.0103767000000
-0.0107169000000
-0.0095194700000
-0.0071916300000
-0.0045290300000
-0.0027217100000
-0.0021610700000
-0.0017612800000
-0.0008610810000
-0.0003628840000
-0.0000081827100
0.0010626400000
0.0020988700000
0.0028173100000
0.0032560200000
0.0021349200000
-0.0009208450000
-0.0041277200000
-0.0067123200000
-0.0092640500000
-0.0110201000000
-0.0113445000000
-0.0109543000000
-0.0101841000000
-0.0092026500000
-0.0082479100000
-0.0071452900000
-0.0062406900000
-0.0057005800000
-0.0048140500000
-0.0044627100000
-0.0047853100000
-0.0036409600000
-0.0014360600000
0.0005771720000
0.0022988500000
0.0042275300000
0.0059610100000
0.0056745300000
0.0042443500000
0.0032550900000
0.0033427900000
0.0049572500000
0.0075289500000
0.0099412900000
0.0105683000000
0.0086743000000
0.0057999900000
0.0042926700000
0.0048427100000
0.0070464800000
0.0094788300000
0.0099197300000
0.0086351300000
0.0076744700000
0.0067265600000
0.0046520500000
0.0034266400000
0.0044994600000
0.0060533500000
0.0070530700000
0.0083970400000
0.0101865000000
0.0109582000000
0.0100971000000
0.0088944700000
0.0087717000000
0.0099993900000
0.0115229000000
0.0116785000000
0.0098708200000
0.0070624100000
0.0043805700000
0.0025973500000
0.0020221600000
0.0023270300000
0.0031326400000
0.0043721100000
0.0054177100000
0.0058718100000
0.0067910900000
0.0083203500000
0.0090479100000
0.0080212600000
0.0063327900000
0.0055911500000
0.0052032500000
0.0043112100000
0.0030388300000
0.0013750500000
-0.0000843288000
-0.0007343450000
-0.0008774850000
-0.0003848690000
0.0003226170000
-0.0001708450000
-0.0013916200000
-0.0017635500000
-0.0012000900000
-0.0005454490000
-0.0005639720000
-0.0014073600000
-0.0025013200000
-0.0032497600000
-0.0037706000000
-0.0049094500000
-0.0070450700000
-0.0093796600000
-0.0106348000000
-0.0099032500000
-0.0078158700000
-0.0063946400000
-0.0061515100000
-0.0055731800000
-0.0045651700000
-0.0049592400000
-0.0070605400000
-0.0090357600000
-0.0098412300000
-0.0101598000000
-0.0108979000000
-0.0123669000000
-0.0136703000000
-0.0131240000000
-0.0113528000000
-0.0104425000000
-0.0098412200000
-0.0085289400000
-0.0077261800000
-0.0081644000000
-0.0089075100000
-0.0084566600000
-0.0065913900000
-0.0055956500000
-0.0060417500000
-0.0065293500000
-0.0075178400000
-0.0088697000000
-0.0098231500000
-0.0102723000000
-0.0096904200000
-0.0083093600000
-0.0070796000000
-0.0063208500000
-0.0056999700000
-0.0048092700000
-0.0033143200000
-0.0021700000000
-0.0021414100000
-0.0017777900000
-0.0007327680000
-0.0003410480000
-0.0004339240000
0.0000404815000
0.0016419600000
0.0044356500000
0.0066605000000
0.0071137800000
0.0071244900000
0.0066630800000
0.0049537200000
0.0030378000000
0.0021034300000
0.0025313400000
0.0035057500000
0.0043250000000
0.0058623000000
0.0085216000000
0.0113459000000
0.0132220000000
0.0137760000000
0.0131402000000
0.0117958000000
0.0105336000000
0.0092317400000
0.0072157900000
0.0052329000000
0.0051352800000
0.0065230600000
0.0073352700000
0.0073624200000
0.0077755600000
0.0092206300000
0.0106707000000
0.0107795000000
0.0103058000000
0.0107713000000
0.0112805000000
0.0099497600000
0.0079716700000
0.0071909300000
0.0069411500000
0.0068502400000
0.0070087200000
0.0065064400000
0.0055143800000
0.0044359700000
0.0028028900000
0.0012953000000
0.0009590330000
0.0021056300000
0.0042037900000
0.0058148000000
0.0063324200000
0.0063302300000
0.0059881100000
0.0056771100000
0.0062409900000
0.0071026000000
0.0076789500000
0.0083739700000
0.0094205000000
0.0109675000000
0.0118921000000
0.0113928000000
0.0106266000000
0.0101098000000
0.0095419000000
0.0085524600000
0.0066313300000
0.0042044200000
0.0021839500000
0.0006385470000
-0.0011671200000
-0.0028756300000
-0.0035023400000
-0.0034562700000
-0.0033023100000
-0.0033121800000
-0.0031226000000
-0.0025799600000
-0.0026495200000
-0.0035042900000
-0.0044457900000
-0.0044529300000
-0.0036704500000
-0.0031195700000
-0.0033500400000
-0.0047237300000
-0.0061480600000
-0.0063710400000
-0.0058044000000
-0.0057544200000
-0.0066830200000
-0.0077845700000
-0.0084153700000
-0.0084403700000
-0.0082628600000
-0.0078871300000
-0.0069600600000
-0.0057241000000
-0.0041838700000
-0.0023105700000
-0.0008353290000
-0.0005583280000
-0.0013919100000
-0.0021093900000
-0.0016466300000
-0.0006205330000
0.0000628070000
0.0004119160000
0.0003929910000
-0.0002221460000
-0.0014096400000
-0.0029227200000
-0.0042306400000
-0.0051757200000
-0.0062335100000
-0.0071109300000
-0.0079235800000
-0.0095678100000
-0.0107608000000
-0.0100323000000
-0.0085750000000
-0.0075731800000
-0.0067873500000
-0.0054330300000
-0.0035366900000
-0.0029354900000
-0.0043336200000
-0.0062830600000
-0.0074803000000
-0.0072876000000
-0.0066331700000
-0.0062308300000
-0.0052586700000
-0.0048136300000
-0.0060868800000
-0.0078946100000
-0.0095166600000
-0.0101951000000
-0.0096389300000
-0.0098170900000
-0.0110338000000
-0.0113162000000
-0.0107690000000
-0.0112310000000
-0.0124841000000
-0.0125807000000
-0.0110177000000
-0.0087910900000
-0.0074914400000
-0.0075267200000
-0.0072326100000
-0.0064756600000
-0.0060342100000
-0.0041523000000
-0.0001966120000
0.0029387000000
0.0039254800000
0.0040694200000
0.0041076000000
0.0042163300000
0.0042279700000
0.0037326500000
0.0032008800000
0.0033558800000
0.0037887900000
0.0034570400000
0.0016668200000
-0.0008604010000
-0.0020924900000
-0.0014742600000
-0.0006821000000
-0.0006542730000
-0.0007250540000
-0.0008099160000
-0.0011163900000
-0.0013191800000
-0.0012969500000
-0.0009521480000
-0.0001909670000
0.0012856300000
0.0035163500000
0.0053013100000
0.0060403700000
0.0063095300000
0.0057213100000
0.0042701400000
0.0033813300000
0.0032510200000
0.0036469700000
0.0050310000000
0.0068112300000
0.0082292700000
0.0086338100000
0.0076829700000
0.0061505700000
0.0041316200000
0.0019526000000
0.0007767210000
0.0008743730000
0.0020054000000
0.0032090900000
0.0035017700000
0.0037535200000
0.0049219100000
0.0062478200000
0.0073145700000
0.0085661800000
0.0093518400000
0.0085000700000
0.0069103600000
0.0061973700000
0.0055545000000
0.0044176900000
0.0035807300000
0.0031025300000
0.0030634600000
0.0029917100000
0.0021040600000
0.0012634500000
0.0010722200000
0.0006129260000
0.0001522630000
0.0006170410000
0.0011347500000
0.0005995790000
-0.0010318800000
-0.0029630000000
-0.0038085900000
-0.0030918900000
-0.0016208500000
-0.0004584670000
0.0003951460000
0.0017829400000
0.0031554700000
0.0036040200000
0.0040235300000
0.0048395100000
0.0049182700000
0.0037496000000
0.0021097000000
0.0008655270000
0.0000065553100
-0.0007514330000
-0.0018375500000
-0.0030733800000
-0.0033129900000
-0.0030066800000
-0.0037457600000
-0.0055122600000
-0.0072574600000
-0.0086298900000
-0.0094367900000
-0.0091458300000
-0.0075244000000
-0.0049315900000
-0.0021139800000
0.0000166370000
0.0003843730000
-0.0004145560000
-0.0007835060000
-0.0007989810000
-0.0007715450000
-0.0004571950000
0.0003175500000
0.0015516000000
0.0029042700000
0.0036567000000
0.0028684000000
0.0010665500000
-0.0005555280000
-0.0022810600000
-0.0041997000000
-0.0057999000000
-0.0068719300000
-0.0070888000000
-0.0068214000000
-0.0063448600000
-0.0051013400000
-0.0037046200000
-0.0035612700000
-0.0043739900000
-0.0050449800000
-0.0054158700000
-0.0055879400000
-0.0066945900000
-0.0090435100000
-0.0102362000000
-0.0094758800000
-0.0080951400000
-0.0071492000000
-0.0071222900000
-0.0072064700000
-0.0062192500000
-0.0035965700000
-0.0004896310000
0.0009278170000
0.0009903300000
0.0014463800000
0.0024094400000
0.0030332900000
0.0031327800000
0.0035294700000
0.0043370200000
0.0037395300000
0.0011413400000
-0.0016600800000
-0.0037674200000
-0.0054026200000
-0.0062873100000
-0.0058874300000
-0.0038552200000
-0.0008544780000
0.0012054700000
0.0016489700000
0.0019380900000
0.0027153400000
0.0027205100000
0.0016803500000
0.0007690820000
0.0004258650000
0.0008139810000
0.0010890300000
-0.0006870860000
-0.0035536200000
-0.0048098000000
-0.0046763100000
-0.0048177700000
-0.0054164100000
-0.0056754700000
-0.0048475200000
-0.0028746500000
-0.0003382260000
0.0019404900000
0.0035156300000
0.0048534800000
0.0065216200000
0.0080248300000
0.0083180600000
0.0079539100000
0.0076202500000
0.0065993600000
0.0054175800000
0.0047315500000
0.0038854000000
0.0028745200000
0.0021895300000
0.0016215000000
0.0012430000000
0.0017444100000
0.0030253800000
0.0043450200000
0.0048839900000
0.0046468500000
0.0044095900000
0.0044197500000
0.0043410600000
0.0035846200000
0.0022136300000
0.0010921400000
0.0003063300000
-0.0009704580000
-0.0021231200000
-0.0014674600000
0.0002069420000
0.0007193860000
0.0003050220000
0.0002431310000
0.0007759440000
0.0018654400000
0.0026683900000
0.0026562000000
0.0027279800000
0.0026482300000
0.0020371300000
0.0017222000000
0.0017252600000
0.0017724800000
0.0020551300000
0.0028844200000
0.0043807200000
0.0062829500000
0.0083576900000
0.0106697000000
0.0127332000000
0.0135668000000
0.0138376000000
0.0142345000000
0.0139442000000
0.0130183000000
0.0121499000000
0.0117503000000
0.0116707000000
0.0109485000000
0.0095374700000
0.0084419200000
0.0076914400000
0.0065784100000
0.0053421100000
0.0042523900000
0.0030038800000
0.0019227300000
0.0013298000000
0.0013238800000
0.0016487700000
0.0012490000000
0.0000226011000
-0.0011184400000
-0.0013805500000
-0.0007939050000
-0.0004160830000
-0.0003674820000
0.0004072390000
0.0022344000000
0.0039266900000
0.0048749000000
0.0059320600000
0.0069808500000
0.0074492400000
0.0073926400000
0.0070945500000
0.0069219200000
0.0070511800000
0.0069853800000
0.0057765300000
0.0040626900000
0.0028556500000
0.0019156000000
0.0012840100000
0.0012077000000
0.0015074400000
0.0016069300000
0.0007310720000
-0.0008090810000
-0.0012934800000
-0.0003403250000
-0.0000264532000
-0.0012303600000
-0.0020948500000
-0.0019563800000
-0.0020496100000
-0.0023570800000
-0.0026314400000
-0.0032600500000
-0.0041564700000
-0.0052738100000
-0.0060732200000
-0.0058042900000
-0.0053620500000
-0.0057385800000
-0.0065618500000
-0.0077667800000
-0.0092091600000
-0.0104962000000
-0.0112803000000
-0.0110048000000
-0.0105734000000
-0.0105959000000
-0.0100709000000
-0.0090086000000
-0.0083834300000
-0.0081068700000
-0.0075552500000
-0.0069862300000
-0.0067260500000
-0.0067218000000
-0.0064101500000
-0.0049865900000
-0.0033578900000
-0.0034412500000
-0.0051182500000
-0.0067821300000
-0.0073077700000
-0.0067578200000
-0.0062846700000
-0.0058909800000
-0.0055227500000
-0.0064197600000
-0.0080344200000
-0.0090207200000
-0.0094438800000
-0.0095227000000
-0.0095507200000
-0.0094826900000
-0.0090207400000
-0.0091563100000
-0.0099783500000
-0.0109467000000
-0.0124447000000
-0.0129908000000
-0.0114016000000
-0.0088158500000
-0.0071153500000
-0.0064785600000
-0.0055202300000
-0.0045338400000
-0.0036034900000
-0.0029328200000
-0.0032952600000
-0.0040675800000
-0.0038725700000
-0.0027987500000
-0.0033224900000
-0.0050986600000
-0.0057749800000
-0.0054513000000
-0.0047521100000
-0.0042595800000
-0.0039198700000
-0.0033047700000
-0.0029135800000
-0.0033881400000
-0.0046565500000
-0.0055070100000
-0.0055138600000
-0.0050440600000
-0.0037384400000
-0.0020113500000
-0.0007807150000
0.0006530050000
0.0022250000000
0.0023095000000
0.0014845500000
0.0007083340000
-0.0000783511000
-0.0004595110000
-0.0003685670000
-0.0001654690000
-0.0002286930000
-0.0004153310000
-0.0008538240000
-0.0013694300000
-0.0009384380000
0.0004462760000
0.0020156500000
0.0030806300000
0.0037684400000
0.0045493600000
0.0054989500000
0.0066844600000
0.0078087200000
0.0084593800000
0.0083738500000
0.0078068100000
0.0072216800000
0.0063457600000
0.0053970900000
0.0050993800000
0.0050837100000
0.0042498400000
0.0020439600000
-0.0004821580000
-0.0021538800000
-0.0033520100000
-0.0038167500000
-0.0024232600000
0.0005232420000
0.0033311500000
0.0049025000000
0.0059535900000
0.0068739900000
0.0069345700000
0.0053762900000
0.0024096500000
0.0003961720000
0.0001340740000
0.0000891023000
0.0000251221000
0.0000821809000
0.0004426860000
0.0014290300000
0.0026817500000
0.0035796900000
0.0036554200000
0.0037295300000
0.0048060000000
0.0058356700000
0.0062218200000
0.0057934500000
0.0051606500000
0.0055988200000
0.0062243700000
0.0060634100000
0.0061028000000
0.0066575100000
0.0075309500000
0.0080807200000
0.0077092700000
0.0073502000000
0.0073319600000
0.0072879700000
0.0074642700000
0.0076454000000
0.0075561500000
0.0071916700000
0.0067149000000
0.0069506900000
0.0079298300000
0.0085859200000
0.0088192300000
0.0089523300000
0.0087915300000
0.0087176000000
0.0085230100000
0.0073982700000
0.0062237800000
0.0056789200000
0.0054734300000
0.0056692800000
0.0048491000000
0.0023292200000
0.0000603075000
-0.0009110990000
-0.0007357110000
-0.0001332810000
0.0003636380000
0.0010138400000
0.0012809600000
0.0012918400000
0.0015132500000
0.0013255600000
0.0004539720000
-0.0007724880000
-0.0013670600000
-0.0007259260000
0.0007474710000
0.0021119400000
0.0028309200000
0.0042097000000
0.0063344300000
0.0069852300000
0.0059504800000
0.0043860800000
0.0023199100000
0.0001806870000
-0.0012956600000
-0.0024503300000
-0.0035887500000
-0.0041442300000
-0.0041422800000
-0.0044456300000
-0.0052632900000
-0.0057925900000
-0.0057028300000
-0.0054362600000
-0.0048865500000
-0.0040941600000
-0.0029676500000
-0.0017154100000
-0.0015342900000
-0.0018897900000
-0.0011964000000
0.0003875170000
0.0014606500000
0.0011548700000
-0.0001953560000
-0.0016097000000
-0.0024345400000
-0.0035181100000
-0.0054540400000
-0.0063532700000
-0.0055206700000
-0.0047761600000
-0.0049249300000
-0.0054770900000
-0.0054408700000
-0.0044854100000
-0.0033110200000
-0.0024350900000
-0.0020910000000
-0.0019268600000
-0.0021622300000
-0.0029645700000
-0.0031202700000
-0.0028039500000
-0.0028583200000
-0.0031945600000
-0.0036076500000
-0.0036466100000
-0.0036288300000
-0.0038641500000
-0.0039119300000
-0.0035385200000
-0.0030004300000
-0.0026448900000
-0.0022499100000
-0.0020804000000
-0.0025675500000
-0.0032427800000
-0.0037664600000
-0.0042794400000
-0.0043781400000
-0.0035684700000
-0.0025462700000
-0.0026544700000
-0.0041589100000
-0.0053472800000
-0.0055216200000
-0.0056223500000
-0.0052431300000
-0.0043895300000
-0.0038362800000
-0.0032756100000
-0.0024142600000
-0.0011061400000
0.0003477790000
0.0014530400000
0.0022554000000
0.0025158000000
0.0024849400000
0.0025268900000
0.0026082500000
0.0028938700000
0.0027528600000
0.0020889100000
0.0017555500000
0.0016072900000
0.0016198100000
0.0020232100000
0.0020879100000
0.0015624300000
0.0012283100000
0.0013799700000
0.0013992400000
0.0010979800000
0.0009617590000
0.0009150900000
0.0009704530000
0.0015443200000
0.0022305100000
0.0026497500000
0.0027433500000
0.0022628100000
0.0018684600000
0.0021676400000
0.0024562400000
0.0020941900000
0.0013650200000
0.0008148350000
0.0006396750000
0.0005697820000
0.0005187380000
0.0008117870000
0.0011835600000
0.0013616400000
0.0012797400000
0.0006990130000
0.0002190990000
0.0002985290000
0.0007427230000
0.0014623800000
0.0018877500000
0.0020451200000
0.0026111900000
0.0030321900000
0.0028448300000
0.0023261900000
0.0016975000000
0.0015692400000
0.0018828200000
0.0020261700000
0.0021713800000
0.0022271000000
0.0017876400000
0.0012313800000
0.0008469700000
0.0003201550000
-0.0003163970000
-0.0007881580000
-0.0010919100000
-0.0012784100000
-0.0014141900000
-0.0012862100000
-0.0008177990000
-0.0004883340000
-0.0002173120000
0.0005084440000
0.0014833200000
0.0021139500000
0.0021259100000
0.0018667000000
0.0020983500000
0.0026290000000
0.0025462000000
0.0018755500000
0.0011028100000
0.0006435440000
0.0007195930000
0.0006481470000
-0.0000741914000
-0.0007968400000
-0.0008371620000
-0.0004375280000
-0.0004386420000
-0.0009494590000
-0.0015274500000
-0.0022159600000
-0.0027029900000
-0.0026335000000
-0.0024484700000
-0.0023815600000
-0.0022431100000
-0.0021313600000
-0.0020894700000
-0.0017352300000
-0.0012190900000
-0.0011691600000
-0.0014680800000
-0.0016008200000
-0.0015761200000
-0.0016398800000
-0.0018348200000
-0.0019691700000
-0.0016736100000
-0.0010598100000
-0.0006255360000
-0.0003913330000
-0.0002063050000
-0.0003014500000
-0.0007874210000
-0.0012963100000
-0.0017892000000
-0.0021911500000
-0.0022635100000
-0.0024302200000
-0.0026170500000
-0.0025377000000
-0.0024521200000
-0.0022714200000
-0.0020449600000
-0.0019423100000
-0.0017723600000
-0.0015195000000
-0.0013272900000
-0.0012374400000
-0.0011950200000
-0.0011704000000
-0.0012944700000
-0.0015533900000
-0.0015978300000
-0.0011761700000
-0.0006070900000
-0.0003268600000
-0.0001195790000
0.0002140320000
0.0003991340000
0.0004182480000
0.0003772990000
0.0002221450000
0.0000817686000
-0.0000319994000
-0.0002443940000
-0.0002531850000
0.0000689932000
0.0004489540000
0.0008491060000
0.0012292200000
0.0015712600000
0.0019703400000
0.0022758800000
0.0023562900000
0.0023270200000
0.0022806700000
0.0021220200000
0.0017451100000
0.0012337000000
0.0007920890000
0.0005278070000
0.0003743950000
0.0002542900000
0.0001470210000
0.0000857553000
0.0001097210000
0.0001362960000
0.0001602910000
0.0003083270000
0.0005640140000
0.0007663910000
0.0008084310000
0.0008157210000
0.0009273700000
0.0010967900000
0.0012557700000
0.0013508200000
0.0013816300000
0.0013998300000
0.0014203600000
0.0013986600000
0.0013195000000
0.0012373000000
0.0011586700000
0.0010785100000
0.0010174200000
0.0009374920000
0.0008085420000
0.0007184090000
0.0007062390000
0.0006838740000
0.0006489080000
0.0006097770000
0.0005258010000
0.0004389630000
0.0003448070000
0.0002088850000
0.0001634530000
0.0002679200000
0.0003481240000
0.0003606080000
0.0003936510000
0.0004463690000
0.0005160570000
0.0005526630000
0.0005139200000
0.0004580420000
0.0004107260000
0.0003902430000
0.0003981740000
0.0003842680000
0.0003472360000
0.0003127600000
0.0002779890000
0.0002252650000
0.0001689400000
0.0001447550000
0.0001374060000
0.0001218100000
0.0001086520000
0.0001185870000
0.0001637940000
0.0002185060000
0.0002565900000
0.0003014340000
0.0003498480000
0.0003493250000
0.0003001360000
0.0002397710000
0.0001724430000
0.0000939088000
0.0000265950000
0.0000125905000
0.0000411307000
0.0000543742000
0.0000290738000
-0.0000215449000
-0.0000596922000
-0.0000690549000
-0.0000756435000
-0.0000821517000
-0.0000829291000
-0.0000879936000
-0.0000905395000
-0.0000878768000
-0.0000859902000
-0.0000839465000
-0.0000834605000
-0.0000798290000
-0.0000698075000
-0.0000655136000
-0.0000749994000
-0.0000908741000
-0.0001035960000
-0.0001098630000
-0.0001114670000
-0.0001165050000
-0.0001274170000
-0.0001333140000
-0.0001330240000
-0.0001360780000
-0.0001426960000
-0.0001464700000
-0.0001444440000
-0.0001419450000
-0.0001450010000
-0.0001513800000
-0.0001550250000
-0.0001550560000
-0.0001566230000
-0.0001619570000
-0.0001678990000
-0.0001724540000
-0.0001778100000
-0.0001830520000
-0.0001854160000
-0.0001897020000
-0.0001989110000
-0.0002084240000
-0.0002138810000
-0.0002161060000
-0.0002200360000
-0.0002257790000
-0.0002295700000
-0.0002312580000
-0.0002330900000
-0.0002360340000
-0.0002393670000
-0.0002429310000
-0.0002463450000
-0.0002490790000
-0.0002518870000
-0.0002550530000
-0.0002581700000
-0.0002611340000
-0.0002640550000
-0.0002669960000
-0.0002700230000
-0.0002731290000
-0.0002760220000
-0.0002786940000
-0.0002813200000
-0.0002838350000
-0.0002862730000
-0.0002886740000
-0.0002909970000
-0.0002932210000
-0.0002953370000
-0.0002973930000
-0.0002994060000
-0.0003013510000
-0.0003032290000
-0.0003050430000
-0.0003067880000
-0.0003084650000
-0.0003100710000
-0.0003116090000
-0.0003130790000
-0.0003144810000
-0.0003158150000
-0.0003170820000
0.0000000000000
0.0000000000000
0.0000000000000
0.0000000000000
