0.02 0.000131573 0.000131573 1.28777e-05 1.28777e-05 3.3402e-05 3.3402e-05 -8.64388e-05 -8.64388e-05 0.000112093 0.000112093 -2.37118e-05 -2.37118e-05 4.00529e-05 4.00529e-05 -9.15331e-05 -9.15331e-05 9.79412e-05 9.79412e-05 -2.86619e-05 -2.86619e-05 6.0913e-06 6.0913e-06 -0.000114387 -0.000114387
0.04 0.000268603 0.000268603 3.11586e-05 3.11586e-05 7.22225e-05 7.22225e-05 -0.000167498 -0.000167498 0.000226644 0.000226644 -4.49368e-05 -4.49368e-05 8.25888e-05 8.25888e-05 -0.000180586 -0.000180586 0.000194778 0.000194778 -5.84261e-05 -5.84261e-05 1.10891e-05 1.10891e-05 -0.000229887 -0.000229887
0.06 0.000406756 0.000406756 5.05442e-05 5.05442e-05 0.000112163 0.000112163 -0.000247448 -0.000247448 0.000341565 0.000341565 -6.57902e-05 -6.57902e-05 0.000125505 0.000125505 -0.000269262 -0.000269262 0.000291397 0.000291397 -8.84138e-05 -8.84138e-05 1.58783e-05 1.58783e-05 -0.000345606 -0.000345606
0.08 0.000545142 0.000545142 7.01529e-05 7.01529e-05 0.000152341 0.000152341 -0.000327167 -0.000327167 0.000456543 0.000456543 -8.65905e-05 -8.65905e-05 0.000168483 0.000168483 -0.00035788 -0.00035788 0.000387971 0.000387971 -0.000118453 -0.000118453 2.06316e-05 2.06316e-05 -0.000461371 -0.000461371
0.1 0.000683581 0.000683581 8.98043e-05 8.98043e-05 0.000192576 0.000192576 -0.000406835 -0.000406835 0.000571532 0.000571532 -0.000107386 -0.000107386 0.000211477 0.000211477 -0.000446488 -0.000446488 0.000484534 0.000484534 -0.000148511 -0.000148511 2.53824e-05 2.53824e-05 -0.000577148 -0.000577148
0.12 0.000822035 0.000822035 0.000109461 0.000109461 0.000232832 0.000232832 -0.000486487 -0.000486487 0.000686523 0.000686523 -0.000128185 -0.000128185 0.000254478 0.000254478 -0.000535094 -0.000535094 0.000581087 0.000581087 -0.000178584 -0.000178584 3.01332e-05 3.01332e-05 -0.000692935 -0.000692935
0.14 0.000960497 0.000960497 0.000129117 0.000129117 0.0002731 0.0002731 -0.000566133 -0.000566133 0.000801515 0.000801515 -0.000148989 -0.000148989 0.000297486 0.000297486 -0.000623698 -0.000623698 0.000677641 0.000677641 -0.000208664 -0.000208664 3.48925e-05 3.48925e-05 -0.000808722 -0.000808722
0.16 0.00109896 0.00109896 0.000148769 0.000148769 0.00031338 0.00031338 -0.000645772 -0.000645772 0.000916508 0.000916508 -0.000169797 -0.000169797 0.000340499 0.000340499 -0.0007123 -0.0007123 0.000774195 0.000774195 -0.00023875 -0.00023875 3.96617e-05 3.96617e-05 -0.000924509 -0.000924509
0.18 0.00123744 0.00123744 0.000168418 0.000168418 0.000353671 0.000353671 -0.000725406 -0.000725406 0.0010315 0.0010315 -0.000190609 -0.000190609 0.000383519 0.000383519 -0.000800902 -0.000800902 0.000870742 0.000870742 -0.000268851 -0.000268851 4.44328e-05 4.44328e-05 -0.0010403 -0.0010403
0.2 0.00137592 0.00137592 0.000188062 0.000188062 0.000393974 0.000393974 -0.000805035 -0.000805035 0.0011465 0.0011465 -0.000211426 -0.000211426 0.000426544 0.000426544 -0.000889503 -0.000889503 0.00096728 0.00096728 -0.000298966 -0.000298966 4.92047e-05 4.92047e-05 -0.00115611 -0.00115611
0.22 0.0015144 0.0015144 0.000207704 0.000207704 0.000434287 0.000434287 -0.000884658 -0.000884658 0.0012615 0.0012615 -0.000232248 -0.000232248 0.000469576 0.000469576 -0.000978102 -0.000978102 0.00106382 0.00106382 -0.000329082 -0.000329082 5.39911e-05 5.39911e-05 -0.00127191 -0.00127191
0.24 0.00165289 0.00165289 0.000227341 0.000227341 0.000474611 0.000474611 -0.000964276 -0.000964276 0.00137649 0.00137649 -0.000253074 -0.000253074 0.000512613 0.000512613 -0.0010667 -0.0010667 0.00116035 0.00116035 -0.00035922 -0.00035922 5.8772e-05 5.8772e-05 -0.00138772 -0.00138772
0.26 0.00179139 0.00179139 0.000246975 0.000246975 0.000514947 0.000514947 -0.00104389 -0.00104389 0.00149149 0.00149149 -0.000273905 -0.000273905 0.000555656 0.000555656 -0.0011553 -0.0011553 0.00125689 0.00125689 -0.000389361 -0.000389361 6.35652e-05 6.35652e-05 -0.00150353 -0.00150353
0.28 0.00192989 0.00192989 0.000266605 0.000266605 0.000555293 0.000555293 -0.0011235 -0.0011235 0.00160649 0.00160649 -0.000294741 -0.000294741 0.000598706 0.000598706 -0.00124389 -0.00124389 0.00135341 0.00135341 -0.000419517 -0.000419517 6.83601e-05 6.83601e-05 -0.00161935 -0.00161935
0.3 0.0020684 0.0020684 0.000286232 0.000286232 0.000595651 0.000595651 -0.0012031 -0.0012031 0.0017215 0.0017215 -0.000315581 -0.000315581 0.000641761 0.000641761 -0.00133249 -0.00133249 0.00144994 0.00144994 -0.00044968 -0.00044968 7.31634e-05 7.31634e-05 -0.00173517 -0.00173517
0.32 0.00220691 0.00220691 0.000305854 0.000305854 0.000636019 0.000636019 -0.00128269 -0.00128269 0.0018365 0.0018365 -0.000336426 -0.000336426 0.000684823 0.000684823 -0.00142108 -0.00142108 0.00154646 0.00154646 -0.000479854 -0.000479854 7.79714e-05 7.79714e-05 -0.00185099 -0.00185099
0.34 0.00234543 0.00234543 0.000325473 0.000325473 0.000676399 0.000676399 -0.00136228 -0.00136228 0.0019515 0.0019515 -0.000357275 -0.000357275 0.00072789 0.00072789 -0.00150967 -0.00150967 0.00164298 0.00164298 -0.000510038 -0.000510038 8.2785e-05 8.2785e-05 -0.00196682 -0.00196682
0.36 0.00248395 0.00248395 0.000345089 0.000345089 0.000716789 0.000716789 -0.00144187 -0.00144187 0.00206651 0.00206651 -0.000378129 -0.000378129 0.000770964 0.000770964 -0.00159827 -0.00159827 0.00173949 0.00173949 -0.000540234 -0.000540234 8.76027e-05 8.76027e-05 -0.00208266 -0.00208266
0.38 0.00262248 0.00262248 0.000364701 0.000364701 0.000757191 0.000757191 -0.00152145 -0.00152145 0.00218151 0.00218151 -0.000398988 -0.000398988 0.000814043 0.000814043 -0.00168686 -0.00168686 0.001836 0.001836 -0.000570438 -0.000570438 9.24277e-05 9.24277e-05 -0.00219849 -0.00219849
0.4 0.00276102 0.00276102 0.000384309 0.000384309 0.000797604 0.000797604 -0.00160102 -0.00160102 0.00229652 0.00229652 -0.000419851 -0.000419851 0.000857129 0.000857129 -0.00177544 -0.00177544 0.00193251 0.00193251 -0.000600652 -0.000600652 9.72591e-05 9.72591e-05 -0.00231433 -0.00231433
0.42 0.00289956 0.00289956 0.000403913 0.000403913 0.000838028 0.000838028 -0.00168059 -0.00168059 0.00241153 0.00241153 -0.000440719 -0.000440719 0.00090022 0.00090022 -0.00186403 -0.00186403 0.00202901 0.00202901 -0.00063088 -0.00063088 0.000102092 0.000102092 -0.00243018 -0.00243018
0.44 0.0030381 0.0030381 0.000423514 0.000423514 0.000878464 0.000878464 -0.00176016 -0.00176016 0.00252654 0.00252654 -0.000461591 -0.000461591 0.000943318 0.000943318 -0.00195262 -0.00195262 0.00212551 0.00212551 -0.000661114 -0.000661114 0.000106936 0.000106936 -0.00254602 -0.00254602
0.46 0.00317666 0.00317666 0.000443111 0.000443111 0.00091891 0.00091891 -0.00183971 -0.00183971 0.00264155 0.00264155 -0.000482468 -0.000482468 0.000986421 0.000986421 -0.0020412 -0.0020412 0.00222201 0.00222201 -0.000691364 -0.000691364 0.000111779 0.000111779 -0.00266188 -0.00266188
0.48 0.00331521 0.00331521 0.000462704 0.000462704 0.000959367 0.000959367 -0.00191927 -0.00191927 0.00275656 0.00275656 -0.00050335 -0.00050335 0.00102953 0.00102953 -0.00212979 -0.00212979 0.0023185 0.0023185 -0.00072162 -0.00072162 0.000116632 0.000116632 -0.00277774 -0.00277774
0.5 0.00345378 0.00345378 0.000482293 0.000482293 0.000999836 0.000999836 -0.00199881 -0.00199881 0.00287158 0.00287158 -0.000524236 -0.000524236 0.00107265 0.00107265 -0.00221837 -0.00221837 0.00241499 0.00241499 -0.000751886 -0.000751886 0.000121491 0.000121491 -0.0028936 -0.0028936
0.52 0.00359235 0.00359235 0.000501879 0.000501879 0.00104032 0.00104032 -0.00207835 -0.00207835 0.00298659 0.00298659 -0.000545127 -0.000545127 0.00111577 0.00111577 -0.00230695 -0.00230695 0.00251147 0.00251147 -0.000782169 -0.000782169 0.000126349 0.000126349 -0.00300947 -0.00300947
0.54 0.00373092 0.00373092 0.000521462 0.000521462 0.00108081 0.00108081 -0.00215789 -0.00215789 0.00310161 0.00310161 -0.000566023 -0.000566023 0.0011589 0.0011589 -0.00239554 -0.00239554 0.00260795 0.00260795 -0.00081246 -0.00081246 0.000131214 0.000131214 -0.00312534 -0.00312534
0.56 0.0038695 0.0038695 0.00054104 0.00054104 0.00112131 0.00112131 -0.00223742 -0.00223742 0.00321663 0.00321663 -0.000586923 -0.000586923 0.00120203 0.00120203 -0.00248412 -0.00248412 0.00270443 0.00270443 -0.000842754 -0.000842754 0.000136093 0.000136093 -0.00324121 -0.00324121
0.58 0.00400809 0.00400809 0.000560615