0.1 5.19 -0.122873 0.0456187 -1.47016e-10 -7.17925e-13 1.4874e-12 -4.21 0.122873 -0.0456187 1.47016e-10 6.56909 -17.6937
0.2 10.38 -0.245733 0.0912313 -8.11641e-10 -8.34131e-13 1.64571e-12 -8.42 0.245733 -0.0912313 8.11641e-10 13.1373 -35.3856
0.3 15.57 -0.368581 0.136838 -8.67524e-10 -9.60616e-13 1.79425e-12 -12.63 0.368581 -0.136838 8.67524e-10 19.7046 -53.0756
0.4 20.76 -0.491415 0.182438 -2.14849e-09 -1.03827e-12 1.8544e-12 -16.84 0.491415 -0.182438 2.14849e-09 26.2711 -70.7637
0.5 25.95 -0.614236 0.228032 -2.37068e-09 -1.08419e-12 1.88692e-12 -21.05 0.614236 -0.228032 2.37068e-09 32.8366 -88.4499
0.6 31.14 -0.737044 0.27362 -2.22084e-09 -1.09111e-12 1.87531e-12 -25.26 0.737044 -0.27362 2.22084e-09 39.4013 -106.134
0.7 36.33 -0.859838 0.319202 -2.27595e-09 -1.11506e-12 1.91883e-12 -29.47 0.859838 -0.319202 2.27595e-09 45.9651 -123.817
0.8 41.52 -0.98262 0.364778 -2.33231e-09 -1.1244e-12 2.00639e-12 -33.68 0.98262 -0.364778 2.33231e-09 52.528 -141.497
0.9 46.71 -1.10539 0.410347 -1.31513e-09 -1.16778e-12 1.98374e-12 -37.89 1.10539 -0.410347 1.31513e-09 59.09 -159.176
1 51.9 -1.22814 0.455911 -8.0337e-10 -1.17222e-12 2.15933e-12 -42.1 1.22814 -0.455911 8.0337e-10 65.6512 -176.853
