load	4	1.00E-12	-54.78	3268.8	;
load	6	1.00E-12	-54.78	-3268.8	;
load	7	1.00E-12	-54.78	3268.8	;
load	9	1.00E-12	-54.78	-3268.8	;
load	10	1.00E-12	-54.78	3268.8	;
load	12	1.00E-12	-54.78	-3268.8	;
