-0.0065634400000
-0.0012980500000
-0.0007092870000
-0.0002877470000
0.0019443500000
0.0009879950000
0.0001530760000
-0.0019119000000
-0.0033077000000
-0.0011742400000
0.0030686400000
0.0046922200000
0.0031140800000
0.0013626000000
0.0033790600000
0.0052487000000
0.0037452600000
0.0042675900000
0.0081876100000
0.0081898600000
0.0071068900000
0.0069032200000
0.0068597500000
0.0044672700000
0.0030581400000
0.0001782180000
-0.0065409200000
-0.0046971100000
0.0012563500000
0.0032420600000
0.0003675230000
-0.0081628500000
-0.0103324000000
-0.0064299400000
-0.0067063000000
-0.0095009900000
-0.0108615000000
-0.0101106000000
-0.0073909700000
-0.0054424300000
-0.0065977100000
-0.0057873800000
0.0024577800000
0.0066505300000
-0.0021616600000
-0.0064062300000
-0.0035107600000
-0.0019320400000
-0.0042904700000
-0.0064132300000
-0.0029208400000
0.0005195950000
0.0003003190000
-0.0020782400000
-0.0059020900000
-0.0083397100000
-0.0051682900000
-0.0046457500000
-0.0092680500000
-0.0090677300000
-0.0012816200000
0.0055865400000
0.0080952800000
0.0073370000000
0.0026324000000
0.0010582400000
-0.0017745600000
-0.0049530800000
-0.0076154300000
-0.0066016500000
-0.0057714200000
-0.0113110000000
-0.0159622000000
-0.0179756000000
-0.0122838000000
-0.0088125400000
-0.0142458000000
-0.0185713000000
-0.0219615000000
-0.0171895000000
-0.0015157100000
0.0095181400000
0.0156142000000
0.0109096000000
0.0039844200000
-0.0004875730000
-0.0075911200000
-0.0119549000000
-0.0099874800000
-0.0079822800000
-0.0081639000000
-0.0091829000000
-0.0133577000000
-0.0128385000000
-0.0093509700000
-0.0050667900000
-0.0021779300000
-0.0012841400000
-0.0068979100000
-0.0093690000000
-0.0032220700000
-0.0017721900000
-0.0064402200000
0.0001219950000
0.0067913600000
0.0075600600000
0.0072619000000
-0.0047427600000
-0.0109966000000
-0.0100186000000
-0.0105818000000
-0.0081308300000
-0.0069262600000
0.0012714800000
0.0230822000000
0.0203497000000
0.0003710900000
-0.0087199900000
-0.0124234000000
-0.0005003340000
0.0075885800000
0.0086874800000
0.0105361000000
0.0070767400000
0.0086113100000
0.0148420000000
0.0161166000000
0.0150258000000
0.0105089000000
-0.0026218800000
-0.0117715000000
-0.0111475000000
-0.0003938350000
0.0083770100000
0.0096121400000
-0.0049443200000
-0.0242386000000
-0.0206298000000
-0.0066975800000
-0.0012782000000
0.0000255302000
-0.0001609200000
-0.0003952680000
0.0084055900000
0.0159121000000
0.0011194200000
-0.0126165000000
-0.0127364000000
-0.0044208600000
-0.0013144100000
-0.0168852000000
-0.0305076000000
-0.0367667000000
-0.0419507000000
-0.0329831000000
-0.0055606300000
0.0119791000000
0.0093310300000
-0.0040698400000
-0.0093545300000
-0.0013689800000
0.0162495000000
0.0238281000000
0.0029865700000
-0.0168533000000
-0.0145551000000
-0.0089275500000
-0.0078848600000
-0.0133048000000
-0.0163798000000
-0.0058602100000
0.0066892500000
0.0158513000000
0.0167219000000
0.0143529000000
0.0014056100000
-0.0124678000000
-0.0130170000000
-0.0112028000000
-0.0097454900000
-0.0030841500000
0.0086751900000
0.0138260000000
0.0126375000000
0.0085319100000
0.0056962200000
0.0094528200000
0.0157442000000
0.0007675280000
-0.0221457000000
-0.0299894000000
-0.0268028000000
-0.0147115000000
0.0071401200000
0.0240040000000
0.0225702000000
0.0164403000000
0.0088242900000
0.0008523490000
0.0072083900000
0.0188328000000
0.0287629000000
0.0382423000000
0.0463039000000
0.0443869000000
0.0307451000000
-0.0022084400000
-0.0624010000000
-0.1111460000000
-0.1340820000000
-0.1013580000000
0.0180689000000
0.1638540000000
0.2181740000000
0.2326330000000
0.2368470000000
0.2564240000000
0.2466520000000
0.2744060000000
0.1922520000000
-0.0141082000000
-0.1093320000000
-0.2429390000000
-0.2960640000000
-0.2658000000000
-0.2737440000000
-0.2814990000000
-0.2876280000000
-0.2465310000000
-0.0311683000000
0.1384680000000
0.2804680000000
0.3922500000000
0.3527300000000
0.2881260000000
0.1615260000000
0.0489116000000
0.0515887000000
0.0915989000000
0.1359300000000
0.1575450000000
0.1137010000000
0.0501584000000
-0.0224056000000
-0.1458210000000
-0.2790460000000
-0.3846600000000
-0.4380490000000
-0.4645090000000
-0.4785130000000
-0.4727040000000
-0.4376200000000
-0.3140050000000
-0.1289780000000
0.0146734000000
0.1477080000000
0.2704080000000
0.4019220000000
0.5338260000000
0.5489270000000
0.5370520000000
0.5114770000000
0.4958310000000
0.2467790000000
0.0496309000000
0.0049023300000
-0.1090730000000
-0.1993490000000
-0.2833590000000
-0.3343410000000
-0.3482700000000
-0.3459210000000
-0.2335550000000
0.0085250000000
0.1081430000000
0.1239530000000
0.1446100000000
0.1239800000000
0.1613790000000
0.2081020000000
0.2376360000000
0.2714440000000
0.2720840000000
0.2141330000000
0.0386090000000
-0.0702056000000
-0.1495370000000
-0.2215940000000
-0.2462130000000
-0.1222190000000
0.0548692000000
0.1221940000000
0.1065220000000
0.0248082000000
-0.0454114000000
-0.0626614000000
-0.0267500000000
-0.0253544000000
-0.0397493000000
-0.0493971000000
-0.0639787000000
-0.0943090000000
-0.1838340000000
-0.2019900000000
-0.1532420000000
-0.1535470000000
-0.0974534000000
-0.0360489000000
0.0144856000000
0.0629729000000
0.0848545000000
0.0002032970000
-0.1384590000000
-0.1897630000000
-0.2608150000000
-0.2799590000000
-0.2928880000000
-0.2270060000000
-0.0053700200000
0.1218930000000
0.2186700000000
0.3346870000000
0.3705560000000
0.3646660000000
0.2527070000000
0.1360740000000
0.1014030000000
0.0447436000000
0.0162529000000
0.0129073000000
0.0281523000000
0.0231972000000
-0.0057523500000
-0.0300752000000
-0.0500262000000
-0.0633748000000
-0.0560837000000
-0.0079833900000
0.0237521000000
0.0203322000000
0.0140340000000
0.0047879700000
-0.0187758000000
-0.0386685000000
-0.0326308000000
-0.0205455000000
-0.0249352000000
-0.0410090000000
-0.0406730000000
-0.0245657000000
-0.0275774000000
-0.0616428000000
-0.1173060000000
-0.1363870000000
-0.0772708000000
-0.0069442900000
0.0412339000000
0.0796967000000
0.1058860000000
0.1245570000000
0.1178110000000
0.0651275000000
-0.0022530100000
-0.0576679000000
-0.0954949000000
-0.0834286000000
-0.0303164000000
0.0088676600000
0.0259586000000
0.0449099000000
0.0530595000000
0.0581635000000
0.0429796000000
0.0080240500000
-0.0147904000000
-0.0305097000000
-0.0325049000000
-0.0359475000000
-0.0350897000000
-0.0090665100000
0.0124545000000
0.0180624000000
0.0168884000000
0.0187265000000
0.0316601000000
0.0854978000000
0.1309670000000
0.1315210000000
0.0789569000000
-0.0047278600000
-0.0661837000000
-0.1230110000000
-0.1561670000000
-0.1630710000000
-0.1371360000000
-0.1175550000000
-0.1123100000000
-0.0908948000000
-0.0298291000000
0.0272463000000
0.0404556000000
0.0308424000000
0.0012362100000
-0.0040368300000
-0.0013232600000
-0.0043614600000
-0.0065907800000
-0.0009936290000
0.0145077000000
0.0288739000000
0.0346424000000
0.0287320000000
0.0240293000000
0.0218949000000
0.0140751000000
0.0061022600000
0.0140557000000
0.0307884000000
0.0440051000000
0.0522473000000
0.0483137000000
0.0360662000000
0.0094223700000
-0.0220725000000
-0.0385510000000
-0.0442185000000
-0.0452184000000
-0.0353299000000
-0.0161858000000
-0.0030066700000
0.0032578800000
0.0018081800000
-0.0020436000000
-0.0009667280000
0.0095216900000
0.0197969000000
0.0352661000000
0.0566859000000
0.0737023000000
0.0709114000000
0.0617578000000
0.0586783000000
0.0529467000000
0.0376578000000
0.0005419580000
-0.0337546000000
-0.0729431000000
-0.1037500000000
-0.1131740000000
-0.1156220000000
-0.1006380000000
-0.0735972000000
-0.0435297000000
0.0027007800000
0.0430428000000
0.0549819000000
0.0574707000000
0.0513344000000
0.0403695000000
0.0395882000000
0.0420210000000
0.0343578000000
0.0014241200000
-0.0364413000000
-0.0618626000000
-0.0791178000000
-0.0935844000000
-0.1121560000000
-0.1163110000000
-0.0961176000000
-0.0388689000000
0.0167865000000
0.0444461000000
0.0542056000000
0.0468792000000
0.0311979000000
0.0211695000000
0.0241430000000
0.0331386000000
0.0366110000000
0.0384503000000
0.0462699000000
0.0477206000000
0.0383552000000
0.0081951600000
-0.0225045000000
-0.0284814000000
-0.0198774000000
0.0071131900000
0.0297861000000
0.0360492000000
0.0303294000000
-0.0067217000000
-0.0362085000000
-0.0518325000000
-0.0660744000000
-0.0731976000000
-0.0741519000000
-0.0676123000000
-0.0530055000000
-0.0296726000000
-0.0027237400000
0.0240221000000
0.0404344000000
0.0438498000000
0.0354761000000
0.0294198000000
0.0289256000000
0.0297696000000
0.0228892000000
0.0067736600000
-0.0012593500000
-0.0049869400000
-0.0006299930000
0.0141473000000
0.0183257000000
0.0051856200000
-0.0057339500000
-0.0075428800000
0.0022456000000
0.0179521000000
0.0314524000000
0.0419100000000
0.0433345000000
0.0363645000000
0.0052785100000
-0.0266061000000
-0.0382773000000
-0.0430228000000
-0.0314747000000
0.0067891600000
0.0400744000000
0.0511166000000
0.0517231000000
0.0347693000000
0.0063507300000
-0.0148279000000
-0.0238603000000
-0.0263179000000
-0.0262427000000
-0.0267684000000
-0.0303367000000
-0.0283011000000
-0.0138541000000
0.0092179700000
0.0284130000000
0.0355578000000
0.0309226000000
0.0154653000000
-0.0087233000000
-0.0333974000000
-0.0533530000000
-0.0644467000000
-0.0661025000000
-0.0624858000000
-0.0523687000000
-0.0282888000000
0.0082003900000
0.0354749000000
0.0478840000000
0.0458040000000
0.0314105000000
0.0152086000000
0.0026093100000
-0.0000521033000
0.0039725900000
0.0024127800000
0.0006204190000
-0.0019022600000
-0.0054551400000
-0.0073668300000
-0.0086461200000
-0.0125825000000
-0.0215944000000
-0.0327922000000
-0.0344896000000
-0.0221968000000
0.0027501700000
0.0352655000000
0.0548310000000
0.0631091000000
0.0639759000000
0.0545122000000
0.0208939000000
-0.0167311000000
-0.0393416000000
-0.0507667000000
-0.0395663000000
-0.0061165800000
0.0257317000000
0.0467742000000
0.0585703000000
0.0583815000000
0.0510710000000
0.0256830000000
-0.0022661400000
-0.0195502000000
-0.0404552000000
-0.0574629000000
-0.0688523000000
-0.0734731000000
-0.0642748000000
-0.0480600000000
-0.0286761000000
-0.0070114300000
0.0125153000000
0.0257803000000
0.0321256000000
0.0254220000000
0.0009816570000
-0.0271623000000
-0.0428266000000
-0.0430848000000
-0.0373158000000
-0.0280900000000
-0.0213601000000
-0.0185940000000
-0.0172508000000
-0.0177640000000
-0.0170226000000
-0.0160476000000
-0.0166240000000
-0.0205756000000
-0.0243874000000
-0.0192529000000
-0.0065009700000
0.0074157900000
0.0227830000000
0.0316232000000
0.0399014000000
0.0381112000000
0.0205467000000
0.0023538500000
-0.0084715300000
-0.0125904000000
-0.0075731400000
0.0014812800000
0.0102674000000
0.0293464000000
0.0485050000000
0.0624034000000
0.0700879000000
0.0684283000000
0.0610097000000
0.0581107000000
0.0555810000000
0.0450718000000
0.0224563000000
0.0017164700000
-0.0089395900000
-0.0125169000000
-0.0059798100000
-0.0000312950000
-0.0109505000000
-0.0338201000000
-0.0645212000000
-0.0925754000000
-0.1047330000000
-0.0984325000000
-0.0610109000000
-0.0271919000000
-0.0133782000000
-0.0012403200000
0.0091258000000
0.0183791000000
0.0257862000000
0.0211960000000
0.0076513100000
-0.0015227200000
-0.0006140490000
0.0034821200000
0.0088920400000
0.0172640000000
0.0215101000000
0.0157184000000
0.0029060400000
-0.0126726000000
-0.0300607000000
-0.0421764000000
-0.0419267000000
-0.0292585000000
-0.0137485000000
0.0010800600000
0.0090205800000
0.0069875300000
0.0084337100000
0.0133101000000
0.0133212000000
0.0129630000000
0.0142786000000
0.0099341800000
-0.0002619430000
-0.0076449100000
-0.0100850000000
-0.0080288400000
-0.0027577000000
0.0025348700000
0.0146676000000
0.0285954000000
0.0346142000000
0.0421518000000
0.0484664000000
0.0460212000000
0.0363606000000
0.0229494000000
0.0134539000000
0.0145635000000
0.0210422000000
0.0163918000000
0.0023675700000
-0.0114772000000
-0.0212643000000
-0.0210830000000
-0.0118972000000
0.0040778000000
0.0149691000000
0.0147342000000
0.0092616200000
0.0036564300000
0.0005614560000
0.0034273600000
0.0123510000000
0.0201129000000
0.0156032000000
0.0007119200000
-0.0120680000000
-0.0137064000000
-0.0070043200000
0.0040123800000
0.0127993000000
0.0136191000000
0.0105363000000
0.0032592900000
-0.0042248000000
-0.0033224500000
0.0026635700000
0.0133396000000
0.0257811000000
0.0274709000000
0.0183905000000
-0.0121354000000
-0.0326429000000
-0.0319283000000
-0.0308220000000
-0.0284101000000
-0.0201046000000
-0.0003863640000
0.0132986000000
0.0162796000000
0.0146747000000
0.0127638000000
0.0054663400000
-0.0154614000000
-0.0366667000000
-0.0442579000000
-0.0459241000000
-0.0409357000000
-0.0286849000000
-0.0091738100000
0.0111441000000
0.0211142000000
0.0219695000000
0.0138273000000
0.0039379400000
-0.0069235200000
-0.0129012000000
-0.0152324000000
-0.0176014000000
-0.0139064000000
-0.0064497300000
-0.0029108600000
-0.0091374700000
-0.0179600000000
-0.0225220000000
-0.0248797000000
-0.0271416000000
-0.0220973000000
-0.0089653300000
0.0004068750000
0.0053461600000
0.0082536000000
0.0074074300000
0.0062705600000
0.0058782800000
0.0034082500000
-0.0020850600000
-0.0077272900000
-0.0093415500000
-0.0038964000000
0.0113132000000
0.0320991000000
0.0463306000000
0.0509097000000
0.0461599000000
0.0296822000000
0.0120070000000
0.0007301830000
-0.0041195800000
-0.0114541000000
-0.0145341000000
-0.0058597400000
0.0040886400000
0.0167665000000
0.0323330000000
0.0448957000000
0.0489800000000
0.0481194000000
0.0276442000000
0.0095721400000
0.0065552400000
0.0055701800000
0.0029418900000
-0.0016550000000
-0.0033877400000
-0.0119718000000
-0.0106670000000
-0.0062848900000
-0.0042824200000
-0.0068515900000
-0.0154133000000
-0.0147603000000
0.0088437300000
0.0362840000000
0.0467238000000
0.0224286000000
-0.0159712000000
-0.0264791000000
-0.0176804000000
0.0065406700000
0.0212115000000
0.0186759000000
0.0142961000000
0.0063116600000
-0.0109742000000
-0.0224685000000
-0.0265882000000
-0.0332242000000
-0.0364249000000
-0.0321836000000
-0.0269826000000
-0.0277129000000
-0.0335054000000
-0.0281095000000
-0.0128289000000
-0.0072922900000
-0.0119261000000
-0.0125177000000
-0.0043495500000
0.0069438900000
0.0152671000000
0.0114196000000
-0.0113590000000
-0.0366612000000
-0.0471682000000
-0.0431464000000
-0.0266959000000
-0.0040346200000
0.0253505000000
0.0496825000000
0.0664451000000
0.0781342000000
0.0792643000000
0.0622996000000
0.0407540000000
0.0286118000000
0.0151436000000
0.0027994400000
-0.0109319000000
-0.0279253000000
-0.0396911000000
-0.0338528000000
-0.0097442600000
0.0120040000000
0.0228087000000
0.0275229000000
0.0350085000000
0.0434815000000
0.0503928000000
0.0497612000000
0.0313897000000
0.0080508700000
-0.0136999000000
-0.0346458000000
-0.0453897000000
-0.0388120000000
-0.0151360000000
0.0102046000000
0.0250453000000
0.0204101000000
-0.0133093000000
-0.0430294000000
-0.0484949000000
-0.0358656000000
-0.0115297000000
-0.0010740400000
-0.0088498500000
-0.0182301000000
-0.0240353000000
-0.0296620000000
-0.0347012000000
-0.0435643000000
-0.0523173000000
-0.0528900000000
-0.0327525000000
-0.0077527400000
0.0005220910000
0.0012122000000
-0.0000438622000
-0.0034684500000
-0.0104896000000
-0.0113254000000
-0.0093583000000
-0.0047381800000
0.0002838100000
-0.0046759300000
-0.0131863000000
-0.0167425000000
-0.0129446000000
-0.0063946500000
-0.0033933200000
-0.0067496600000
-0.0071724900000
-0.0014508500000
0.0054917200000
0.0109563000000
0.0107527000000
0.0101473000000
0.0085259200000
0.0090883500000
0.0185187000000
0.0275257000000
0.0342499000000
0.0379457000000
0.0349616000000
0.0326965000000
0.0324806000000
0.0277145000000
0.0247396000000
0.0234741000000
0.0210927000000
0.0145558000000
0.0096071000000
0.0045339200000
-0.0024895000000
-0.0134481000000
-0.0297443000000
-0.0439812000000
-0.0418002000000
-0.0290928000000
-0.0144127000000
0.0019748400000
0.0062784600000
0.0003739010000
-0.0121382000000
-0.0145146000000
0.0081591600000
0.0438022000000
0.0638097000000
0.0618964000000
0.0505939000000
0.0309642000000
-0.0021112000000
-0.0252130000000
-0.0281964000000
-0.0189724000000
-0.0127238000000
-0.0135223000000
-0.0200074000000
-0.0411641000000
-0.0677860000000
-0.0650901000000
-0.0142359000000
0.0110112000000
0.0021740100000
-0.0001892840000
0.0146773000000
0.0372305000000
0.0543227000000
0.0588596000000
0.0552315000000
0.0424397000000
0.0121355000000
-0.0090917300000
-0.0296825000000
-0.0444674000000
-0.0401376000000
-0.0252497000000
-0.0224172000000
-0.0275693000000
-0.0195338000000
0.0018310500000
0.0243954000000
0.0403012000000
0.0519699000000
0.0519116000000
0.0436332000000
0.0393450000000
0.0388777000000
0.0296017000000
0.0063098400000
-0.0235488000000
-0.0433777000000
-0.0429485000000
-0.0325457000000
-0.0325071000000
-0.0371952000000
-0.0336479000000
-0.0211572000000
-0.0051862200000
0.0012262900000
-0.0103091000000
-0.0415295000000
-0.0557414000000
-0.0404825000000
-0.0098684700000
0.0163228000000
0.0138715000000
-0.0038941400000
-0.0085650200000
-0.0017700800000
0.0077094900000
0.0176358000000
0.0295991000000
0.0437645000000
0.0391436000000
0.0241798000000
0.0056134100000
-0.0141902000000
-0.0311440000000
-0.0237188000000
0.0064625900000
0.0261941000000
0.0368292000000
0.0428703000000
0.0427373000000
0.0368025000000
0.0265245000000
0.0051459200000
-0.0142478000000
-0.0145777000000
-0.0004623750000
0.0144414000000
0.0185903000000
0.0084010200000
-0.0009763300000
-0.0029688900000
-0.0070198100000
-0.0177344000000
-0.0343426000000
-0.0439240000000
-0.0350495000000
-0.0184179000000
-0.0011386100000
0.0097115900000
0.0144112000000
0.0229888000000
0.0277057000000
0.0211241000000
0.0020138300000
-0.0110570000000
-0.0078630100000
0.0013592100000
0.0087148400000
0.0121067000000
0.0073712500000
-0.0015758100000
-0.0068743300000
-0.0082907500000
-0.0173398000000
-0.0270295000000
-0.0286601000000
-0.0115105000000
0.0204178000000
0.0288393000000
0.0143026000000
-0.0016223800000
-0.0028562700000
0.0022481000000
-0.0100028000000
-0.0349691000000
-0.0530861000000
-0.0623576000000
-0.0558140000000
-0.0274129000000
0.0009066470000
0.0173391000000
0.0273731000000
0.0326018000000
0.0331875000000
0.0259335000000
0.0178645000000
0.0139377000000
0.0142408000000
0.0126192000000
0.0106681000000
0.0062190700000
0.0011916600000
-0.0017722900000
-0.0105605000000
-0.0202952000000
-0.0302604000000
-0.0368638000000
-0.0317993000000
-0.0128650000000
-0.0008268050000
-0.0000576117000
-0.0038712800000
-0.0054154600000
-0.0012139900000
0.0021164000000
-0.0026061200000
-0.0142942000000
-0.0256019000000
-0.0312853000000
-0.0178090000000
0.0058367400000
0.0208961000000
0.0258747000000
0.0243825000000
0.0207574000000
0.0167162000000
0.0030757900000
-0.0184115000000
-0.0298906000000
-0.0271713000000
-0.0020425600000
0.0294989000000
0.0427630000000
0.0443490000000
0.0431464000000
0.0407626000000
0.0316520000000
0.0186122000000
0.0047391600000
-0.0082414100000
-0.0199276000000
-0.0303286000000
-0.0372892000000
-0.0375677000000
-0.0311357000000
-0.0219976000000
-0.0166386000000
-0.0101974000000
0.0000953091000
0.0099749200000
0.0159755000000
0.0089536600000
-0.0055896200000
-0.0200401000000
-0.0285001000000
-0.0287267000000
-0.0252078000000
-0.0229262000000
-0.0168615000000
0.0002947480000
0.0177702000000
0.0267410000000
0.0284248000000
0.0199984000000
0.0110028000000
0.0108313000000
0.0147183000000
0.0199497000000
0.0227780000000
0.0254787000000
0.0273502000000
0.0260903000000
0.0219274000000
0.0180736000000
0.0162252000000
0.0159342000000
0.0139521000000
0.0091313700000
0.0022216400000
-0.0066342500000
-0.0168661000000
-0.0245490000000
-0.0260283000000
-0.0276167000000
-0.0296886000000
-0.0290963000000
-0.0206336000000
-0.0062447600000
0.0010938500000
0.0047971800000
0.0050784000000
-0.0011887800000
-0.0150172000000
-0.0242649000000
-0.0231942000000
-0.0189207000000
-0.0128479000000
-0.0099575800000
-0.0029270500000
0.0062536400000
0.0183617000000
0.0305381000000
0.0364915000000
0.0351142000000
0.0294335000000
0.0242576000000
0.0143245000000
-0.0024915700000
-0.0221218000000
-0.0345091000000
-0.0368014000000
-0.0310877000000
-0.0186849000000
0.0025093000000
0.0210933000000
0.0316693000000
0.0335294000000
0.0257933000000
0.0135713000000
0.0024253600000
-0.0018029400000
-0.0014443100000
0.0056861100000
0.0167700000000
0.0266269000000
0.0373416000000
0.0432398000000
0.0437056000000
0.0413367000000
0.0356304000000
0.0274128000000
0.0157967000000
0.0056910900000
-0.0022235200000
-0.0110796000000
-0.0195624000000
-0.0270863000000
-0.0327110000000
-0.0377788000000
-0.0424784000000
-0.0447841000000
-0.0430352000000
-0.0358508000000
-0.0257094000000
-0.0181425000000
-0.0138497000000
-0.0128088000000
-0.0130336000000
-0.0120192000000
-0.0119768000000
-0.0107686000000
-0.0066064400000
-0.0036529900000
-0.0032383200000
-0.0016700300000
-0.0011339900000
-0.0017933800000
-0.0023273200000
-0.0024440700000
-0.0035889900000
-0.0022910100000
0.0015528900000
0.0083262300000
0.0133778000000
0.0127031000000
0.0062480600000
-0.0011892400000
-0.0018292700000
-0.0002089730000
0.0016775400000
0.0034987700000
0.0055913300000
0.0063772600000
0.0078302700000
0.0093720200000
0.0072825700000
0.0018108000000
-0.0031611700000
-0.0016082000000
0.0044837600000
0.0097995100000
0.0134027000000
0.0154147000000
0.0150582000000
0.0130738000000
0.0102632000000
0.0048607800000
0.0008486330000
0.0007991820000
0.0052091700000
0.0113062000000
0.0167505000000
0.0205607000000
0.0203909000000
0.0179465000000
0.0164171000000
0.0165767000000
0.0181450000000
0.0205425000000
0.0206175000000
0.0178610000000
0.0131716000000
0.0092848800000
0.0077136000000
0.0093951000000
0.0113122000000
0.0155662000000
0.0212002000000
0.0238629000000
0.0217429000000
0.0155408000000
0.0072293700000
-0.0021418400000
-0.0097300900000
-0.0171480000000
-0.0224372000000
-0.0235494000000
-0.0208887000000
-0.0186299000000
-0.0177215000000
-0.0135645000000
-0.0059975200000
-0.0018323000000
-0.0038268500000
-0.0114222000000
-0.0207618000000
-0.0254614000000
-0.0286942000000
-0.0325502000000
-0.0362910000000
-0.0368402000000
-0.0318365000000
-0.0239136000000
-0.0141383000000
-0.0040540100000
0.0012026400000
0.0030453600000
0.0005949090000
-0.0046034200000
-0.0081391500000
-0.0088607000000
-0.0042394900000
0.0032101900000
0.0086453700000
0.0095976600000
0.0089332500000
0.0071998800000
0.0077084800000
0.0094472000000
0.0126486000000
0.0156266000000
0.0159618000000
0.0152832000000
0.0147361000000
0.0160138000000
0.0160400000000
0.0149074000000
0.0079078100000
0.0008694680000
-0.0045633900000
-0.0064323600000
-0.0040622200000
-0.0002365220000
0.0054690400000
0.0098149400000
0.0136682000000
0.0141544000000
0.0118724000000
0.0083418600000
0.0027336000000
-0.0046229300000
-0.0126567000000
-0.0172950000000
-0.0184947000000
-0.0177504000000
-0.0164114000000
-0.0138872000000
-0.0093331300000
-0.0041823800000
0.0008653540000
0.0031621600000
0.0015727600000
-0.0061519200000
-0.0134655000000
-0.0178599000000
-0.0223849000000
-0.0267986000000
-0.0294906000000
-0.0292643000000
-0.0257914000000
-0.0176316000000
-0.0079366600000
0.0034851300000
0.0121672000000
0.0160227000000
0.0165060000000
0.0121321000000
0.0067402300000
0.0040605600000
0.0028915200000
0.0013858800000
-0.0015569300000
-0.0017008500000
0.0004645180000
0.0033163500000
0.0055021300000
0.0075379800000
0.0080448500000
0.0050572100000
0.0001183200000
-0.0063801400000
-0.0085813400000
-0.0091240100000
-0.0102012000000
-0.0095116500000
-0.0092046300000
-0.0072329700000
-0.0006723190000
0.0065666400000
0.0118992000000
0.0148787000000
0.0118432000000
0.0058119900000
0.0000908694000
-0.0052293800000
-0.0086605900000
-0.0108606000000
-0.0116276000000
-0.0137868000000
-0.0142712000000
-0.0142568000000
-0.0125941000000
-0.0079529600000
-0.0039074900000
0.0000227245000
-0.0002841310000
-0.0022291000000
-0.0025379700000
-0.0024255800000
-0.0025345200000
-0.0019161900000
0.0015714100000
0.0066196200000
0.0115097000000
0.0158297000000
0.0193745000000
0.0218003000000
0.0223065000000
0.0229759000000
0.0236361000000
0.0234151000000
0.0235470000000
0.0234923000000
0.0263302000000
0.0294365000000
0.0283577000000
0.0222370000000
0.0112541000000
0.0006107650000
-0.0063493100000
-0.0105533000000
-0.0112669000000
-0.0118081000000
-0.0138905000000
-0.0140705000000
-0.0141874000000
-0.0137381000000
-0.0111498000000
-0.0079761300000
-0.0043209500000
-0.0002404140000
0.0039706900000
0.0077319900000
0.0086097500000
0.0061113300000
0.0020676300000
-0.0031490700000
-0.0081872500000
-0.0125736000000
-0.0165041000000
-0.0175795000000
-0.0174626000000
-0.0158636000000
-0.0120705000000
-0.0092637800000
-0.0086306600000
-0.0113788000000
-0.0158620000000
-0.0203645000000
-0.0246998000000
-0.0249887000000
-0.0211986000000
-0.0169546000000
-0.0121332000000
-0.0092182600000
-0.0049864500000
0.0010446600000
0.0083518000000
0.0159201000000
0.0243411000000
0.0315095000000
0.0320297000000
0.0264176000000
0.0098537100000
-0.0055993200000
-0.0167734000000
-0.0243347000000
-0.0282046000000
-0.0313299000000
-0.0290103000000
-0.0211033000000
-0.0065794100000
0.0084513900000
0.0212851000000
0.0329622000000
0.0418853000000
0.0442222000000
0.0402852000000
0.0280597000000
0.0152772000000
0.0050437400000
-0.0052611000000
-0.0132260000000
-0.0213899000000
-0.0271965000000
-0.0283355000000
-0.0215991000000
-0.0086081000000
0.0000173506000
0.0034102200000
0.0028893700000
0.0020819100000
0.0040549900000
0.0057424900000
0.0092935400000
0.0125611000000
0.0150911000000
0.0129282000000
0.0100166000000
0.0090175200000
0.0067057200000
0.0067613500000
0.0057908900000
0.0034689400000
0.0015896900000
-0.0002660810000
-0.0025675700000
-0.0041142500000
-0.0048122700000
-0.0041638700000
-0.0035338100000
-0.0052354500000
-0.0068779100000
-0.0073800000000
-0.0067478200000
-0.0084187900000
-0.0085485200000
-0.0056580000000
-0.0064231500000
-0.0085897600000
-0.0083552700000
-0.0048241200000
-0.0005616150000
0.0063325100000
0.0156930000000
0.0232359000000
0.0294049000000
0.0324516000000
0.0302393000000
0.0202811000000
0.0084175900000
-0.0028665600000
-0.0105685000000
-0.0148411000000
-0.0169238000000
-0.0166114000000
-0.0148670000000
-0.0124106000000
-0.0107325000000
-0.0080628700000
-0.0082349500000
-0.0059539100000
-0.0024457900000
0.0001810660000
0.0005333480000
-0.0019040500000
-0.0028634400000
-0.0064227900000
-0.0077666800000
-0.0049214100000
-0.0016222200000
0.0027898200000
0.0035156000000
0.0017403600000
-0.0007437590000
-0.0022231500000
-0.0026702800000
-0.0045831300000
-0.0057921600000
-0.0081007200000
-0.0106041000000
-0.0136592000000
-0.0137492000000
-0.0138698000000
-0.0137547000000
-0.0139273000000
-0.0107470000000
-0.0041793700000
0.0023016100000
0.0063142300000
0.0066385500000
0.0055083700000
0.0014742800000
0.0004869460000
0.0021506200000
0.0060573000000
0.0065388500000
0.0065328600000
0.0064616100000
0.0066219300000
0.0062406500000
0.0041876200000
0.0018990000000
0.0006793600000
0.0007510660000
0.0006190520000
0.0005212600000
0.0013257100000
0.0035650200000
0.0035892400000
0.0035694800000
0.0036876900000
0.0035760300000
0.0019210200000
-0.0004390850000
-0.0020911200000
-0.0018640200000
-0.0022314800000
-0.0018266000000
-0.0025274100000
-0.0023918900000
-0.0014091400000
0.0021143400000
0.0041353500000
0.0040110700000
0.0034405900000
0.0011055800000
0.0017878700000
0.0017048200000
0.0016102100000
0.0013163600000
0.0009140940000
0.0005793910000
0.0017485100000
0.0006629890000
-0.0012177100000
-0.0012681800000
-0.0005439320000
0.0015985800000
0.0014907200000
0.0017201400000
0.0014435700000
0.0034711700000
0.0041998200000
0.0040392100000
0.0037388500000
0.0016232900000
-0.0004533770000
-0.0037320700000
-0.0064754000000
-0.0095097600000
-0.0106278000000
-0.0099616900000
-0.0073576600000
-0.0024580700000
0.0015655500000
0.0039829900000
0.0039643500000
0.0002991840000
-0.0032706700000
-0.0051947700000
-0.0048116800000
-0.0023342500000
0.0008164650000
0.0035105500000
0.0064398100000
0.0089072600000
0.0095710500000
0.0110645000000
0.0107907000000
0.0089989600000
0.0083303800000
0.0066088900000
0.0060013000000
0.0059905300000
0.0057317500000
0.0056784300000
0.0054499700000
0.0038735500000
0.0016136900000
-0.0001768270000
-0.0020031300000
-0.0015264600000
-0.0002248340000
0.0004486910000
0.0017812900000
0.0032270700000
0.0032287600000
0.0032278600000
0.0023957500000
0.0003185600000
-0.0010039700000
-0.0022583100000
-0.0028832200000
-0.0037226400000
-0.0036313900000
-0.0026106200000
-0.0010811800000
0.0005596560000
0.0016637700000
0.0024283500000
0.0017066600000
0.0005712770000
-0.0008263130000
-0.0015100200000
-0.0021395800000
-0.0026435700000
-0.0036605600000
-0.0040490600000
-0.0034345800000
-0.0021984000000
-0.0007688880000
0.0001967850000
0.0009717590000
0.0015423700000
0.0021874100000
0.0021262100000
0.0020732900000
0.0013260800000
0.0011614000000
0.0009934830000
0.0008873620000
0.0012089300000
0.0018311800000
0.0029098100000
0.0035598100000
0.0038534800000
0.0038739200000
0.0035719700000
0.0034829900000
0.0030388200000
0.0025566900000
0.0023122700000
0.0019961600000
0.0013939800000
0.0009713070000
0.0011032100000
0.0009358670000
0.0007523360000
0.0004395750000
-0.0001361270000
-0.0005730050000
-0.0009912220000
-0.0012447000000
-0.0014211800000
-0.0017345900000
-0.0019174100000
-0.0018863700000
-0.0016620000000
-0.0015141300000
-0.0014013700000
-0.0012590400000
-0.0012186800000
-0.0013016200000
-0.0013618700000
-0.0014192500000
-0.0016110200000
-0.0018253600000
-0.0019811000000
-0.0019259600000
-0.0018404300000
-0.0017419200000
-0.0016969900000
-0.0016662500000
-0.0015592900000
-0.0014426300000
-0.0012714900000
-0.0011801700000
-0.0011032900000
-0.0010759200000
-0.0010320800000
-0.0010041800000
-0.0009950620000
-0.0009663540000
-0.0009437350000
-0.0009088860000
-0.0008649380000
-0.0008098050000
-0.0007554380000
-0.0007019930000
-0.0006581380000
-0.0006171830000
-0.0005763190000
-0.0005352690000
-0.0004972390000
