0.0005027350000
0.0007488690000
0.0011254800000
0.0012684800000
0.0012716100000
0.0011321900000
0.0013248900000
0.0019484400000
0.0024243300000
0.0027386400000
0.0024796000000
0.0015584800000
0.0016754000000
0.0024621100000
0.0018196100000
0.0003375630000
-0.0000932151000
0.0000316018000
-0.0006566650000
-0.0015861800000
-0.0023767800000
-0.0026457900000
-0.0015868900000
0.0002837160000
0.0028272500000
0.0045558000000
0.0047577900000
0.0055129000000
0.0058072200000
0.0045818800000
0.0032137400000
0.0018056500000
0.0002744510000
0.0018414100000
0.0097502600000
0.0183362000000
0.0205075000000
0.0146184000000
0.0012960200000
-0.0093724400000
-0.0116016000000
-0.0119894000000
-0.0096522400000
-0.0062150500000
-0.0093011800000
-0.0155120000000
-0.0183268000000
-0.0127791000000
0.0014547900000
0.0097431400000
0.0078486700000
0.0087577000000
0.0100193000000
0.0067195900000
0.0054613200000
0.0073695900000
0.0074575500000
0.0030955200000
-0.0044960400000
-0.0099638900000
-0.0101695000000
-0.0102808000000
-0.0103076000000
-0.0055190600000
0.0018732100000
0.0063611900000
0.0083505100000
0.0122673000000
0.0161160000000
0.0142609000000
0.0079987600000
0.0040957700000
0.0037601200000
0.0036117100000
-0.0003663210000
-0.0067383100000
-0.0089280800000
-0.0073530400000
-0.0036739400000
0.0021048800000
0.0073899200000
0.0124369000000
0.0185113000000
0.0237878000000
0.0263922000000
0.0213588000000
-0.0012175500000
-0.0251210000000
-0.0245513000000
-0.0194216000000
-0.0237423000000
-0.0164553000000
0.0009899500000
0.0140565000000
0.0234463000000
0.0274567000000
0.0237099000000
0.0052584900000
-0.0183934000000
-0.0151399000000
-0.0057195000000
-0.0194536000000
-0.0315764000000
-0.0304068000000
-0.0302010000000
-0.0313489000000
-0.0256541000000
-0.0128705000000
0.0000691323000
0.0056113500000
0.0046275600000
0.0039164400000
0.0128597000000
0.0274274000000
0.0299321000000
0.0269935000000
0.0254320000000
0.0112680000000
-0.0026938500000
0.0007182320000
0.0065525700000
0.0078436200000
0.0102801000000
0.0117503000000
0.0096131900000
0.0086597500000
0.0161596000000
0.0271656000000
0.0304477000000
0.0288186000000
0.0274224000000
0.0221274000000
0.0154104000000
0.0099832600000
0.0030739100000
-0.0037139400000
-0.0069947400000
-0.0056654200000
-0.0015823800000
-0.0008705870000
-0.0069113700000
-0.0140514000000
-0.0176699000000
-0.0199941000000
-0.0202995000000
-0.0144412000000
-0.0067162900000
-0.0048729100000
-0.0019844500000
0.0122313000000
0.0284825000000
0.0354149000000
0.0374488000000
0.0307745000000
0.0042782400000
-0.0264370000000
-0.0558874000000
-0.1006220000000
-0.1376380000000
-0.1401850000000
-0.1205250000000
-0.0985378000000
-0.0860459000000
-0.0808329000000
-0.0718303000000
-0.0588213000000
-0.0497095000000
-0.0430757000000
-0.0425666000000
-0.0505533000000
-0.0538383000000
-0.0473250000000
-0.0231458000000
0.0195739000000
0.0545389000000
0.0724471000000
0.0923993000000
0.1151250000000
0.1262810000000
0.1292940000000
0.1145960000000
0.0773221000000
0.0289452000000
-0.0087189600000
-0.0071945600000
0.0070570900000
0.0247505000000
0.0579778000000
0.0808794000000
0.0995885000000
0.1195620000000
0.1254070000000
0.1248730000000
0.1047210000000
0.0621452000000
0.0137564000000
-0.0501021000000
-0.0728969000000
-0.0508257000000
-0.0390186000000
0.0342165000000
0.1014120000000
0.0705332000000
0.0386961000000
0.0011227300000
-0.0508361000000
-0.0638259000000
-0.0529385000000
-0.0239068000000
0.0116123000000
0.0154530000000
0.0020530800000
-0.0078088700000
-0.0186146000000
-0.0133314000000
-0.0104332000000
-0.0373522000000
-0.0611436000000
-0.0610072000000
-0.0560881000000
-0.0390937000000
-0.0055387200000
0.0095320500000
-0.0030546300000
-0.0299921000000
-0.0544911000000
-0.0539035000000
-0.0393332000000
-0.0114096000000
0.0319068000000
0.0484708000000
0.0380730000000
0.0137065000000
-0.0515472000000
-0.1183390000000
-0.1172610000000
-0.0843700000000
-0.0621701000000
-0.0250807000000
-0.0036573600000
-0.0133102000000
-0.0122090000000
-0.0218585000000
-0.0536117000000
-0.0641541000000
-0.0498983000000
-0.0408174000000
-0.0409992000000
-0.0494192000000
-0.0771792000000
-0.0944809000000
-0.0824361000000
-0.0696892000000
-0.0514810000000
-0.0277330000000
-0.0196103000000
-0.0260738000000
-0.0198132000000
0.0137895000000
0.0404026000000
0.0568450000000
0.0882740000000
0.1120520000000
0.1107130000000
0.1063060000000
0.1058860000000
0.0971626000000
0.0834831000000
0.0754147000000
0.0545975000000
0.0107697000000
-0.0225540000000
-0.0724803000000
-0.1692950000000
-0.2098760000000
-0.1770140000000
-0.1468860000000
-0.0889013000000
-0.0260528000000
-0.0125228000000
-0.0131064000000
-0.0135890000000
-0.0165630000000
-0.0181894000000
-0.0165639000000
0.0122547000000
0.0581753000000
0.0905396000000
0.1267520000000
0.1534730000000
0.1475140000000
0.1322180000000
0.0740438000000
-0.0061632600000
-0.0262307000000
-0.0113831000000
0.0383638000000
0.1063360000000
0.1349020000000
0.1600810000000
0.1769470000000
0.1576450000000
0.1195820000000
0.0721542000000
0.0348164000000
0.0194102000000
0.0299977000000
0.0562569000000
0.0758067000000
0.0923177000000
0.0981486000000
0.0767934000000
0.0540151000000
0.0447305000000
0.0349039000000
0.0288360000000
0.0295456000000
0.0365115000000
0.0314620000000
-0.0000825540000
-0.0336473000000
-0.0706683000000
-0.0900475000000
-0.0712970000000
-0.0612721000000
-0.0656143000000
-0.0687186000000
-0.0917659000000
-0.1498040000000
-0.1903580000000
-0.1750610000000
-0.1668900000000
-0.1487950000000
-0.0714498000000
0.0210482000000
0.1332970000000
0.2079330000000
0.1869800000000
0.1898220000000
0.2070030000000
0.1457800000000
0.0794786000000
0.0408051000000
-0.0143007000000
-0.0582417000000
-0.0837371000000
-0.1161220000000
-0.1330760000000
-0.1404340000000
-0.1563130000000
-0.1628060000000
-0.1642060000000
-0.1603460000000
-0.1405360000000
-0.1197580000000
-0.1059000000000
-0.0997137000000
-0.0956089000000
-0.0789227000000
-0.0579402000000
-0.0473275000000
-0.0407922000000
-0.0293958000000
-0.0155337000000
-0.0080624800000
-0.0117549000000
-0.0039305000000
0.0368068000000
0.0792361000000
0.1064930000000
0.1367200000000
0.1528180000000
0.1520120000000
0.1387830000000
0.0983323000000
0.0527277000000
0.0086381900000
-0.0229386000000
-0.0155644000000
0.0094770500000
0.0351538000000
0.0471703000000
0.0285883000000
-0.0163272000000
-0.0696144000000
-0.0884140000000
-0.0713496000000
-0.0535009000000
-0.0375627000000
-0.0359951000000
-0.0501274000000
-0.0590032000000
-0.0583131000000
-0.0543949000000
-0.0586205000000
-0.0659502000000
-0.0626038000000
-0.0487400000000
-0.0326515000000
-0.0186655000000
-0.0132083000000
-0.0174017000000
-0.0133058000000
0.0064184400000
0.0237024000000
0.0251853000000
0.0070361700000
-0.0254479000000
-0.0623730000000
-0.0912774000000
-0.0725715000000
-0.0090966100000
0.0394785000000
0.0712000000000
0.1205200000000
0.1656020000000
0.1769220000000
0.1538640000000
0.0939659000000
0.0071043000000
-0.0670589000000
-0.0828354000000
-0.0739030000000
-0.0792651000000
-0.0639956000000
-0.0344519000000
-0.0126598000000
0.0108252000000
0.0213402000000
0.0171303000000
0.0373636000000
0.0799640000000
0.1065120000000
0.1275070000000
0.1611640000000
0.1897610000000
0.1908520000000
0.1478790000000
0.0874034000000
0.0502365000000
0.0179260000000
-0.0261562000000
-0.0576056000000
-0.0694330000000
-0.0808812000000
-0.0851032000000
-0.0740044000000
-0.0571566000000
-0.0272084000000
-0.0055158300000
-0.0130807000000
-0.0164162000000
0.0086573100000
0.0407112000000
0.0617414000000
0.1016640000000
0.1557550000000
0.1675850000000
0.1468450000000
0.1233890000000
0.0892737000000
0.0297117000000
-0.0123797000000
0.0123470000000
0.0491153000000
0.0748353000000
0.0883766000000
0.0835499000000
0.0725948000000
0.0151573000000
-0.0422044000000
-0.0460632000000
-0.0466962000000
-0.0502163000000
-0.0624452000000
-0.0899011000000
-0.1036890000000
-0.1145060000000
-0.1380810000000
-0.1573620000000
-0.1301050000000
-0.0623621000000
-0.0143644000000
0.0037799800000
0.0025723900000
-0.0175418000000
-0.0509849000000
-0.0879925000000
-0.1095560000000
-0.1152320000000
-0.1126300000000
-0.0814183000000
-0.0247762000000
0.0302512000000
0.0811012000000
0.1022800000000
0.0869738000000
0.0679824000000
0.0362255000000
-0.0074778500000
-0.0517058000000
-0.1231120000000
-0.1751720000000
-0.1660270000000
-0.1606510000000
-0.1277690000000
-0.0343170000000
0.0045596900000
-0.0157140000000
-0.0124430000000
-0.0253419000000
-0.0644720000000
-0.0614106000000
-0.0494799000000
-0.0620125000000
-0.0395791000000
-0.0018966300000
-0.0067818800000
-0.0163635000000
-0.0157277000000
-0.0324538000000
-0.0490905000000
-0.0529326000000
-0.0558038000000
-0.0639614000000
-0.0707286000000
-0.0660318000000
-0.0413966000000
0.0026208300000
0.0472075000000
0.0640631000000
0.0523739000000
0.0515726000000
0.0661717000000
0.0687964000000
0.0632911000000
0.0634611000000
0.0711032000000
0.0670053000000
0.0396249000000
0.0060060200000
-0.0261425000000
-0.0354235000000
-0.0080218100000
0.0316005000000
0.0594201000000
0.0765884000000
0.0930271000000
0.0923087000000
0.0779743000000
0.0653131000000
0.0518362000000
0.0441876000000
0.0416068000000
0.0622258000000
0.1024460000000
0.1052070000000
0.0864925000000
0.0808860000000
0.0600795000000
0.0410331000000
0.0469942000000
0.0444870000000
0.0275774000000
0.0162021000000
0.0083852200000
-0.0019511600000
-0.0132514000000
-0.0231721000000
-0.0385801000000
-0.0592957000000
-0.0694177000000
-0.0763732000000
-0.0784286000000
-0.0383821000000
0.0220396000000
0.0654218000000
0.1044250000000
0.1152780000000
0.1004710000000
0.0914305000000
0.0663856000000
0.0340392000000
0.0042671900000
-0.0393935000000
-0.0841981000000
-0.1197600000000
-0.1323670000000
-0.1306120000000
-0.1376140000000
-0.1360210000000
-0.1278910000000
-0.1114450000000
-0.0747446000000
-0.0453261000000
-0.0207288000000
0.0176883000000
0.0388519000000
0.0339955000000
0.0364525000000
0.0402508000000
0.0246860000000
-0.0036932300000
-0.0184377000000
-0.0164382000000
-0.0161197000000
0.0066997100000
0.0530412000000
0.0724002000000
0.0684647000000
0.0731150000000
0.0670823000000
0.0405922000000
0.0181089000000
-0.0080104000000
-0.0504499000000
-0.0699974000000
-0.0550779000000
-0.0412742000000
-0.0330271000000
-0.0271456000000
-0.0296882000000
-0.0327149000000
-0.0311403000000
-0.0275669000000
-0.0199574000000
-0.0090185300000
-0.0050449200000
-0.0077313300000
-0.0173857000000
-0.0532527000000
-0.0842291000000
-0.0772582000000
-0.0728692000000
-0.0749997000000
-0.0608370000000
-0.0450673000000
-0.0336665000000
-0.0162423000000
0.0094160500000
0.0347037000000
0.0501804000000
0.0556879000000
0.0585368000000
0.0561590000000
0.0433706000000
0.0252177000000
0.0104322000000
0.0037416200000
0.0043790700000
0.0111066000000
0.0203000000000
0.0248041000000
0.0224733000000
0.0121799000000
-0.0104076000000
-0.0271900000000
-0.0190429000000
-0.0036328300000
0.0034525000000
0.0009533090000
-0.0150073000000
-0.0458022000000
-0.0777376000000
-0.0858057000000
-0.0822626000000
-0.0870693000000
-0.0827623000000
-0.0738134000000
-0.0772863000000
-0.0798620000000
-0.0649568000000
-0.0403203000000
-0.0195612000000
0.0011828700000
0.0126866000000
0.0067040800000
-0.0006559580000
-0.0049479500000
-0.0006334870000
0.0264789000000
0.0562413000000
0.0631723000000
0.0565953000000
0.0348780000000
-0.0159711000000
-0.0521088000000
-0.0406837000000
-0.0234818000000
-0.0199251000000
-0.0159922000000
-0.0181159000000
-0.0313770000000
-0.0381363000000
-0.0363138000000
-0.0287625000000
-0.0017294600000
0.0310678000000
0.0527922000000
0.0768045000000
0.1008240000000
0.1075980000000
0.1118020000000
0.1339270000000
0.1595610000000
0.1738220000000
0.1789630000000
0.1753940000000
0.1634940000000
0.1457170000000
0.1279710000000
0.1093230000000
0.0884095000000
0.0790575000000
0.0771500000000
0.0681526000000
0.0616951000000
0.0653217000000
0.0777044000000
0.0969515000000
0.1114150000000
0.1196960000000
0.1211640000000
0.0935864000000
0.0501631000000
0.0271449000000
0.0068843100000
-0.0197490000000
-0.0263023000000
-0.0272363000000
-0.0373657000000
-0.0373495000000
-0.0296410000000
-0.0268987000000
-0.0248923000000
-0.0175155000000
-0.0057145500000
0.0042469700000
0.0119921000000
0.0262116000000
0.0454750000000
0.0534056000000
0.0546522000000
0.0667937000000
0.0809676000000
0.0841453000000
0.0705973000000
0.0395574000000
0.0052053900000
-0.0318320000000
-0.0597107000000
-0.0591093000000
-0.0515000000000
-0.0446496000000
-0.0322510000000
-0.0233134000000
-0.0221238000000
-0.0285623000000
-0.0417487000000
-0.0533772000000
-0.0547201000000
-0.0529042000000
-0.0455247000000
-0.0275649000000
-0.0060404400000
0.0092982500000
0.0068800100000
-0.0037785200000
-0.0085792100000
-0.0109668000000
-0.0104093000000
0.0010316600000
0.0155319000000
0.0214711000000
0.0184022000000
-0.0017223500000
-0.0311044000000
-0.0453189000000
-0.0492763000000
-0.0588395000000
-0.0662857000000
-0.0614397000000
-0.0554649000000
-0.0516170000000
-0.0393868000000
-0.0241504000000
-0.0098609300000
-0.0000946999000
0.0004082340000
-0.0008425210000
-0.0030001200000
-0.0060236800000
-0.0087005600000
-0.0095753500000
0.0013300900000
0.0234424000000
0.0409473000000
0.0452466000000
0.0447380000000
0.0350862000000
0.0099282400000
-0.0028840100000
0.0045596100000
0.0124126000000
0.0278157000000
0.0516414000000
0.0622046000000
0.0625591000000
0.0625411000000
0.0493234000000
0.0254061000000
0.0008613660000
-0.0196928000000
-0.0242728000000
-0.0220673000000
-0.0226993000000
-0.0169432000000
-0.0072785600000
-0.0004079870000
0.0065516700000
0.0106211000000
0.0088306100000
0.0095017200000
0.0111830000000
0.0082320300000
0.0058180200000
0.0050971300000
0.0030888000000
0.0000493300000
0.0045240500000
0.0187097000000
0.0329862000000
0.0484494000000
0.0616788000000
0.0598051000000
0.0441002000000
0.0294987000000
0.0258587000000
0.0287156000000
0.0341306000000
0.0401647000000
0.0408148000000
0.0373748000000
0.0312364000000
0.0236529000000
0.0211246000000
0.0242792000000
0.0286521000000
0.0310438000000
0.0290926000000
0.0154008000000
-0.0133163000000
-0.0417741000000
-0.0531372000000
-0.0541683000000
-0.0534351000000
-0.0428365000000
-0.0197349000000
-0.0007365100000
0.0018245600000
0.0014793800000
-0.0011436700000
-0.0214044000000
-0.0442913000000
-0.0493031000000
-0.0477345000000
-0.0505012000000
-0.0508169000000
-0.0529433000000
-0.0619434000000
-0.0688631000000
-0.0714638000000
-0.0739757000000
-0.0764034000000
-0.0735261000000
-0.0658394000000
-0.0555047000000
-0.0387210000000
-0.0208110000000
-0.0077096500000
-0.0030804700000
-0.0066673500000
-0.0079842600000
-0.0062306100000
-0.0081193300000
-0.0105518000000
-0.0077304900000
-0.0032422000000
-0.0014739200000
0.0001254950000
-0.0018945600000
-0.0106170000000
-0.0192076000000
-0.0265411000000
-0.0352945000000
-0.0449821000000
-0.0541852000000
-0.0593386000000
-0.0629116000000
-0.0656395000000
-0.0622164000000
-0.0589557000000
-0.0579724000000
-0.0521308000000
-0.0424289000000
-0.0317563000000
-0.0235095000000
-0.0190921000000
-0.0167503000000
-0.0193036000000
-0.0253522000000
-0.0296019000000
-0.0335083000000
-0.0445217000000
-0.0617863000000
-0.0692676000000
-0.0683990000000
-0.0725853000000
-0.0735823000000
-0.0678538000000
-0.0646009000000
-0.0616081000000
-0.0573378000000
-0.0547634000000
-0.0524131000000
-0.0526159000000
-0.0555907000000
-0.0567527000000
-0.0573050000000
-0.0557930000000
-0.0506944000000
-0.0456578000000
-0.0376994000000
-0.0269993000000
-0.0217504000000
-0.0212965000000
-0.0234660000000
-0.0285594000000
-0.0311920000000
-0.0303185000000
-0.0254596000000
-0.0190231000000
-0.0145121000000
-0.0133789000000
-0.0199681000000
-0.0313444000000
-0.0382114000000
-0.0378086000000
-0.0358179000000
-0.0301945000000
-0.0210313000000
-0.0138068000000
-0.0057685900000
0.0040872400000
0.0138322000000
0.0206608000000
0.0245533000000
0.0275039000000
0.0244110000000
0.0186644000000
0.0177249000000
0.0149145000000
0.0060979300000
-0.0003842910000
-0.0009454710000
0.0010919300000
0.0071129400000
0.0156930000000
0.0221418000000
0.0233390000000
0.0177647000000
0.0091644400000
0.0047045200000
0.0060316200000
0.0086973600000
0.0107115000000
0.0144287000000
0.0183154000000
0.0163279000000
0.0125844000000
0.0135551000000
0.0173172000000
0.0206132000000
0.0221672000000
0.0247626000000
0.0264808000000
0.0232063000000
0.0198591000000
0.0220236000000
0.0276750000000
0.0324184000000
0.0346119000000
0.0323015000000
0.0296212000000
0.0302930000000
0.0305683000000
0.0312457000000
0.0325266000000
0.0323322000000
0.0296889000000
0.0259954000000
0.0209735000000
0.0105883000000
0.0007550400000
-0.0006228840000
0.0012365600000
-0.0008174640000
-0.0038553300000
-0.0069059000000
-0.0112260000000
-0.0142677000000
-0.0175510000000
-0.0242590000000
-0.0325717000000
-0.0368974000000
-0.0385996000000
-0.0383872000000
-0.0338765000000
-0.0314179000000
-0.0309319000000
-0.0275707000000
-0.0230461000000
-0.0183654000000
-0.0141159000000
-0.0077152100000
0.0018887200000
0.0093001100000
0.0158139000000
0.0219870000000
0.0242250000000
0.0271249000000
0.0321200000000
0.0368520000000
0.0420629000000
0.0453570000000
0.0471142000000
0.0483432000000
0.0456773000000
0.0429092000000
0.0435954000000
0.0430327000000
0.0405341000000
0.0390206000000
0.0379320000000
0.0335481000000
0.0259903000000
0.0203817000000
0.0162071000000
0.0066722200000
-0.0092670200000
-0.0205177000000
-0.0232765000000
-0.0263428000000
-0.0270880000000
-0.0231940000000
-0.0228790000000
-0.0237496000000
-0.0217202000000
-0.0204724000000
-0.0203105000000
-0.0207834000000
-0.0204213000000
-0.0143911000000
-0.0020514900000
0.0072575800000
0.0077740000000
0.0030601700000
-0.0096393800000
-0.0213450000000
-0.0186205000000
-0.0113789000000
-0.0038395600000
0.0074244200000
0.0131793000000
0.0100960000000
0.0063036900000
0.0044574700000
0.0055596500000
0.0121841000000
0.0243504000000
0.0369285000000
0.0424462000000
0.0454181000000
0.0502469000000
0.0499306000000
0.0433321000000
0.0380338000000
0.0349185000000
0.0343212000000
0.0380398000000
0.0407319000000
0.0422486000000
0.0415378000000
0.0309060000000
0.0128482000000
-0.0033173100000
-0.0101678000000
-0.0115807000000
-0.0126440000000
-0.0063520300000
0.0030000600000
0.0067269800000
0.0073212400000
0.0068184200000
0.0077968400000
0.0130815000000
0.0176619000000
0.0200957000000
0.0215983000000
0.0112727000000
-0.0033080400000
-0.0029001200000
0.0028054500000
0.0101772000000
0.0284946000000
0.0423540000000
0.0422033000000
0.0411494000000
0.0411030000000
0.0361631000000
0.0296282000000
0.0279254000000
0.0269856000000
0.0241078000000
0.0261343000000
0.0299337000000
0.0312087000000
0.0329545000000
0.0328876000000
0.0301762000000
0.0279056000000
0.0256389000000
0.0253665000000
0.0280150000000
0.0281862000000
0.0241768000000
0.0203952000000
0.0180632000000
0.0173395000000
0.0189939000000
0.0195261000000
0.0182921000000
0.0168920000000
0.0162073000000
0.0170067000000
0.0175552000000
0.0168392000000
0.0145576000000
0.0114927000000
0.0091892700000
0.0079319900000
0.0073139400000
0.0062316500000
0.0046353800000
0.0024127800000
-0.0017618700000
-0.0060498700000
-0.0078296200000
-0.0097796800000
-0.0099289000000
-0.0053453600000
-0.0004881450000
0.0059719600000
0.0147667000000
0.0194028000000
0.0209197000000
0.0220752000000
0.0200918000000
0.0182012000000
0.0174881000000
0.0155811000000
0.0193330000000
0.0276220000000
0.0303421000000
0.0324475000000
0.0354345000000
0.0317901000000
0.0252049000000
0.0173294000000
0.0095177000000
0.0058496000000
0.0020236500000
-0.0019011900000
-0.0024110300000
-0.0033994200000
-0.0080503000000
-0.0140055000000
-0.0163824000000
-0.0162635000000
-0.0186147000000
-0.0212214000000
-0.0217128000000
-0.0227583000000
-0.0233437000000
-0.0206588000000
-0.0178045000000
-0.0166294000000
-0.0142736000000
-0.0108945000000
-0.0090198200000
-0.0091214000000
-0.0084090800000
-0.0037374300000
0.0005191140000
0.0004727460000
0.0017764000000
0.0049163000000
0.0055562300000
0.0056492300000
0.0064554100000
0.0052501500000
0.0027996700000
0.0017708100000
0.0008862900000
-0.0008321560000
-0.0002160700000
0.0036545600000
0.0068649300000
0.0095013900000
0.0127992000000
0.0144125000000
0.0156861000000
0.0157186000000
0.0119780000000
0.0097000700000
0.0093068500000
0.0071002200000
0.0072040600000
0.0102458000000
0.0119373000000
0.0139424000000
0.0156289000000
0.0147649000000
0.0152655000000
0.0162421000000
0.0135027000000
0.0101481000000
0.0086158600000
0.0063749700000
0.0035404800000
0.0012378600000
-0.0012931900000
-0.0038121400000
-0.0065250200000
-0.0125516000000
-0.0221191000000
-0.0290980000000
-0.0330489000000
-0.0360195000000
-0.0355883000000
-0.0354710000000
-0.0374525000000
-0.0384886000000
-0.0396167000000
-0.0402794000000
-0.0375260000000
-0.0336773000000
-0.0299050000000
-0.0235003000000
-0.0201028000000
-0.0199262000000
-0.0175060000000
-0.0183310000000
-0.0216626000000
-0.0220252000000
-0.0204127000000
-0.0172206000000
-0.0138709000000
-0.0124353000000
-0.0132082000000
-0.0142510000000
-0.0116027000000
-0.0038850000000
0.0027305500000
0.0065049300000
0.0100458000000
0.0050948800000
-0.0042356100000
-0.0067956800000
-0.0126779000000
-0.0214174000000
-0.0221623000000
-0.0229285000000
-0.0270848000000
-0.0287568000000
-0.0303231000000
-0.0306779000000
-0.0271899000000
-0.0257212000000
-0.0229504000000
-0.0130485000000
-0.0048323500000
-0.0033066900000
-0.0042505200000
-0.0060054900000
-0.0081806100000
-0.0115549000000
-0.0160724000000
-0.0169429000000
-0.0164572000000
-0.0188842000000
-0.0202205000000
-0.0207531000000
-0.0216626000000
-0.0199282000000
-0.0164394000000
-0.0117198000000
-0.0073203600000
-0.0050920700000
-0.0029749100000
-0.0056061700000
-0.0131647000000
-0.0173819000000
-0.0195006000000
-0.0205523000000
-0.0161723000000
-0.0104080000000
-0.0094769400000
-0.0105347000000
-0.0115049000000
-0.0147389000000
-0.0187455000000
-0.0210744000000
-0.0201326000000
-0.0129945000000
-0.0027583100000
0.0015435800000
0.0010577100000
0.0002587630000
-0.0057484800000
-0.0137384000000
-0.0150443000000
-0.0145936000000
-0.0156852000000
-0.0145220000000
-0.0145344000000
-0.0165516000000
-0.0160518000000
-0.0139076000000
-0.0129945000000
-0.0125876000000
-0.0118106000000
-0.0122436000000
-0.0135140000000
-0.0136474000000
-0.0119426000000
-0.0092474300000
-0.0068586200000
-0.0054688900000
-0.0071889000000
-0.0102108000000
-0.0122128000000
-0.0165889000000
-0.0238864000000
-0.0301084000000
-0.0323908000000
-0.0308572000000
-0.0255791000000
-0.0200027000000
-0.0193187000000
-0.0223036000000
-0.0259603000000
-0.0284061000000
-0.0292765000000
-0.0286376000000
-0.0256130000000
-0.0196163000000
-0.0117157000000
-0.0069068000000
-0.0019785200000
0.0045321500000
0.0033389600000
-0.0025825500000
-0.0060811900000
-0.0093595900000
-0.0133739000000
-0.0149681000000
-0.0112136000000
-0.0027282500000
0.0058279100000
0.0112800000000
0.0156004000000
0.0188323000000
0.0185129000000
0.0175129000000
0.0187465000000
0.0203833000000
0.0198402000000
0.0169381000000
0.0130992000000
0.0066298500000
-0.0022639500000
-0.0072793300000
-0.0080978100000
-0.0088811500000
-0.0078243100000
-0.0054517800000
-0.0035819900000
-0.0014409500000
-0.0013244800000
-0.0023480000000
-0.0016938600000
-0.0016105000000
-0.0039447200000
-0.0060768400000
-0.0063484100000
-0.0067010900000
-0.0063015200000
-0.0046295800000
-0.0040143800000
-0.0016176500000
0.0039333700000
0.0072162000000
0.0084758700000
0.0110629000000
0.0128737000000
0.0140601000000
0.0176898000000
0.0225296000000
0.0254895000000
0.0274486000000
0.0288555000000
0.0287388000000
0.0312552000000
0.0364095000000
0.0384436000000
0.0389164000000
0.0376003000000
0.0316958000000
0.0258513000000
0.0232188000000
0.0217469000000
0.0224640000000
0.0261511000000
0.0280358000000
0.0282626000000
0.0272561000000
0.0241566000000
0.0226754000000
0.0216676000000
0.0191652000000
0.0178140000000
0.0181617000000
0.0179652000000
0.0171376000000
0.0166853000000
0.0172727000000
0.0193166000000
0.0213754000000
0.0235017000000
0.0244075000000
0.0218844000000
0.0197673000000
0.0192562000000
0.0172298000000
0.0147897000000
0.0147043000000
0.0170700000000
0.0191511000000
0.0206888000000
0.0234214000000
0.0265527000000
0.0282060000000
0.0252380000000
0.0178625000000
0.0091088300000
0.0029307500000
0.0016983200000
-0.0011749300000
-0.0056293200000
-0.0036196200000
0.0001451160000
0.0026594500000
0.0082897200000
0.0114731000000
0.0125225000000
0.0159417000000
0.0149091000000
0.0109396000000
0.0096448500000
0.0048353900000
-0.0019133100000
-0.0030771900000
-0.0023616900000
-0.0035277900000
-0.0047718400000
-0.0050221800000
-0.0045205400000
-0.0024281200000
0.0004557530000
0.0022677600000
0.0047113000000
0.0050461200000
0.0005641200000
-0.0069403500000
-0.0163879000000
-0.0217324000000
-0.0243141000000
-0.0289223000000
-0.0318734000000
-0.0316349000000
-0.0289515000000
-0.0263132000000
-0.0240156000000
-0.0220711000000
-0.0228611000000
-0.0237097000000
-0.0224226000000
-0.0205099000000
-0.0186241000000
-0.0186741000000
-0.0223086000000
-0.0255092000000
-0.0267213000000
-0.0289492000000
-0.0268656000000
-0.0188716000000
-0.0130888000000
-0.0092564300000
-0.0050700600000
-0.0022210900000
-0.0022619800000
-0.0047182200000
-0.0061527800000
-0.0077843100000
-0.0097837300000
-0.0089007600000
-0.0077339800000
-0.0080446200000
-0.0080597800000
-0.0090474200000
-0.0109202000000
-0.0118800000000
-0.0109170000000
-0.0067253700000
0.0051286800000
0.0221662000000
0.0270778000000
0.0246212000000
0.0265311000000
0.0198343000000
0.0059948600000
0.0010462500000
0.0028534800000
0.0025735600000
0.0040799500000
0.0064347200000
0.0063830900000
0.0081039800000
0.0111230000000
0.0141799000000
0.0169407000000
0.0188671000000
0.0210315000000
0.0231826000000
0.0245312000000
0.0257665000000
0.0247684000000
0.0208443000000
0.0166991000000
0.0122031000000
0.0079832100000
0.0042938000000
0.0029311200000
0.0053323400000
0.0065979300000
0.0051626400000
0.0020729600000
-0.0011316200000
-0.0023326900000
-0.0036888700000
-0.0061365800000
-0.0078728000000
-0.0091401600000
-0.0107096000000
-0.0119961000000
-0.0146549000000
-0.0206456000000
-0.0258865000000
-0.0272779000000
-0.0279850000000
-0.0288765000000
-0.0271202000000
-0.0224700000000
-0.0151998000000
-0.0035277400000
0.0092085200000
0.0156675000000
0.0145861000000
0.0094141100000
0.0032480300000
-0.0000998103000
-0.0001246280000
0.0011706600000
0.0042685000000
0.0049966400000
0.0001913640000
-0.0050861700000
-0.0087953800000
-0.0096312900000
-0.0067055800000
-0.0047242900000
-0.0020149100000
0.0026459400000
0.0041564500000
0.0044900700000
0.0073039800000
0.0118752000000
0.0149877000000
0.0146474000000
0.0134181000000
0.0107900000000
0.0031276600000
-0.0034192000000
-0.0037972700000
-0.0040660200000
-0.0023350100000
0.0037952900000
0.0069736800000
0.0052666200000
0.0026744000000
0.0008724660000
0.0000042909000
-0.0000159208000
-0.0008608660000
-0.0027118100000
-0.0015728700000
0.0031317000000
0.0067785600000
0.0096532500000
0.0128049000000
0.0140497000000
0.0166747000000
0.0221967000000
0.0251589000000
0.0277426000000
0.0327267000000
0.0334590000000
0.0306651000000
0.0303123000000
0.0299155000000
0.0273884000000
0.0243177000000
0.0208218000000
0.0190234000000
0.0189105000000
0.0177976000000
0.0172266000000
0.0146413000000
0.0077195500000
0.0034432100000
0.0028261500000
0.0041329400000
0.0088775700000
0.0158110000000
0.0212212000000
0.0229619000000
0.0241683000000
0.0235024000000
0.0185652000000
0.0142342000000
0.0153555000000
0.0175310000000
0.0164757000000
0.0146576000000
0.0123239000000
0.0097711300000
0.0073609700000
0.0056976700000
0.0060725000000
0.0066815600000
0.0063298700000
0.0051839200000
0.0023186000000
-0.0012840900000
-0.0039531100000
-0.0053489100000
-0.0051718200000
-0.0043909200000
-0.0048652500000
-0.0066441900000
-0.0080062800000
-0.0092054400000
-0.0103226000000
-0.0104009000000
-0.0107624000000
-0.0122188000000
-0.0151702000000
-0.0189240000000
-0.0218478000000
-0.0229191000000
-0.0207815000000
-0.0172353000000
-0.0131813000000
-0.0093615400000
-0.0080598500000
-0.0081531000000
-0.0085562600000
-0.0093244500000
-0.0123573000000
-0.0156658000000
-0.0159704000000
-0.0154910000000
-0.0143571000000
-0.0128938000000
-0.0114670000000
-0.0104988000000
-0.0129328000000
-0.0164988000000
-0.0195557000000
-0.0233640000000
-0.0254669000000
-0.0264784000000
-0.0283641000000
-0.0298344000000
-0.0286274000000
-0.0249722000000
-0.0226997000000
-0.0209999000000
-0.0164872000000
-0.0115565000000
-0.0090925100000
-0.0067744100000
-0.0043742200000
-0.0038810300000
-0.0031537700000
-0.0013176700000
-0.0000227217000
0.0005022700000
0.0000793604000
-0.0016527800000
-0.0050663400000
-0.0092191500000
-0.0111452000000
-0.0149081000000
-0.0256136000000
-0.0320884000000
-0.0286085000000
-0.0271014000000
-0.0255337000000
-0.0192832000000
-0.0188661000000
-0.0218451000000
-0.0197263000000
-0.0140345000000
-0.0074594100000
-0.0026199500000
0.0013276600000
0.0046146900000
0.0046299600000
0.0031185500000
0.0016950100000
0.0014916900000
0.0049143600000
0.0082089400000
0.0094639500000
0.0118612000000
0.0130207000000
0.0120991000000
0.0123014000000
0.0126513000000
0.0120794000000
0.0115956000000
0.0112871000000
0.0111342000000
0.0107747000000
0.0098783200000
0.0089319500000
0.0099623400000
0.0130717000000
0.0151060000000
0.0170775000000
0.0208041000000
0.0209589000000
0.0165833000000
0.0127937000000
0.0072033100000
0.0022081200000
0.0026804500000
0.0023115200000
-0.0001178410000
-0.0007382730000
-0.0010876100000
-0.0018305700000
0.0004034190000
0.0050033300000
0.0096030400000
0.0138686000000
0.0158642000000
0.0128509000000
0.0045660400000
-0.0014013800000
-0.0034431800000
-0.0050356400000
-0.0053613600000
-0.0066211800000
-0.0090610800000
-0.0111904000000
-0.0121333000000
-0.0118187000000
-0.0111057000000
-0.0096758600000
-0.0080595000000
-0.0070526300000
-0.0068504900000
-0.0071401600000
-0.0078218200000
-0.0085191000000
-0.0081177600000
-0.0075098900000
-0.0074296200000
-0.0076416300000
-0.0089855700000
-0.0106573000000
-0.0119572000000
-0.0123928000000
-0.0107470000000
-0.0095467600000
-0.0065301500000
0.0019107800000
0.0083746100000
0.0098008900000
0.0110850000000
0.0117368000000
0.0102135000000
0.0089667700000
0.0075911500000
0.0049431200000
0.0030315900000
0.0017932100000
0.0013083400000
0.0021717300000
0.0027365700000
0.0026257400000
0.0025039700000
0.0023699600000
0.0027512200000
0.0054082900000
0.0095771200000
0.0126833000000
0.0142566000000
0.0139871000000
0.0132861000000
0.0140425000000
0.0154909000000
0.0164510000000
0.0168826000000
0.0171688000000
0.0171658000000
0.0170766000000
0.0166151000000
0.0152323000000
0.0117126000000
0.0057261400000
0.0018488300000
0.0014172800000
0.0022242500000
0.0050036500000
0.0072878100000
0.0072906900000
0.0084151400000
0.0104283000000
0.0107973000000
0.0107146000000
0.0109984000000
0.0105320000000
0.0095715600000
0.0085213600000
0.0073811400000
0.0079215700000
0.0096406600000
0.0095599000000
0.0065694600000
0.0015753500000
-0.0048692800000
-0.0096963200000
-0.0089108800000
-0.0066149500000
-0.0058287600000
-0.0052140800000
-0.0058190800000
-0.0064930100000
-0.0045987700000
-0.0021851900000
-0.0007372790000
0.0005235450000
-0.0000327662000
-0.0013378500000
-0.0019837900000
-0.0044232100000
-0.0087822700000
-0.0129599000000
-0.0161687000000
-0.0179081000000
-0.0166488000000
-0.0135327000000
-0.0112529000000
-0.0078281700000
-0.0036947300000
-0.0029085800000
-0.0048762200000
-0.0067164900000
-0.0091618400000
-0.0117935000000
-0.0105855000000
-0.0071422000000
-0.0056590100000
-0.0046905300000
-0.0027890100000
-0.0013991900000
-0.0007924310000
-0.0008457040000
-0.0017355700000
-0.0028457800000
-0.0035634500000
-0.0034397200000
-0.0017335300000
0.0003344540000
0.0009848650000
0.0011356600000
0.0002252010000
-0.0018340700000
-0.0032261600000
-0.0048765500000
-0.0069599100000
-0.0084181300000
-0.0088665000000
-0.0073746600000
-0.0052228600000
-0.0040816600000
-0.0050953600000
-0.0087045400000
-0.0112805000000
-0.0114129000000
-0.0090780800000
-0.0062241900000
-0.0058240100000
-0.0072629300000
-0.0116579000000
-0.0154744000000
-0.0157890000000
-0.0162536000000
-0.0159804000000
-0.0131412000000
-0.0107201000000
-0.0099022900000
-0.0087371700000
-0.0086349400000
-0.0103193000000
-0.0110389000000
-0.0111289000000
-0.0112801000000
-0.0112631000000
-0.0121070000000
-0.0137093000000
-0.0153160000000
-0.0159475000000
-0.0143327000000
-0.0119992000000
-0.0103423000000
-0.0077828200000
-0.0057944500000
-0.0065940700000
-0.0082114700000
-0.0095919000000
-0.0104476000000
-0.0085003700000
-0.0049191600000
-0.0025043600000
-0.0016413200000
-0.0024315600000
-0.0037429500000
-0.0047980300000
-0.0073958100000
-0.0107346000000
-0.0117648000000
-0.0109835000000
-0.0084780600000
-0.0041880100000
-0.0015420700000
-0.0009435280000
-0.0010291900000
-0.0024705700000
-0.0045421000000
-0.0048177300000
-0.0016771600000
0.0015244600000
0.0035097000000
0.0077822400000
0.0122148000000
0.0136407000000
0.0136584000000
0.0131849000000
0.0114688000000
0.0076906800000
0.0035614300000
0.0013745500000
-0.0004931220000
-0.0025435800000
-0.0038733000000
-0.0046791400000
-0.0023231600000
0.0034148000000
0.0077473200000
0.0121444000000
0.0177289000000
0.0190737000000
0.0176907000000
0.0183474000000
0.0200289000000
0.0215100000000
0.0228184000000
0.0239766000000
0.0248997000000
0.0245598000000
0.0234621000000
0.0218287000000
0.0175552000000
0.0122535000000
0.0099937000000
0.0093972000000
0.0093416200000
0.0108959000000
0.0133151000000
0.0151548000000
0.0150618000000
0.0155774000000
0.0178680000000
0.0192817000000
0.0214461000000
0.0248095000000
0.0255106000000
0.0240324000000
0.0219612000000
0.0188934000000
0.0156554000000
0.0136023000000
0.0133910000000
0.0140842000000
0.0144930000000
0.0139591000000
0.0108919000000
0.0058873000000
0.0018751500000
-0.0016641900000
-0.0053912900000
-0.0076376100000
-0.0085236000000
-0.0087697000000
-0.0060819300000
-0.0007845840000
0.0031136900000
0.0049442100000
0.0052419800000
0.0055781100000
0.0067735300000
0.0072731100000
0.0070726100000
0.0049724400000
0.0013195500000
-0.0010699800000
-0.0036399900000
-0.0073136600000
-0.0103258000000
-0.0126408000000
-0.0143624000000
-0.0139051000000
-0.0114677000000
-0.0102257000000
-0.0104295000000
-0.0103356000000
-0.0102694000000
-0.0094147300000
-0.0055374300000
-0.0010183200000
0.0018004600000
0.0042324100000
0.0045526300000
0.0027165500000
0.0009977040000
-0.0001864700000
0.0003179980000
0.0013551000000
0.0012906300000
0.0016470800000
0.0019668300000
0.0001253890000
-0.0041413000000
-0.0085601000000
-0.0108130000000
-0.0125136000000
-0.0144230000000
-0.0150663000000
-0.0143883000000
-0.0132821000000
-0.0118695000000
-0.0091015200000
-0.0063238400000
-0.0053170800000
-0.0046896000000
-0.0035115800000
-0.0005336910000
0.0043328800000
0.0074157800000
0.0076296700000
0.0053297500000
0.0016437200000
-0.0021726300000
-0.0044896300000
-0.0022677200000
0.0004203040000
0.0011013400000
0.0032284000000
0.0054985500000
0.0059919600000
0.0056208400000
0.0045244800000
0.0015239700000
-0.0017269400000
-0.0018742000000
-0.0002103170000
0.0011319400000
0.0028883000000
0.0047022200000
0.0047590600000
0.0038511300000
0.0038379000000
0.0038187400000
0.0029845300000
0.0037312400000
0.0072409400000
0.0115070000000
0.0134621000000
0.0100429000000
0.0045087800000
-0.0016090500000
-0.0090250100000
-0.0111647000000
-0.0095241200000
-0.0094614400000
-0.0087300500000
-0.0064626600000
-0.0048809100000
-0.0065888800000
-0.0090962100000
-0.0093227900000
-0.0089583200000
-0.0080201700000
-0.0069636100000
-0.0063386800000
-0.0058834100000
-0.0062508900000
-0.0067018300000
-0.0073859100000
-0.0085263400000
-0.0093842000000
-0.0101322000000
-0.0114216000000
-0.0136646000000
-0.0154408000000
-0.0137454000000
-0.0083016700000
-0.0003124330000
0.0068036900000
0.0061986700000
0.0011674400000
-0.0003914020000
-0.0024333700000
-0.0065697400000
-0.0073718800000
-0.0075559400000
-0.0097426100000
-0.0103901000000
-0.0096536700000
-0.0093129700000
-0.0091730600000
-0.0096917800000
-0.0105954000000
-0.0093701700000
-0.0062514500000
-0.0033944100000
0.0005139280000
0.0037075600000
0.0032503200000
0.0028421000000
0.0036690900000
0.0039875100000
0.0053519100000
0.0071943200000
0.0087380800000
0.0114514000000
0.0131681000000
0.0131397000000
0.0142559000000
0.0159041000000
0.0155983000000
0.0130767000000
0.0085580000000
0.0029430100000
-0.0009913260000
-0.0037241400000
-0.0055036400000
-0.0044564600000
-0.0024002700000
-0.0008505280000
0.0000443491000
-0.0005605850000
-0.0019610900000
-0.0027979700000
-0.0002818690000
0.0056034700000
0.0097953600000
0.0126601000000
0.0136006000000
0.0107791000000
0.0085122300000
0.0070358700000
0.0053616300000
0.0043268800000
0.0031020000000
0.0013704000000
-0.0005145210000
-0.0019706800000
-0.0013719700000
0.0017825800000
0.0050209600000
0.0085146600000
0.0126411000000
0.0156551000000
0.0173124000000
0.0166857000000
0.0142817000000
0.0121619000000
0.0097636300000
0.0073192800000
0.0059609900000
0.0047713100000
0.0034134000000
0.0015134800000
-0.0005248460000
-0.0015072200000
-0.0011996300000
0.0001459990000
0.0011981900000
0.0025259500000
0.0039529800000
0.0030563600000
0.0017710900000
0.0012291200000
-0.0010289500000
-0.0024567400000
-0.0017283900000
-0.0021468900000
-0.0027752000000
-0.0029946800000
-0.0047407600000
-0.0065908500000
-0.0071393400000
-0.0061021000000
-0.0033419500000
-0.0009199890000
0.0001372680000
0.0005542660000
0.0004806710000
-0.0001883920000
-0.0009985950000
-0.0017543500000
-0.0020257600000
-0.0013119700000
-0.0008755880000
-0.0015044000000
-0.0029229300000
-0.0054938600000
-0.0082571000000
-0.0092719400000
-0.0098050500000
-0.0111612000000
-0.0118142000000
-0.0114415000000
-0.0107792000000
-0.0098292800000
-0.0079404200000
-0.0054266000000
-0.0046087100000
-0.0053398200000
-0.0064177000000
-0.0085262400000
-0.0095518600000
-0.0085777000000
-0.0079566800000
-0.0068295500000
-0.0051377800000
-0.0052080600000
-0.0050420300000
-0.0031175400000
-0.0021174200000
-0.0018640100000
-0.0012348200000
-0.0023454200000
-0.0044123700000
-0.0047491900000
-0.0037078800000
-0.0016438200000
0.0018957600000
0.0054882600000
0.0068720600000
0.0070719600000
0.0074318600000
0.0075516200000
0.0077023200000
0.0082573700000
0.0095186800000
0.0112319000000
0.0128676000000
0.0130148000000
0.0113889000000
0.0091038600000
0.0046885500000
-0.0004602050000
-0.0021405700000
-0.0022110800000
-0.0030670500000
-0.0028552100000
-0.0012649300000
0.0003439570000
0.0019023600000
0.0038585300000
0.0056040100000
0.0068352000000
0.0077645900000
0.0081984000000
0.0079859400000
0.0074215100000
0.0069816800000
0.0064010100000
0.0054926100000
0.0044112900000
0.0030814700000
0.0013458600000
-0.0004685670000
-0.0019982500000
-0.0039132200000
-0.0063528300000
-0.0085215500000
-0.0102462000000
-0.0110141000000
-0.0109072000000
-0.0112021000000
-0.0114180000000
-0.0107598000000
-0.0094999800000
-0.0078778400000
-0.0062113000000
-0.0042522400000
-0.0020561700000
-0.0011517000000
-0.0020466900000
-0.0027268500000
-0.0024781300000
-0.0025583100000
-0.0020606500000
0.0000743502000
0.0021350100000
0.0036696300000
0.0048557700000
0.0039509200000
0.0017180000000
-0.0001273860000
-0.0012747300000
-0.0004884570000
0.0011876800000
0.0020426100000
0.0029320000000
0.0034503900000
0.0020724200000
-0.0000615159000
-0.0006469340000
0.0000805698000
0.0004957340000
0.0003464900000
-0.0000094495600
-0.0007846870000
-0.0019420600000
-0.0032523900000
-0.0042132900000
-0.0044886500000
-0.0040815300000
-0.0030801000000
-0.0021808500000
-0.0014184200000
-0.0006761040000
-0.0020241800000
-0.0048348200000
-0.0057991900000
-0.0061820700000
-0.0053581200000
-0.0014097100000
0.0029723400000
0.0070659500000
0.0083929700000
0.0051968000000
0.0027446700000
0.0016703000000
-0.0003654520000
-0.0016868500000
-0.0023441600000
-0.0025465200000
-0.0018474100000
-0.0012733300000
-0.0003716270000
0.0010038300000
0.0015551100000
0.0014715900000
0.0020768300000
0.0038402900000
0.0056741300000
0.0069447300000
0.0079553100000
0.0082140800000
0.0079699600000
0.0084170900000
0.0092838400000
0.0095192900000
0.0085728500000
0.0064805500000
0.0048747400000
0.0041421800000
0.0030937800000
0.0022818000000
0.0016407000000
0.0000106786000
-0.0019883000000
-0.0033873900000
-0.0047968100000
-0.0066035900000
-0.0084260100000
-0.0100589000000
-0.0115795000000
-0.0129791000000
-0.0124905000000
-0.0100630000000
-0.0085633800000
-0.0066101500000
-0.0033390800000
-0.0019112900000
-0.0016777100000
-0.0023182800000
-0.0046836500000
-0.0074115100000
-0.0101642000000
-0.0116569000000
-0.0112713000000
-0.0108615000000
-0.0109433000000
-0.0104111000000
-0.0095811100000
-0.0092113200000
-0.0081643900000
-0.0062413800000
-0.0046330200000
-0.0045664700000
-0.0060235100000
-0.0068602100000
-0.0063676200000
-0.0048181600000
-0.0028134100000
-0.0007028060000
0.0023058000000
0.0031596400000
0.0010045400000
0.0003693480000
0.0002458420000
-0.0014520100000
-0.0020783700000
-0.0013410500000
-0.0004825650000
0.0003709030000
0.0008819260000
0.0010941000000
0.0006328590000
-0.0004063380000
-0.0013133700000
-0.0023164400000
-0.0030903100000
-0.0035443700000
-0.0039928500000
-0.0040208900000
-0.0044454400000
-0.0066489100000
-0.0092638300000
-0.0112704000000
-0.0110520000000
-0.0062127600000
-0.0015920500000
0.0015080500000
0.0066292400000
0.0088813100000
0.0074836100000
0.0076105000000
0.0073136200000
0.0048438500000
0.0018901900000
-0.0018618300000
-0.0021489100000
0.0028116900000
0.0055293200000
0.0074310300000
0.0122714000000
0.0138652000000
0.0121319000000
0.0118879000000
0.0126949000000
0.0144283000000
0.0163498000000
0.0171625000000
0.0169601000000
0.0147931000000
0.0123531000000
0.0101360000000
0.0068738400000
0.0046964500000
0.0033670400000
0.0018374300000
0.0015356500000
0.0023765600000
0.0026193100000
0.0027515000000
0.0031100900000
0.0015202900000
-0.0013142400000
-0.0025757200000
-0.0028024400000
-0.0030129900000
-0.0027686500000
-0.0014650900000
0.0005992870000
0.0023726000000
0.0042181300000
0.0064455100000
0.0085977100000
0.0106918000000
0.0118439000000
0.0109244000000
0.0090739300000
0.0078639700000
0.0063232100000
0.0033440200000
0.0002162690000
-0.0026006000000
-0.0052050200000
-0.0065483900000
-0.0069597300000
-0.0062504300000
-0.0045638600000
-0.0033359100000
-0.0012378900000
0.0020566800000
0.0042763800000
0.0051265000000
0.0046314300000
0.0029882800000
0.0019380400000
0.0009914050000
-0.0004239050000
-0.0001784110000
0.0010112900000
0.0011316700000
0.0014550100000
0.0015914100000
0.0006027820000
-0.0000570018000
-0.0016318600000
-0.0042913700000
-0.0052973300000
-0.0058211000000
-0.0070736000000
-0.0073506300000
-0.0069444600000
-0.0061574900000
-0.0044170700000
-0.0030648400000
-0.0022095000000
-0.0011678900000
-0.0006649490000
-0.0006479620000
-0.0004750210000
0.0000980116000
0.0004800470000
0.0004272490000
-0.0004541410000
-0.0028482900000
-0.0048776100000
-0.0061642700000
-0.0078478700000
-0.0084132200000
-0.0081523200000
-0.0084771500000
-0.0085398100000
-0.0083392300000
-0.0083426400000
-0.0073477400000
-0.0052834500000
-0.0038939000000
-0.0028403900000
-0.0008835970000
0.0005451010000
0.0003158390000
-0.0000364650000
-0.0000106481000
-0.0003430160000
0.0001083560000
0.0016387200000
0.0022960600000
0.0024693800000
0.0025177900000
0.0008512420000
-0.0016267900000
-0.0044659400000
-0.0073252400000
-0.0082466000000
-0.0073843900000
-0.0058237800000
-0.0046512300000
-0.0035873700000
-0.0015354500000
0.0000943698000
-0.0001620890000
-0.0007084330000
-0.0004642810000
-0.0002922430000
0.0007440890000
0.0023646600000
0.0033954700000
0.0050522700000
0.0064456400000
0.0065745200000
0.0067382600000
0.0068482100000
0.0067176300000
0.0066812200000
0.0066396700000
0.0061890900000
0.0048896600000
0.0035818800000
0.0027124100000
0.0017651600000
0.0010912500000
0.0001238380000
-0.0018605900000
-0.0035583100000
-0.0042208500000
-0.0042800300000
-0.0035876200000
-0.0024742000000
-0.0015631800000
-0.0005561260000
0.0001980240000
0.0005076260000
0.0006798680000
0.0006699950000
0.0014828800000
0.0034317600000
0.0046353200000
0.0041718800000
0.0034417400000
0.0027520300000
0.0010515700000
-0.0001323010000
0.0000276874000
-0.0000865583000
-0.0002296010000
-0.0001105690000
-0.0001352670000
-0.0000965313000
0.0000107755000
0.0003632130000
0.0010447500000
0.0016575800000
0.0017367700000
0.0015681200000
0.0016809500000
0.0021329800000
0.0030870400000
0.0039622600000
0.0042211000000
0.0044721700000
0.0043642800000
0.0035977500000
0.0030292100000
0.0023538400000
0.0015318300000
0.0013732000000
0.0017911900000
0.0022309600000
0.0023604200000
0.0025020800000
0.0027920100000
0.0031798600000
0.0037449400000
0.0041691500000
0.0045447100000
0.0051366200000
0.0054538800000
0.0052059900000
0.0047992500000
0.0044551400000
0.0039553700000
0.0032305700000
0.0025769600000
0.0020360800000
0.0012451200000
0.0004004480000
-0.0000563151000
-0.0005089530000
-0.0010537000000
-0.0013388500000
-0.0015208800000
-0.0016217300000
-0.0015860700000
-0.0016255500000
-0.0017498200000
-0.0018566000000
-0.0020147900000
-0.0020774200000
-0.0018513200000
-0.0016077000000
-0.0014926100000
-0.0015028700000
-0.0017300000000
-0.0019666300000
-0.0020794500000
-0.0020739100000
-0.0019416400000
-0.0017713300000
-0.0015396600000
-0.0013572400000
-0.0013220400000
-0.0012705800000
-0.0011508600000
-0.0010307800000
-0.0009356350000
-0.0008684490000
-0.0008678830000
-0.0009454940000
-0.0009973700000
-0.0009942230000
-0.0010403400000
-0.0011111300000
-0.0010550200000
-0.0008780450000
-0.0007190390000
-0.0005678210000
-0.0005385770000
-0.0006988260000
-0.0007372340000
-0.0006652890000
-0.0006817620000
-0.0007120030000
-0.0007138410000
-0.0007125430000
-0.0007241910000
-0.0007666640000
-0.0008080370000
-0.0008272550000
-0.0008371860000
-0.0008280680000
-0.0008094870000
-0.0008156210000
-0.0008354580000
-0.0008341590000
-0.0008138130000
-0.0007764600000
-0.0007170940000
-0.0006413910000
-0.0005995390000
-0.0006235780000
-0.0006447400000
-0.0006389310000
-0.0006366450000
-0.0006383100000
-0.0006383200000
-0.0006249580000
-0.0006003340000
-0.0005799790000
-0.0005555540000
-0.0005123640000
-0.0004517860000
-0.0003858820000
-0.0003280590000
-0.0002801800000
-0.0002387600000
-0.0002041570000
-0.0001753400000
-0.0001495580000
-0.0001257010000
-0.0001029590000
-0.0000806853000
-0.0000583664000
-0.0000354493000
-0.0000109663000