0.0007037200000
0.0021709700000
0.0023173200000
0.0006368380000
-0.0005356870000
-0.0021090800000
-0.0017046900000
-0.0000406144000
0.0001883190000
0.0000837069000
-0.0016702500000
-0.0026520700000
-0.0017815800000
-0.0009141550000
0.0001827660000
-0.0020679600000
-0.0044339500000
-0.0026567000000
-0.0003613030000
0.0000103716000
0.0004779210000
-0.0002193750000
-0.0018887400000
-0.0025034200000
-0.0018920800000
0.0000483278000
0.0018785700000
0.0022267400000
0.0007287050000
-0.0000073927000
0.0005947440000
-0.0020599800000
-0.0045280600000
-0.0003610360000
0.0004246800000
0.0001526510000
-0.0000255427000
0.0010794200000
0.0024414100000
-0.0024583800000
-0.0023407900000
0.0027074700000
0.0020131300000
-0.0002357030000
0.0009283820000
0.0030522800000
0.0013236400000
-0.0026020900000
-0.0015522700000
0.0022280900000
0.0018825500000
0.0003721600000
0.0029305400000
0.0009570660000
-0.0025984400000
-0.0007703880000
-0.0000674019000
0.0002551190000
0.0022626800000
-0.0005431540000
0.0006086120000
0.0016134900000
-0.0025754700000
-0.0013482400000
-0.0002434110000
-0.0000290494000
-0.0002777720000
0.0036198000000
0.0060240900000
0.0001245510000
0.0021820300000
0.0032623400000
-0.0032461500000
-0.0036662700000
-0.0021188100000
0.0024529500000
0.0025571000000
-0.0001927180000
0.0046870600000
0.0042200000000
-0.0004107110000
0.0009398550000
0.0013724200000
0.0000332338000
-0.0004664940000
0.0015174700000
0.0011646200000
-0.0002092650000
-0.0010639700000
-0.0030549600000
-0.0028254200000
-0.0038933200000
0.0072563400000
0.0130092000000
0.0013393800000
-0.0049580800000
-0.0015961400000
0.0029408300000
-0.0011381400000
-0.0041583600000
0.0061222200000
0.0042403200000
-0.0094164700000
-0.0056618700000
0.0081519800000
0.0019850300000
-0.0063167700000
0.0049297100000
0.0110487000000
0.0030865000000
-0.0034150300000
0.0065911200000
0.0069307300000
-0.0017597300000
-0.0020025500000
-0.0003787740000
0.0012715100000
-0.0016957400000
-0.0025036600000
0.0040324200000
0.0028817700000
-0.0052334400000
-0.0062331400000
-0.0021022400000
0.0052722600000
0.0044632900000
-0.0031246100000
-0.0103178000000
-0.0101445000000
-0.0053628500000
0.0023472000000
-0.0022194700000
-0.0046084500000
0.0048937200000
0.0021834400000
-0.0043457300000
-0.0036063900000
0.0049869500000
-0.0004243100000
-0.0040077400000
-0.0006582290000
0.0014162800000
-0.0064613600000
-0.0171501000000
-0.0068676900000
0.0019489900000
-0.0045883800000
-0.0057156800000
0.0021646300000
0.0049541300000
0.0049957400000
0.0094519000000
0.0016344000000
-0.0110587000000
-0.0082682100000
0.0021671800000
0.0116081000000
0.0126666000000
0.0060791800000
-0.0066975900000
-0.0073006600000
0.0010620700000
0.0115352000000
0.0105771000000
-0.0031390800000
-0.0121980000000
-0.0051571800000
0.0056219000000
-0.0001832040000
-0.0100683000000
-0.0108418000000
-0.0060755900000
0.0010406500000
0.0157987000000
0.0041643000000
-0.0147335000000
-0.0104957000000
0.0033443100000
0.0105013000000
-0.0004384930000
-0.0043178800000
-0.0010032100000
0.0017433200000
0.0037105600000
0.0017711900000
0.0053602300000
-0.0072748600000
-0.0129128000000
-0.0026437500000
0.0021947700000
-0.0010532700000
-0.0036077200000
0.0071692300000
0.0018750600000
-0.0038444600000
-0.0043028200000
0.0032641700000
0.0111831000000
0.0093007700000
0.0134130000000
0.0065827000000
-0.0060575500000
-0.0117577000000
-0.0064939000000
0.0105937000000
0.0080239500000
0.0016250700000
0.0027680600000
-0.0027077200000
-0.0044829600000
0.0067304900000
0.0110987000000
-0.0028828700000
-0.0074376100000
-0.0042383200000
-0.0074211700000
-0.0186110000000
-0.0173783000000
0.0000479345000
0.0084981700000
0.0025602800000
0.0055249500000
0.0108142000000
0.0093836800000
0.0055847200000
0.0057606900000
0.0076492400000
-0.0065088500000
-0.0125743000000
-0.0055255400000
-0.0009839810000
0.0060422900000
0.0068802300000
-0.0040710000000
-0.0153935000000
-0.0048788500000
0.0163009000000
0.0057903200000
-0.0075548700000
-0.0070464200000
0.0012762500000
-0.0016629100000
-0.0073009900000
0.0029861900000
0.0050389000000
0.0047670400000
-0.0036434200000
0.0026198500000
0.0089759300000
-0.0063848100000
-0.0084978000000
-0.0041184800000
-0.0110306000000
-0.0043980900000
0.0162349000000
0.0122369000000
-0.0015499500000
-0.0037557700000
-0.0034983000000
0.0070346400000
0.0134539000000
0.0049883500000
-0.0108131000000
-0.0149212000000
-0.0030939000000
0.0042566300000
0.0047333700000
0.0012861800000
0.0035836200000
0.0063574000000
0.0053153500000
0.0023842700000
0.0056496800000
0.0056827000000
-0.0003440950000
-0.0010607700000
-0.0024567800000
0.0011707200000
-0.0013228100000
-0.0028453000000
0.0002171060000
0.0052164900000
-0.0033236100000
-0.0136140000000
0.0017740400000
0.0262523000000
0.0248869000000
-0.0017694100000
-0.0064549400000
-0.0139006000000
-0.0168083000000
0.0068009700000
0.0052468200000
-0.0081209700000
-0.0099158400000
-0.0050847900000
0.0050849300000
0.0089796100000
-0.0048421000000
-0.0116870000000
-0.0066468700000
-0.0050798400000
0.0041371800000
0.0105645000000
-0.0038916500000
-0.0109538000000
0.0010416600000
0.0100934000000
0.0037636000000
-0.0017400300000
0.0000483137000
-0.0034265400000
0.0098316900000
0.0180889000000
0.0180718000000
0.0014511800000
-0.0092616100000
-0.0074426800000
-0.0110104000000
-0.0031989600000
-0.0013586200000
0.0074666800000
0.0014897300000
-0.0153594000000
-0.0137200000000
-0.0000844022000
0.0058604000000
0.0049406000000
-0.0005151370000
0.0016128200000
-0.0021211700000
-0.0089732900000
-0.0010068600000
-0.0025295000000
-0.0087951300000
-0.0133268000000
-0.0040904500000
0.0075377700000
0.0075349200000
-0.0058278900000
-0.0031960800000
0.0076916100000
0.0014902200000
-0.0095980000000
-0.0106566000000
-0.0095343600000
0.0043235600000
0.0162027000000
0.0054785800000
-0.0038460700000
0.0078882000000
0.0217532000000
0.0069103800000
-0.0010352300000
0.0100605000000
0.0174587000000
0.0009410320000
-0.0195516000000
-0.0104694000000
0.0070442000000
0.0059193000000
0.0050228900000
0.0052923300000
0.0015807000000
-0.0116577000000
-0.0020522300000
0.0254012000000
0.0264428000000
-0.0008053400000
-0.0179014000000
-0.0021065700000
0.0140402000000
0.0114148000000
0.0051327800000
0.0064038400000
-0.0057666700000
0.0001973990000
0.0148590000000
0.0054720700000
-0.0055315600000
0.0085955600000
0.0093443600000
0.0010345300000
-0.0024282500000
-0.0089765400000
0.0007156150000
0.0009166640000
0.0046815900000
-0.0019452400000
-0.0143687000000
0.0026204800000
0.0128236000000
-0.0085371000000
-0.0006320070000
0.0072904300000
-0.0074454200000
-0.0054716300000
0.0011319300000
0.0117635000000
-0.0161865000000
-0.0286161000000
-0.0063116900000
0.0171698000000
0.0214600000000
0.0142619000000
0.0098311300000
-0.0102138000000
-0.0073537000000
0.0181290000000
0.0360178000000
0.0095836000000
-0.0188733000000
-0.0035263400000
0.0063218100000
0.0029558700000
0.0016646000000
0.0005395960000
0.0025633300000
-0.0045756100000
0.0043331200000
-0.0109240000000
-0.0141931000000
0.0046535300000
0.0064630500000
0.0183594000000
0.0083674600000
-0.0031748200000
-0.0153872000000
-0.0122150000000
-0.0027626500000
-0.0041294300000
-0.0037061000000
-0.0120854000000
-0.0131288000000
-0.0045138700000
0.0080637700000
0.0121479000000
-0.0022596200000
0.0045080900000
0.0199978000000
0.0175407000000
0.0160576000000
0.0107597000000
0.0165125000000
0.0050405800000
-0.0023768600000
0.0199591000000
0.0133658000000
-0.0031673700000
-0.0105501000000
0.0041307200000
0.0002791970000
-0.0038314100000
0.0084055200000
0.0034768700000
-0.0103635000000
-0.0183940000000
-0.0109052000000
0.0095407000000
0.0261371000000
0.0062552400000
-0.0184216000000
-0.0200139000000
0.0032033300000
0.0096466400000
0.0054574700000
-0.0013276000000
-0.0027219700000
-0.0037573000000
-0.0018101600000
-0.0029566800000
0.0078042900000
0.0121556000000
0.0090363700000
-0.0025733200000
-0.0040921400000
0.0058711800000
-0.0002396900000
-0.0140720000000
-0.0219240000000
0.0052090000000
0.0213984000000
0.0167125000000
-0.0104084000000
-0.0249822000000
-0.0296386000000
-0.0301272000000
-0.0175904000000
-0.0038531300000
0.0005858480000
0.0027655200000
0.0076492200000
0.0049186100000
0.0071625400000
0.0162629000000
0.0227929000000
0.0232926000000
0.0166962000000
0.0097825600000
0.0021335100000
-0.0012805100000
-0.0101464000000
-0.0091254900000
-0.0074425700000
-0.0061921300000
-0.0068439900000
-0.0285762000000
-0.0325849000000
-0.0283448000000
-0.0036446000000
0.0323399000000
0.0136422000000
-0.0213011000000
-0.0007022600000
0.0312981000000
0.0538931000000
0.0275667000000
-0.0218309000000
-0.0425819000000
-0.0575831000000
-0.0623354000000
-0.0529444000000
-0.0154126000000
-0.0029564300000
-0.0185554000000
-0.0123774000000
0.0077971100000
-0.0110669000000
-0.0301114000000
-0.0052235200000
0.0307885000000
0.0238972000000
0.0143020000000
0.0265725000000
-0.0057616300000
-0.0441790000000
-0.0544342000000
-0.0407898000000
-0.0269128000000
-0.0146740000000
-0.0057001300000
0.0003371240000
0.0120915000000
-0.0123172000000
-0.0081384300000
0.0159151000000
0.0009423700000
-0.0099656400000
-0.0098301100000
-0.0005268210000
-0.0257618000000
-0.0317697000000
-0.0032608200000
0.0210609000000
0.0320993000000
0.0179405000000
-0.0095792500000
-0.0151119000000
-0.0005770080000
0.0079602500000
0.0378930000000
0.0452297000000
0.0282568000000
0.0185626000000
0.0044129900000
-0.0088542900000
-0.0132680000000
-0.0301675000000
-0.0344965000000
-0.0113366000000
0.0050587800000
0.0080757900000
-0.0135045000000
-0.0257518000000
-0.0034771900000
-0.0053072200000
-0.0250444000000
0.0023526600000
0.0415807000000
0.0501455000000
0.0474556000000
0.0384702000000
0.0240330000000
0.0279751000000
0.0079503200000
0.0007448810000
0.0281297000000
0.0182345000000
0.0018969900000
-0.0089457800000
-0.0000393045000
0.0061651900000
0.0017576000000
0.0031507500000
-0.0287713000000
-0.0442500000000
-0.0178097000000
0.0026186500000
0.0080867000000
-0.0052387600000
-0.0146036000000
0.0147743000000
0.0158849000000
0.0060019600000
0.0209050000000
0.0247920000000
0.0194144000000
0.0058400900000
0.0186409000000
-0.0003975660000
-0.0435346000000
-0.0724681000000
-0.0828029000000
-0.0746278000000
-0.0762181000000
-0.0519964000000
-0.0127429000000
0.0291799000000
0.0681081000000
0.0541624000000
0.0133000000000
0.0069350500000
0.0258732000000
0.0328488000000
0.0316450000000
0.0530107000000
0.0349066000000
0.0006119510000
0.0007035590000
0.0047446100000
0.0198282000000
0.0030071600000
-0.0212935000000
-0.0247678000000
-0.0298741000000
-0.0205260000000
-0.0156425000000
-0.0239832000000
-0.0383175000000
-0.0461319000000
-0.0308617000000
-0.0189258000000
-0.0063616500000
-0.0090260900000
-0.0257625000000
-0.0237043000000
-0.0365697000000
-0.0410702000000
-0.0300381000000
-0.0103033000000
0.0142010000000
0.0312348000000
0.0486949000000
0.0463548000000
0.0367636000000
0.0450845000000
0.0459891000000
0.0344108000000
0.0203846000000
0.0098019100000
0.0010796800000
0.0025839700000
0.0142271000000
0.0175021000000
0.0255456000000
0.0283891000000
-0.0114686000000
-0.0477206000000
-0.0593692000000
-0.0588043000000
-0.0180056000000
0.0100218000000
0.0140169000000
-0.0130694000000
-0.0304311000000
-0.0103597000000
0.0009926880000
-0.0016136200000
-0.0008335370000
0.0381935000000
0.0653069000000
0.0629342000000
0.0468884000000
0.0207812000000
-0.0245784000000
-0.0653551000000
-0.0628410000000
-0.0743816000000
-0.0590369000000
-0.0175333000000
-0.0031035700000
-0.0188628000000
-0.0408175000000
-0.0166723000000
-0.0145305000000
-0.0335863000000
-0.0247921000000
0.0060300300000
0.0293072000000
0.0196119000000
0.0146698000000
0.0070583400000
-0.0219313000000
-0.0396724000000
-0.0591760000000
-0.0715774000000
-0.0387285000000
0.0169041000000
0.0545419000000
0.0437021000000
-0.0059690400000
-0.0716358000000
-0.1166410000000
-0.1326230000000
-0.0933452000000
0.0071093200000
0.0787090000000
0.0515084000000
-0.0081117900000
-0.0182212000000
0.0180742000000
0.0674910000000
0.0720828000000
0.0346934000000
0.0199277000000
0.0415974000000
0.0735792000000
0.0849939000000
0.0676159000000
0.0238230000000
-0.0036590900000
0.0191122000000
0.0364581000000
0.0141046000000
-0.0239906000000
-0.0237919000000
0.0024289700000
0.0176604000000
0.0034138400000
-0.0486247000000
-0.1175120000000
-0.1515280000000
-0.1265910000000
-0.1010330000000
-0.0824450000000
-0.0494115000000
0.0099155700000
0.0847935000000
0.1302600000000
0.1344750000000
0.1234380000000
0.1301300000000
0.1386170000000
0.1239090000000
0.0713555000000
-0.0114891000000
-0.0912860000000
-0.1299870000000
-0.0851276000000
-0.0141410000000
0.0016963400000
-0.0140313000000
-0.0344906000000
-0.0305669000000
0.0104929000000
0.0526554000000
0.0743608000000
0.0603754000000
0.0458871000000
0.0351605000000
0.0117136000000
-0.0008204220000
0.0072149100000
0.0072942500000
-0.0199522000000
-0.0178869000000
0.0187247000000
0.0069567600000
-0.0371564000000
-0.0613368000000
-0.0596193000000
-0.0445878000000
-0.0423848000000
-0.0579002000000
-0.0752578000000
-0.0798236000000
-0.0936356000000
-0.1025820000000
-0.1025210000000
-0.0695398000000
-0.0007797660000
0.0479332000000
0.0423138000000
0.0099071300000
0.0062675500000
0.0330219000000
0.0530892000000
0.0465997000000
0.0225754000000
-0.0040457500000
-0.0286698000000
-0.0505939000000
-0.0577698000000
-0.0278443000000
0.0440706000000
0.0870940000000
0.1034790000000
0.1261910000000
0.1405860000000
0.1472480000000
0.1032140000000
0.0265343000000
-0.0279962000000
-0.0683465000000
-0.0844005000000
-0.0425563000000
0.0298543000000
0.0660294000000
0.0646899000000
0.0671989000000
0.0604769000000
0.0232039000000
-0.0150107000000
-0.0325691000000
-0.0290646000000
0.0054529600000
0.0443453000000
0.0602296000000
0.0761730000000
0.0936648000000
0.1018100000000
0.0809398000000
0.0423897000000
0.0012070400000
-0.0565639000000
-0.1011970000000
-0.1182190000000
-0.1261920000000
-0.1255390000000
-0.1139900000000
-0.1186030000000
-0.1354710000000
-0.1477570000000
-0.1449470000000
-0.1086260000000
-0.0462520000000
0.0116981000000
0.0369306000000
0.0354269000000
0.0247534000000
0.0170971000000
0.0264513000000
0.0453364000000
0.0476669000000
0.0490305000000
0.0509142000000
0.0197826000000
0.0048087600000
0.0205053000000
0.0192291000000
0.0174592000000
0.0123253000000
0.0298324000000
0.0653823000000
0.0846387000000
0.0961145000000
0.1066340000000
0.1213850000000
0.1310210000000
0.1193060000000
0.0718752000000
0.0272000000000
0.0053289900000
0.0225780000000
0.0755933000000
0.1153850000000
0.1395770000000
0.1374790000000
0.1180690000000
0.0868399000000
0.0477145000000
0.0170021000000
-0.0247487000000
-0.0524184000000
-0.0579491000000
-0.0390823000000
0.0052915700000
0.0397796000000
0.0672837000000
0.0799836000000
0.0705137000000
0.0575779000000
0.0622758000000
0.0630916000000
0.0338837000000
-0.0171308000000
-0.0656850000000
-0.0829497000000
-0.0625305000000
-0.0305476000000
-0.0169542000000
-0.0143595000000
-0.0131531000000
-0.0042109100000
0.0059226000000
0.0231206000000
0.0495946000000
0.0659654000000
0.0485630000000
0.0062674700000
-0.0147141000000
-0.0254824000000
-0.0257029000000
-0.0225707000000
-0.0384268000000
-0.0548245000000
-0.0649900000000
-0.0594281000000
-0.0539743000000
-0.0654587000000
-0.0761964000000
-0.0814720000000
-0.0731663000000
-0.0681247000000
-0.0827159000000
-0.0830293000000
-0.0521387000000
-0.0159075000000
-0.0117124000000
-0.0385559000000
-0.0596752000000
-0.0452434000000
0.0013235400000
0.0365593000000
0.0414031000000
0.0285234000000
0.0330184000000
0.0619617000000
0.0864895000000
0.1033360000000
0.1030760000000
0.0819296000000
0.0512804000000
0.0271603000000
0.0240288000000
0.0487208000000
0.0656863000000
0.0672753000000
0.0756330000000
0.0604165000000
0.0431008000000
0.0319653000000
0.0246007000000
0.0211295000000
0.0130917000000
0.0244095000000
0.0263790000000
0.0169917000000
0.0129748000000
0.0162642000000
0.0007406480000
-0.0346209000000
-0.0504514000000
-0.0452006000000
-0.0250966000000
-0.0012868600000
0.0014547500000
-0.0205172000000
-0.0497455000000
-0.0702191000000
-0.0888944000000
-0.1041000000000
-0.0883765000000
-0.0704022000000
-0.0740958000000
-0.0712257000000
-0.0469284000000
-0.0299129000000
-0.0368827000000
-0.0538760000000
-0.0725075000000
-0.0785981000000
-0.0738195000000
-0.0574242000000
-0.0177902000000
0.0169733000000
0.0448529000000
0.0674712000000
0.0650027000000
0.0514661000000
0.0317637000000
-0.0035774300000
-0.0469816000000
-0.0716311000000
-0.0641801000000
-0.0407366000000
-0.0161088000000
-0.0245933000000
-0.0463959000000
-0.0485809000000
-0.0509494000000
-0.0352120000000
-0.0147723000000
-0.0129202000000
-0.0187006000000
-0.0340466000000
-0.0588379000000
-0.0801091000000
-0.0740871000000
-0.0395307000000
-0.0088665400000
-0.0014930800000
-0.0231386000000
-0.0481359000000
-0.0598221000000
-0.0626579000000
-0.0564951000000
-0.0400039000000
-0.0203772000000
0.0050105100000
0.0334847000000
0.0464131000000
0.0139535000000
-0.0152125000000
0.0021498600000
0.0135411000000
-0.0045986800000
-0.0216063000000
-0.0062655900000
0.0082254400000
0.0093167400000
0.0085455100000
-0.0046411600000
-0.0206267000000
-0.0051319900000
0.0228200000000
0.0392378000000
0.0292244000000
0.0015312500000
0.0000021685600
0.0023327700000
-0.0217271000000
-0.0601669000000
-0.0801570000000
-0.0716176000000
-0.0528997000000
-0.0468278000000
-0.0516759000000
-0.0430468000000
-0.0145297000000
0.0224105000000
0.0487601000000
0.0522912000000
0.0487017000000
0.0512047000000
0.0331384000000
0.0124721000000
0.0041477700000
-0.0019794600000
-0.0034942500000
-0.0157802000000
-0.0454766000000
-0.0722282000000
-0.0729474000000
-0.0704169000000
-0.0700936000000
-0.0584943000000
-0.0380484000000
-0.0094834200000
0.0156197000000
0.0224128000000
0.0084734400000
-0.0067970600000
-0.0037289700000
-0.0026794700000
-0.0149389000000
-0.0196698000000
-0.0166415000000
-0.0114069000000
-0.0079665000000
0.0082534700000
0.0317878000000
0.0441828000000
0.0544541000000
0.0521642000000
0.0337684000000
0.0228482000000
0.0291946000000
0.0418619000000
0.0379818000000
0.0305296000000
0.0347289000000
0.0433039000000
0.0413944000000
0.0375816000000
0.0312137000000
0.0175609000000
0.0240930000000
0.0340981000000
0.0396213000000
0.0411860000000
0.0379607000000
0.0392948000000
0.0447068000000
0.0476321000000
0.0471823000000
0.0476545000000
0.0300961000000
0.0090351200000
0.0192779000000
0.0322492000000
0.0207354000000
-0.0053542100000
-0.0065843700000
0.0198009000000
0.0322867000000
0.0295837000000
0.0171029000000
0.0012173900000
-0.0112573000000
-0.0155627000000
-0.0155464000000
-0.0135452000000
0.0063355500000
0.0197822000000
0.0128186000000
0.0095902500000
0.0154919000000
-0.0031455400000
-0.0221941000000
-0.0144503000000
-0.0032027500000
-0.0035832500000
-0.0091902200000
0.0085750900000
0.0202428000000
0.0116524000000
0.0031139300000
0.0012717800000
0.0075549600000
0.0099447900000
0.0210169000000
0.0210352000000
0.0138330000000
0.0286648000000
0.0217777000000
-0.0039293800000
-0.0204452000000
-0.0233788000000
-0.0141825000000
-0.0120782000000
-0.0025300300000
0.0049169700000
-0.0047975200000
-0.0213827000000
-0.0118406000000
0.0234524000000
0.0385606000000
0.0112837000000
-0.0379456000000
-0.0586434000000
-0.0434281000000
-0.0201935000000
-0.0175772000000
-0.0103536000000
-0.0006248140000
-0.0151904000000
-0.0001240020000
0.0431597000000
0.0429486000000
0.0089040100000
-0.0188675000000
0.0020312500000
0.0368337000000
0.0217091000000
0.0318714000000
0.0612219000000
0.0572184000000
0.0445398000000
0.0545031000000
0.0300507000000
-0.0121090000000
-0.0022190400000
-0.0262349000000
-0.0729723000000
-0.0473214000000
-0.0098740900000
-0.0225751000000
-0.0201638000000
0.0239950000000
0.0132045000000
-0.0217519000000
0.0030973300000
0.0072150900000
-0.0203096000000
-0.0260705000000
-0.0358074000000
-0.0450813000000
-0.0454780000000
-0.0534748000000
-0.0581402000000
-0.0605933000000
-0.0425648000000
-0.0181337000000
-0.0266058000000
-0.0434725000000
-0.0546303000000
-0.0516243000000
-0.0369577000000
-0.0283887000000
-0.0131233000000
-0.0110527000000
-0.0178958000000
-0.0076560000000
0.0240099000000
0.0415795000000
0.0284123000000
0.0156919000000
0.0142630000000
0.0182379000000
0.0061142500000
-0.0143051000000
-0.0095079900000
0.0168540000000
0.0388421000000
0.0343797000000
0.0299305000000
0.0516321000000
0.0661926000000
0.0570922000000
0.0195114000000
-0.0078511100000
-0.0014607600000
-0.0010629100000
-0.0128367000000
-0.0186323000000
-0.0199776000000
-0.0170451000000
-0.0051181700000
0.0080929200000
0.0163305000000
0.0037998500000
-0.0087338600000
-0.0087185000000
-0.0135624000000
-0.0204137000000
-0.0218335000000
-0.0155849000000
-0.0089997200000
0.0022060600000
0.0235874000000
0.0422259000000
0.0384346000000
0.0267516000000
0.0173982000000
0.0174218000000
0.0371894000000
0.0491174000000
0.0444571000000
0.0478303000000
0.0483761000000
0.0185452000000
0.0034686600000
0.0045499300000
-0.0067903500000
-0.0022727000000
0.0004844350000
-0.0121676000000
-0.0281325000000
-0.0218278000000
0.0045994200000
0.0067578200000
-0.0086063600000
-0.0246437000000
-0.0318928000000
-0.0334452000000
-0.0356697000000
-0.0328758000000
-0.0311183000000
-0.0220606000000
-0.0037505100000
-0.0008026210000
-0.0021458800000
0.0027420500000
0.0002309000000
-0.0066254500000
-0.0018283000000
0.0128935000000
0.0200805000000
0.0208078000000
0.0209507000000
0.0249635000000
0.0337662000000
0.0367671000000
0.0273159000000
0.0171098000000
0.0170589000000
0.0157127000000
0.0024425400000
-0.0076686200000
-0.0092199400000
-0.0023787000000
-0.0021746000000
-0.0109863000000
-0.0055169300000
0.0050717900000
0.0123414000000
0.0171855000000
0.0130709000000
0.0099906500000
0.0181059000000
0.0396647000000
0.0529238000000
0.0525353000000
0.0417866000000
0.0224465000000
0.0093151500000
-0.0070384000000
-0.0184919000000
-0.0118097000000
0.0015564600000
0.0047226500000
-0.0002680930000
-0.0017418800000
-0.0104954000000
-0.0299293000000
-0.0341429000000
-0.0244691000000
-0.0248055000000
-0.0439783000000
-0.0677606000000
-0.0819211000000
-0.0795505000000
-0.0659140000000
-0.0665799000000
-0.0783914000000
-0.0792103000000
-0.0612898000000
-0.0381296000000
-0.0284293000000
-0.0369859000000
-0.0450254000000
-0.0478578000000
-0.0341775000000
-0.0229216000000
-0.0234713000000
-0.0295544000000
-0.0371513000000
-0.0340493000000
-0.0307138000000
-0.0248129000000
-0.0076309100000
0.0142135000000
0.0312181000000
0.0319363000000
0.0096923000000
-0.0145316000000
-0.0111328000000
0.0043968700000
0.0103518000000
0.0176021000000
0.0215088000000
0.0302483000000
0.0337868000000
0.0341878000000
0.0334801000000
0.0235597000000
0.0108527000000
-0.0055171300000
-0.0065298400000
0.0144894000000
0.0327211000000
0.0435067000000
0.0457580000000
0.0415017000000
0.0375320000000
0.0335898000000
0.0449732000000
0.0596929000000
0.0561190000000
0.0454571000000
0.0462549000000
0.0404951000000
0.0394681000000
0.0346396000000
0.0176241000000
0.0112687000000
0.0124092000000
0.0253756000000
0.0413316000000
0.0505036000000
0.0481557000000
0.0385118000000
0.0304162000000
0.0330296000000
0.0260999000000
0.0081153900000
-0.0072446300000
-0.0299415000000
-0.0370824000000
-0.0104510000000
0.0126879000000
0.0099707300000
-0.0025404200000
-0.0110124000000
-0.0120414000000
-0.0120361000000
-0.0094298500000
-0.0116951000000
-0.0116766000000
-0.0007766890000
0.0116328000000
0.0220400000000
0.0244556000000
-0.0001374870000
-0.0320766000000
-0.0370520000000
-0.0348465000000
-0.0341497000000
-0.0361447000000
-0.0424471000000
-0.0468839000000
-0.0503619000000
-0.0501700000000
-0.0501565000000
-0.0455011000000
-0.0306905000000
-0.0231780000000
-0.0212337000000
-0.0191018000000
-0.0193362000000
-0.0100846000000
-0.0067327000000
-0.0159309000000
-0.0180696000000
-0.0111202000000
0.0029865900000
0.0214294000000
0.0322875000000
0.0292858000000
0.0167716000000
-0.0006069750000
-0.0071531500000
0.0004490950000
0.0116101000000
0.0139971000000
-0.0011384900000
-0.0141841000000
-0.0300021000000
-0.0419757000000
-0.0174486000000
0.0014807900000
-0.0010414800000
-0.0190555000000
-0.0210800000000
0.0014489100000
0.0033463100000
-0.0086272900000
-0.0357489000000
-0.0421053000000
-0.0095763300000
0.0286841000000
0.0392198000000
0.0271585000000
0.0222342000000
0.0384942000000
0.0635884000000
0.0674483000000
0.0495577000000
0.0151247000000
-0.0366799000000
-0.0920300000000
-0.1121320000000
-0.0882831000000
-0.0347839000000
0.0539808000000
0.1087330000000
0.1096700000000
0.0845783000000
0.0647385000000
0.0541521000000
0.0147517000000
-0.0404872000000
-0.0334184000000
0.0206520000000
0.0291223000000
0.0124200000000
-0.0160776000000
-0.0271943000000
-0.0251092000000
-0.0000598907000
0.0055390900000
-0.0199668000000
-0.0184703000000
-0.0292790000000
-0.0501378000000
-0.0419286000000
-0.0004899160000
0.0211935000000
0.0176186000000
0.0182797000000
0.0051770100000
0.0153497000000
0.0515385000000
0.0686665000000
0.0276148000000
-0.0482496000000
-0.0698132000000
-0.0488734000000
0.0006559960000
0.0344549000000
0.0243459000000
-0.0040965700000
0.0036658400000
0.0345159000000
0.0576498000000
0.0685640000000
0.0582499000000
0.0331704000000
0.0179777000000
0.0181778000000
0.0138339000000
0.0078925800000
-0.0141372000000
-0.0256426000000
-0.0245010000000
-0.0199954000000
-0.0147554000000
-0.0024030400000
-0.0018091900000
-0.0105861000000
-0.0001033190000
0.0119268000000
0.0256195000000
0.0303800000000
0.0200262000000
-0.0051757200000
-0.0255265000000
-0.0342351000000
-0.0402865000000
-0.0488829000000
-0.0431696000000
-0.0153122000000
0.0164008000000
0.0207921000000
0.0048803600000
0.0020470200000
-0.0048816300000
0.0082929100000
0.0346265000000
0.0372093000000
0.0098470200000
-0.0219441000000
-0.0453906000000
-0.0574621000000
-0.0417141000000
-0.0162996000000
-0.0043980100000
-0.0113103000000
-0.0094129100000
0.0033036400000
0.0000898435000
-0.0138952000000
-0.0172558000000
-0.0091629400000
-0.0138221000000
-0.0206814000000
-0.0190094000000
-0.0187388000000
-0.0176523000000
-0.0057599300000
0.0150340000000
0.0304546000000
0.0313208000000
0.0204611000000
0.0087720900000
0.0047188300000
0.0114337000000
0.0110933000000
0.0096399700000
0.0153032000000
0.0143171000000
0.0048690700000
0.0053996900000
0.0153480000000
0.0177564000000
0.0150465000000
0.0122835000000
0.0149062000000
0.0272106000000
0.0428434000000
0.0431986000000
0.0390433000000
0.0301552000000
0.0075226800000
-0.0140980000000
-0.0231503000000
-0.0132214000000
0.0043778800000
0.0057112400000
-0.0089245200000
-0.0219324000000
-0.0219056000000
-0.0084760800000
-0.0051598400000
-0.0154524000000
-0.0149208000000
-0.0045951300000
-0.0000253093000
-0.0055942900000
-0.0224944000000
-0.0345527000000
-0.0185476000000
0.0079419800000
0.0037744800000
-0.0144150000000
-0.0286162000000
-0.0183130000000
-0.0002281490000
-0.0050392700000
-0.0166507000000
-0.0267812000000
-0.0306304000000
-0.0307189000000
-0.0168651000000
0.0022162700000
0.0174828000000
0.0143751000000
-0.0031360400000
-0.0201219000000
-0.0168852000000
-0.0058608300000
-0.0201549000000
-0.0390002000000
-0.0403852000000
-0.0190251000000
0.0171168000000
0.0297354000000
0.0115572000000
0.0107455000000
0.0150358000000
0.0188824000000
0.0262134000000
0.0271224000000
0.0197949000000
0.0187058000000
0.0314591000000
0.0351323000000
0.0309383000000
0.0302072000000
0.0254919000000
0.0066312900000
-0.0055258800000
-0.0159939000000
-0.0233285000000
-0.0153244000000
-0.0089644800000
-0.0052667700000
-0.0000757833000
-0.0032742900000
-0.0056404900000
0.0102574000000
0.0326171000000
0.0369482000000
0.0246054000000
0.0119484000000
-0.0125436000000
-0.0244621000000
-0.0130777000000
-0.0014596900000
0.0018636800000
0.0000788820000
-0.0037805900000
0.0004617900000
0.0021215300000
-0.0073428400000
-0.0021151400000
0.0122528000000
0.0129904000000
-0.0010435400000
0.0023726400000
0.0171659000000
0.0145365000000
0.0040684900000
0.0049632200000
0.0071972200000
-0.0101069000000
-0.0260534000000
-0.0285175000000
-0.0243567000000
-0.0274216000000
-0.0399123000000
-0.0494950000000
-0.0437624000000
-0.0204277000000
-0.0004834510000
0.0041312200000
-0.0041652600000
-0.0038050100000
0.0020540600000
0.0072205500000
0.0109764000000
-0.0012930000000
-0.0191785000000
-0.0286266000000
-0.0343394000000
-0.0373258000000
-0.0307374000000
-0.0092754100000
0.0009676180000
0.0043470600000
0.0129499000000
0.0120607000000
0.0099229400000
0.0098476400000
0.0086330100000
0.0131997000000
0.0196545000000
0.0106226000000
-0.0035195600000
0.0012083200000
0.0104742000000
0.0069339400000
0.0013496200000
-0.0023854400000
-0.0071660000000
-0.0109674000000
-0.0077796900000
-0.0035138800000
-0.0039278200000
0.0037478500000
0.0186237000000
0.0250152000000
0.0140606000000
0.0087108500000
0.0099074800000
0.0097985100000
0.0084584000000
0.0098773900000
0.0168799000000
0.0157284000000
0.0162906000000
0.0176270000000
0.0155311000000
0.0131475000000
0.0184935000000
0.0280816000000
0.0351035000000
0.0312572000000
0.0272049000000
0.0281853000000
0.0236138000000
0.0161506000000
0.0137977000000
0.0154849000000
0.0074168500000
-0.0059194900000
-0.0105624000000
-0.0089149200000
-0.0105009000000
-0.0063758300000
-0.0033646400000
-0.0076617500000
-0.0032052200000
0.0065532700000
0.0071552200000
0.0031253400000
0.0019494300000
-0.0016122600000
-0.0027218800000
0.0023313500000
0.0021315700000
-0.0100318000000
-0.0174766000000
-0.0093042500000
-0.0024884700000
-0.0000117671000
0.0030259300000
-0.0004154120000
-0.0028836800000
0.0005191800000
0.0018881500000
-0.0049324500000
-0.0087348800000
-0.0018507700000
0.0066469800000
0.0041154700000
-0.0004213600000
0.0000928481000
0.0013108600000
0.0018852400000
0.0028472200000
0.0091570700000
0.0124579000000
0.0059922500000
-0.0035680800000
-0.0077081500000
-0.0087902500000
-0.0117532000000
-0.0173631000000
-0.0223549000000
-0.0224914000000
-0.0215509000000
-0.0259929000000
-0.0244332000000
-0.0195156000000
-0.0105681000000
-0.0054863600000
-0.0063767100000
-0.0116949000000
-0.0112776000000
0.0043948100000
0.0125100000000
0.0100397000000
0.0074755100000
0.0028570500000
-0.0041247500000
-0.0063451900000
-0.0096896800000
-0.0085992000000
-0.0066080700000
-0.0134440000000
-0.0238479000000
-0.0267722000000
-0.0204012000000
-0.0213599000000
-0.0238139000000
-0.0224582000000
-0.0260241000000
-0.0268339000000
-0.0231587000000
-0.0221203000000
-0.0238155000000
-0.0245355000000
-0.0204309000000
-0.0167344000000
-0.0160397000000
-0.0140261000000
-0.0157162000000
-0.0194320000000
-0.0164260000000
-0.0085280600000
0.0011181500000
0.0096943700000
0.0145323000000
0.0166448000000
0.0186848000000
0.0194346000000
0.0199600000000
0.0219021000000
0.0170908000000
0.0101559000000
0.0052711700000
0.0033903400000
0.0075907500000
0.0120523000000
0.0090178300000
0.0073817900000
0.0084416200000
0.0107785000000
0.0232460000000
0.0227350000000
0.0078909800000
0.0096362400000
0.0188989000000
0.0197058000000
0.0203290000000
0.0207891000000
0.0172466000000
0.0165041000000
0.0193856000000
0.0164338000000
0.0072935800000
0.0022639900000
0.0054933300000
0.0046457300000
0.0059268700000
0.0097080300000
0.0042745000000
-0.0068332800000
-0.0101075000000
-0.0014262400000
0.0040073100000
0.0040981000000
0.0058453700000
0.0088288800000
0.0044316600000
0.0020132400000
0.0053037600000
0.0091328400000
0.0069888000000
0.0008381940000
-0.0025726900000
-0.0084489200000
-0.0107082000000
-0.0132460000000
-0.0167242000000
-0.0141467000000
-0.0142569000000
-0.0160358000000
-0.0143834000000
-0.0126739000000
-0.0111092000000
-0.0078401400000
0.0014734500000
0.0046242000000
-0.0000790437000
-0.0004625940000
0.0074423700000
0.0084419400000
0.0015854600000
-0.0058238500000
-0.0096896900000
-0.0032463900000
0.0016516000000
-0.0011075400000
-0.0023560700000
0.0006579840000
0.0022878900000
0.0048796600000
0.0023581700000
-0.0003795660000
-0.0004724430000
-0.0001114220000
0.0014807400000
-0.0008704260000
0.0008145500000
0.0053504200000
0.0022464900000
0.0021933900000
0.0073871500000
0.0024533400000
-0.0059535700000
-0.0071205300000
-0.0010495700000
0.0011433500000
0.0000182029000
0.0017500800000
0.0042336900000
0.0088695000000
0.0072445500000
0.0088479000000
0.0096332000000
0.0113885000000
0.0151165000000
0.0127623000000
0.0128264000000
0.0147123000000
0.0136014000000
0.0047762600000
0.0028014300000
0.0084613000000
0.0144170000000
0.0182582000000
0.0172136000000
0.0150184000000
0.0127202000000
0.0107790000000
0.0097517800000
0.0030767600000
-0.0069030500000
-0.0129579000000
-0.0101857000000
-0.0084691500000
-0.0096973700000
-0.0034989700000
-0.0003850580000
-0.0017387400000
-0.0074753700000
-0.0104345000000
-0.0055764400000
-0.0058468900000
-0.0096067700000
-0.0106637000000
-0.0104292000000
-0.0108608000000
-0.0095441800000
-0.0111896000000
-0.0189591000000
-0.0189736000000
-0.0163026000000
-0.0173940000000
-0.0181449000000
-0.0142037000000
-0.0139542000000
-0.0174655000000
-0.0166690000000
-0.0093683600000
-0.0001331530000
0.0033832400000
0.0026042300000
0.0027686900000
0.0065915100000
0.0012784400000
-0.0076585000000
-0.0105646000000
-0.0107299000000
-0.0097925200000
-0.0082867700000
-0.0065785700000
-0.0049174500000
-0.0028678200000
0.0014238100000
0.0011798500000
-0.0019290400000
0.0026924800000
0.0074840000000
0.0063458000000
0.0025104800000
-0.0018150400000
-0.0000476710000
0.0052258500000
0.0092149800000
0.0099742300000
0.0082767800000
0.0078048000000
0.0096856700000
0.0126515000000
0.0101367000000
0.0080736600000
0.0075140100000
0.0130490000000
0.0199886000000
0.0183508000000
0.0132925000000
0.0114935000000
0.0127037000000
0.0104218000000
0.0098155700000
0.0105935000000
0.0095703800000
0.0040637600000
0.0026997200000
0.0090464300000
0.0128663000000
0.0139457000000
0.0090436300000
0.0034386600000
0.0024037100000
0.0007560590000
-0.0006752530000
-0.0021679400000
-0.0018479000000
-0.0036737500000
-0.0063437600000
-0.0034378900000
-0.0019925400000
-0.0040306900000
-0.0088661300000
-0.0113914000000
-0.0090919100000
-0.0058208000000
-0.0025678600000
-0.0029757600000
-0.0034986500000
-0.0018563000000
-0.0047968800000
-0.0068823900000
-0.0068449300000
-0.0054053000000
-0.0031927900000
-0.0027947100000
-0.0023110500000
-0.0033256300000
-0.0050986700000
-0.0084735400000
-0.0088484700000
-0.0086350900000
-0.0091807300000
-0.0092605800000
-0.0108283000000
-0.0110112000000
-0.0115890000000
-0.0114131000000
-0.0096830200000
-0.0074158000000
-0.0049824200000
-0.0011681100000
0.0028883800000
0.0045152200000
0.0030671800000
-0.0011286500000
-0.0007905720000
0.0027716100000
0.0029135500000
0.0019192600000
0.0037863800000
0.0067391000000
0.0057353400000
0.0041184700000
0.0015547200000
0.0005863800000
0.0032666600000
0.0060920100000
0.0074742600000
0.0061106000000
0.0036760300000
0.0017559100000
0.0027553400000
0.0048537400000
0.0035387700000
0.0024307300000
0.0031503200000
0.0028006500000
0.0012089600000
0.0000615870000
-0.0016389500000
-0.0036569200000
-0.0030564100000
-0.0025414000000
-0.0017982500000
-0.0006132110000
-0.0004835140000
-0.0017495800000
-0.0019754300000
-0.0003033680000
0.0021457400000
0.0024115700000
-0.0003116550000
-0.0008201630000
-0.0012057900000
-0.0012471800000
-0.0007359530000
-0.0007011380000
-0.0013003000000
-0.0017184200000
-0.0005092150000
0.0007839210000
0.0014087600000
0.0007826190000
-0.0003443180000
-0.0005540750000
-0.0003696210000
-0.0001220170000
0.0002650010000
-0.0005424250000
-0.0014518900000
-0.0012215100000
-0.0005088790000
-0.0002462270000
-0.0002978330000
-0.0000940813000
0.0004184500000
0.0003349930000
0.0000774328000
0.0004137710000
0.0009067160000
0.0014488200000
0.0017350700000
0.0016821100000
0.0014524800000
0.0015596600000
0.0014558500000
0.0009834490000
0.0009976630000
0.0010536700000
0.0009844240000
0.0006635610000
0.0003378660000
0.0005254090000
0.0007730890000
0.0008179520000
0.0005113480000
0.0000607234000
0.0000593422000
0.0002179230000
0.0002009140000
0.0000451811000
-0.0001591180000
-0.0001705000000
-0.0000469539000
0.0001393450000
0.0001541780000
-0.0000530223000
-0.0000806213000
-0.0000259515000
-0.0000673579000
-0.0001006190000
-0.0001085720000
-0.0000864712000
-0.0000099968800
0.0000136585000
-0.0000316086000
-0.0000816824000
-0.0001230660000
-0.0001595660000
-0.0002006700000
-0.0002050230000
-0.0002034860000
-0.0002331020000
-0.0002577240000
-0.0002661140000
-0.0002529660000
-0.0002302470000
-0.0002049290000
-0.0001706540000
-0.0001350620000
-0.0000992804000
-0.0000632749000
-0.0000286977000
