0.0000138499000
0.0000137014000
0.0000137116000
0.0000135863000
0.0000136276000
0.0000134808000
0.0000135078000
0.0000133543000
0.0000133633000
0.0000131920000
0.0000132109000
0.0000133688000
0.0000129104000
0.0000129083000
0.0000129655000
0.0000129289000
0.0000131223000
0.0000127807000
0.0000126004000
0.0000127289000
0.0000125233000
0.0000128253000
0.0000126811000
0.0000128920000
0.0000120989000
0.0000123511000
0.0000140887000
0.0000094446300
0.0000144811000
0.0000102840000
0.0000146461000
0.0000093145000
0.0000140399000
0.0000083976900
0.0000159073000
0.0000062467900
0.0000152833000
0.0000071308200
0.0000153636000
0.0000063330900
0.0000141344000
0.0000073094300
0.0000133538000
0.0000047771100
0.0000146357000
0.0000040303700
0.0000194020000
0.0000023434600
0.0000164299000
0.0000045098900
0.0000178480000
0.0000016324900
0.0000166415000
0.0000019002900
0.0000204876000
0.0000025276500
0.0000124138000
0.0000102831000
0.0000086796600
0.0000097338700
0.0000087750400
0.0000109827000
0.0000110643000
0.0000128725000
0.0000092810400
0.0000055370500
0.0000095580600
0.0000087876200
0.0000102710000
0.0000089062800
0.0000113672000
0.0000102481000
0.0000133494000
0.0000115601000
-0.0000003559780
0.0000087055300
0.0000172105000
0.0000089904300
-0.0000001157740
0.0000072511500
0.0000077275200
0.0000139757000
0.0000119232000
0.0000061281700
0.0000060316800
0.0000069968300
-0.0000071597900
0.0000317116000
-0.0000069301600
0.0000193468000
-0.0000145917000
0.0000246670000
-0.0000123599000
0.0000353778000
-0.0000115893000
0.0000301810000
-0.0000130242000
0.0000232091000
-0.0000066467000
0.0000165405000
-0.0000155892000
0.0000382878000
-0.0000229351000
0.0000365331000
-0.0000200815000
0.0000292040000
-0.0000214215000
0.0000279149000
-0.0000247319000
0.0000352716000
-0.0000261983000
0.0000336777000
-0.0000357475000
0.0000484753000
-0.0000165886000
0.0000358156000
-0.0000309232000
0.0000302386000
-0.0000009609960
-0.0000009066740
0.0000158503000
-0.0000053218800
0.0000131900000
-0.0000098730600
0.0000141940000
0.0000027060400
0.0000035417600
0.0000051902600
0.0000156825000
-0.0000061825100
0.0000000924376
0.0000031465800
0.0000091247400
-0.0000007943240
-0.0000064807000
-0.0000022917600
0.0000048952600
-0.0000152333000
0.0000183548000
-0.0000097803800
0.0000094366100
-0.0000147395000
0.0000090662700
-0.0000067499900
0.0000196677000
-0.0000098368000
0.0000096257000
0.0000264251000
0.0000665118000
-0.0000403481000
0.0000439687000
-0.0000294073000
0.0000491676000
-0.0000528781000
0.0000407463000
-0.0000403189000
0.0000723472000
-0.0000739962000
0.0000367225000
-0.0000505981000
0.0000701235000
-0.0000605613000
0.0000630834000
-0.0000706422000
0.0000604032000
-0.0000551499000
0.0000762608000
-0.0000571145000
0.0000694312000
-0.0000703521000
0.0000371198000
-0.0000503905000
0.0000679192000
-0.0000558690000
0.0000602203000
-0.0000902811000
0.0000879991000
-0.0001133070000
-0.0054948500000
0.0000939530000
0.0000169541000
0.0000733521000
0.0000458454000
0.0000972075000
0.0000407167000
0.0000555176000
0.0000267770000
0.0000603153000
0.0000550944000
0.0000764014000
0.0000189018000
0.0000638018000
0.0000579597000
0.0000513056000
0.0000369744000
0.0000714424000
0.0000314185000
0.0000903349000
0.0000449413000
0.0000776527000
0.0000188314000
0.0000544606000
0.0000281545000
0.0000996326000
0.0000120729000
0.0000869568000
0.0000338177000
0.0000476591000
0.0000520798000
0.0000955355000
-0.0000217167000
0.0001275500000
-0.0000429312000
0.0001426920000
-0.0000112695000
0.0001303830000
-0.0000292870000
0.0000784479000
-0.0000334885000
0.0001213850000
-0.0000114323000
0.0001222060000
0.0000045054200
0.0001363560000
-0.0000385271000
0.0001338180000
-0.0000607474000
0.0001324160000
-0.0000297366000
0.0001656660000
-0.0000397307000
0.0001185060000
-0.0000445395000
0.0001833160000
-0.0000185633000
0.0000896603000
-0.0000671445000
0.0001664510000
-0.0000301790000
-0.0073046000000
0.0001489970000
0.0001090700000
0.0001225410000
0.0001048020000
0.0001492010000
0.0000759685000
0.0001304910000
0.0000770398000
0.0001206490000
0.0001042840000
0.0001552110000
0.0000803847000
0.0000799449000
0.0000740370000
0.0001163840000
0.0000878241000
0.0001447070000
0.0000717740000
0.0001652410000
0.0000328899000
0.0001290060000
0.0000804401000
0.0001170030000
0.0000567383000
0.0001330620000
0.0000834756000
0.0001576120000
0.0000780305000
0.0001294410000
0.0000670293000
0.0001641160000
0.0000119680000
0.0001912040000
-0.0000290578000
0.0001976200000
0.0000187903000
0.0001893810000
-0.0000341709000
0.0002077330000
-0.0000012716300
0.0001856310000
-0.0000131801000
0.0002216300000
-0.0000005725890
0.0001824490000
-0.0000284282000
0.0001818120000
-0.0000122501000
0.0001630320000
-0.0000139059000
0.0002211080000
-0.0000222875000
0.0001642900000
0.0000298293000
0.0001631020000
0.0000206980000
0.0001461210000
0.0000068598900
0.0001922120000
-0.0000005967990
0.0000419013000
0.0001192890000
0.0000587490000
0.0001063860000
0.0000926046000
0.0001120520000
0.0000683527000
0.0000990193000
0.0000603976000
0.0001050520000
0.0000395146000
0.0001471070000
0.0000421989000
0.0001379570000
0.0000449693000
0.0001328120000
0.0000736409000
0.0001034610000
0.0000645982000
0.0001451480000
0.0000152694000
0.0001422540000
0.0000559958000
0.0000930504000
0.0000501559000
0.0001060810000
0.0000581296000
0.0000989467000
0.0000213295000
0.0001510120000
0.0000161163000
0.0002085970000
-0.0000295824000
0.0001387880000
0.0000116230000
0.0001347480000
-0.0000191957000
0.0001600070000
-0.0000043046400
0.0001061990000
0.0000091204100
0.0001014590000
-0.0000113785000
0.0001288480000
-0.0000369871000
0.0001981040000
-0.0000363530000
0.0001322990000
-0.0000080160200
0.0001393870000
-0.0000497470000
0.0001588870000
-0.0000027481900
0.0001318280000
-0.0000205330000
0.0001739120000
-0.0000536531000
0.0001413680000
-0.0000263741000
0.0001306770000
-0.0000191751000
0.0001260700000
0.0000765238000
0.0000277602000
0.0000569898000
0.0000043235700
0.0000975713000
-0.0000014477200
0.0000681221000
-0.0000067579400
0.0001215890000
-0.0000157025000
0.0000591852000
0.0000051129400
0.0001165210000
-0.0000138211000
0.0000929496000
0.0000085404000
0.0000941993000
0.0000366490000
0.0001070140000
-0.0000083341000
0.0001202740000
0.0000186230000
0.0001171340000
-0.0000054249000
0.0000904046000
0.0000029100600
0.0000986227000
0.0000130401000
0.0000877278000
0.0000053139100
0.0001357310000
-0.0000348111000
0.0000812287000
0.0000047834700
0.0001640570000
-0.0000605563000
0.0001284910000
-0.0000402351000
0.0001078760000
-0.0000318025000
0.0001232020000
0.0000082079600
0.0001169660000
-0.0000625821000
0.0001285910000
-0.0000303514000
0.0000898838000
-0.0000536959000
0.0001045580000
-0.0000799964000
0.0001492930000
-0.0000458920000
0.0001015990000
-0.0000692244000
0.0001243370000
-0.0000259750000
0.0001333960000
-0.0000529266000
0.0000939452000
-0.0000433607000
0.0001523700000
0.0000458971000
-0.0000465731000
0.0001248290000
-0.0000157203000
0.0000800800000
-0.0000034268500
0.0000763721000
-0.0000091319600
0.0000866907000
-0.0000039618000
0.0000649728000
-0.0000384333000
0.0000448467000
-0.0000096238400
0.0000683482000
-0.0000072467900
0.0000796625000
-0.0000309168000
0.0000363852000
-0.0000598336000
0.0000466086000
-0.0000099528600
0.0000880075000
-0.0000088091800
0.0000354493000
-0.0000259312000
0.0000801360000
0.0000142297000
0.0000372986000
0.0000157635000
0.0000684617000
-0.0000398340000
0.0001139400000
-0.0000457022000
0.0000893310000
-0.0000651108000
0.0001209210000
-0.0000259987000
0.0001148790000
-0.0000687721000
0.0001103690000
-0.0001061610000
0.0001013940000
-0.0000345991000
0.0001104960000
-0.0001021730000
0.0000895316000
-0.0000355142000
0.0000519528000
-0.0000764852000
0.0001237440000
-0.0001020860000
0.0001006380000
-0.0000673998000
0.0000782916000
-0.0000875273000
0.0001131760000
-0.0000651156000
0.0000618606000
-0.0000841197000
0.0001427630000
0.0000661906000
-0.0000038546500
0.0000466392000
-0.0000293623000
0.0000861983000
-0.0000690195000
0.0000849973000
-0.0000565264000
0.0000617434000
-0.0000269157000
0.0000462758000
-0.0000660959000
0.0000463464000
-0.0001129200000
-0.0000327067000
-0.0001773270000
-0.0001242650000
-0.0003048310000
-0.0003041260000
-0.0005684860000
-0.0005698370000
-0.0006802410000
-0.0005240850000
-0.0003543280000
-0.0000453694000
0.0002311650000
0.0010759100000
0.0020252700000
0.0027922000000
0.0026216500000
0.0019678800000
0.0012470200000
0.0002115920000
-0.0013304500000
-0.0031776100000
-0.0059798000000
-0.0072156200000
-0.0045329400000
-0.0014726000000
-0.0001190400000
0.0015889200000
0.0014859500000
0.0000191542000
-0.0022281100000
-0.0040470800000
-0.0098016200000
-0.0172890000000
-0.0199552000000
-0.0214940000000
-0.0248267000000
-0.0165658000000
-0.0045124900000
-0.0023530500000
-0.0092641800000
-0.0012818300000
0.0096570000000
0.0013491400000
-0.0088867900000
-0.0095753300000
-0.0128806000000
-0.0261923000000
-0.0258450000000
-0.0167771000000
-0.0031189600000
0.0003361820000
0.0090887300000
0.0187503000000
0.0294163000000
0.0254582000000
0.0089242400000
-0.0122456000000
-0.0229739000000
-0.0167020000000
0.0047579600000
-0.0010888100000
-0.0134989000000
-0.0126789000000
0.0018371200000
0.0091543000000
-0.0020851600000
-0.0027583900000
0.0028860100000
-0.0060030200000
-0.0092938900000
0.0033740900000
0.0168887000000
0.0045535800000
-0.0323416000000
-0.0450016000000
-0.0270966000000
-0.0268082000000
-0.0315930000000
-0.0285321000000
-0.0125888000000
-0.0052373800000
-0.0121612000000
-0.0125419000000
0.0053492800000
-0.0196202000000
-0.0455005000000
-0.0211274000000
0.0130177000000
0.0080561300000
-0.0077211700000
-0.0051428600000
-0.0214188000000
-0.0330105000000
-0.0253504000000
-0.0099901600000
-0.0084395100000
-0.0020062800000
0.0260479000000
0.0550814000000
0.0527176000000
0.0089720600000
-0.0211998000000
-0.0059249400000
-0.0062342600000
-0.0299118000000
-0.0259146000000
-0.0152495000000
-0.0095987400000
-0.0010634800000
0.0117901000000
0.0304992000000
0.0417310000000
0.0195545000000
0.0229005000000
0.0178531000000
0.0078259200000
0.0088799900000
-0.0012822000000
-0.0068325300000
0.0005669060000
0.0117962000000
0.0161754000000
0.0245372000000
0.0255767000000
0.0381424000000
0.0413056000000
0.0131311000000
-0.0049785300000
-0.0177469000000
-0.0249711000000
-0.0338116000000
-0.0382621000000
-0.0036647100000
0.0255695000000
0.0182518000000
0.0144584000000
0.0313582000000
0.0286571000000
-0.0066885100000
-0.0287217000000
-0.0524628000000
-0.0392703000000
-0.0249640000000
-0.0269859000000
-0.0228248000000
-0.0055595000000
0.0070997300000
0.0058316600000
0.0060439200000
0.0155112000000
0.0200842000000
0.0085360500000
0.0092817100000
0.0250129000000
0.0322151000000
0.0230015000000
0.0142044000000
0.0346483000000
0.0508633000000
0.0335131000000
0.0326900000000
0.0510462000000
0.0545166000000
0.0330991000000
0.0105855000000
0.0091739300000
0.0096046800000
0.0008803410000
-0.0034992400000
-0.0034314400000
-0.0055273800000
-0.0121477000000
-0.0078128400000
0.0052159400000
0.0110948000000
0.0044617800000
0.0090072700000
0.0076375400000
0.0074164300000
-0.0008653890000
-0.0086908700000
-0.0061231400000
-0.0119348000000
-0.0036927600000
0.0128378000000
0.0123095000000
0.0052085000000
0.0036004200000
0.0113279000000
0.0021748700000
-0.0117149000000
-0.0075598400000
-0.0045384100000
-0.0091262800000
-0.0250638000000
-0.0298311000000
-0.0124675000000
-0.0142447000000
-0.0107163000000
-0.0014696200000
-0.0012217900000
-0.0018449700000
-0.0024418300000
0.0138605000000
0.0296942000000
0.0285786000000
0.0331590000000
0.0300631000000
0.0223954000000
0.0148516000000
0.0130306000000
0.0156043000000
0.0021614500000
-0.0074217200000
-0.0004506400000
0.0050548000000
0.0065514800000
0.0082664600000
0.0071483500000
0.0060092900000
0.0011198200000
0.0036329100000
0.0114228000000
0.0213192000000
0.0113946000000
0.0134894000000
0.0172558000000
0.0102651000000
0.0070995800000
-0.0026176700000
-0.0014372300000
0.0073990700000
0.0052366900000
-0.0061793600000
-0.0097810900000
-0.0123203000000
-0.0055684600000
-0.0101308000000
-0.0282079000000
-0.0252650000000
-0.0247097000000
-0.0272659000000
-0.0301251000000
-0.0131690000000
0.0192332000000
0.0332141000000
0.0388949000000
0.0428668000000
0.0511150000000
0.0487161000000
0.0521291000000
0.0501768000000
0.0378169000000
0.0225700000000
0.0179974000000
0.0178356000000
0.0175730000000
0.0196336000000
0.0031202300000
0.0003933940000
0.0071983300000
0.0150892000000
0.0252298000000
0.0203393000000
0.0063850700000
0.0037048000000
-0.0140188000000
-0.0347038000000
-0.0437037000000
-0.0466363000000
-0.0504517000000
-0.0548095000000
-0.0440789000000
-0.0336962000000
-0.0341400000000
-0.0331764000000
-0.0101327000000
0.0114976000000
-0.0016985100000
0.0084885800000
0.0269150000000
0.0197237000000
0.0019957100000
0.0022112100000
0.0114385000000
0.0023044700000
-0.0140677000000
-0.0279532000000
-0.0094091000000
-0.0086885800000
-0.0173394000000
-0.0078816000000
0.0074561200000
0.0197548000000
0.0202855000000
0.0234825000000
0.0226917000000
0.0093957500000
-0.0042684600000
0.0005697660000
-0.0006376870000
-0.0006815740000
-0.0088520500000
-0.0084106600000
-0.0010692500000
-0.0076980200000
0.0007853310000
0.0090825100000
0.0064489000000
0.0171174000000
0.0142948000000
0.0225076000000
0.0086082200000
-0.0138333000000
-0.0063565400000
-0.0028107700000
0.0136099000000
0.0171417000000
0.0046098600000
0.0067648500000
0.0189998000000
0.0166022000000
0.0135997000000
-0.0043632800000
-0.0087301400000
0.0149110000000
0.0194151000000
0.0082246900000
0.0226378000000
0.0326541000000
0.0152760000000
-0.0042593800000
-0.0213155000000
-0.0139767000000
-0.0063390100000
-0.0109709000000
0.0049046300000
0.0204014000000
-0.0032982600000
-0.0132281000000
0.0141164000000
0.0161556000000
-0.0053708700000
-0.0191967000000
-0.0103878000000
0.0146375000000
0.0085100500000
-0.0026542000000
0.0016626400000
0.0020603700000
-0.0137492000000
-0.0101226000000
0.0111926000000
0.0122321000000
0.0142460000000
0.0119522000000
0.0147832000000
0.0246091000000
0.0311140000000
0.0172141000000
0.0065816500000
-0.0117362000000
-0.0059491600000
-0.0146575000000
-0.0213885000000
-0.0055626300000
0.0166021000000
0.0482376000000
0.0381887000000
0.0396600000000
0.0406398000000
0.0302177000000
0.0283159000000
0.0255177000000
0.0285562000000
0.0410740000000
0.0478737000000
0.0319916000000
0.0243807000000
0.0289657000000
0.0338640000000
0.0401207000000
0.0194238000000
0.0189421000000
0.0513936000000
0.0485507000000
0.0280207000000
0.0253330000000
0.0311208000000
0.0317247000000
0.0174150000000
-0.0052006300000
0.0205963000000
0.0476274000000
0.0146282000000
-0.0022503400000
-0.0042850500000
-0.0126737000000
-0.0170649000000
-0.0329884000000
-0.0307630000000
-0.0094568200000
0.0060395400000
0.0153107000000
0.0158061000000
0.0225960000000
0.0168521000000
0.0055439300000
-0.0008858910000
-0.0159598000000
-0.0451113000000
-0.0928931000000
-0.0814522000000
-0.0698587000000
-0.0634814000000
-0.0509447000000
-0.0606431000000
-0.0562873000000
-0.0627281000000
-0.0730798000000
-0.0459931000000
-0.0244982000000
-0.0171686000000
-0.0182771000000
-0.0059605900000
0.0073954400000
0.0145708000000
0.0011429100000
-0.0230967000000
-0.0275133000000
-0.0101850000000
-0.0031045600000
-0.0301035000000
-0.0263440000000
-0.0005880050000
-0.0015784500000
-0.0220238000000
-0.0564220000000
-0.0612414000000
-0.0383362000000
-0.0459100000000
-0.0588769000000
-0.0726019000000
-0.0676966000000
-0.0407072000000
-0.0659881000000
-0.0966776000000
-0.0731677000000
-0.0700903000000
-0.0779235000000
-0.0832496000000
-0.1020310000000
-0.1170060000000
-0.1004140000000
-0.1094760000000
-0.1319360000000
-0.1020270000000
-0.0596793000000
-0.0506000000000
-0.0480853000000
-0.0543459000000
-0.0441562000000
-0.0463930000000
-0.0654345000000
-0.0806457000000
-0.0787830000000
-0.0639417000000
-0.0606324000000
-0.0595664000000
-0.0179131000000
0.0253183000000
0.0391617000000
0.0559792000000
0.0640776000000
0.0762001000000
0.1035640000000
0.1235730000000
0.1472690000000
0.1764610000000
0.1740190000000
0.1521960000000
0.1517830000000
0.1603190000000
0.1557950000000
0.1657250000000
0.1454970000000
0.1134580000000
0.0912128000000
0.0763691000000
0.0682896000000
0.0731053000000
0.0565809000000
0.0631241000000
0.0748701000000
0.0581530000000
0.0756381000000
0.0882311000000
0.1010290000000
0.1141290000000
0.1054510000000
0.0898834000000
0.0934143000000
0.1085570000000
0.1014700000000
0.0871831000000
0.0827772000000
0.0834850000000
0.0811717000000
0.0846861000000
0.0915697000000
0.1064010000000
0.0904315000000
0.0635908000000
-0.0088234500000
-0.0873505000000
-0.1314020000000
-0.1383880000000
-0.1465840000000
-0.1415390000000
-0.1578600000000
-0.1824460000000
-0.1991440000000
-0.2119070000000
-0.2235150000000
-0.2162300000000
-0.1857260000000
-0.1627420000000
-0.1546070000000
-0.1515440000000
-0.1426810000000
-0.1151920000000
-0.0624996000000
-0.0241252000000
-0.0271120000000
-0.0298748000000
-0.0044011400000
0.0173428000000
0.0166655000000
-0.0016132200000
-0.0142232000000
-0.0229784000000
-0.0555206000000
-0.0932509000000
-0.1183170000000
-0.1228590000000
-0.1284720000000
-0.1663080000000
-0.1928040000000
-0.2166970000000
-0.2461780000000
-0.2510000000000
-0.2602360000000
-0.2965030000000
-0.3054090000000
-0.3085840000000
-0.3242880000000
-0.3332110000000
-0.3291190000000
-0.3237030000000
-0.3150900000000
-0.3009670000000
-0.2774790000000
-0.2430690000000
-0.2144380000000
-0.1896300000000
-0.1510890000000
-0.0842125000000
0.0279081000000
0.1266720000000
0.1464520000000
0.1424420000000
0.1436320000000
0.1370540000000
0.1936280000000
0.2498650000000
0.2286420000000
0.2774020000000
0.3854130000000
0.4906570000000
0.5832000000000
0.6721970000000
0.7487560000000
0.8224290000000
0.8131350000000
0.7483230000000
0.6923370000000
0.5234910000000
0.2997990000000
0.1316960000000
0.1457840000000
0.2730710000000
0.3211690000000
0.2804140000000
0.1986760000000
0.1649900000000
0.1631520000000
0.1999310000000
0.2712960000000
0.2509670000000
0.1976960000000
0.1769250000000
0.1881750000000
0.2264780000000
0.2376120000000
0.2304620000000
0.1808450000000
0.1461350000000
0.1238870000000
0.0561674000000
0.0060609300000
-0.0009144440000
0.0074258800000
-0.0236877000000
-0.0774586000000
-0.1058540000000
-0.1187680000000
-0.1407240000000
-0.1701620000000
-0.2183340000000
-0.2788330000000
-0.3310690000000
-0.3640050000000
-0.3870810000000
-0.4363290000000
-0.4965390000000
-0.5102160000000
-0.4798920000000
-0.4619190000000
-0.4716720000000
-0.4953650000000
-0.4726240000000
-0.4384630000000
-0.3687220000000
-0.3348200000000
-0.3199910000000
-0.2873910000000
-0.2400600000000
-0.1795090000000
-0.1074470000000
-0.0440899000000
0.0203899000000
0.1019040000000
0.1407250000000
0.1303980000000
0.1159220000000
0.0980619000000
0.0884293000000
0.0891926000000
0.1067710000000
0.1188580000000
0.1000950000000
0.0746880000000
0.0545386000000
0.0348333000000
0.0763629000000
0.1341590000000
0.1505770000000
0.1510840000000
0.1412150000000
0.1002570000000
0.0502164000000
-0.0097579400000
-0.0453894000000
-0.1060470000000
-0.1251400000000
-0.1224560000000
-0.1424880000000
-0.1727280000000
-0.1952940000000
-0.2180490000000
-0.2319430000000
-0.2314800000000
-0.2167160000000
-0.1919320000000
-0.1758500000000
-0.1724030000000
-0.1533030000000
-0.1097500000000
-0.0686493000000
-0.0402829000000
-0.0116016000000
0.0178179000000
0.0330304000000
0.0400643000000
0.0549109000000
0.0572785000000
0.0312613000000
0.0135209000000
0.0511503000000
0.0861994000000
0.0772217000000
0.0429682000000
0.0249376000000
0.0160497000000
0.0323276000000
0.0241009000000
-0.0130794000000
-0.0268328000000
-0.0020361600000
0.0245846000000
0.0189634000000
-0.0080609400000
-0.0298557000000
-0.0150214000000
-0.0011737300000
-0.0151653000000
-0.0201012000000
-0.0159460000000
-0.0027086300000
0.0108267000000
0.0092587200000
0.0102799000000
0.0089946100000
0.0052570100000
0.0099310800000
0.0438799000000
0.0612592000000
0.0541790000000
0.0585394000000
0.0936399000000
0.1232700000000
0.1261410000000
0.1220410000000
0.1262090000000
0.1263030000000
0.1223540000000
0.1203610000000
0.0971526000000
0.0865453000000
0.0877238000000
0.0888430000000
0.0829969000000
0.0736568000000
0.0734064000000
0.0790600000000
0.0858193000000
0.0964135000000
0.1051500000000
0.1044600000000
0.1077570000000
0.0839935000000
0.0547157000000
0.0452005000000
0.0546327000000
0.0474882000000
0.0282754000000
0.0102929000000
0.0016955700000
0.0086635800000
0.0025030100000
-0.0220941000000
-0.0221125000000
-0.0124090000000
-0.0286375000000
-0.0392704000000
-0.0492617000000
-0.0390523000000
-0.0382658000000
-0.0476261000000
-0.0711979000000
-0.0914396000000
-0.0819619000000
-0.0849872000000
-0.1080910000000
-0.1144660000000
-0.1116460000000
-0.1082600000000
-0.1073330000000
-0.1107440000000
-0.1176660000000
-0.1268530000000
-0.1262740000000
-0.1203730000000
-0.1117890000000
-0.1036140000000
-0.0927716000000
-0.0761960000000
-0.0651496000000
-0.0571765000000
-0.0439404000000
-0.0296469000000
-0.0095956500000
0.0056182800000
0.0036905800000
0.0016736100000
0.0175334000000
0.0485603000000
0.0667821000000
0.0726993000000
0.0860928000000
0.0950708000000
0.1095400000000
0.1226630000000
0.1268380000000
0.1408370000000
0.1629170000000
0.1745210000000
0.1715890000000
0.1657020000000
0.1753920000000
0.1899020000000
0.1878970000000
0.1761760000000
0.1726050000000
0.1724560000000
0.1680680000000
0.1662820000000
0.1780020000000
0.1919360000000
0.1763740000000
0.1310290000000
0.0984769000000
0.0868760000000
0.0607648000000
0.0207108000000
0.0073193200000
-0.0013778000000
0.0040070700000
0.0156029000000
0.0185058000000
-0.0021709200000
-0.0236640000000
-0.0508952000000
-0.0602433000000
-0.0301932000000
-0.0191622000000
-0.0238036000000
-0.0304142000000
-0.0193221000000
0.0022221800000
0.0130856000000
0.0009575700000
-0.0123876000000
-0.0022876000000
-0.0077365300000
-0.0256434000000
-0.0486233000000
-0.0685347000000
-0.0749069000000
-0.0792384000000
-0.0969496000000
-0.1203270000000
-0.1343050000000
-0.1287420000000
-0.1313360000000
-0.1420100000000
-0.1590770000000
-0.1602170000000
-0.1500640000000
-0.1276020000000
-0.1141300000000
-0.1156560000000
-0.1074960000000
-0.0880994000000
-0.0804514000000
-0.0918704000000
-0.0654918000000
-0.0725693000000
-0.1052880000000
-0.0815233000000
-0.0972043000000
-0.0694007000000
-0.0796392000000
-0.0765522000000
-0.0651879000000
-0.0625965000000
-0.0661441000000
-0.0650669000000
-0.0462035000000
-0.0172541000000
-0.0021245800000
0.0106805000000
0.0212191000000
0.0336040000000
0.0453322000000
0.0470917000000
0.0461013000000
0.0504602000000
0.0494341000000
0.0303160000000
0.0269504000000
0.0387293000000
0.0427109000000
0.0539591000000
0.0573885000000
0.0468646000000
0.0126530000000
-0.0098458900000
-0.0132802000000
-0.0073401900000
-0.0084308500000
-0.0401780000000
-0.0517568000000
-0.0281888000000
-0.0304687000000
-0.0363381000000
-0.0261993000000
-0.0247982000000
-0.0041164400000
0.0142664000000
0.0160701000000
0.0229296000000
0.0117875000000
0.0098518800000
0.0456304000000
0.0243902000000
0.0044195500000
-0.0038325100000
-0.0365726000000
-0.0608652000000
-0.0576331000000
-0.0532192000000
-0.0502936000000
-0.0576924000000
-0.0786803000000
-0.0477335000000
-0.0374327000000
-0.0273232000000
-0.0154898000000
-0.0205020000000
-0.0145038000000
0.0118759000000
0.0228136000000
0.0143267000000
0.0208551000000
0.0477294000000
0.0554720000000
0.0554537000000
0.0537909000000
0.0506903000000
0.0578283000000
0.0641776000000
0.0615422000000
0.0505063000000
0.0383490000000
0.0426744000000
0.0427424000000
0.0345590000000
0.0330432000000
0.0325388000000
0.0303777000000
0.0235743000000
0.0099846900000
0.0072461500000
0.0227948000000
0.0248044000000
0.0118210000000
0.0094427600000
0.0119898000000
0.0138483000000
0.0169584000000
0.0251126000000
0.0356445000000
0.0245191000000
0.0558694000000
0.0762396000000
0.0664598000000
0.0906432000000
0.0756827000000
0.0727202000000
0.0992798000000
0.0912972000000
0.0956812000000
0.1015940000000
0.0915068000000
0.1019860000000
0.0899239000000
0.0679476000000
0.0343954000000
0.0215558000000
0.0198736000000
0.0392495000000
0.0434815000000
0.0310138000000
0.0171149000000
0.0232288000000
0.0362220000000
0.0436002000000
0.0444663000000
0.0528783000000
0.0644465000000
0.0634628000000
0.0502475000000
0.0538957000000
0.0588049000000
0.0421815000000
0.0357908000000
0.0371731000000
0.0258221000000
0.0076647200000
-0.0020299300000
0.0031717500000
0.0088652600000
0.0002257920000
-0.0094690800000
-0.0114060000000
-0.0089671500000
-0.0049440100000
-0.0037229700000
-0.0049260700000
-0.0054739300000
-0.0052668900000
-0.0089068600000
-0.0110296000000
-0.0174911000000
-0.0279646000000
-0.0364057000000
-0.0355418000000
-0.0344930000000
-0.0396125000000
-0.0461810000000
-0.0486609000000
-0.0556442000000
-0.0652142000000
-0.0611850000000
-0.0574771000000
-0.0619079000000
-0.0623815000000
-0.0645946000000
-0.0700974000000
-0.0699837000000
-0.0679983000000
-0.0592746000000
-0.0527242000000
-0.0524297000000
-0.0502954000000
-0.0427414000000
-0.0325628000000
-0.0177855000000
-0.0013169200000
0.0046078500000
0.0117118000000
0.0168484000000
0.0198861000000
0.0186541000000
0.0177369000000
0.0141027000000
0.0070726400000
-0.0000484312000
-0.0069138800000
-0.0091633900000
-0.0096126100000
-0.0126365000000
-0.0168159000000
-0.0139766000000
-0.0022218800000
0.0064717100000
0.0106453000000
0.0152002000000
0.0217467000000
0.0200680000000
0.0111363000000
0.0022312000000
-0.0067289800000
-0.0208763000000
-0.0380394000000
-0.0484516000000
-0.0435255000000
-0.0358618000000
-0.0384107000000
-0.0429415000000
-0.0472999000000
-0.0388541000000
-0.0363224000000
-0.0519224000000
-0.0587593000000
-0.0582561000000
-0.0621017000000
-0.0659452000000
-0.0705356000000
-0.0726371000000
-0.0669890000000
-0.0699107000000
-0.0762014000000
-0.0694703000000
-0.0622315000000
-0.0571141000000
-0.0548486000000
-0.0511501000000
-0.0519825000000
-0.0562258000000
-0.0564574000000
-0.0549747000000
-0.0543319000000
-0.0589414000000
-0.0599372000000
-0.0522126000000
-0.0508720000000
-0.0479328000000
-0.0442027000000
-0.0413587000000
-0.0279885000000
-0.0213298000000
-0.0228550000000
-0.0159358000000
-0.0084514800000
-0.0053912200000
-0.0014647800000
0.0021476900000
0.0002777560000
-0.0095239700000
-0.0136104000000
-0.0068820500000
-0.0012298000000
-0.0023254800000
-0.0097820900000
-0.0129187000000
-0.0067766900000
-0.0034679200000
-0.0100957000000
-0.0173494000000
-0.0152610000000
-0.0119344000000
-0.0120526000000
-0.0133698000000
-0.0163289000000
-0.0086491300000
0.0089762900000
0.0165800000000
0.0142451000000
0.0154114000000
0.0223962000000
0.0297295000000
0.0361958000000
0.0338865000000
0.0311470000000
0.0367207000000
0.0346622000000
0.0270802000000
0.0251772000000
0.0249537000000
0.0229976000000
0.0162516000000
0.0095890400000
0.0154739000000
0.0278651000000
0.0303833000000
0.0325216000000
0.0457452000000
0.0572149000000
0.0602255000000
0.0646281000000
0.0715743000000
0.0755673000000
0.0819302000000
0.0856131000000
0.0812035000000
0.0767417000000
0.0835484000000
0.0906331000000
0.0873094000000
0.0806327000000
0.0771728000000
0.0737817000000
0.0742540000000
0.0698520000000
0.0605195000000
0.0551394000000
0.0514845000000
0.0499048000000
0.0449359000000
0.0404606000000
0.0405126000000
0.0354071000000
0.0290157000000
0.0272983000000
0.0208823000000
0.0097530300000
-0.0002964510000
-0.0081429200000
-0.0083307200000
-0.0035112200000
-0.0094211800000
-0.0116945000000
-0.0011558500000
0.0052489400000
0.0052739200000
0.0073755700000
0.0186280000000
0.0343199000000
0.0377868000000
0.0340617000000
0.0344348000000
0.0430919000000
0.0568418000000
0.0670471000000
0.0703128000000
0.0704439000000
0.0690589000000
0.0624968000000
0.0490949000000
0.0402700000000
0.0389373000000
0.0300195000000
0.0174868000000
0.0079973100000
0.0018295600000
-0.0006239830000
-0.0049965700000
-0.0078889400000
-0.0095731200000
-0.0144956000000
-0.0181930000000
-0.0153436000000
-0.0122008000000
-0.0134037000000
-0.0151670000000
-0.0159777000000
-0.0139874000000
-0.0123471000000
-0.0191585000000
-0.0187558000000
-0.0140574000000
-0.0033369900000
0.0013366500000
0.0028664500000
0.0089647600000
0.0164917000000
0.0222321000000
0.0246303000000
0.0189673000000
0.0140591000000
0.0122662000000
0.0045762900000
-0.0066726900000
-0.0177207000000
-0.0298821000000
-0.0384980000000
-0.0386885000000
-0.0419862000000
-0.0485829000000
-0.0516037000000
-0.0496422000000
-0.0453122000000
-0.0464311000000
-0.0517055000000
-0.0548029000000
-0.0584492000000
-0.0592213000000
-0.0596072000000
-0.0662387000000
-0.0725121000000
-0.0743910000000
-0.0735614000000
-0.0699446000000
-0.0659370000000
-0.0578601000000
-0.0430119000000
-0.0220903000000
-0.0031974700000
0.0075824600000
0.0178428000000
0.0319174000000
0.0476923000000
0.0590671000000
0.0619149000000
0.0568707000000
0.0536784000000
0.0563986000000
0.0574031000000
0.0492337000000
0.0315185000000
0.0153217000000
0.0024698400000
-0.0119792000000
-0.0216111000000
-0.0276173000000
-0.0305499000000
-0.0346634000000
-0.0438879000000
-0.0473550000000
-0.0458093000000
-0.0429494000000
-0.0442324000000
-0.0448136000000
-0.0389046000000
-0.0249411000000
-0.0151684000000
-0.0039138100000
0.0108157000000
0.0292803000000
0.0482307000000
0.0617545000000
0.0690160000000
0.0705097000000
0.0758052000000
0.0831855000000
0.0771798000000
0.0710161000000
0.0708063000000
0.0669770000000
0.0556107000000
0.0390451000000
0.0207723000000
0.0064701500000
-0.0034451400000
-0.0152179000000
-0.0258530000000
-0.0319800000000
-0.0352288000000
-0.0350067000000
-0.0328658000000
-0.0301515000000
-0.0278923000000
-0.0251024000000
-0.0168445000000
-0.0080433200000
0.0020829300000
0.0157161000000
0.0262095000000
0.0343353000000
0.0458599000000
0.0552655000000
0.0617396000000
0.0647039000000
0.0646304000000
0.0635080000000
0.0584436000000
0.0512765000000
0.0393385000000
0.0188988000000
0.0031388600000
-0.0048684900000
-0.0101060000000
-0.0130063000000
-0.0178252000000
-0.0221884000000
-0.0211960000000
-0.0172903000000
-0.0136598000000
-0.0097078300000
-0.0110607000000
-0.0182510000000
-0.0232693000000
-0.0241500000000
-0.0255643000000
-0.0327665000000
-0.0396846000000
-0.0445158000000
-0.0512998000000
-0.0574572000000
-0.0597972000000
-0.0616678000000
-0.0641282000000
-0.0694094000000
-0.0732699000000
-0.0695960000000
-0.0653218000000
-0.0674312000000
-0.0722505000000
-0.0724027000000
-0.0706132000000
-0.0673572000000
-0.0635045000000
-0.0581438000000
-0.0474228000000
-0.0346079000000
-0.0232611000000
-0.0137898000000
-0.0030347200000
0.0059165300000
0.0069834900000
0.0043526200000
0.0042425200000
0.0062767600000
0.0063634800000
0.0034765800000
-0.0072821600000
-0.0180350000000
-0.0206467000000
-0.0253984000000
-0.0355366000000
-0.0414171000000
-0.0473971000000
-0.0539740000000
-0.0571703000000
-0.0604119000000
-0.0608909000000
-0.0591838000000
-0.0601152000000
-0.0577981000000
-0.0555595000000
-0.0591508000000
-0.0620060000000
-0.0613632000000
-0.0607448000000
-0.0641589000000
-0.0735756000000
-0.0778302000000
-0.0750195000000
-0.0726333000000
-0.0738462000000
-0.0798830000000
-0.0875938000000
-0.0876596000000
-0.0825124000000
-0.0810931000000
-0.0810468000000
-0.0771249000000
-0.0677763000000
-0.0548220000000
-0.0412951000000
-0.0270766000000
-0.0125078000000
-0.0016330500000
0.0125523000000
0.0259685000000
0.0343955000000
0.0417202000000
0.0480170000000
0.0564569000000
0.0643932000000
0.0671283000000
0.0656753000000
0.0647478000000
0.0642267000000
0.0564414000000
0.0444470000000
0.0346387000000
0.0264828000000
0.0168388000000
0.0051129600000
-0.0036122600000
-0.0072319600000
-0.0074245700000
-0.0065776800000
-0.0062002900000
-0.0059023800000
-0.0016991400000
0.0054678400000
0.0102418000000
0.0118794000000
0.0175315000000
0.0248782000000
0.0308146000000
0.0386302000000
0.0492777000000
0.0555312000000
0.0599462000000
0.0677202000000
0.0753020000000
0.0782704000000
0.0817824000000
0.0841838000000
0.0833047000000
0.0789863000000
0.0650476000000
0.0471167000000
0.0367361000000
0.0317970000000
0.0231295000000
0.0134461000000
0.0025153700000
-0.0068368100000
-0.0066945100000
-0.0009572830000
-0.0016385900000
-0.0049001900000
-0.0044237400000
-0.0007613940000
0.0010876500000
0.0009917130000
0.0011052000000
0.0003320740000
0.0033072200000
0.0089918400000
0.0136435000000
0.0206969000000
0.0286591000000
0.0299043000000
0.0305973000000
0.0335228000000
0.0319617000000
0.0268391000000
0.0188348000000
0.0114044000000
0.0017588300000
-0.0095520800000
-0.0198436000000
-0.0246874000000
-0.0274094000000
-0.0353231000000
-0.0419300000000
-0.0401739000000
-0.0357763000000
-0.0263282000000
-0.0120767000000
0.0034891600000
0.0187137000000
0.0260806000000
0.0394798000000
0.0518392000000
0.0611491000000
0.0721878000000
0.0817265000000
0.0850594000000
0.0837550000000
0.0807979000000
0.0756057000000
0.0701854000000
0.0627257000000
0.0537451000000
0.0449324000000
0.0406831000000
0.0417470000000
0.0349299000000
0.0246300000000
0.0219053000000
0.0233366000000
0.0236402000000
0.0199880000000
0.0142937000000
0.0126431000000
0.0171161000000
0.0191770000000
0.0155576000000
0.0097245100000
0.0061999100000
0.0034399500000
0.0012971500000
-0.0026991500000
-0.0042647900000
-0.0049953700000
-0.0055623400000
-0.0054226700000
-0.0052289300000
-0.0030532600000
0.0052686000000
0.0128032000000
0.0181949000000
0.0181454000000
0.0185943000000
0.0195082000000
0.0232355000000
0.0255141000000
0.0247376000000
0.0252394000000
0.0268466000000
0.0225730000000
0.0161094000000
0.0155781000000
0.0185349000000
0.0182318000000
0.0144873000000
0.0123899000000
0.0113584000000
0.0125003000000
0.0139141000000
0.0121054000000
0.0090026100000
0.0081334300000
0.0093444400000
0.0110868000000
0.0067258700000
0.0019428900000
-0.0001545040000
-0.0010367900000
-0.0017607100000
-0.0025760500000
-0.0052511100000
-0.0094250300000
-0.0093262500000
-0.0082476100000
-0.0104906000000
-0.0141561000000
-0.0166705000000
-0.0175194000000
-0.0181279000000
-0.0192768000000
-0.0197150000000
-0.0192629000000
-0.0186567000000
-0.0179975000000
-0.0185258000000
-0.0191189000000
-0.0197531000000
-0.0196727000000
-0.0167536000000
-0.0151601000000
-0.0158961000000
-0.0150246000000
-0.0144132000000
-0.0152156000000
-0.0137725000000
-0.0088679300000
-0.0090979000000
-0.0139122000000
-0.0148324000000
-0.0112736000000
-0.0097668300000
-0.0117989000000
-0.0149203000000
-0.0176322000000
-0.0162615000000
-0.0175488000000
-0.0228363000000
-0.0247760000000
-0.0236173000000
-0.0210766000000
-0.0193580000000
-0.0216877000000
-0.0243496000000
-0.0234085000000
-0.0218447000000
-0.0231498000000
-0.0268533000000
-0.0309955000000
-0.0330748000000
-0.0315196000000
-0.0300894000000
-0.0269835000000
-0.0253878000000
-0.0237997000000
-0.0219650000000
-0.0211964000000
-0.0197106000000
-0.0113787000000
-0.0026148800000
0.0023086800000
0.0078485100000
0.0148260000000
0.0201541000000
0.0248922000000
0.0275924000000
0.0279762000000
0.0281763000000
0.0265667000000
0.0219278000000
0.0164262000000
0.0148212000000
0.0126140000000
0.0109158000000
0.0128659000000
0.0117488000000
0.0070584500000
0.0033825300000
0.0008407210000
-0.0013259900000
-0.0025331600000
-0.0026662800000
-0.0009734930000
0.0013252100000
0.0024104800000
0.0035388100000
0.0034115900000
0.0056338100000
0.0069185100000
0.0072065100000
0.0080657900000
0.0061145400000
0.0048690700000
0.0075173000000
0.0117791000000
0.0128105000000
0.0114507000000
0.0119989000000
0.0152399000000
0.0189590000000
0.0214768000000
0.0224977000000
0.0261163000000
0.0305093000000
0.0315883000000
0.0310778000000
0.0316075000000
0.0279055000000
0.0219390000000
0.0139781000000
0.0058101900000
-0.0021767100000
-0.0102387000000
-0.0171294000000
-0.0204568000000
-0.0218969000000
-0.0269279000000
-0.0319186000000
-0.0328674000000
-0.0328136000000
-0.0380048000000
-0.0431247000000
-0.0448235000000
-0.0429724000000
-0.0412793000000
-0.0421127000000
-0.0396191000000
-0.0351059000000
-0.0338068000000
-0.0333198000000
-0.0311869000000
-0.0280232000000
-0.0251502000000
-0.0265871000000
-0.0292973000000
-0.0299562000000
-0.0284496000000
-0.0289865000000
-0.0276372000000
-0.0240558000000
-0.0201282000000
-0.0167839000000
-0.0122716000000
-0.0012824800000
0.0083220900000
0.0114821000000
0.0174511000000
0.0210683000000
0.0253350000000
0.0274976000000
0.0282125000000
0.0303563000000
0.0326877000000
0.0344209000000
0.0349087000000
0.0368154000000
0.0402384000000
0.0431494000000
0.0461705000000
0.0478796000000
0.0489433000000
0.0496541000000
0.0480918000000
0.0455123000000
0.0424925000000
0.0386286000000
0.0345410000000
0.0281169000000
0.0218031000000
0.0208640000000
0.0207756000000
0.0188118000000
0.0182234000000
0.0190638000000
0.0194311000000
0.0193397000000
0.0192784000000
0.0183313000000
0.0185385000000
0.0179978000000
0.0162256000000
0.0145262000000
0.0101319000000
0.0048724600000
0.0014384200000
-0.0045591500000
-0.0138824000000
-0.0219810000000
-0.0285625000000
-0.0318661000000
-0.0336388000000
-0.0388679000000
-0.0437946000000
-0.0460049000000
-0.0479121000000
-0.0515312000000
-0.0557848000000
-0.0557988000000
-0.0529133000000
-0.0489949000000
-0.0457222000000
-0.0414516000000
-0.0342544000000
-0.0279338000000
-0.0282328000000
-0.0284573000000
-0.0280226000000
-0.0268782000000
-0.0256294000000
-0.0252523000000
-0.0248871000000
-0.0222431000000
-0.0191237000000
-0.0156309000000
-0.0110856000000
-0.0078328000000
-0.0047594400000
0.0008866470000
0.0065124200000
0.0128376000000
0.0177739000000
0.0199920000000
0.0215544000000
0.0223646000000
0.0229882000000
0.0233451000000
0.0216057000000
0.0197183000000
0.0163140000000
0.0107999000000
0.0057833600000
0.0046236700000
0.0040381800000
0.0002551100000
-0.0033229800000
-0.0047626100000
-0.0053475600000
-0.0067124600000
-0.0078773100000
-0.0082161900000
-0.0066652900000
-0.0058582100000
-0.0053129300000
-0.0047276800000
-0.0031837000000
-0.0014561300000
-0.0002400520000
0.0001817070000
0.0023003800000
0.0044411400000
0.0040427500000
0.0036480400000
0.0040733200000
0.0056304900000
0.0049303100000
0.0010135200000
-0.0039546700000
-0.0098748700000
-0.0164188000000
-0.0246070000000
-0.0312859000000
-0.0337453000000
-0.0339223000000
-0.0336789000000
-0.0349554000000
-0.0342418000000
-0.0317077000000
-0.0300327000000
-0.0245341000000
-0.0197111000000
-0.0174590000000
-0.0131913000000
-0.0101549000000
-0.0094493900000
-0.0104582000000
-0.0116295000000
-0.0126411000000
-0.0161213000000
-0.0180592000000
-0.0172543000000
-0.0169725000000
-0.0183422000000
-0.0186993000000
-0.0166283000000
-0.0155115000000
-0.0152182000000
-0.0133115000000
-0.0104483000000
-0.0099764100000
-0.0095807100000
-0.0076101900000
-0.0041461400000
-0.0010201400000
0.0011246000000
0.0058665200000
0.0085656300000
0.0110965000000
0.0137033000000
0.0193312000000
0.0222472000000
0.0255908000000
0.0294503000000
0.0323203000000
0.0354046000000
0.0371116000000
0.0370820000000
0.0369405000000
0.0369670000000
0.0378687000000
0.0372087000000
0.0349966000000
0.0328145000000
0.0317365000000
0.0313439000000
0.0294123000000
0.0278102000000
0.0285061000000
0.0270282000000
0.0232355000000
0.0205205000000
0.0189768000000
0.0172152000000
0.0160389000000
0.0172747000000
0.0175690000000
0.0188816000000
0.0238346000000
0.0266256000000
0.0279339000000
0.0340855000000
0.0404549000000
0.0437014000000
0.0441519000000
0.0434686000000
0.0458959000000
0.0483165000000
0.0481566000000
0.0500656000000
0.0523537000000
0.0521704000000
0.0513332000000
0.0501954000000
0.0480286000000
0.0446212000000
0.0393378000000
0.0321053000000
0.0247809000000
0.0169782000000
0.0095144000000
0.0054099400000
0.0019168300000
-0.0031347900000
-0.0057543600000
-0.0071551900000
-0.0078650800000
-0.0078475800000
-0.0103253000000
-0.0101370000000
-0.0085874500000
-0.0076898300000
-0.0092008900000
-0.0097173300000
-0.0070059200000
-0.0084359600000
-0.0118754000000
-0.0139286000000
-0.0153015000000
-0.0182847000000
-0.0240320000000
-0.0296234000000
-0.0342303000000
-0.0386247000000
-0.0417606000000
-0.0453819000000
-0.0474130000000
-0.0467378000000
-0.0447622000000
-0.0413936000000
-0.0385015000000
-0.0345403000000
-0.0292752000000
-0.0265621000000
-0.0265833000000
-0.0232459000000
-0.0214982000000
-0.0232416000000
-0.0267702000000
-0.0310014000000
-0.0345838000000
-0.0360980000000
-0.0403946000000
-0.0432539000000
-0.0449828000000
-0.0448859000000
-0.0438315000000
-0.0423040000000
-0.0396200000000
-0.0368277000000
-0.0342418000000
-0.0325499000000
-0.0312823000000
-0.0289595000000
-0.0267692000000
-0.0250381000000
-0.0234066000000
-0.0207465000000
-0.0154607000000
-0.0120684000000
-0.0099034300000
-0.0069730200000
-0.0039865800000
-0.0013593000000
-0.0000439447000
0.0012379500000
0.0029629100000
0.0007711190000
-0.0033248300000
-0.0020794500000
-0.0005895290000
-0.0014453800000
-0.0042028600000
-0.0066367200000
-0.0080339500000
-0.0089443000000
-0.0112780000000
-0.0124170000000
-0.0115519000000
-0.0104734000000
-0.0091932700000
-0.0079059200000
-0.0061342700000
-0.0034816600000
-0.0028181000000
-0.0007894100000
0.0014732900000
0.0026880500000
0.0055034500000
0.0086231700000
0.0115193000000
0.0145186000000
0.0163133000000
0.0191945000000
0.0238286000000
0.0278632000000
0.0300979000000
0.0315217000000
0.0339875000000
0.0364060000000
0.0370356000000
0.0363937000000
0.0332511000000
0.0301511000000
0.0283832000000
0.0245805000000
0.0204249000000
0.0164214000000
0.0132360000000
0.0114079000000
0.0080536700000
0.0043452000000
0.0021654400000
-0.0009724240000
-0.0050254200000
-0.0066315400000
-0.0074078900000
-0.0089384400000
-0.0096535400000
-0.0102847000000
-0.0095718400000
-0.0096296700000
-0.0095903200000
-0.0085953500000
-0.0082706000000
-0.0074711600000
-0.0064227300000
-0.0063466900000
-0.0072016100000
-0.0061875000000
-0.0044602500000
-0.0028932000000
-0.0022331800000
-0.0002712390000
0.0042048400000
0.0071426000000
0.0095156700000
0.0117133000000
0.0131081000000
0.0145408000000
0.0154203000000
0.0155565000000
0.0161736000000
0.0160221000000
0.0159975000000
0.0157886000000
0.0159296000000
0.0168871000000
0.0175547000000
0.0187528000000
0.0186434000000
0.0172694000000
0.0152854000000
0.0119704000000
0.0095665700000
0.0074737600000
0.0045274200000
0.0032492500000
0.0014045000000
-0.0011778900000
-0.0027054400000
-0.0045444500000
-0.0055327700000
-0.0071818700000
-0.0094297800000
-0.0115299000000
-0.0137483000000
-0.0166435000000
-0.0186987000000
-0.0204758000000
-0.0223795000000
-0.0240282000000
-0.0249175000000
-0.0243287000000
-0.0242507000000
-0.0243485000000
-0.0237923000000
-0.0230693000000
-0.0202730000000
-0.0165721000000
-0.0137974000000
-0.0102983000000
-0.0048951800000
-0.0002148530000
0.0038484400000
0.0081619700000
0.0124481000000
0.0164594000000
0.0200070000000
0.0225913000000
0.0245784000000
0.0251125000000
0.0247261000000
0.0241468000000
0.0229026000000
0.0208197000000
0.0184060000000
0.0165563000000
0.0142209000000
0.0118221000000
0.0097699400000
0.0076934400000
0.0044548500000
0.0028399600000
0.0009856860000
-0.0016254200000
-0.0042612800000
-0.0066671300000
-0.0078972500000
-0.0082529500000
-0.0082566300000
-0.0088474400000
-0.0081994700000
-0.0063570900000
-0.0038736700000
-0.0001928650000
0.0031796400000
0.0054793300000
0.0072954100000
0.0087450300000
0.0085501600000
0.0049057000000
0.0008932120000
-0.0008097610000
-0.0046834900000
-0.0091109100000
-0.0134457000000
-0.0181938000000
-0.0217822000000
-0.0239995000000
-0.0273496000000
-0.0299962000000
-0.0299052000000
-0.0290226000000
-0.0271320000000
-0.0242668000000
-0.0206608000000
-0.0162388000000
-0.0111640000000
-0.0059626000000
-0.0027889400000
0.0003026700000
0.0040851500000
0.0070800100000
0.0082130600000
0.0082711200000
0.0079875100000
0.0065835500000
0.0038096600000
0.0001737640000
-0.0033964700000
-0.0060378200000
-0.0077076500000
-0.0083927000000
-0.0082900800000
-0.0053510100000
-0.0016047700000
0.0032374000000
0.0080625200000
0.0118268000000
0.0152348000000
0.0190735000000
0.0225466000000
0.0250643000000
0.0282469000000
0.0301261000000
0.0299954000000
0.0280331000000
0.0262439000000
0.0255669000000
0.0261671000000
0.0272023000000
0.0277323000000
0.0286201000000
0.0290993000000
0.0284986000000
0.0273853000000
0.0273176000000
0.0264038000000
0.0256983000000
0.0250427000000
0.0236024000000
0.0229170000000
0.0219748000000
0.0209345000000
0.0185152000000
0.0158792000000
0.0134165000000
0.0099580800000
0.0055623700000
0.0019188100000
-0.0010853000000
-0.0034286400000
-0.0062894700000
-0.0096884500000
-0.0128273000000
-0.0155411000000
-0.0179479000000
-0.0200236000000
-0.0218943000000
-0.0222915000000
-0.0232188000000
-0.0245929000000
-0.0258358000000
-0.0266420000000
-0.0258792000000
-0.0243925000000
-0.0242504000000
-0.0235604000000
-0.0205702000000
-0.0169059000000
-0.0150854000000
-0.0145862000000
-0.0132836000000
-0.0125317000000
-0.0121985000000
-0.0126691000000
-0.0128602000000
-0.0131235000000
-0.0150866000000
-0.0167502000000
-0.0175350000000
-0.0192239000000
-0.0207787000000
-0.0215681000000
-0.0222100000000
-0.0225761000000
-0.0233585000000
-0.0244619000000
-0.0255263000000
-0.0256520000000
-0.0254746000000
-0.0254208000000
-0.0249605000000
-0.0234260000000
-0.0213142000000
-0.0182470000000
-0.0143814000000
-0.0089401300000
-0.0025688700000
0.0019580000000
0.0044485400000
0.0058634200000
0.0068031600000
0.0062201000000
0.0056277300000
0.0042206900000
0.0012859300000
-0.0022777600000
-0.0058015700000
-0.0097546200000
-0.0122128000000
-0.0137064000000
-0.0151751000000
-0.0153035000000
-0.0147822000000
-0.0146278000000
-0.0142603000000
-0.0135441000000
-0.0124844000000
-0.0106842000000
-0.0092193400000
-0.0074473500000
-0.0050876000000
-0.0032396300000
-0.0018629800000
-0.0002105740000
0.0008900660000
0.0017201500000
0.0028007000000
0.0031868800000
0.0042538200000
0.0055010300000
0.0055347000000
0.0061957700000
0.0076318300000
0.0080057400000
0.0094089100000
0.0114994000000
0.0136545000000
0.0170217000000
0.0206776000000
0.0220391000000
0.0235401000000
0.0250196000000
0.0269598000000
0.0290606000000
0.0305350000000
0.0313511000000
0.0320693000000
0.0321432000000
0.0324072000000
0.0326744000000
0.0325890000000
0.0329355000000
0.0337071000000
0.0341916000000
0.0332343000000
0.0326110000000
0.0331912000000
0.0339810000000
0.0328147000000
0.0305564000000
0.0290947000000
0.0279632000000
0.0273421000000
0.0262673000000
0.0249263000000
0.0239349000000
0.0230841000000
0.0219004000000
0.0209230000000
0.0198354000000
0.0191789000000
0.0179814000000
0.0161197000000
0.0145746000000
0.0134970000000
0.0123343000000
0.0114323000000
0.0103014000000
0.0087391900000
0.0083892600000
0.0078795200000
0.0064296900000
0.0049487900000
0.0030282100000
0.0012125800000
-0.0005395340000
-0.0034062300000
-0.0067725600000
-0.0097913200000
-0.0122566000000
-0.0148364000000
-0.0165520000000
-0.0177202000000
-0.0191147000000
-0.0204220000000
-0.0211946000000
-0.0212440000000
-0.0215362000000
-0.0228166000000
-0.0236903000000
-0.0248078000000
-0.0264028000000
-0.0280029000000
-0.0291263000000
-0.0291073000000
-0.0290283000000
-0.0294306000000
-0.0281459000000
-0.0256645000000
-0.0233037000000
-0.0203953000000
-0.0164841000000
-0.0124292000000
-0.0088230700000
-0.0055367300000
-0.0022104100000
-0.0004274100000
-0.0008646310000
-0.0015759500000
-0.0021601600000
-0.0041194900000
-0.0068453900000
-0.0104170000000
-0.0142296000000
-0.0170612000000
-0.0203064000000
-0.0240052000000
-0.0252051000000
-0.0265477000000
-0.0272012000000
-0.0280396000000
-0.0290286000000
-0.0291737000000
-0.0285064000000
-0.0274485000000
-0.0272241000000
-0.0270569000000
-0.0261084000000
-0.0257293000000
-0.0261273000000
-0.0268129000000
-0.0264412000000
-0.0256101000000
-0.0256234000000
-0.0250790000000
-0.0243840000000
-0.0243077000000
-0.0228992000000
-0.0200769000000
-0.0166358000000
-0.0137089000000
-0.0108104000000
-0.0074502400000
-0.0049904500000
-0.0032585800000
-0.0020535900000
-0.0006021350000
-0.0000675421000
-0.0003334040000
-0.0005072430000
-0.0003244300000
-0.0002168010000
0.0002550150000
0.0006413810000
0.0013565500000
0.0022085000000
0.0029968000000
0.0034003000000
0.0044309800000
0.0053066900000
0.0057837800000
0.0059245200000
0.0067425200000
0.0084275000000
0.0097561000000
0.0104066000000
0.0116163000000
0.0130847000000
0.0143412000000
0.0153845000000
0.0154704000000
0.0153796000000
0.0161452000000
0.0172870000000
0.0175735000000
0.0177172000000
0.0182329000000
0.0180060000000
0.0174227000000
0.0163638000000
0.0155514000000
0.0148794000000
0.0148111000000
0.0147525000000
0.0145525000000
0.0150255000000
0.0160810000000
0.0170853000000
0.0179108000000
0.0184103000000
0.0189416000000
0.0195792000000
0.0195961000000
0.0186538000000
0.0181130000000
0.0181690000000
0.0176289000000
0.0175549000000
0.0183225000000
0.0198674000000
0.0223815000000
0.0246777000000
0.0268951000000
0.0295974000000
0.0323395000000
0.0345957000000
0.0364585000000
0.0390526000000
0.0420072000000
0.0440205000000
0.0440341000000
0.0440067000000
0.0446598000000
0.0451593000000
0.0436536000000
0.0406966000000
0.0376048000000
0.0338024000000
0.0279584000000
0.0214810000000
0.0157540000000
0.0112172000000
0.0070592000000
0.0033738500000
-0.0006407350000
-0.0040698200000
-0.0045879200000
-0.0053023600000
-0.0074451400000
-0.0084008700000
-0.0088135000000
-0.0092575200000
-0.0100810000000
-0.0114841000000
-0.0131636000000
-0.0130219000000
-0.0129006000000
-0.0129970000000
-0.0130167000000
-0.0124079000000
-0.0095860000000
-0.0083512200000
-0.0075660300000
-0.0057651600000
-0.0026278800000
-0.0003747650000
0.0012121900000
0.0024301500000
0.0036961400000
0.0036287700000
0.0009717360000
-0.0021586400000
-0.0059293800000
-0.0087805300000
-0.0121348000000
-0.0160827000000
-0.0193661000000
-0.0215827000000
-0.0222215000000
-0.0231698000000
-0.0249343000000
-0.0261484000000
-0.0261790000000
-0.0253617000000
-0.0241896000000
-0.0226847000000
-0.0212535000000
-0.0199738000000
-0.0176597000000
-0.0167188000000
-0.0172360000000
-0.0171476000000
-0.0169329000000
-0.0172856000000
-0.0175716000000
-0.0181084000000
-0.0187619000000
-0.0183741000000
-0.0175960000000
-0.0169206000000
-0.0159806000000
-0.0139480000000
-0.0118825000000
-0.0096921000000
-0.0074740100000
-0.0068981400000
-0.0064231900000
-0.0055868300000
-0.0054740400000
-0.0059014800000
-0.0072218100000
-0.0088200500000
-0.0101809000000
-0.0119192000000
-0.0144063000000
-0.0171453000000
-0.0191148000000
-0.0203906000000
-0.0218509000000
-0.0234061000000
-0.0242342000000
-0.0239017000000
-0.0234145000000
-0.0234794000000
-0.0229124000000
-0.0226093000000
-0.0211946000000
-0.0189370000000
-0.0180345000000
-0.0172540000000
-0.0154069000000
-0.0140851000000
-0.0137028000000
-0.0130925000000
-0.0120437000000
-0.0108097000000
-0.0101572000000
-0.0093680600000
-0.0081525500000
-0.0072165000000
-0.0067792600000
-0.0063630000000
-0.0056824100000
-0.0052584600000
-0.0057010800000
-0.0055420400000
-0.0043605300000
-0.0029896800000
-0.0014546500000
-0.0005217550000
0.0004896060000
0.0030784900000
0.0046415000000
0.0070106400000
0.0079888300000
0.0092962000000
0.0117115000000
0.0132382000000
0.0136144000000
0.0143176000000
0.0154342000000
0.0163453000000
0.0163647000000
0.0160176000000
0.0154673000000
0.0150834000000
0.0146654000000
0.0144196000000
0.0139288000000
0.0128431000000
0.0121892000000
0.0123912000000
0.0130546000000
0.0137582000000
0.0138425000000
0.0139009000000
0.0144814000000
0.0145876000000
0.0144664000000
0.0145114000000
0.0143630000000
0.0135367000000
0.0124205000000
0.0100515000000
0.0095316200000
0.0090359500000
0.0072497800000
0.0059430100000
0.0058064500000
0.0065311900000
0.0079774400000
0.0092825200000
0.0109114000000
0.0128653000000
0.0141180000000
0.0150668000000
0.0168245000000
0.0182554000000
0.0188968000000
0.0191254000000
0.0192629000000
0.0197848000000
0.0202395000000
0.0199388000000
0.0197433000000
0.0201982000000
0.0196229000000
0.0181029000000
0.0171509000000
0.0164545000000
0.0150536000000
0.0125519000000
0.0088778000000
0.0072343500000
0.0051087300000
0.0032348100000
0.0014150000000
-0.0007897350000
-0.0024818800000
-0.0028842400000
-0.0030299000000
-0.0030767500000
-0.0024691000000
-0.0009043020000
0.0009370550000
0.0018625600000
0.0018043100000
0.0021265500000
0.0029583100000
0.0038706000000
0.0035422500000
0.0021624200000
0.0024951300000
0.0035023700000
0.0034875300000
0.0030887200000
0.0026073000000
0.0036869900000
0.0038906600000
0.0023419900000
0.0016676600000
0.0015360500000
0.0010993500000
0.0008011140000
-0.0007680370000
-0.0026977900000
-0.0032891800000
-0.0040337000000
-0.0052090900000
-0.0066318800000
-0.0079390700000
-0.0085976400000
-0.0092006300000
-0.0108499000000
-0.0125890000000
-0.0131374000000
-0.0132253000000
-0.0134613000000
-0.0129487000000
-0.0116723000000
-0.0090212100000
-0.0064930500000
-0.0046853000000
-0.0021690300000
0.0002781150000
0.0021293300000
0.0033298200000
0.0039680900000
0.0045931500000
0.0051304600000
0.0048737300000
0.0040847800000
0.0036801500000
0.0033980000000
0.0026589300000
0.0020112500000
0.0018199100000
0.0020298800000
0.0015779300000
0.0000444331000
-0.0014586600000
-0.0026814900000
-0.0044483600000
-0.0064940900000
-0.0083225500000
-0.0098238800000
-0.0115470000000
-0.0140601000000
-0.0161160000000
-0.0161461000000
-0.0165863000000
-0.0175947000000
-0.0180467000000
-0.0182639000000
-0.0190745000000
-0.0200630000000
-0.0206971000000
-0.0208113000000
-0.0207227000000
-0.0202842000000
-0.0194893000000
-0.0186101000000
-0.0181462000000
-0.0177606000000
-0.0165271000000
-0.0149248000000
-0.0135532000000
-0.0125907000000
-0.0120781000000
-0.0117605000000
-0.0113732000000
-0.0114649000000
-0.0116449000000
-0.0114455000000
-0.0114630000000
-0.0117848000000
-0.0120287000000
-0.0119541000000
-0.0118220000000
-0.0113672000000
-0.0113499000000
-0.0111863000000
-0.0104508000000
-0.0099684200000
-0.0089182200000
-0.0081045700000
-0.0069103000000
-0.0043398400000
-0.0016391700000
0.0010063200000
0.0038112800000
0.0061673400000
0.0089026000000
0.0122130000000
0.0153342000000
0.0168561000000
0.0193590000000
0.0220436000000
0.0256403000000
0.0289442000000
0.0310383000000
0.0329905000000
0.0345858000000
0.0357574000000
0.0363294000000
0.0354793000000
0.0347328000000
0.0334270000000
0.0305085000000
0.0269889000000
0.0233953000000
0.0201417000000
0.0174571000000
0.0152765000000
0.0137477000000
0.0124367000000
0.0119913000000
0.0119660000000
0.0126137000000
0.0136311000000
0.0144348000000
0.0151785000000
0.0153229000000
0.0156628000000
0.0161478000000
0.0160668000000
0.0151187000000
0.0135268000000
0.0122652000000
0.0098327200000
0.0068508500000
0.0044259900000
0.0022021700000
0.0000724588000
-0.0019215400000
-0.0037665600000
-0.0052272000000
-0.0072780000000
-0.0089395700000
-0.0104277000000
-0.0120771000000
-0.0139692000000
-0.0157762000000
-0.0174053000000
-0.0189603000000
-0.0204496000000
-0.0209573000000
-0.0214989000000
-0.0216415000000
-0.0214208000000
-0.0209950000000
-0.0198669000000
-0.0181350000000
-0.0157816000000
-0.0131142000000
-0.0098747100000
-0.0081528400000
-0.0051533900000
-0.0026440100000
-0.0008122460000
0.0007557310000
0.0017258200000
0.0020800500000
0.0018584400000
0.0008050920000
-0.0007256710000
-0.0024428300000
-0.0042748400000
-0.0061453900000
-0.0069988100000
-0.0067496600000
-0.0064196000000
-0.0058870800000
-0.0049918500000
-0.0038343500000
-0.0020299700000
-0.0004772240000
0.0009968510000
0.0027482900000
0.0041388200000
0.0045640600000
0.0049309500000
0.0051915800000
0.0050898300000
0.0054266600000
0.0055343000000
0.0054421300000
0.0055695800000
0.0060477900000
0.0066316500000
0.0067267300000
0.0069385200000
0.0071640500000
0.0074675700000
0.0086366500000
0.0088916300000
0.0086936000000
0.0090329800000
0.0091203200000
0.0090045900000
0.0088615300000
0.0083471900000
0.0078401500000
0.0070094000000
0.0053714900000
0.0038724400000
0.0019640000000
0.0000137948000
-0.0016003300000
-0.0026277100000
-0.0033886100000
-0.0042079600000
-0.0048080900000
-0.0053968100000
-0.0056589500000
-0.0060767100000
-0.0061298000000
-0.0055988700000
-0.0054932700000
-0.0055711100000
-0.0058024400000
-0.0064090500000
-0.0068207800000
-0.0076730200000
-0.0094705300000
-0.0107960000000
-0.0120886000000
-0.0138090000000
-0.0155667000000
-0.0171925000000
-0.0186645000000
-0.0195353000000
-0.0201779000000
-0.0209056000000
-0.0213795000000
-0.0209597000000
-0.0201073000000
-0.0200423000000
-0.0204919000000
-0.0196893000000
-0.0180883000000
-0.0170013000000
-0.0162535000000
-0.0158009000000
-0.0151733000000
-0.0143689000000
-0.0142048000000
-0.0139669000000
-0.0130411000000
-0.0115311000000
-0.0095574100000
-0.0073432900000
-0.0045492200000
-0.0020278200000
0.0000957203000
0.0022108200000
0.0044110000000
0.0063096500000
0.0080461700000
0.0094474400000
0.0100656000000
0.0106912000000
0.0110770000000
0.0112802000000
0.0110747000000
0.0106643000000
0.0103461000000
0.0099916400000
0.0094154600000
0.0089833900000
0.0089422400000
0.0088727100000
0.0085808500000
0.0084399500000
0.0082330200000
0.0077782600000
0.0075599700000
0.0075481000000
0.0074943000000
0.0073808900000
0.0075085300000
0.0077131400000
0.0072192300000
0.0068913300000
0.0058662300000
0.0048116800000
0.0036528900000
0.0019494600000
0.0009440640000
0.0000744123000
-0.0007430490000
-0.0009213400000
-0.0009400650000
-0.0008198920000
-0.0004682390000
-0.0000197088000
-0.0000729564000
-0.0007346950000
-0.0008428880000
-0.0007648320000
-0.0013084200000
-0.0020101400000
-0.0030603900000
-0.0043248700000
-0.0054006100000
-0.0067117900000
-0.0077573000000
-0.0083897200000
-0.0085628500000
-0.0087189800000
-0.0085812500000
-0.0082268200000
-0.0078246500000
-0.0072410400000
-0.0065167600000
-0.0056460900000
-0.0047345100000
-0.0039728500000
-0.0028603900000
-0.0019366100000
-0.0010572700000
-0.0000208847000
0.0007929190000
0.0011585900000
0.0009713110000
0.0003673360000
-0.0002840210000
-0.0007623900000
-0.0011945100000
-0.0018844900000
-0.0020067100000
-0.0018615900000
-0.0019279000000
-0.0025188900000
-0.0030619100000
-0.0026827800000
-0.0020546500000
-0.0020924500000
-0.0021667800000
-0.0017265000000
-0.0005464870000
0.0006000580000
0.0017744200000
0.0029790000000
0.0037784900000
0.0044044300000
0.0042532500000
0.0036258700000
0.0033170200000
0.0028049800000
0.0025293500000
0.0021431100000
0.0012796300000
0.0006640100000
0.0001198260000
-0.0003894640000
-0.0005994350000
-0.0010489400000
-0.0011382400000
-0.0012898000000
-0.0010944000000
-0.0002818820000
0.0001461710000
0.0011763100000
0.0031957900000
0.0047425900000
0.0064235400000
0.0084193900000
0.0102632000000
0.0109881000000
0.0127773000000
0.0142773000000
0.0149196000000
0.0159990000000
0.0167791000000
0.0178157000000
0.0191636000000
0.0199295000000
0.0207572000000
0.0215119000000
0.0218234000000
0.0220095000000
0.0225551000000
0.0228960000000
0.0227801000000
0.0223265000000
0.0211132000000
0.0192264000000
0.0165749000000
0.0136414000000
0.0109181000000
0.0081011000000
0.0056907700000
0.0033684200000
0.0012085000000
-0.0002521190000
-0.0006747470000
-0.0007332400000
-0.0004255940000
0.0005978630000
0.0012404100000
0.0027672300000
0.0044736300000
0.0060252700000
0.0077973200000
0.0097319800000
0.0104275000000
0.0106456000000
0.0108478000000
0.0108215000000
0.0104265000000
0.0095435500000
0.0083308700000
0.0069509900000
0.0055240200000
0.0035930900000
0.0013512900000
-0.0002861280000
-0.0019976800000
-0.0031361800000
-0.0041544700000
-0.0052742600000
-0.0060071500000
-0.0060984900000
-0.0058179300000
-0.0053288600000
-0.0045422000000
-0.0037355600000
-0.0027935100000
-0.0018133900000
-0.0011289600000
-0.0008381640000
-0.0003191390000
-0.0000998057000
-0.0002689500000
-0.0003312660000
-0.0007342560000
-0.0012753800000
-0.0017158600000
-0.0013259500000
-0.0008233950000
-0.0003881150000
0.0004458230000
0.0014897300000
0.0021006000000
0.0023975400000
0.0034329900000
0.0044612800000
0.0044242900000
0.0042293200000
0.0044796200000
0.0046910000000
0.0049369800000
0.0054152600000
0.0064493900000
0.0067877600000
0.0064331600000
0.0069013800000
0.0083069400000
0.0083650600000
0.0067459900000
0.0060618900000
0.0056044700000
0.0048938700000
0.0024681400000
-0.0002929520000
-0.0018074400000
-0.0030213100000
-0.0053516700000
-0.0075792600000
-0.0080322600000
-0.0086454200000
-0.0099892100000
-0.0107463000000
-0.0111566000000
-0.0114555000000
-0.0113748000000
-0.0117282000000
-0.0126515000000
-0.0128063000000
-0.0128612000000
-0.0127842000000
-0.0127766000000
-0.0130795000000
-0.0135343000000
-0.0141850000000
-0.0137425000000
-0.0129427000000
-0.0124747000000
-0.0124279000000
-0.0123562000000
-0.0118113000000
-0.0111541000000
-0.0107174000000
-0.0107738000000
-0.0107580000000
-0.0105489000000
-0.0106396000000
-0.0109837000000
-0.0110653000000
-0.0113765000000
-0.0114367000000
-0.0115015000000
-0.0120134000000
-0.0121556000000
-0.0122214000000
-0.0129749000000
-0.0132508000000
-0.0133299000000
-0.0139762000000
-0.0151029000000
-0.0156399000000
-0.0160391000000
-0.0168116000000
-0.0176235000000
-0.0176935000000
-0.0171186000000
-0.0163450000000
-0.0156790000000
-0.0149297000000
-0.0134377000000
-0.0119823000000
-0.0107099000000
-0.0089081300000
-0.0078211000000
-0.0067833800000
-0.0058085200000
-0.0057724300000
-0.0058826400000
-0.0056731400000
-0.0050690900000
-0.0041043200000
-0.0035861400000
-0.0036252700000
-0.0040430600000
-0.0034654600000
-0.0020455600000
-0.0004053100000
0.0008643940000
0.0008613650000
0.0006883540000
0.0022515700000
0.0039449400000
0.0044253900000
0.0048941000000
0.0058538400000
0.0067211800000
0.0079333500000
0.0073887100000
0.0069748500000
0.0102565000000
0.0115654000000
0.0101830000000
0.0092719400000
0.0111615000000
0.0130063000000
0.0118626000000
0.0114717000000
0.0122813000000
0.0138619000000
0.0145998000000
0.0134543000000
0.0138803000000
0.0167282000000
0.0174292000000
0.0165638000000
0.0175329000000
0.0186389000000
0.0186387000000
0.0177429000000
0.0165964000000
0.0170778000000
0.0174164000000
0.0155478000000
0.0135194000000
0.0134112000000
0.0124408000000
0.0110367000000
0.0099171700000
0.0086802600000
0.0071395500000
0.0053250400000
0.0035604300000
0.0021382200000
0.0007871840000
-0.0006470580000
-0.0019181500000
-0.0033328400000
-0.0039179300000
-0.0040465900000
-0.0039163400000
-0.0039434000000
-0.0033981800000
-0.0024222700000
-0.0013413700000
0.0000945968000
0.0011212900000
0.0018470100000
0.0028680700000
0.0025962800000
0.0021091400000
0.0020507100000
0.0015659100000
0.0007245510000
-0.0005855540000
-0.0016441400000
-0.0023348000000
-0.0027610300000
-0.0037516000000
-0.0048101000000
-0.0046047900000
-0.0038102800000
-0.0034134200000
-0.0037749100000
-0.0031262000000
-0.0018539700000
-0.0014323500000
-0.0013736200000
-0.0014657800000
-0.0017963800000
-0.0011773200000
-0.0005260160000
-0.0008847870000
-0.0002443440000
0.0003255810000
0.0005849600000
0.0008483590000
0.0011784900000
0.0029147800000
0.0046036500000
0.0044253000000
0.0045747200000
0.0055882600000
0.0062319100000
0.0059170900000
0.0057690800000
0.0058946100000
0.0060749400000
0.0056468200000
0.0050644000000
0.0046015500000
0.0039781900000
0.0032211100000
0.0016895300000
0.0006404500000
0.0001796330000
-0.0008306420000
-0.0018105500000
-0.0027961300000
-0.0031635700000
-0.0036711900000
-0.0040941600000
-0.0045044600000
-0.0050629200000
-0.0052137200000
-0.0053278900000
-0.0048571000000
-0.0039506300000
-0.0028231200000
-0.0019168700000
-0.0018029900000
-0.0010237400000
-0.0002039240000
-0.0001993210000
-0.0010464900000
-0.0019513100000
-0.0020554200000
-0.0028241300000
-0.0040105100000
-0.0047748700000
-0.0054518400000
-0.0059931600000
-0.0060199500000
-0.0060692300000
-0.0064828400000
-0.0061865700000
-0.0061075700000
-0.0063324300000
-0.0068689000000
-0.0073986600000
-0.0080993500000
-0.0083301800000
-0.0095781400000
-0.0110122000000
-0.0119531000000
-0.0125216000000
-0.0133212000000
-0.0140623000000
-0.0144225000000
-0.0144596000000
-0.0144554000000
-0.0141520000000
-0.0136513000000
-0.0138098000000
-0.0130689000000
-0.0120522000000
-0.0108463000000
-0.0092232000000
-0.0087427600000
-0.0076443300000
-0.0056823300000
-0.0048510400000
-0.0038310300000
-0.0028483900000
-0.0013551700000
0.0005426110000
0.0013691600000
0.0023324300000
0.0037808600000
0.0044208700000
0.0055533900000
0.0064611100000
0.0068335700000
0.0075331400000
0.0088741900000
0.0091564500000
0.0089673900000
0.0092612500000
0.0097575000000
0.0100368000000
0.0099220600000
0.0098780400000
0.0100128000000
0.0099805700000
0.0104423000000
0.0111708000000
0.0119464000000
0.0128485000000
0.0136036000000
0.0140664000000
0.0140496000000
0.0146573000000
0.0161355000000
0.0164384000000
0.0157399000000
0.0154422000000
0.0158861000000
0.0159975000000
0.0151731000000
0.0153499000000
0.0155923000000
0.0149397000000
0.0131151000000
0.0117292000000
0.0121034000000
0.0120596000000
0.0102687000000
0.0094295800000
0.0098032800000
0.0100559000000
0.0087402200000
0.0079226600000
0.0086439200000
0.0092408900000
0.0083418800000
0.0066079900000
0.0061095000000
0.0060023400000
0.0045446800000
0.0026763700000
0.0026263300000
0.0022523500000
0.0013529100000
0.0008803770000
0.0006792750000
0.0011090100000
0.0012834100000
0.0010499200000
0.0009775480000
0.0007159330000
0.0003231950000
-0.0004234950000
-0.0014407800000
-0.0026803000000
-0.0027432400000
-0.0036272800000
-0.0055266700000
-0.0070875300000
-0.0077755300000
-0.0083052000000
-0.0097495900000
-0.0108706000000
-0.0108068000000
-0.0113269000000
-0.0120315000000
-0.0129406000000
-0.0134640000000
-0.0138510000000
-0.0140235000000
-0.0138044000000
-0.0139619000000
-0.0137223000000
-0.0126186000000
-0.0113390000000
-0.0114371000000
-0.0113392000000
-0.0092778000000
-0.0072171900000
-0.0060887700000
-0.0055229700000
-0.0047465200000
-0.0017811400000
0.0002613170000
0.0001486130000
0.0004914980000
0.0016039100000
0.0020653000000
0.0015173000000
0.0010270700000
0.0023452300000
0.0040183500000
0.0039689200000
0.0034905100000
0.0035192400000
0.0036981700000
0.0030762300000
0.0012011900000
-0.0009904320000
-0.0032248200000
-0.0061306100000
-0.0094248300000
-0.0102061000000
-0.0099198100000
-0.0104459000000
-0.0104502000000
-0.0097036000000
-0.0088958000000
-0.0086300200000
-0.0072901100000
-0.0049949400000
-0.0030108000000
-0.0020315400000
-0.0006908090000
0.0002371900000
0.0019749100000
0.0042697900000
0.0059215400000
0.0063519400000
0.0074129700000
0.0085255600000
0.0082174100000
0.0070435600000
0.0068614900000
0.0072723800000
0.0073455000000
0.0068089700000
0.0055509100000
0.0047340200000
0.0046557600000
0.0037898800000
0.0025521100000
0.0022522300000
0.0026692300000
0.0029426100000
0.0022885600000
0.0010040100000
0.0002832460000
-0.0005111380000
-0.0018620200000
-0.0030055300000
-0.0028061300000
-0.0018821900000
-0.0011576200000
0.0003055420000
0.0013333200000
0.0021791700000
0.0032701100000
0.0040871600000
0.0036540400000
0.0033632100000
0.0040245300000
0.0036762200000
0.0020951500000
0.0017214200000
0.0022460700000
0.0019598000000
0.0009772320000
-0.0003083120000
-0.0009086430000
-0.0014994500000
-0.0031775000000
-0.0049507400000
-0.0056942500000
-0.0053681400000
-0.0053815100000
-0.0056227500000
-0.0041403400000
-0.0021293600000
-0.0004606680000
0.0006244110000
0.0017677700000
0.0032101500000
0.0035359100000
0.0043266300000
0.0050455500000
0.0056041600000
0.0061865400000
0.0067897200000
0.0075705200000
0.0079800200000
0.0079093600000
0.0087718700000
0.0096294000000
0.0091076300000
0.0084648900000
0.0084485200000
0.0083920100000
0.0083163200000
0.0075293600000
0.0067409800000
0.0062601800000
0.0052798900000
0.0040095300000
0.0028936900000
0.0016292600000
0.0009803510000
-0.0004156000000
-0.0025046600000
-0.0041351300000
-0.0047667000000
-0.0046469200000
-0.0042928600000
-0.0043185100000
-0.0043360800000
-0.0037998500000
-0.0032454200000
-0.0041401600000
-0.0047572100000
-0.0052409900000
-0.0060700300000
-0.0068540200000
-0.0075413600000
-0.0075202100000
-0.0073060600000
-0.0068908500000
-0.0064496800000
-0.0059968400000
-0.0057674000000
-0.0059848800000
-0.0063872800000
-0.0063324300000
-0.0062177800000
-0.0064829900000
-0.0066990200000
-0.0065151400000
-0.0053855700000
-0.0046251600000
-0.0046389300000
-0.0041001500000
-0.0041118800000
-0.0046347700000
-0.0049193100000
-0.0054338300000
-0.0058469600000
-0.0067342400000
-0.0078235400000
-0.0083271800000
-0.0086659700000
-0.0074490500000
-0.0066445200000
-0.0056471700000
-0.0043076100000
-0.0033603400000
-0.0030349600000
-0.0035520000000
-0.0043529000000
-0.0051061500000
-0.0051458400000
-0.0051761100000
-0.0060155800000
-0.0074762700000
-0.0096294400000
-0.0109546000000
-0.0125023000000
-0.0140267000000
-0.0141136000000
-0.0137903000000
-0.0129392000000
-0.0119651000000
-0.0105588000000
-0.0086074500000
-0.0070053900000
-0.0059911600000
-0.0056147100000
-0.0054717900000
-0.0051760800000
-0.0049396000000
-0.0046248600000
-0.0044600500000
-0.0039352900000
-0.0034189700000
-0.0024749700000
-0.0007686970000
0.0010572600000
0.0023974600000
0.0030291300000
0.0038756200000
0.0046770400000
0.0050730100000
0.0050153900000
0.0052649200000
0.0050300100000
0.0043975000000
0.0041160900000
0.0037958000000
0.0039124100000
0.0036655700000
0.0028984300000
0.0025164500000
0.0024334300000
0.0023877500000
0.0022242700000
0.0025341900000
0.0026192600000
0.0031884000000
0.0044290200000
0.0060847400000
0.0080440000000
0.0089879800000
0.0107693000000
0.0121993000000
0.0128257000000
0.0133343000000
0.0140806000000
0.0144931000000
0.0147036000000
0.0144358000000
0.0143306000000
0.0137581000000
0.0129529000000
0.0120093000000
0.0110648000000
0.0111470000000
0.0113631000000
0.0111101000000
0.0113444000000
0.0117338000000
0.0115129000000
0.0109125000000
0.0103165000000
0.0105687000000
0.0107809000000
0.0101357000000
0.0095624700000
0.0099773200000
0.0102480000000
0.0095591800000
0.0087816300000
0.0085708200000
0.0078571400000
0.0074643700000
0.0069587800000
0.0062487300000
0.0058498800000
0.0056358600000
0.0052517400000
0.0040535400000
0.0031300200000
0.0027473100000
0.0022197900000
0.0015941500000
0.0010116100000
0.0004715710000
-0.0002283390000
-0.0009079160000
-0.0013608500000
-0.0019148900000
-0.0025993900000
-0.0030735700000
-0.0032576000000
-0.0036437900000
-0.0039280500000
-0.0041956100000
-0.0041502600000
-0.0038771300000
-0.0038501000000
-0.0038572500000
-0.0041804500000
-0.0045768300000
-0.0051788500000
-0.0058741700000
-0.0067857300000
-0.0069736700000
-0.0069059300000
-0.0074593100000
-0.0078585700000
-0.0074345000000
-0.0067784900000
-0.0064947400000
-0.0060282000000
-0.0056490400000
-0.0051177600000
-0.0049161200000
-0.0052942600000
-0.0052337000000
-0.0055948400000
-0.0061656400000
-0.0071634800000
-0.0081370900000
-0.0084934700000
-0.0083914100000
-0.0082524200000
-0.0079599000000
-0.0074074000000
-0.0065344700000
-0.0053391700000
-0.0043727600000
-0.0032422100000
-0.0021228900000
-0.0018823000000
-0.0015934000000
-0.0009942210000
-0.0004701460000
-0.0006829590000
-0.0009680280000
-0.0007779820000
-0.0005958630000
-0.0004805300000
-0.0009446330000
-0.0014298200000
-0.0012526300000
-0.0013455900000
-0.0014783100000
-0.0011195800000
-0.0010571700000
-0.0005924550000
0.0002397240000
0.0006057640000
0.0008519130000
0.0012073400000
0.0020574800000
0.0028168800000
0.0036086200000
0.0044387000000
0.0053259900000
0.0060962200000
0.0065917300000
0.0068870600000
0.0073135200000
0.0075786700000
0.0075492400000
0.0070480800000
0.0067573900000
0.0063556400000
0.0054330700000
0.0048539200000
0.0041795800000
0.0034542000000
0.0025528200000
0.0017891900000
0.0011949500000
0.0004325850000
-0.0002444660000
-0.0012663200000
-0.0022130300000
-0.0023295000000
-0.0025130200000
-0.0024936600000
-0.0019009000000
-0.0015600300000
-0.0009712460000
-0.0003223710000
0.0001739690000
0.0005684930000
0.0008070270000
0.0010210400000
0.0010946100000
0.0009940010000
0.0007036600000
0.0006531590000
0.0006276390000
0.0005229220000
0.0005276690000
0.0006290690000
0.0013195700000
0.0017002400000
0.0015067400000
0.0014662100000
0.0011094200000
0.0005622830000
-0.0000906542000
-0.0006563400000
-0.0010499600000
-0.0011720800000
-0.0012960300000
-0.0013618700000
-0.0012875700000
-0.0009095190000
-0.0005127260000
-0.0002063090000
0.0001904730000
0.0002414750000
-0.0000438789000
-0.0002637020000
-0.0006246150000
-0.0007117010000
-0.0004850820000
-0.0007884130000
-0.0009202860000
-0.0004874510000
-0.0003356330000
0.0000129173000
0.0001923290000
0.0005268970000
0.0012514200000
0.0014766400000
0.0015638700000
0.0017723100000
0.0021807900000
0.0025414800000
0.0025935700000
0.0030957000000
0.0032515100000
0.0029333900000
0.0026246000000
0.0023512700000
0.0017601900000
0.0011792200000
0.0005262410000
-0.0001757770000
-0.0008197650000
-0.0010452000000
-0.0013396000000
-0.0018565900000
-0.0026520900000
-0.0034157500000
-0.0037620600000
-0.0045022600000
-0.0059390300000
-0.0071628100000
-0.0077747100000
-0.0085768900000
-0.0088478700000
-0.0092468200000
-0.0095268900000
-0.0091362000000
-0.0083711800000
-0.0079406000000
-0.0077676400000
-0.0066853500000
-0.0054296700000
-0.0047317000000
-0.0041444500000
-0.0033600400000
-0.0025238000000
-0.0018831800000
-0.0011277900000
0.0002096780000
0.0011597000000
0.0017396500000
0.0025522900000
0.0029522100000
0.0033716200000
0.0038445900000
0.0039995500000
0.0041924300000
0.0043874000000
0.0046861400000
0.0043486500000
0.0040590000000
0.0040442400000
0.0039757600000
0.0039712600000
0.0031109100000
0.0014963500000
0.0008399800000
0.0006547680000
0.0001427810000
-0.0010598600000
-0.0027169400000
-0.0034410900000
-0.0040011000000
-0.0049972800000
-0.0060901600000
-0.0070716300000
-0.0068250000000
-0.0074876800000
-0.0072983900000
-0.0066801400000
-0.0067486300000
-0.0066455000000
-0.0053698600000
-0.0033390900000
-0.0031480500000
-0.0028784500000
-0.0016856800000
-0.0013220700000
-0.0009043610000
-0.0002066180000
0.0001199500000
-0.0007671890000
-0.0005396390000
0.0004680930000
0.0002925160000
-0.0001865410000
0.0008110690000
0.0021986100000
0.0023891100000
0.0027526300000
0.0028819700000
0.0032567600000
0.0023718700000
0.0020606600000
0.0022977900000
0.0022814700000
-0.0002251810000
-0.0022588700000
-0.0020209500000
-0.0031899200000
-0.0049414600000
-0.0046100900000
-0.0025842700000
-0.0005954920000
0.0005228510000
0.0011845400000
0.0019917500000
0.0021924900000
0.0035969800000
0.0048700200000
0.0041640600000
0.0030121000000
0.0025064500000
0.0026616300000
0.0032101900000
0.0030432300000
0.0026957800000
0.0032746000000
0.0041390600000
0.0031811600000
0.0023174000000
0.0026583100000
0.0015809900000
0.0007584720000
-0.0002604100000
-0.0025764600000
-0.0029607700000
-0.0025503800000
-0.0044209400000
-0.0055348000000
-0.0047976200000
-0.0059431400000
-0.0070779500000
-0.0063989800000
-0.0055003100000
-0.0061638600000
-0.0059846300000
-0.0044356300000
-0.0029723700000
-0.0029185900000
-0.0030628800000
-0.0021499800000
-0.0002826850000
0.0003269700000
-0.0005440870000
-0.0023587100000
-0.0028499900000
-0.0037059600000
-0.0045587500000
-0.0055787800000
-0.0062154700000
-0.0058950600000
-0.0062049600000
-0.0076341200000
-0.0071554400000
-0.0069516300000
-0.0079681500000
-0.0088203000000
-0.0093155200000
-0.0083253800000
-0.0076805700000
-0.0076191300000
-0.0073119400000
-0.0074092800000
-0.0077129200000
-0.0069601100000
-0.0059801500000
-0.0056220500000
-0.0044467000000
-0.0038842400000
-0.0042216500000
-0.0032752000000
-0.0017405700000
-0.0010308400000
-0.0008089240000
-0.0008921090000
-0.0014306700000
-0.0018238900000
-0.0018273500000
-0.0026594200000
-0.0035146900000
-0.0033530100000
-0.0032846000000
-0.0031151700000
-0.0037611700000
-0.0045961000000
-0.0034174300000
-0.0021099600000
-0.0005925810000
0.0008775610000
0.0025441100000
0.0044847800000
0.0054743600000
0.0062796900000
0.0083528000000
0.0102956000000
0.0110980000000
0.0117129000000
0.0128185000000
0.0141223000000
0.0141557000000
0.0134755000000
0.0139523000000
0.0140316000000
0.0120941000000
0.0107985000000
0.0099795800000
0.0109985000000
0.0097884900000
0.0077487100000
0.0071008400000
0.0077853000000
0.0078624300000
0.0077523100000
0.0078120900000
0.0082386700000
0.0077073400000
0.0067026400000
0.0052072700000
0.0033751500000
0.0028561200000
0.0024977800000
0.0013890700000
0.0008622030000
0.0023187800000
0.0037962800000
0.0035293100000
0.0039684000000
0.0058756100000
0.0073282500000
0.0068497300000
0.0058938900000
0.0059378000000
0.0058726300000
0.0050975600000
0.0041189900000
0.0021204800000
0.0015024200000
0.0016583600000
0.0018579100000
0.0013996900000
0.0015173100000
0.0019607900000
0.0017844200000
0.0010593600000
0.0014709900000
0.0019294000000
0.0003314880000
-0.0012085700000
-0.0004444040000
0.0008066210000
-0.0008613820000
-0.0044964600000
-0.0051688000000
-0.0035219800000
-0.0037811900000
-0.0058872100000
-0.0043057000000
-0.0023465700000
-0.0043095700000
-0.0062403100000
-0.0058017800000
-0.0050469700000
-0.0054893200000
-0.0073097800000
-0.0077060200000
-0.0065930500000
-0.0072857000000
-0.0086190500000
-0.0070904000000
-0.0055686700000
-0.0054145700000
-0.0047117200000
-0.0036387000000
-0.0037322500000
-0.0037846500000
-0.0035029900000
-0.0040855900000
-0.0039773900000
-0.0042407900000
-0.0040735900000
-0.0042606200000
-0.0046526300000
-0.0036343600000
-0.0020912900000
-0.0018395300000
-0.0024347700000
-0.0017787600000
-0.0010791500000
-0.0011135700000
-0.0008976390000
0.0003675910000
0.0013627600000
0.0011173000000
0.0010789400000
0.0016984700000
0.0019425800000
0.0021601500000
0.0021629300000
0.0027896300000
0.0032946000000
0.0032998300000
0.0034415100000
0.0047888300000
0.0052452100000
0.0053632100000
0.0062617500000
0.0070398200000
0.0061501900000
0.0055587500000
0.0054775100000
0.0059107000000
0.0060910300000
0.0054418500000
0.0039599400000
0.0025490800000
0.0015652300000
0.0006467970000
0.0005025200000
0.0006659780000
0.0012877100000
0.0031297100000
0.0063043700000
0.0105961000000
0.0156327000000
0.0199839000000
0.0222461000000
0.0228976000000
0.0235005000000
0.0211861000000
0.0174037000000
0.0134614000000
0.0078008000000
0.0017452900000
-0.0032240200000
-0.0067950500000
-0.0075597600000
-0.0061003000000
-0.0031870000000
0.0020866000000
0.0075109800000
0.0116609000000
0.0156741000000
0.0182260000000
0.0185636000000
0.0183876000000
0.0164403000000
0.0129975000000
0.0083726000000
0.0028180800000
-0.0023116800000
-0.0066670700000
-0.0096388500000
-0.0099988700000
-0.0090723900000
-0.0076026000000
-0.0052373100000
-0.0036849100000
-0.0017760000000
-0.0000267401000
0.0009662200000
0.0001862900000
-0.0013181100000
-0.0026525100000
-0.0036182900000
-0.0047451400000
-0.0065252200000
-0.0074171400000
-0.0096780400000
-0.0121311000000
-0.0129505000000
-0.0127235000000
-0.0124912000000
-0.0116484000000
-0.0104150000000
-0.0090854100000
-0.0086013400000
-0.0085824200000
-0.0084109600000
-0.0077907500000
-0.0072922700000
-0.0082881500000
-0.0097188500000
-0.0111052000000
-0.0123628000000
-0.0133065000000
-0.0144629000000
-0.0142513000000
-0.0137488000000
-0.0129069000000
-0.0118961000000
-0.0107447000000
-0.0099916800000
-0.0087924000000
-0.0086895700000
-0.0092998800000
-0.0091665100000
-0.0095162300000
-0.0095385100000
-0.0094561400000
-0.0088095900000
-0.0090393700000
-0.0088504100000
-0.0079662100000
-0.0084432900000
-0.0089986400000
-0.0090267000000
-0.0093648100000
-0.0093056000000
-0.0107300000000
-0.0121110000000
-0.0127137000000
-0.0138219000000
-0.0144557000000
-0.0141091000000
-0.0134357000000
-0.0123050000000
-0.0108210000000
-0.0094968000000
-0.0076072000000
-0.0064424600000
-0.0039912600000
-0.0015104300000
-0.0000675732000
0.0011649300000
0.0021320000000
0.0024723700000
0.0029253700000
0.0031886800000
0.0028944100000
0.0024510300000
0.0019331900000
0.0011723700000
0.0015531700000
0.0017061600000
0.0016136300000
0.0019875900000
0.0021922100000
0.0027672600000
0.0026205800000
0.0023699300000
0.0030047000000
0.0041362100000
0.0042882400000
0.0039875100000
0.0051101600000
0.0065415600000
0.0071358600000
0.0081137600000
0.0092613300000
0.0097923900000
0.0107776000000
0.0109430000000
0.0106730000000
0.0103942000000
0.0094824000000
0.0083195500000
0.0067822600000
0.0053650400000
0.0042433500000
0.0032673400000
0.0032239800000
0.0038428900000
0.0052827700000
0.0071346000000
0.0090443600000
0.0104954000000
0.0115526000000
0.0129602000000
0.0142046000000
0.0150085000000
0.0160577000000
0.0179422000000
0.0193723000000
0.0194679000000
0.0191687000000
0.0186096000000
0.0164772000000
0.0130836000000
0.0087558000000
0.0062240500000
0.0019595200000
-0.0008926230000
-0.0022069700000
-0.0020694400000
-0.0030355700000
-0.0015947200000
0.0033972600000
0.0063195000000
0.0095782900000
0.0138829000000
0.0162157000000
0.0181080000000
0.0198910000000
0.0192109000000
0.0187924000000
0.0181053000000
0.0158798000000
0.0143385000000
0.0130404000000
0.0105292000000
0.0097958800000
0.0090959700000
0.0059876000000
0.0046256600000
0.0046424000000
0.0040032200000
0.0039731600000
0.0041656700000
0.0038850900000
0.0043706400000
0.0046934000000
0.0045719000000
0.0056824400000
0.0081639200000
0.0098455900000
0.0113072000000
0.0128479000000
0.0131944000000
0.0123500000000
0.0129130000000
0.0129822000000
0.0111449000000
0.0100841000000
0.0084112500000
0.0061509800000
0.0043542300000
0.0025167200000
0.0005881910000
-0.0004354420000
-0.0019462100000
-0.0050934700000
-0.0069064200000
-0.0075347400000
-0.0094807600000
-0.0120480000000
-0.0145039000000
-0.0159111000000
-0.0178614000000
-0.0198027000000
-0.0205012000000
-0.0207584000000
-0.0207675000000
-0.0192571000000
-0.0184683000000
-0.0165752000000
-0.0147455000000
-0.0141275000000
-0.0126903000000
-0.0123604000000
-0.0129904000000
-0.0131102000000
-0.0137520000000
-0.0147815000000
-0.0160848000000
-0.0162281000000
-0.0165076000000
-0.0172046000000
-0.0170584000000
-0.0171729000000
-0.0171495000000
-0.0175277000000
-0.0182905000000
-0.0176426000000
-0.0169619000000
-0.0162678000000
-0.0159196000000
-0.0149179000000
-0.0139368000000
-0.0134287000000
-0.0121836000000
-0.0112906000000
-0.0096511400000
-0.0076883900000
-0.0059211500000
-0.0043665900000
-0.0036690100000
-0.0035191900000
-0.0030148000000
-0.0027542300000
-0.0029216900000
-0.0042431000000
-0.0053607800000
-0.0063252200000
-0.0071547300000
-0.0076273700000
-0.0078899100000
-0.0078515200000
-0.0069601400000
-0.0056345100000
-0.0049266800000
-0.0049291000000
-0.0039073700000
-0.0023809600000
-0.0018036500000
-0.0021476600000
-0.0019047100000
-0.0009736370000
-0.0004085920000
-0.0007588290000
-0.0010120900000
-0.0002048590000
0.0001854420000
0.0000199674000
-0.0002616740000
-0.0001502550000
0.0004099140000
0.0009832190000
0.0003416590000
-0.0001482080000
0.0006421790000
0.0014599000000
0.0012236200000
0.0008715880000
0.0016450300000
0.0030178600000
0.0029759600000
0.0024357600000
0.0026790200000
0.0031847900000
0.0033016800000
0.0024061800000
0.0013301700000
0.0014112900000
0.0015957300000
0.0013538500000
0.0014422700000
0.0020708600000
0.0030770700000
0.0042325500000
0.0045816100000
0.0043258000000
0.0046595300000
0.0061700700000
0.0067694200000
0.0058524500000
0.0054709800000
0.0054972500000
0.0057681700000
0.0059813200000
0.0057849700000
0.0057658500000
0.0052416800000
0.0054143700000
0.0051532000000
0.0051466100000
0.0052182800000
0.0055095600000
0.0065893700000
0.0075959300000
0.0082011300000
0.0090043500000
0.0096734400000
0.0099095200000
0.0106973000000
0.0111043000000
0.0107038000000
0.0105706000000
0.0110541000000
0.0104789000000
0.0094051100000
0.0093610800000
0.0094720000000
0.0089327200000
0.0073093800000
0.0068875500000
0.0068651000000
0.0059149400000
0.0059746700000
0.0066007300000
0.0069371300000
0.0073910100000
0.0089008800000
0.0102316000000
0.0107300000000
0.0116258000000
0.0124457000000
0.0128597000000
0.0128656000000
0.0119577000000
0.0114418000000
0.0105705000000
0.0093914100000
0.0088884100000
0.0074433300000
0.0066222900000
0.0065077400000
0.0051206800000
0.0034841900000
0.0025596800000
0.0011614900000
-0.0002414340000
-0.0019841600000
-0.0031095900000
-0.0044348800000
-0.0054268500000
-0.0066547900000
-0.0075725800000
-0.0084780900000
-0.0089586300000
-0.0082009700000
-0.0078570200000
-0.0079868500000
-0.0081463200000
-0.0069815100000
-0.0061275100000
-0.0066573700000
-0.0070923100000
-0.0072522500000
-0.0064897600000
-0.0060872500000
-0.0067775400000
-0.0076291800000
-0.0073411000000
-0.0064541900000
-0.0062728200000
-0.0072315400000
-0.0075734100000
-0.0064250600000
-0.0056668200000
-0.0054208300000
-0.0056340400000
-0.0052844600000
-0.0044428900000
-0.0044997500000
-0.0053377100000
-0.0056107900000
-0.0053041400000
-0.0054197900000
-0.0045599000000
-0.0035595000000
-0.0027863600000
-0.0017615400000
-0.0004416630000
0.0007056700000
0.0012425600000
0.0011305100000
0.0009091630000
0.0012699900000
0.0009427060000
-0.0000588919000
-0.0005707780000
-0.0009953030000
-0.0014833200000
-0.0018513900000
-0.0030309300000
-0.0037406400000
-0.0036832700000
-0.0035955100000
-0.0043032700000
-0.0041467500000
-0.0038373500000
-0.0036800600000
-0.0033017200000
-0.0030167500000
-0.0028129500000
-0.0022841700000
-0.0018927100000
-0.0016097900000
-0.0008287480000
-0.0004282430000
0.0001519070000
0.0012174500000
0.0011465800000
0.0014060900000
0.0016780900000
0.0017270300000
0.0016193700000
0.0008363240000
0.0002872700000
0.0005033340000
0.0001196580000
-0.0005954400000
-0.0003633380000
-0.0001951020000
-0.0003452770000
-0.0008554280000
-0.0013056800000
-0.0020022100000
-0.0021435100000
-0.0018517200000
-0.0013801900000
-0.0009420830000
-0.0005522190000
0.0007136210000
0.0013283600000
0.0019738700000
0.0026614900000
0.0034182500000
0.0040084300000
0.0045612500000
0.0049924400000
0.0048580600000
0.0046241300000
0.0049675100000
0.0043410400000
0.0028667000000
0.0018300800000
0.0013807400000
0.0009822160000
-0.0003463970000
-0.0014296300000
-0.0015818300000
-0.0015832700000
-0.0018050100000
-0.0024862300000
-0.0029235800000
-0.0028052300000
-0.0025510000000
-0.0021932900000
-0.0016145300000
-0.0009568890000
-0.0002887670000
-0.0002787520000
-0.0002501170000
0.0004871140000
0.0009492550000
0.0018124400000
0.0023353100000
0.0027267600000
0.0032848700000
0.0032127100000
0.0028239400000
0.0024566200000
0.0021895500000
0.0022325200000
0.0018951900000
0.0010963800000
0.0007878600000
0.0005867120000
-0.0000929873000
-0.0003140430000
-0.0000230313000
0.0000661602000
-0.0000601554000
-0.0002359630000
-0.0008876270000
-0.0008951460000
-0.0009000830000
-0.0015729400000
-0.0018961600000
-0.0018126300000
-0.0021356100000
-0.0025569000000
-0.0027957300000
-0.0029269600000
-0.0027842700000
-0.0025124000000
-0.0023323500000
-0.0026654400000
-0.0022301500000
-0.0016737200000
-0.0016608500000
-0.0015400700000
-0.0016048800000
-0.0016691800000
-0.0013168200000
-0.0015352100000
-0.0018139700000
-0.0016000100000
-0.0010208200000
-0.0009625070000
-0.0011033100000
-0.0006707740000
-0.0000911988000
-0.0000421760000
0.0000093753300
-0.0001929040000
-0.0001665490000
0.0002626530000
0.0000320268000
0.0001258400000
0.0005966970000
0.0008952020000
0.0011621900000
0.0014526800000
0.0017565300000
0.0017736300000
0.0019477600000
0.0024207800000
0.0026384100000
0.0025873300000
0.0026249900000
0.0026017000000
0.0027134000000
0.0026574900000
0.0024292200000
0.0023119900000
0.0025590800000
0.0028016200000
0.0028624500000
0.0032011000000
0.0033925100000
0.0035141000000
0.0035919100000
0.0031433400000
0.0027113000000
0.0023422600000
0.0016590800000
0.0011184100000
0.0011304000000
0.0008091700000
0.0007104040000
0.0009100750000
0.0009165180000
0.0013307600000
0.0016102400000
0.0018118000000
0.0019589400000
0.0022164600000
0.0021115100000
0.0019629900000
0.0021237500000
0.0022170000000
0.0021593500000
0.0023398500000
0.0020739600000
0.0019369600000
0.0020841800000
0.0019449100000
0.0020562200000
0.0023330600000
0.0022355600000
0.0021176700000
0.0020504200000
0.0017186800000
0.0012266300000
0.0011384800000
0.0013433800000
0.0013204500000
0.0010060100000
0.0008513830000
0.0010386600000
0.0008147500000
0.0003761480000
0.0002212980000
-0.0002463640000
-0.0008722630000
-0.0010709800000
-0.0013742600000
-0.0013985300000
-0.0014478900000
-0.0018864000000
-0.0020925800000
-0.0022173500000
-0.0024945800000
-0.0024104800000
-0.0025823400000
-0.0026210900000
-0.0024768200000
-0.0027581100000
-0.0030330900000
-0.0028082500000
-0.0026965000000
-0.0029606900000
-0.0027674100000
-0.0027197000000
-0.0031331200000
-0.0031898700000
-0.0030605000000
-0.0033802300000
-0.0031989200000
-0.0031191700000
-0.0033337000000
-0.0030890100000
-0.0031245900000
-0.0028363100000
-0.0023087200000
-0.0021675800000
-0.0021740900000
-0.0021046800000
-0.0020653300000
-0.0022359800000
-0.0020338900000
-0.0020144900000
-0.0020396100000
-0.0017682100000
-0.0017822300000
-0.0017398900000
-0.0014885000000
-0.0010600000000
-0.0006076700000
-0.0005590290000
-0.0002317410000
0.0000538744000
-0.0000955144000
-0.0000570012000
-0.0000125024000
0.0000766616000
0.0000361455000
-0.0000377633000
0.0000318447000
0.0001114690000
0.0000926260000
0.0002049330000
0.0003669180000
0.0004572420000
0.0004337740000
0.0006014880000
0.0006180580000
0.0004454330000
0.0004997610000
0.0005706930000
0.0004686980000
0.0004743420000
0.0004138130000
0.0003378310000
0.0004596760000
0.0004165280000
0.0001942760000
0.0001777710000
0.0001621260000
0.0001147470000
0.0001438950000
-0.0000258039000
-0.0001449850000
-0.0001246000000
-0.0002931160000
-0.0003974820000
-0.0003129840000
-0.0003284670000
-0.0004025390000
-0.0003674480000
-0.0003897350000
-0.0003907770000
-0.0003067870000
-0.0003410350000
-0.0003163240000
-0.0002281740000
-0.0001986400000
-0.0001679430000
-0.0000820141000
0.0000044234500
0.0000419826000
0.0001190400000
0.0001238620000
0.0001078990000
0.0001913310000
0.0002898690000
0.0003167430000
0.0003669250000
0.0004164900000
0.0003874250000
0.0004012080000
0.0003524020000
0.0003217100000
0.0003250160000
0.0002832750000
0.0002777430000
0.0002531750000
0.0002376260000
0.0002382380000
0.0002393870000
0.0002602760000
0.0003017820000
0.0003231450000
0.0003344000000
0.0003381850000
0.0003578000000
0.0003605710000
0.0003572120000
0.0003872310000
0.0004639230000
0.0004950430000
0.0004865380000
0.0004860440000
0.0005176500000
0.0005243900000
0.0005237410000
0.0005450770000
0.0005345640000
0.0005387760000
0.0005381470000
0.0005285360000
0.0005284650000
0.0005211300000
0.0005123620000
0.0004686200000
0.0004108760000
0.0003592870000
0.0003068600000
0.0002488720000
0.0002153540000
0.0001973340000
0.0001559610000
0.0001226440000
0.0001179560000
0.0001016360000
0.0000809392000
0.0000813943000
0.0000840622000
0.0000881920000
0.0000969385000
0.0001080410000
0.0001225250000
0.0001563760000
0.0001743380000
0.0001827870000
0.0002222440000
0.0002570960000
0.0002584640000
0.0002734980000
0.0002865480000
0.0002907950000
0.0002940170000
0.0002934170000
0.0002881400000
0.0002687580000
0.0002447350000
0.0002370410000
0.0002401710000
0.0002264210000
0.0002165900000
0.0002178130000
0.0002226760000
0.0002306480000
0.0002297030000
0.0002266480000
0.0002269360000
0.0002245330000
0.0002171290000
0.0002100690000
0.0002041200000
0.0001980200000
0.0001843810000
0.0001729100000
0.0001633380000
0.0001561540000
0.0001536550000
0.0001459650000
0.0001411320000
0.0001350340000
0.0001325690000
0.0001349400000
0.0001297270000
0.0001250930000
0.0001228530000
0.0001187210000
0.0001124550000
0.0001071090000
0.0001025900000
0.0000958098000
0.0000878997000
0.0000807514000
0.0000749943000
0.0000694699000
0.0000654962000
0.0000630911000
0.0000589122000
0.0000550734000
0.0000516969000
0.0000455502000
0.0000388408000
0.0000332746000
0.0000277202000
0.0000222073000
0.0000169460000
0.0000119986000
0.0000069936300
0.0000014098400
-0.0000045209800
-0.0000105536000
-0.0000159052000
-0.0000213090000
-0.0000267627000
-0.0000315605000
-0.0000359363000
-0.0000398363000
-0.0000435420000
-0.0000467679000
-0.0000495260000
-0.0000521734000
-0.0000551810000
-0.0000584248000
-0.0000615661000
-0.0000646748000
-0.0000676757000
-0.0000705325000
-0.0000731961000
-0.0000757075000
-0.0000782106000
-0.0000806598000
-0.0000829932000
-0.0000852266000
-0.0000873720000
-0.0000894131000
-0.0000913911000
-0.0000933023000
-0.0000951396000
-0.0000969196000
-0.0000986280000
-0.0001002580000
-0.0001018150000
-0.0001033060000
-0.0001047320000
-0.0001060980000
-0.0001074050000
-0.0001086530000
-0.0001098420000
-0.0001109730000
-0.0001120470000
-0.0001130640000
-0.0001140250000
-0.0001149310000
