0.0096464000000
0.0142437000000
0.0140954000000
0.0043193200000
-0.0091319100000
-0.0124961000000
-0.0049064000000
0.0113495000000
0.0262263000000
0.0178253000000
0.0051358400000
-0.0122211000000
-0.0187443000000
-0.0018782100000
0.0170769000000
0.0182251000000
0.0071282800000
0.0089273800000
-0.0094023300000
-0.0083656900000
0.0180165000000
-0.0041060100000
-0.0130579000000
0.0128567000000
-0.0098798000000
-0.0111760000000
0.0288204000000
0.0274629000000
0.0105079000000
-0.0274015000000
-0.0515138000000
-0.0175755000000
0.0146074000000
0.0056691600000
-0.0062680800000
0.0111888000000
-0.0055232200000
-0.0045866500000
0.0115668000000
-0.0334430000000
-0.0292775000000
-0.0057772900000
-0.0053098400000
0.0081912800000
-0.0008280020000
0.0259344000000
0.0345996000000
0.0046870100000
-0.0435725000000
-0.0450220000000
-0.0239413000000
-0.0005579990000
0.0453357000000
0.0173877000000
-0.0055818200000
-0.0346799000000
-0.0395296000000
0.0091045900000
0.0192341000000
-0.0051499800000
-0.0049985400000
-0.0190249000000
-0.0290673000000
0.0129625000000
0.0339908000000
0.0281746000000
0.0096240200000
-0.0287420000000
-0.0328226000000
0.0103394000000
0.0146504000000
-0.0225436000000
0.0130784000000
0.0201343000000
-0.0304180000000
-0.0182571000000
0.0052654700000
0.0038644900000
0.0107235000000
-0.0184460000000
-0.0534770000000
-0.0257229000000
0.0002718530000
0.1011160000000
0.0713832000000
-0.0869047000000
-0.1449800000000
-0.1116210000000
0.0187321000000
0.1082440000000
0.1015170000000
-0.0557601000000
-0.1393800000000
-0.0494652000000
0.0393217000000
0.0464795000000
0.0471705000000
0.0317549000000
-0.0665002000000
-0.0899830000000
-0.1135070000000
-0.0393707000000
0.0564907000000
0.1105060000000
0.0269621000000
-0.1124670000000
-0.0145335000000
0.0089018000000
-0.0432456000000
-0.0342668000000
-0.0306705000000
0.0492016000000
0.0344993000000
-0.0251816000000
0.0411339000000
0.1039610000000
0.0611473000000
-0.0827578000000
-0.1069810000000
0.0043190000000
0.0741486000000
0.1269260000000
0.0936030000000
-0.0824065000000
-0.1282480000000
0.0488248000000
0.1049680000000
-0.0658319000000
-0.1084100000000
-0.0498245000000
0.0059366200000
0.0627935000000
-0.0105366000000
-0.0066702600000
-0.0273290000000
0.0659628000000
0.1856840000000
0.0552378000000
0.0115495000000
0.0828188000000
0.0924936000000
0.0449264000000
-0.0778354000000
-0.1154930000000
-0.0710551000000
0.0589848000000
-0.0029347800000
-0.0449627000000
0.0328012000000
0.0026918600000
0.0258559000000
0.0210835000000
-0.0729818000000
-0.0712771000000
0.0005705440000
0.0306078000000
0.0549579000000
0.0085154800000
-0.0223094000000
-0.0162553000000
0.0594866000000
0.0453254000000
-0.0535277000000
-0.0138579000000
-0.0108981000000
0.0139706000000
0.0260058000000
0.0177542000000
0.0280363000000
-0.0200579000000
0.0187316000000
-0.0348067000000
-0.0840776000000
0.0284283000000
0.0862261000000
0.0406720000000
-0.0215544000000
0.0101968000000
-0.0284339000000
-0.0445344000000
0.0488094000000
0.0681788000000
0.0101617000000
-0.0764353000000
-0.0850865000000
0.0094067700000
0.0631521000000
0.1055690000000
0.0758575000000
-0.0798029000000
-0.1035020000000
0.0251531000000
0.0859971000000
0.0028620100000
-0.0541038000000
0.0066676700000
0.0645590000000
0.0245601000000
-0.0347655000000
-0.0473916000000
-0.0322675000000
-0.0121345000000
-0.0683148000000
-0.0028068300000
0.0277485000000
-0.0092772700000
0.0761149000000
0.0552345000000
-0.0684308000000
-0.0948504000000
-0.0231221000000
0.0481675000000
0.0111430000000
-0.0090629300000
0.0092584400000
-0.0057946500000
0.0005137790000
-0.0128427000000
0.0110769000000
0.0455259000000
0.0013669900000
-0.0331440000000
0.0070519900000
0.0389497000000
0.0225680000000
-0.0192372000000
-0.0100441000000
0.0450393000000
0.0567121000000
0.0565387000000
0.0138107000000
-0.0143003000000
0.0444000000000
0.0931085000000
0.0756446000000
0.0393230000000
0.0809544000000
0.0503928000000
-0.0395593000000
-0.0032616400000
0.0275731000000
0.0167348000000
0.0581011000000
0.0125729000000
-0.0436386000000
0.0109124000000
0.0342068000000
0.0458631000000
0.0678318000000
0.0577302000000
0.0410455000000
0.0720307000000
0.0707805000000
0.0279315000000
0.0660837000000
0.0512015000000
-0.0064656700000
-0.0127857000000
-0.0337355000000
0.0291999000000
0.0287922000000
-0.0142450000000
0.0333181000000
0.0094668300000
-0.0516069000000
-0.0306103000000
0.0115529000000
-0.0658556000000
-0.1261900000000
-0.0781159000000
-0.0114715000000
0.0510976000000
0.0551823000000
-0.0222086000000
-0.1196210000000
-0.1363830000000
-0.0980725000000
-0.0912895000000
-0.0344641000000
-0.0414361000000
-0.0614874000000
-0.0571818000000
0.0095439000000
0.2376460000000
0.3428630000000
0.1798890000000
-0.1035920000000
-0.2215470000000
-0.1562550000000
0.0283766000000
0.1195050000000
0.2562560000000
0.2025270000000
0.0937052000000
0.1368670000000
-0.1486100000000
-0.2729610000000
-0.3172370000000
-0.3098730000000
-0.0374006000000
0.1668000000000
0.2778060000000
0.2375670000000
0.0342521000000
-0.1011500000000
-0.3102540000000
-0.2962770000000
0.1044070000000
0.1759840000000
-0.1822690000000
-0.3114430000000
-0.0007702550000
0.1724820000000
0.2636810000000
0.2178070000000
-0.1197200000000
-0.1861700000000
0.1351850000000
0.1902750000000
0.0275661000000
-0.1200680000000
-0.2559900000000
-0.2450500000000
-0.1450970000000
-0.0062700500000
0.0296917000000
0.0644265000000
0.2412330000000
-0.0312859000000
-0.3287870000000
-0.2098670000000
-0.0785977000000
0.0490981000000
0.2024400000000
0.1138260000000
0.0158523000000
0.1261510000000
0.0081937000000
-0.0125119000000
-0.0669462000000
-0.1674170000000
-0.1031110000000
-0.0686631000000
-0.0685020000000
-0.1578820000000
-0.1835810000000
-0.1469750000000
-0.1220570000000
0.1151930000000
0.2444180000000
-0.1067650000000
-0.2059770000000
0.1426590000000
0.2124320000000
-0.0665467000000
-0.2221820000000
-0.0729152000000
-0.0109376000000
-0.0800395000000
-0.0725546000000
0.0093788800000
0.0719211000000
0.0892345000000
0.0903225000000
0.1314150000000
0.0457368000000
-0.2909340000000
-0.1776880000000
0.2994810000000
0.3762590000000
0.2746370000000
0.1390460000000
-0.0513871000000
-0.0630888000000
0.1039530000000
0.1468690000000
-0.0045396100000
-0.0612106000000
-0.0006106640000
0.0001488600000
-0.0859696000000
-0.1091380000000
-0.0679843000000
0.0576655000000
0.1427350000000
0.0705116000000
0.0381930000000
-0.1500840000000
-0.1932340000000
0.0076207800000
0.1083800000000
0.0909411000000
-0.0595302000000
-0.1540830000000
-0.1380650000000
-0.0168342000000
0.0697698000000
0.0038757000000
-0.1075120000000
-0.1393300000000
-0.0259842000000
0.0604073000000
0.0815859000000
-0.0333365000000
-0.1147050000000
-0.0950823000000
-0.1171530000000
-0.0990159000000
-0.0983896000000
-0.0636258000000
-0.1969340000000
-0.3066650000000
-0.0987052000000
0.0050518200000
-0.1140190000000
-0.0506536000000
0.1712250000000
0.1833450000000
0.1949830000000
0.1815900000000
0.0340784000000
-0.0680907000000
-0.1127860000000
-0.0877249000000
0.0396030000000
0.0599692000000
0.0152662000000
0.0469658000000
0.0629651000000
0.1788150000000
0.1253160000000
-0.1765440000000
-0.1891400000000
0.0516967000000
0.1372050000000
-0.0284235000000
-0.0781344000000
0.0419993000000
-0.0444586000000
-0.1517120000000
-0.2543450000000
-0.1992770000000
0.1158110000000
0.2085960000000
0.3015190000000
0.3447160000000
0.1031870000000
-0.0786525000000
-0.0587193000000
0.1099830000000
0.3052740000000
0.3758010000000
0.2883710000000
0.1791470000000
0.0875565000000
-0.0118356000000
0.1309660000000
0.3075340000000
-0.0559975000000
-0.2867200000000
-0.1616120000000
-0.2200270000000
-0.2900110000000
-0.2767910000000
-0.3127340000000
-0.2058680000000
0.0333468000000
0.2539690000000
0.2814120000000
0.2714410000000
0.4110170000000
0.3896850000000
0.2796950000000
0.1438470000000
-0.0576046000000
-0.0333644000000
0.1183240000000
-0.1255530000000
-0.2733150000000
-0.0796819000000
0.0465167000000
0.1712590000000
0.1730480000000
-0.0453377000000
-0.2648640000000
-0.2590520000000
-0.1157600000000
0.0202643000000
0.1513720000000
0.2225220000000
0.1688800000000
-0.0431542000000
-0.2340200000000
-0.3205780000000
-0.4326990000000
-0.4567640000000
-0.4265570000000
-0.2804040000000
0.1535920000000
0.1522180000000
-0.2353780000000
-0.2108220000000
0.2457720000000
0.2449760000000
-0.3037650000000
-0.2349990000000
0.1514860000000
0.0005515360000
-0.1650780000000
-0.3465530000000
-0.3714230000000
-0.0098666800000
0.0970428000000
-0.1958080000000
-0.3058430000000
0.0717859000000
0.1180990000000
-0.3322520000000
-0.2161600000000
0.2980720000000
0.4368790000000
0.3683670000000
0.3275400000000
0.3897600000000
0.3922580000000
0.1875480000000
-0.2043590000000
-0.1110950000000
0.1864910000000
0.1624200000000
0.3445890000000
0.2810110000000
-0.0583589000000
-0.1895410000000
0.0624003000000
0.3174240000000
0.4164680000000
0.2516850000000
-0.1717410000000
-0.3268790000000
-0.2723220000000
-0.2668390000000
0.0224523000000
0.2518030000000
-0.0337123000000
-0.1549630000000
-0.0533468000000
0.2080820000000
0.4028740000000
0.4624730000000
0.4041570000000
0.1805370000000
-0.0448813000000
-0.1204700000000
-0.1647060000000
-0.0758772000000
0.3397010000000
0.0836825000000
-0.1679630000000
-0.0387353000000
0.0637686000000
0.1822270000000
0.0766482000000
0.0786693000000
-0.0794095000000
-0.0245387000000
0.1184680000000
0.1659920000000
0.1221100000000
-0.2374250000000
-0.3170750000000
0.0139424000000
-0.0228277000000
-0.4529670000000
-0.2508280000000
0.1882990000000
0.1454740000000
0.1455290000000
0.1887670000000
0.2690580000000
0.2191650000000
-0.1234270000000
-0.2520850000000
-0.2616830000000
-0.2501990000000
-0.2862740000000
-0.3383170000000
-0.0780061000000
0.1664600000000
0.1381150000000
-0.1103590000000
-0.2343960000000
-0.0529280000000
-0.1248140000000
-0.2331140000000
-0.2638920000000
-0.0602425000000
0.1776180000000
0.1564950000000
0.2260010000000
0.2966260000000
0.1280920000000
-0.0062300200000
-0.0593493000000
0.0891672000000
0.1979200000000
0.0419805000000
-0.1656650000000
-0.4409840000000
-0.2934300000000
-0.0749874000000
-0.1444440000000
-0.0712111000000
-0.0990277000000
-0.1782520000000
0.0856519000000
0.0432253000000
-0.3942050000000
-0.4963520000000
-0.1312580000000
0.0402080000000
-0.2219710000000
-0.1088340000000
0.0034084500000
-0.0367302000000
0.0582574000000
0.1303040000000
0.1438080000000
0.0253696000000
-0.1075810000000
-0.1351280000000
-0.0363965000000
0.0318179000000
0.0654603000000
0.0698570000000
-0.0113040000000
-0.2096550000000
-0.2412700000000
0.0958647000000
0.2746520000000
0.2495600000000
0.0032039900000
-0.0830789000000
0.1099700000000
-0.0183754000000
0.0769466000000
0.1037230000000
-0.3130140000000
-0.1747390000000
0.0742207000000
0.2141830000000
0.3643120000000
0.3658870000000
0.2769400000000
-0.0829986000000
-0.2598370000000
0.1155300000000
0.1405500000000
-0.1328120000000
0.0410506000000
0.1930060000000
0.1647710000000
-0.0256548000000
-0.0511801000000
0.2116270000000
0.2991740000000
0.2208660000000
-0.0769385000000
-0.1432900000000
0.1654350000000
0.2166940000000
0.1038260000000
-0.0559919000000
-0.0099812000000
0.1592790000000
-0.0567332000000
-0.1562440000000
-0.0876306000000
0.0531457000000
0.1711260000000
0.0055237200000
-0.1639560000000
-0.2117080000000
-0.1111570000000
-0.0224178000000
0.0174769000000
0.0921641000000
0.1347980000000
0.1863920000000
0.2055460000000
0.1045760000000
-0.0093425500000
-0.0990865000000
-0.1038650000000
-0.0223916000000
0.0628116000000
0.0825835000000
0.0613006000000
0.1466730000000
0.2152170000000
0.2085190000000
0.0033033900000
-0.1738060000000
0.0236557000000
0.1282040000000
0.0180008000000
-0.0146746000000
0.0177161000000
0.0250297000000
0.0242032000000
-0.0924460000000
-0.1350940000000
0.0347134000000
0.0980094000000
0.0028872800000
-0.0068893700000
-0.0504482000000
-0.1044130000000
0.0116271000000
0.0357940000000
0.1318940000000
0.1731770000000
-0.0663902000000
-0.2933920000000
-0.3105950000000
-0.1954410000000
-0.1688500000000
-0.1161230000000
0.0768510000000
0.1935460000000
0.1432150000000
-0.0989913000000
-0.2411570000000
-0.1023680000000
0.0742364000000
0.1855420000000
0.0906731000000
-0.0677682000000
-0.1609180000000
-0.2787890000000
-0.2042940000000
-0.1285190000000
-0.2230880000000
-0.2126730000000
-0.0565336000000
0.0251723000000
0.1282130000000
0.1289430000000
-0.0638036000000
0.0196127000000
-0.0180113000000
-0.3031480000000
-0.3268430000000
0.0093716600000
0.0946209000000
-0.1540720000000
0.0500141000000
0.1646670000000
-0.0020093500000
-0.1452250000000
-0.1627630000000
0.1311610000000
0.1897240000000
0.1311450000000
0.1171100000000
-0.3233200000000
-0.3005070000000
0.1590500000000
-0.0223126000000
-0.1649420000000
0.0313044000000
-0.0764848000000
-0.1535500000000
-0.0698912000000
-0.0065799700000
0.0436190000000
0.0176102000000
0.0539929000000
0.0803598000000
0.0307379000000
-0.0010542200000
-0.0116503000000
0.0360292000000
0.0608112000000
-0.0196066000000
-0.0266476000000
0.0793119000000
0.0966494000000
-0.0364744000000
-0.0248021000000
0.0998437000000
-0.0334436000000
-0.1081280000000
-0.0252810000000
0.0670268000000
0.1196250000000
0.1501930000000
0.1828750000000
0.2072710000000
0.1395460000000
-0.0496119000000
-0.0664723000000
0.0335264000000
0.0621141000000
0.0313427000000
0.0293065000000
0.0837590000000
0.0918584000000
0.0439035000000
-0.0031709500000
-0.0563228000000
-0.0541447000000
0.0014850800000
0.0247794000000
-0.0117840000000
-0.1054660000000
-0.1724940000000
-0.1757520000000
-0.0442105000000
0.0917692000000
0.1728190000000
0.1205800000000
-0.1182230000000
-0.2673940000000
-0.2015980000000
-0.0000596435000
0.0673134000000
0.0403006000000
-0.0944248000000
-0.1852930000000
-0.0411054000000
0.0852997000000
0.1880450000000
0.2671400000000
0.1652760000000
-0.0933623000000
-0.2943710000000
-0.2938130000000
-0.1321750000000
-0.0224324000000
0.0248217000000
0.0517512000000
0.0607387000000
0.1206190000000
0.0780621000000
-0.0932240000000
-0.0544065000000
0.1111870000000
0.1242660000000
0.0681959000000
0.0128008000000
-0.0222907000000
-0.0084373100000
0.0847546000000
0.1227150000000
0.0589954000000
-0.0064601400000
-0.0657505000000
-0.0492866000000
0.0267067000000
0.0699637000000
0.0854826000000
0.0597454000000
-0.0037525600000
-0.0258365000000
-0.0194693000000
-0.0325720000000
0.0194878000000
0.0870691000000
0.1368300000000
0.1083980000000
-0.0260710000000
-0.1369620000000
-0.1070660000000
0.0287837000000
0.1013910000000
0.1364220000000
0.1353990000000
0.0352516000000
-0.0849758000000
-0.1778290000000
-0.1463630000000
0.0018089000000
0.0897712000000
0.0846885000000
0.0122230000000
-0.0694074000000
-0.1755530000000
-0.1270070000000
0.0170120000000
0.0486458000000
0.0385917000000
0.0087636200000
-0.0050931900000
-0.0631521000000
-0.0445567000000
0.0665557000000
0.0710859000000
0.0658857000000
0.0706193000000
-0.0008391520000
-0.0998399000000
-0.1459170000000
-0.0930544000000
-0.0113685000000
0.0216364000000
0.0254032000000
-0.0008687290000
-0.0956649000000
-0.0924193000000
-0.0165832000000
0.0221684000000
0.0665714000000
0.0518208000000
-0.0470061000000
-0.0375087000000
0.0733228000000
0.0357021000000
-0.0130651000000
0.0239088000000
0.0030448900000
-0.0135348000000
-0.0100311000000
-0.0271549000000
-0.0031722200000
0.0437931000000
0.0518547000000
0.0523160000000
0.0381985000000
-0.0104940000000
-0.0371639000000
0.0054789900000
0.0560559000000
0.0426293000000
0.0150492000000
-0.0237168000000
-0.0293892000000
-0.0173831000000
0.0306072000000
0.0852523000000
0.0840612000000
0.0085085300000
-0.0830401000000
-0.0816161000000
-0.0088517400000
0.0665822000000
0.1249050000000
0.1258590000000
0.0898575000000
0.0015672400000
-0.0382275000000
-0.0004867710000
-0.0015207700000
-0.0156129000000
0.0225392000000
0.0287104000000
-0.0468231000000
-0.0362017000000
-0.0205018000000
0.0047060700000
0.0867532000000
0.0553582000000
0.0154596000000
-0.0621482000000
-0.0700883000000
0.0605208000000
0.0909969000000
0.1274200000000
0.1764990000000
0.0607720000000
-0.0753957000000
-0.1136840000000
-0.1422190000000
-0.0896414000000
0.1201250000000
0.1383730000000
0.0071812300000
-0.0665483000000
-0.0484807000000
0.0183855000000
0.0202236000000
0.0132453000000
0.0371127000000
0.0629611000000
0.0430778000000
0.0188687000000
-0.0925813000000
-0.0474354000000
0.0784357000000
0.0783336000000
0.0708402000000
-0.0398297000000
-0.0445511000000
-0.0055124100000
-0.0268206000000
0.0151926000000
0.0246912000000
0.0673030000000
0.0687083000000
0.0024674900000
-0.0273057000000
-0.0180017000000
0.0065860900000
-0.0129921000000
0.0102773000000
0.0316820000000
0.0314975000000
0.0464548000000
0.0240182000000
-0.0069103400000
-0.0541286000000
-0.0582248000000
-0.0091584500000
-0.0038134400000
-0.0283424000000
-0.0653928000000
-0.0529830000000
-0.0504862000000
-0.0792037000000
-0.0230333000000
0.0274310000000
0.0004511760000
-0.0914003000000
-0.0928215000000
-0.0129290000000
-0.0211334000000
-0.0427180000000
-0.0117488000000
-0.0021997700000
0.0048429600000
0.0489178000000
0.0439231000000
-0.0327937000000
-0.0611921000000
-0.0070496000000
0.0354462000000
0.0348806000000
0.0013023600000
-0.0322068000000
-0.0221379000000
-0.0044427100000
-0.0125498000000
-0.0279839000000
-0.0671327000000
-0.1199030000000
-0.0789570000000
0.0141147000000
-0.0500485000000
-0.0857271000000
-0.0357652000000
-0.0059245800000
0.0313188000000
0.0463170000000
0.0452122000000
0.0544244000000
0.0729932000000
0.0725685000000
0.0320211000000
-0.0124371000000
-0.0048324200000
0.0482334000000
0.0485984000000
0.0024975000000
-0.0750687000000
-0.0862900000000
0.0232946000000
0.0597047000000
0.0365910000000
-0.0030439300000
-0.0225428000000
-0.0382660000000
-0.0798308000000
-0.0584096000000
-0.0164976000000
-0.0113305000000
-0.0093451300000
0.0415834000000
0.0547830000000
-0.0100167000000
-0.0622167000000
-0.0648774000000
0.0010526000000
0.0432857000000
0.0451627000000
0.0133223000000
-0.0030389700000
0.0382162000000
0.0213975000000
-0.0478822000000
-0.0358454000000
0.0271336000000
0.0522242000000
0.0318878000000
0.0049950600000
0.0052782100000
0.0073784100000
0.0285206000000
0.0337731000000
-0.0012690700000
-0.0038628800000
-0.0072485900000
-0.0666903000000
-0.0761930000000
-0.0157045000000
0.0399342000000
0.0927930000000
0.0622089000000
-0.0472093000000
-0.0768590000000
-0.0840871000000
-0.0726984000000
-0.0137097000000
0.0146026000000
-0.0051176400000
-0.0316513000000
-0.0090516500000
0.0382004000000
0.0481343000000
-0.0087064700000
-0.0565557000000
-0.0465620000000
0.0132132000000
0.0244366000000
0.0019233600000
0.0105729000000
-0.0060838700000
-0.0339270000000
-0.0200323000000
0.0347194000000
0.0738277000000
0.0527661000000
0.0129567000000
0.0069899800000
0.0022472900000
0.0353776000000
0.0541393000000
0.0287003000000
0.0095634200000
-0.0004205320000
0.0076056300000
-0.0097009500000
-0.0507449000000
-0.0660301000000
-0.0322932000000
0.0083474800000
0.0496726000000
0.0593656000000
0.0301569000000
-0.0347203000000
-0.0862316000000
-0.0481791000000
-0.0109088000000
0.0221182000000
0.0532396000000
0.0405955000000
-0.0001078950000
-0.0445269000000
-0.0432225000000
0.0102024000000
0.0102733000000
-0.0215823000000
0.0178997000000
0.0993595000000
0.1081500000000
0.0470625000000
-0.0124654000000
-0.0701296000000
-0.0575531000000
0.0176963000000
0.0443910000000
0.0552822000000
0.0443371000000
-0.0257923000000
-0.1164930000000
-0.1329190000000
-0.0849385000000
-0.0998699000000
-0.0672769000000
0.0321731000000
0.0858759000000
0.0829718000000
-0.0372225000000
-0.1275980000000
-0.1147220000000
-0.1035670000000
-0.0276793000000
0.0555565000000
0.1045700000000
0.0745411000000
-0.0291407000000
-0.0760618000000
-0.0414910000000
0.0234674000000
-0.0035255200000
-0.0214662000000
-0.0210395000000
-0.0280998000000
0.0263159000000
0.0730304000000
0.0595712000000
0.0268431000000
0.0381730000000
0.0300656000000
0.0235574000000
0.0295986000000
0.0358074000000
0.0346195000000
-0.0097182000000
-0.0506526000000
-0.0560577000000
-0.0006229410000
0.0099859000000
-0.0247384000000
-0.0519936000000
-0.0537553000000
-0.0059963300000
0.0430762000000
0.0782127000000
0.0303219000000
-0.0692184000000
-0.1361630000000
-0.1349440000000
-0.0418923000000
0.0355521000000
0.0948281000000
0.1068820000000
0.0334068000000
-0.0271716000000
-0.0808105000000
-0.0719816000000
0.0321903000000
0.0983476000000
0.1492810000000
0.1055370000000
-0.0162133000000
-0.1136940000000
-0.1208570000000
-0.0481769000000
-0.0619731000000
-0.0357296000000
0.0374384000000
0.0056234500000
-0.0561215000000
0.0056555600000
0.0704653000000
0.0591012000000
0.0488139000000
0.0094383200000
-0.0509231000000
-0.0343574000000
-0.0380439000000
-0.0392771000000
0.0281117000000
0.0901949000000
0.1070600000000
0.0953358000000
0.0612517000000
-0.0361490000000
-0.0363553000000
0.0411891000000
0.0217059000000
0.0155409000000
0.0238159000000
0.0023200200000
0.0086137600000
-0.0046646400000
-0.0006800780000
0.0251177000000
0.0215270000000
0.0145791000000
0.0134664000000
0.0317189000000
0.0046730300000
-0.0520278000000
-0.0458188000000
0.0120631000000
0.0145456000000
0.0095463300000
-0.0073884900000
-0.0345655000000
0.0192494000000
0.0653885000000
0.1372870000000
0.0824800000000
-0.1318970000000
-0.2380270000000
-0.1815720000000
-0.0351627000000
0.0667419000000
0.1494980000000
0.1268440000000
0.0163454000000
-0.0499087000000
-0.0418786000000
0.0106996000000
0.0078052500000
0.0183139000000
0.0230115000000
0.0149985000000
0.0545585000000
0.0948733000000
0.0902447000000
0.0394819000000
0.0312626000000
0.0074617300000
-0.0941488000000
-0.0721054000000
0.0408474000000
0.1109150000000
0.0330819000000
-0.1643830000000
-0.1484910000000
-0.0032667200000
0.0721328000000
0.1343540000000
0.1268360000000
0.0203682000000
-0.0698640000000
-0.1487340000000
-0.1865450000000
-0.0952572000000
-0.0224900000000
0.0676009000000
0.0852613000000
-0.0715739000000
-0.1558690000000
-0.1884920000000
-0.1163980000000
0.0709018000000
0.1657170000000
0.1549440000000
0.0724854000000
-0.0170790000000
-0.0366559000000
0.0213929000000
0.0224570000000
-0.0080283700000
-0.0239322000000
-0.0206632000000
-0.0581241000000
0.0065790900000
0.1170610000000
0.0236539000000
0.0322662000000
-0.0138881000000
-0.0524073000000
0.0502587000000
0.0677598000000
0.0586496000000
0.0621307000000
0.0370127000000
-0.0083920100000
-0.0370742000000
-0.0080275000000
0.0024763500000
-0.0041241000000
0.0032429600000
0.0064994400000
0.0020224600000
-0.0085391700000
-0.0270717000000
-0.0567052000000
-0.0587758000000
-0.0100059000000
0.0804155000000
0.0614358000000
-0.0307029000000
-0.0213003000000
0.0369307000000
0.0130925000000
0.0124810000000
0.0319628000000
0.0136046000000
0.0162143000000
-0.0098500900000
-0.0089325400000
0.0492976000000
0.0323608000000
0.0075204800000
-0.0162616000000
0.0048701300000
0.1595220000000
0.0655994000000
-0.1870960000000
-0.1584150000000
0.0051439300000
0.0299378000000
0.0108481000000
0.0312858000000
-0.0063630600000
-0.0384465000000
0.0338681000000
0.0531286000000
0.0040205500000
0.0056642600000
0.0571898000000
0.0467561000000
-0.0311952000000
-0.0203585000000
-0.0112343000000
0.0076302000000
0.0186412000000
0.0012782000000
-0.0364845000000
-0.0138239000000
0.0544939000000
0.0898629000000
0.0677149000000
-0.0081503900000
-0.0590692000000
0.0105219000000
0.1162560000000
0.1430220000000
0.0048537500000
-0.1981470000000
-0.1635080000000
-0.0848245000000
-0.0731153000000
-0.0520567000000
0.0178796000000
0.0284845000000
-0.0542878000000
-0.1312720000000
-0.1407800000000
-0.0465962000000
-0.0286208000000
0.0116785000000
0.1276310000000
0.1532360000000
0.0902198000000
-0.0020492600000
-0.0004459540000
0.0364253000000
0.0297386000000
-0.0138136000000
-0.0547092000000
-0.0331821000000
0.0241037000000
0.0278214000000
-0.0307378000000
-0.0462167000000
0.0287637000000
0.0348605000000
-0.0317915000000
-0.0616826000000
-0.0965603000000
-0.1207660000000
-0.0631384000000
0.0890820000000
0.0773140000000
-0.0131921000000
0.0155384000000
0.0187724000000
0.0329236000000
0.0472915000000
0.0753147000000
0.0836152000000
0.0616747000000
0.0547977000000
0.0317682000000
-0.0046621900000
-0.0219394000000
0.0008928650000
0.0273502000000
0.0517857000000
0.0836371000000
0.0558530000000
-0.0492750000000
-0.1248850000000
-0.0936870000000
0.0009408880000
0.0100708000000
-0.0022283500000
0.0429441000000
0.0635318000000
0.0465099000000
-0.0003590750000
-0.0579001000000
-0.0838060000000
-0.0442905000000
-0.0198705000000
0.0291390000000
0.1213540000000
0.1647590000000
0.1274420000000
0.0191160000000
-0.0527364000000
-0.1112760000000
-0.0693352000000
0.0432603000000
0.0164272000000
-0.0647197000000
-0.0507049000000
0.0168702000000
0.0249050000000
-0.0166484000000
-0.0125870000000
-0.0309810000000
-0.0598967000000
-0.0420347000000
-0.0761226000000
-0.0553144000000
0.0105247000000
-0.0101060000000
-0.0696196000000
-0.0243269000000
0.0678350000000
0.1022450000000
0.0271518000000
-0.1891610000000
-0.2516050000000
-0.1659780000000
-0.0988280000000
-0.0173123000000
0.0460895000000
0.0717983000000
0.1171350000000
0.0998124000000
-0.0055267400000
-0.1064030000000
-0.1108340000000
-0.0360783000000
-0.0142365000000
0.0213179000000
-0.0044401000000
-0.0002869160000
0.0450849000000
0.0302389000000
0.0347951000000
0.0505703000000
-0.0101879000000
-0.0812961000000
-0.0062040000000
0.0401973000000
0.0252606000000
0.0183200000000
-0.0012909500000
-0.0632096000000
-0.0580019000000
-0.0012071300000
-0.0247255000000
-0.0264559000000
0.0178741000000
0.0262021000000
-0.0014762200000
-0.0140368000000
-0.0309209000000
-0.0353346000000
0.0104719000000
0.0673368000000
0.0618152000000
-0.0212386000000
-0.0828850000000
-0.0544428000000
0.0235995000000
0.0653667000000
0.0415527000000
-0.0176372000000
-0.0578521000000
-0.0310060000000
0.0416323000000
0.0421747000000
-0.0059076600000
-0.0487021000000
-0.0889741000000
-0.0662767000000
0.0162209000000
0.0857541000000
0.0808068000000
0.0172386000000
-0.0279997000000
0.0016939600000
0.0630714000000
0.0758787000000
0.0615480000000
0.0173404000000
-0.0039612800000
-0.0035215600000
-0.0335283000000
-0.0155711000000
0.0574462000000
0.0722103000000
0.0136756000000
-0.0420169000000
-0.0403385000000
0.0014594400000
-0.0009886070000
-0.0738451000000
-0.0717583000000
0.0139684000000
0.0344187000000
0.0230669000000
-0.0181137000000
-0.0348614000000
-0.0152580000000
-0.0346166000000
-0.0584257000000
-0.0897508000000
-0.0761689000000
-0.0219136000000
0.0247269000000
0.1009740000000
0.1444470000000
0.0518079000000
-0.1197760000000
-0.1083270000000
0.0431431000000
0.1297320000000
0.1128330000000
0.0155390000000
-0.0484814000000
-0.0837321000000
-0.0458779000000
0.0891046000000
0.0509375000000
-0.1335670000000
-0.2195340000000
-0.1469390000000
-0.0256650000000
-0.0177310000000
-0.0497091000000
-0.0517496000000
0.0381487000000
0.1190720000000
0.0957321000000
0.0373006000000
-0.0029627000000
-0.0056007000000
0.0490418000000
0.0991889000000
0.1389710000000
0.1233120000000
0.0575837000000
0.0038823200000
-0.0297465000000
0.0179864000000
0.0780579000000
0.1229570000000
0.0694336000000
-0.0921223000000
-0.2280500000000
-0.2324630000000
-0.1157160000000
-0.0349630000000
0.0045472500000
0.0242286000000
-0.0270982000000
-0.1544630000000
-0.1765960000000
-0.0478352000000
0.0318942000000
0.1319440000000
0.2372950000000
0.1701030000000
0.0905995000000
0.0641573000000
0.0790846000000
0.1363910000000
0.1499950000000
0.1477080000000
0.0245693000000
-0.2190380000000
-0.0498237000000
0.0573064000000
-0.2523450000000
-0.2434100000000
-0.0855481000000
0.0655425000000
0.2164940000000
0.0567595000000
-0.0097238300000
0.0493766000000
0.0391903000000
0.0744001000000
-0.0185061000000
0.0948252000000
0.2048740000000
0.1118850000000
-0.0752798000000
-0.1266420000000
-0.0101514000000
0.0748922000000
0.1294070000000
0.0818268000000
-0.0917441000000
-0.1099180000000
0.0376803000000
0.1113920000000
0.1204520000000
0.0529409000000
-0.0047584100000
-0.0178176000000
-0.0043448200000
-0.0221253000000
-0.0527724000000
-0.0738700000000
-0.1373520000000
-0.1486430000000
-0.1198930000000
-0.0541571000000
0.0391045000000
0.1068980000000
0.1899810000000
0.2291550000000
0.2235260000000
0.1668720000000
0.0322601000000
-0.0550782000000
-0.0848176000000
-0.0386814000000
-0.0342177000000
-0.0418631000000
0.0449630000000
0.1198250000000
0.1806830000000
0.1605900000000
-0.0023419200000
-0.1251300000000
-0.1627790000000
-0.1490520000000
-0.1050570000000
-0.0938041000000
-0.0571958000000
-0.0229833000000
0.0107037000000
0.0483593000000
0.0509336000000
0.0679536000000
0.0654948000000
-0.0246484000000
-0.0772624000000
-0.1106040000000
-0.1266990000000
-0.1303730000000
-0.0998622000000
0.0444915000000
0.1307300000000
0.0391164000000
-0.1514640000000
-0.1773540000000
-0.0605032000000
0.0326196000000
0.0956161000000
0.0712982000000
-0.0572292000000
-0.0637639000000
0.0464222000000
0.0230151000000
0.0257131000000
0.0623342000000
0.0293597000000
-0.0199184000000
-0.0752570000000
-0.1343660000000
-0.1323780000000
-0.0517978000000
0.0156561000000
0.0707194000000
0.0563206000000
-0.0450592000000
-0.0831781000000
-0.0211088000000
0.0019724800000
0.0085748700000
0.0166446000000
-0.0428412000000
-0.0586742000000
-0.0120305000000
0.0136104000000
0.0256383000000
0.0490305000000
0.0428200000000
0.0009750640000
-0.0236692000000
-0.0391829000000
-0.0276993000000
0.0123631000000
0.0012117700000
-0.0504051000000
-0.0298042000000
0.0385512000000
0.0587697000000
0.0452500000000
-0.0070379900000
-0.0581064000000
-0.0291586000000
0.0479089000000
0.0619305000000
0.0422054000000
0.0385604000000
0.0014482800000
-0.0461666000000
-0.0366934000000
0.0233019000000
0.0089514400000
-0.0303792000000
-0.0383536000000
-0.0966866000000
-0.0793214000000
-0.0170310000000
0.0059734400000
0.0480495000000
0.0034447600000
-0.0328714000000
-0.0064347400000
-0.0331711000000
-0.0902448000000
-0.0874359000000
-0.0293901000000
0.0181759000000
0.0356841000000
0.0590172000000
0.0615028000000
0.0224327000000
0.0040744900000
0.0070742100000
0.0376464000000
0.0469547000000
0.0304214000000
0.0455168000000
0.0528427000000
0.0549941000000
0.0699748000000
0.0941061000000
0.0296671000000
-0.1010070000000
-0.1773960000000
-0.1906590000000
-0.1054180000000
-0.0429210000000
-0.0108816000000
0.0274760000000
0.0403189000000
0.0032514500000
-0.0217421000000
0.0389877000000
0.1156890000000
0.0970213000000
0.0053330200000
-0.0053867500000
0.0228005000000
-0.0123636000000
-0.0527666000000
-0.0382096000000
-0.0220338000000
-0.0411835000000
-0.0385266000000
-0.0606350000000
-0.0168521000000
0.1143110000000
0.1758050000000
0.1130120000000
-0.0168102000000
-0.0801707000000
-0.0787736000000
-0.0217715000000
0.0306645000000
0.0683624000000
0.0737073000000
0.0316833000000
0.0085263000000
0.0692591000000
0.1099420000000
0.0375512000000
-0.0180584000000
-0.0337716000000
0.0033365400000
0.0214798000000
0.0105960000000
0.0517525000000
0.1002270000000
0.1147750000000
0.0600424000000
-0.0085287400000
-0.0590275000000
-0.0845361000000
-0.0995718000000
-0.0987126000000
-0.0134308000000
0.0660669000000
0.1195740000000
0.0866934000000
-0.0311196000000
-0.1048210000000
-0.0844913000000
0.0173084000000
0.0277882000000
-0.0247375000000
-0.0370454000000
-0.0277749000000
0.0481923000000
0.1151440000000
0.0914730000000
0.0061517100000
-0.0735567000000
-0.0870144000000
-0.0067142400000
0.0464752000000
0.0530663000000
0.0264972000000
-0.0281469000000
-0.0547747000000
-0.0293350000000
0.0143358000000
0.0262790000000
0.0292938000000
0.0712759000000
0.0307835000000
-0.0963016000000
-0.1042290000000
0.0042146000000
0.0480408000000
-0.0059342600000
-0.0692389000000
-0.0554554000000
0.0117243000000
0.0568274000000
0.0502724000000
-0.0352200000000
-0.0513864000000
0.0334784000000
0.0903274000000
0.0795217000000
0.0305752000000
-0.0112175000000
-0.0657297000000
-0.0803602000000
-0.0787691000000
-0.0917935000000
-0.1000950000000
-0.0732657000000
0.0317988000000
0.0950114000000
0.0572397000000
-0.0313611000000
-0.0894646000000
-0.0984639000000
-0.0715111000000
-0.0467280000000
-0.0408221000000
-0.0433729000000
-0.0246123000000
0.0050535900000
0.0401867000000
0.0708994000000
0.0605048000000
-0.0003357810000
-0.0452315000000
-0.0589859000000
-0.0613927000000
0.0026941100000
0.0458826000000
0.0460738000000
0.0330662000000
0.0452060000000
0.0567173000000
0.0234977000000
0.0192813000000
0.0364041000000
-0.0102326000000
-0.0387671000000
0.0051440300000
0.0026365900000
-0.0300143000000
-0.0068195600000
0.0244826000000
0.0359391000000
0.0331593000000
0.0623968000000
0.0766684000000
0.0243942000000
-0.0224697000000
-0.0321974000000
0.0129352000000
0.0167999000000
-0.0330860000000
-0.0548460000000
-0.0418365000000
0.0192782000000
0.0462459000000
-0.0174865000000
-0.0581112000000
-0.0208961000000
-0.0008780930000
-0.0329517000000
-0.0311338000000
0.0359646000000
0.0945892000000
0.0745011000000
-0.0106359000000
-0.0471383000000
0.0074745400000
0.0613079000000
0.0441902000000
-0.0005459780000
-0.0480019000000
-0.0630818000000
-0.0449596000000
-0.0449643000000
-0.0264934000000
-0.0265288000000
-0.0232550000000
0.0059580700000
0.0328389000000
0.0227874000000
-0.0383633000000
-0.0366920000000
0.0191247000000
0.0384862000000
0.0203266000000
0.0287815000000
0.0391842000000
0.0146180000000
0.0350286000000
0.0490464000000
0.0075908400000
-0.0088411900000
0.0358763000000
0.0504020000000
0.0023544200000
-0.0653417000000
-0.0721338000000
-0.0372164000000
-0.0012762600000
0.0590050000000
0.1159000000000
0.1205030000000
0.0408291000000
-0.0047894400000
-0.0348144000000
-0.0482400000000
-0.0112910000000
-0.0491777000000
-0.0648838000000
0.0173296000000
0.0872088000000
0.0725682000000
-0.0334028000000
-0.1414420000000
-0.1227800000000
0.0075612900000
0.0790826000000
0.0909563000000
0.0386131000000
-0.0749733000000
-0.0676973000000
0.0273952000000
0.0851672000000
0.0879578000000
0.0088710200000
-0.0931668000000
-0.1212580000000
-0.0298466000000
0.0205869000000
0.0516784000000
0.0411219000000
-0.0357001000000
-0.0835776000000
-0.0729348000000
-0.0198245000000
-0.0157002000000
0.0157584000000
0.0638183000000
0.0557690000000
0.0000003522840
-0.0473797000000
-0.0260556000000
0.0212916000000
0.0238539000000
0.0276666000000
0.0447020000000
0.0573899000000
0.0071576700000
-0.0051187500000
0.0773902000000
0.0961378000000
0.0080129600000
-0.0961308000000
-0.1136610000000
-0.0443857000000
0.0027022100000
0.0289462000000
0.0447435000000
0.0194628000000
-0.0658586000000
-0.0738492000000
0.0523872000000
0.0752562000000
-0.0014936900000
-0.0284661000000
0.0070075800000
0.0280088000000
0.0260218000000
0.0025337900000
-0.0237406000000
-0.0201347000000
-0.0376993000000
-0.0507006000000
-0.0241687000000
-0.0185142000000
-0.0283412000000
-0.0438724000000
-0.0533805000000
-0.0134650000000
0.0123289000000
0.0029978600000
-0.0483307000000
-0.0437355000000
0.0331110000000
0.0309081000000
-0.0335452000000
-0.0398896000000
0.0110335000000
0.0356064000000
0.0229809000000
0.0071813500000
0.0133173000000
0.0152717000000
-0.0136537000000
-0.0075686100000
0.0159024000000
0.0102727000000
-0.0045047800000
0.0219463000000
0.0301568000000
0.0270570000000
0.0108274000000
-0.0746467000000
-0.0959747000000
-0.0407396000000
-0.0080010700000
0.0214401000000
0.0122341000000
-0.0269841000000
-0.0001845090000
0.0354054000000
0.0486248000000
0.0777278000000
0.0735306000000
-0.0125454000000
-0.0740456000000
-0.0564930000000
0.0154371000000
0.0728623000000
0.0978333000000
0.0866592000000
-0.0036918700000
-0.0444807000000
-0.0016668200000
-0.0102590000000
-0.0085254100000
0.0667489000000
0.0736837000000
-0.0277470000000
-0.0594122000000
-0.0239744000000
-0.0295111000000
-0.0226806000000
0.0023660900000
-0.0147674000000
-0.0642106000000
-0.0859716000000
-0.0759235000000
-0.0341204000000
0.0038429200000
0.0335840000000
0.0194765000000
-0.0941191000000
-0.1079320000000
0.0364604000000
0.0954290000000
0.0575023000000
0.0255044000000
-0.0460420000000
-0.0660191000000
0.0133155000000
0.0536541000000
0.0619610000000
0.0427135000000
0.0125984000000
-0.0070666600000
-0.0309593000000
-0.0316076000000
-0.0126791000000
0.0099701900000
0.0498883000000
0.0676472000000
0.0280742000000
-0.0483498000000
-0.0713740000000
-0.0202309000000
-0.0019262900000
0.0085962900000
0.0094339500000
-0.0098331600000
-0.0188133000000
-0.0084646400000
-0.0267799000000
-0.0395103000000
-0.0129407000000
0.0066850900000
0.0366275000000
0.0483836000000
0.0272976000000
-0.0082473100000
-0.0403921000000
-0.0023561800000
0.0743160000000
0.1023430000000
0.0588598000000
-0.0258600000000
-0.0578049000000
0.0007224950000
0.0614817000000
0.0827528000000
0.0474988000000
-0.0173376000000
-0.0525924000000
-0.0297889000000
-0.0014830600000
0.0207026000000
0.0238655000000
-0.0240019000000
-0.0399483000000
-0.0012893000000
0.0275468000000
0.0311806000000
-0.0122711000000
-0.0313945000000
0.0260356000000
0.0343291000000
-0.0062942100000
0.0027375800000
0.0290145000000
-0.0101316000000
-0.0314794000000
0.0076148800000
0.0401818000000
0.0279518000000
-0.0447811000000
-0.1055360000000
-0.0831147000000
0.0149207000000
0.0651250000000
0.0515634000000
-0.0126305000000
-0.1002730000000
-0.0959643000000
-0.0125452000000
0.0220758000000
0.0124538000000
0.0199711000000
-0.0220167000000
-0.0598566000000
-0.0299794000000
0.0012306700000
0.0074277000000
-0.0284146000000
-0.0499825000000
-0.0080103700000
0.0329935000000
0.0394502000000
0.0161098000000
-0.0085599300000
-0.0351866000000
-0.0444996000000
-0.0043346000000
0.0360042000000
0.0444655000000
0.0114852000000
-0.0330392000000
-0.0297949000000
0.0254422000000
0.0715721000000
0.0641047000000
0.0155758000000
-0.0289606000000
-0.0246411000000
0.0024374300000
0.0040464400000
0.0321647000000
0.0541524000000
0.0233187000000
-0.0197378000000
-0.0390731000000
-0.0043913400000
0.0190974000000
-0.0221324000000
-0.0531883000000
-0.0139655000000
0.0542122000000
0.0727714000000
0.0146594000000
-0.0144622000000
-0.0134986000000
-0.0104271000000
0.0292800000000
0.0426817000000
0.0178262000000
0.0068719900000
