0.1 -7.89602e-17 -8.28281e-17
0.2 -3.14539e-16 -3.76194e-16
0.3 -3.92612e-16 -5.03362e-16
0.4 -7.09428e-16 -1.04873e-15
0.5 -2.03992e-16 -6.32582e-17
0.6 -6.24956e-12 6.24632e-12
0.7 4.31948e-16 1.77009e-15
0.8 1.34593e-13 -2.71516e-13
0.9 -7.28263e-13 8.7028e-13
1 -4.04229e-13 4.18341e-13
0.02 523.961 523.961
0.04 2185.65 2185.65
0.06 4237.67 4237.71
0.08 5381.97 5382.07
0.1 5523.76 5523.96
0.12 6234.77 6235.12
0.14 9535.65 9536.21
0.16 15228.9 15229.8
0.18 19961.1 19962.6
0.2 19912.4 19914.5
0.22 14345.5 14347.8
0.24 6867.3 6869
0.26 3097.53 3098.32
0.28 4350.42 4350.54
0.3 4897.56 4897.55
0.32 -743.414 -742.938
0.34 -10938 -10936.8
0.36 -19438.8 -19437.2
0.38 -20711.9 -20710.1
0.4 -13198.2 -13196.7
0.42 -1635.39 -1634.7
0.44 4600.3 4600.38
0.46 784.669 784.679
0.48 -5618.69 -5618.56
0.5 -3634.64 -3634.21
0.52 7990.79 7991.45
0.54 20553.6 20554.3
0.56 23523.6 23524.4
0.58 13147.4 13148.2
0.6 -4567.62 -4567.31
0.62 -18122.8 -18123
0.64 -18536.8 -18536.5
0.66 -8157.81 -8156.13
0.68 -360.629 -357.611
0.7 -3313.9 -3310.64
0.72 -10456.8 -10455
0.74 -12535.7 -12535.5
0.76 -7143.2 -7143.09
0.78 2525.81 2526.8
0.8 12460.4 12462.2
0.82 23160 23162.1
0.84 32361.7 32364.4
0.86 29158 29161.2
0.88 11553.9 11556.7
0.9 -3750.42 -3749.16
0.92 -1994.41 -1993.98
0.94 12022.1 12022
0.96 22046.5 22046.1
0.98 15466.1 15466
1 -9433.75 -9433.77
1.02 -35624.6 -35624.9
1.04 -35395 -35394.4
1.06 -4471.53 -4470.41
1.08 28133.4 28133
1.1 33324.9 33324.1
1.12 9769.98 9770.41
1.14 -19710.4 -19709.6
1.16 -28518.7 -28517.8
1.18 -9614.21 -9613.81
1.2 15841.8 15841.4
1.22 21897.8 21898.5
1.24 5426.04 5428.46
1.26 -14732.1 -14730.3
1.28 -17292.3 -17292
1.3 -698.079 -697.689
1.32 18607.6 18610
1.34 29833 29838
1.36 32783.3 32789.9
1.38 30700.8 30708.1
1.4 29633 29640.6
1.42 34317.8 34325
1.44 43096.5 43103.6
1.46 49745.3 49753.7
1.48 49204.1 49214.1
1.5 40879 40890.7
1.52 25347.3 25358.1
1.54 5739.84 5745.28
1.56 -10099.8 -10099.5
1.58 -17527.1 -17525.7
1.6 -18962.9 -18954.2
1.62 -20125 -20108.7
1.64 -27190.7 -27172.5
1.66 -42667.2 -42652.9
1.68 -51696.4 -51688.5
1.7 -29037.2 -29035.2
1.72 22449.4 22449.6
1.74 65743.7 65751
1.76 75759.5 75783.4
1.78 66641.3 66685.4
1.8 64740.7 64802.2
1.82 77151.2 77218.8
1.84 90661.6 90719
1.86 88361.4 88398.8
1.88 62360.2 62377.5
1.9 16212.5 16215.6
1.92 -35158.3 -35157.7
1.94 -71577.6 -71562
1.96 -88422.8 -88375
1.98 -101203 -101112
2 -118021 -117891
2.02 -126480 -126338
2.04 -115437 -115322
2.06 -94008.3 -93937.9
2.08 -72357.1 -72327.4
2.1 -38767.9 -38763.4
2.12 20189.4 20192.1
2.14 88434.3 88464.7
2.16 131653 131737
2.18 140563 140707
2.2 139483 139674
2.22 146390 146597
2.24 147795 147973
2.26 126016 126129
2.28 89075.1 89123.6
2.3 48107.1 48116.3
2.32 -6228.96 -6228.09
2.34 -72098.5 -72071.7
2.36 -111673 -111599
2.38 -94254.3 -94152.6
2.4 -46350.4 -46265.5
2.42 -25444 -25397.8
2.44 -47852.3 -47838.7
2.46 -74368.4 -74371.4
2.48 -62145.1 -62147.1
2.5 -487.657 -482.22
2.52 85357 85365.9
2.54 143479 143495
2.56 132131 132169
2.58 66260.5 66320.6
2.6 13205.1 13270.5
2.62 20423.8 20479.2
2.64 62624.9 62653.4
2.66 77453.8 77456.3
2.68 32157.2 32158.1
2.7 -50982 -50962.5
2.72 -115358 -115314
2.74 -118659 -118597
2.76 -77428 -77363.7
2.78 -47091 -47034.8
2.8 -52581 -52539.2
2.82 -70727.4 -70706.4
2.84 -71009.3 -71003.3
2.86 -42878.8 -42878.2
2.88 2438.52 2438.07
2.9 40697.4 40699.2
2.92 53066 53071.6
2.94 45580.3 45590.8
2.96 43566.5 43586.5
2.98 61555.4 61588.2
3 90614.6 90659.8
3.02 114545 114604
3.04 120409 120480
3.06 101784 101857
3.08 73643.9 73708.7
3.1 61831.8 61879.6
3.12 65590.1 65617.5
3.14 59059.4 59069.4
3.16 27803.2 27804.2
3.18 -18990 -18988.5
3.2 -60312.7 -60300.6
3.22 -75723.6 -75695.9
3.24 -61089.8 -61051.6
3.26 -37460.6 -37423.2
3.28 -33536.3 -33508.5
3.3 -56786.5 -56770.2
3.32 -89119.8 -89111
3.34 -109492 -109483
3.36 -116624 -116598
3.38 -132976 -132899
3.4 -187340 -187149
3.42 -288090 -287681
3.44 -412859 -412085
3.46 -525816 -524503
3.48 -606071 -604064
3.5 -661044 -658281
3.52 -712874 -709434
3.54 -772356 -768450
3.56 -823535 -819451
3.58 -837073 -833103
3.6 -802848 -799208
3.62 -742299 -739100
3.64 -685295 -682561
3.66 -643872 -641578
3.68 -611534 -609617
3.7 -577085 -575460
3.72 -529010 -527601
3.74 -448450 -447259
3.76 -314596 -313737
3.78 -124333 -123948
3.8 104782 104787
3.82 353798 354041
3.84 621974 623705
3.86 919281 924168
3.88 1.23163e+06 1.2412e+06
3.9 1.5104e+06 1.52527e+06
3.92 1.69858e+06 1.71801e+06
3.94 1.76818e+06 1.79004e+06
3.96 1.70307e+06 1.72428e+06
3.98 1.42946e+06 1.44618e+06
4 897998 907147
4.02 222694 224755
4.04 -416524 -416347
4.06 -955681 -949571
4.08 -1.453e+06 -1.43432e+06
4.1 -1.94073e+06 -1.90762e+06
4.12 -2.31067e+06 -2.2678e+06
4.14 -2.3723e+06 -2.32929e+06
4.16 -2.01537e+06 -1.98241e+06
4.18 -1.29276e+06 -1.27563e+06
4.2 -357825 -354355
4.22 629532 630222
4.24 1.54832e+06 1.56259e+06
4.26 2.34535e+06 2.38771e+06
4.28 3.0259e+06 3.10168e+06
4.3 3.56522e+06 3.66755e+06
4.32 3.84454e+06 3.95662e+06
4.34 3.72106e+06 3.82242e+06
4.36 3.14901e+06 3.22326e+06
4.38 2.20914e+06 2.24945e+06
4.4 1.05189e+06 1.06363e+06
4.42 -158696 -158683
4.44 -1.28774e+06 -1.2767e+06
4.46 -2.2559e+06 -2.21483e+06
4.48 -3.02114e+06 -2.94399e+06
4.5 -3.52988e+06 -3.42677e+06
4.52 -3.68675e+06 -3.57941e+06
4.54 -3.38937e+06 -3.30133e+06
4.56 -2.6164e+06 -2.56266e+06
4.58 -1.49642e+06 -1.47668e+06
4.6 -264111 -262954
4.62 882976 888735
4.64 1.86844e+06 1.89923e+06
4.66 2.68134e+06 2.74598e+06
4.68 3.27302e+06 3.36518e+06
4.7 3.52694e+06 3.62823e+06
4.72 3.32989e+06 3.41811e+06
4.74 2.6814e+06 2.74032e+06
4.76 1.7316e+06 1.758e+06
4.78 684327 688749
4.8 -332573 -331412
4.82 -1.29133e+06 -1.2751e+06
4.84 -2.17838e+06 -2.13666e+06
4.86 -2.89793e+06 -2.83185e+06
4.88 -3.28684e+06 -3.20775e+06
4.9 -3.23156e+06 -3.1557e+06
4.92 -2.75304e+06 -2.69489e+06
4.94 -1.9913e+06 -1.95802e+06
4.96 -1.11773e+06 -1.1065e+06
4.98 -246884 -246468
5 582916 587038
5.02 1.35626e+06 1.37522e+06
5.04 2.01231e+06 2.04912e+06
5.06 2.43145e+06 2.48039e+06
5.08 2.49834e+06 2.54824e+06
5.1 2.19043e+06 2.23003e+06
5.12 1.60837e+06 1.63144e+06
5.14 904106 911906
5.16 176600 176860
5.18 -552691 -549485
5.2 -1.27692e+06 -1.26209e+06
5.22 -1.93447e+06 -1.9046e+06
5.24 -2.40292e+06 -2.3608e+06
5.26 -2.56647e+06 -2.51957e+06
5.28 -2.39678e+06 -2.35422e+06
5.3 -1.97052e+06 -1.93954e+06
5.32 -1.40871e+06 -1.39205e+06
5.34 -789344 -784401
5.36 -122081 -122048
5.38 588972 592402
5.4 1.28018e+06 1.29351e+06
5.42 1.83496e+06 1.86043e+06
5.44 2.15362e+06 2.18856e+06
5.46 2.20764e+06 2.24576e+06
5.48 2.0234e+06 2.05713e+06
5.5 1.64783e+06 1.67122e+06
5.52 1.13305e+06 1.14424e+06
5.54 518626 520866
5.56 -171602 -171321
5.58 -892041 -885799
5.6 -1.53928e+06 -1.52153e+06
5.62 -1.9917e+06 -1.96177e+06
5.64 -2.18707e+06 -2.14952e+06
5.66 -2.14428e+06 -2.10679e+06
5.68 -1.92094e+06 -1.89094e+06
5.7 -1.5558e+06 -1.53741e+06
5.72 -1.04914e+06 -1.04183e+06
5.74 -403125 -402321
5.76 318654 319573
5.78 990903 997970
5.8 1.49728e+06 1.51374e+06
5.82 1.79151e+06 1.81676e+06
5.84 1.89173e+06 1.92162e+06
5.86 1.83447e+06 1.86297e+06
5.88 1.63655e+06 1.65827e+06
5.9 1.28977e+06 1.30213e+06
5.92 788020 792177
5.94 166538 166695
5.96 -481145 -479514
5.98 -1.04055e+06 -1.03286e+06
6 -1.44077e+06 -1.42504e+06
6.02 -1.67601e+06 -1.65355e+06
6.04 -1.76626e+06 -1.74102e+06
6.06 -1.71456e+06 -1.69157e+06
6.08 -1.50731e+06 -1.49057e+06
6.1 -1.14223e+06 -1.13318e+06
6.12 -652918 -650108
6.14 -111662 -111599
6.16 394896 396199
6.18 801932 807347
6.2 1.08748e+06 1.09775e+06
6.22 1.26396e+06 1.27768e+06
6.24 1.34464e+06 1.35913e+06
6.26 1.31552e+06 1.32806e+06
6.28 1.14657e+06 1.15534e+06
6.3 831861 836458
6.32 418236 419585
6.34 -9229.02 -9217.29
6.36 -377567 -376665
6.38 -664500 -660962
6.4 -888858 -882058
6.42 -1.06546e+06 -1.05608e+06
6.44 -1.1721e+06 -1.1618e+06
6.46 -1.16084e+06 -1.15153e+06
6.48 -999170 -992348
6.5 -702004 -698265
6.52 -330502 -329364
6.54 40866.3 40872.7
6.56 365550 366401
6.58 639096 642497
6.6 873650 880299
6.62 1.05773e+06 1.06698e+06
6.64 1.14264e+06 1.15274e+06
6.66 1.07272e+06 1.08151e+06
6.68 830845 836630
6.7 456594 458948
6.72 23423.7 23594.9
6.74 -396973 -396303
6.76 -753565 -749413
6.78 -1.02294e+06 -1.01369e+06
6.8 -1.20198e+06 -1.18845e+06
6.82 -1.28096e+06 -1.26613e+06
6.84 -1.22932e+06 -1.21679e+06
6.86 -1.01858e+06 -1.01072e+06
6.88 -658671 -655579
6.9 -206071 -205774
6.92 262482 262983
6.94 681698 685160
6.96 1.01447e+06 1.02241e+06
6.98 1.24926e+06 1.26147e+06
7 1.38374e+06 1.39851e+06
7.02 1.41121e+06 1.426e+06
7.04 1.31969e+06 1.33209e+06
7.06 1.10521e+06 1.1137e+06
7.08 787851 792198
7.1 413481 414722
7.12 40364.5 40375.8
7.14 -282374 -281621
7.16 -531662 -528902
7.18 -707704 -702849
7.2 -810536 -804569
7.22 -820527 -814936
7.24 -712968 -709005
7.26 -489690 -487797
7.28 -184790 -184438
7.3 153167 153248
7.32 474245 475614
7.34 736319 740201
7.36 919303 926006
7.38 1.02444e+06 1.03315e+06
7.4 1.0504e+06 1.05946e+06
7.42 979639 987225
7.44 798060 802941
7.46 522937 525020
7.48 200870 201174
7.5 -121715 -121579
7.52 -419521 -418038
7.54 -681174 -677456
7.56 -888778 -882810
7.58 -1.01198e+06 -1.00457e+06
7.6 -1.02492e+06 -1.01737e+06
7.62 -928873 -922496
7.64 -756497 -752151
7.66 -550787 -548578
7.68 -338712 -338064
7.7 -127139 -127127
7.72 84662.9 84879.6
7.74 297890 298798
7.76 503165 504910
7.78 669827 672362
7.8 763749 766946
7.82 778707 782366
7.84 742870 746688
7.86 686518 690083
7.88 605272 608112
7.9 467510 469255
7.92 252570 253200
7.94 -21617.1 -21602
7.96 -306169 -305794
7.98 -559266 -557399
8 -772039 -767835
8.02 -954751 -948001
8.04 -1.10175e+06 -1.09301e+06
8.06 -1.17748e+06 -1.16794e+06
8.08 -1.14388e+06 -1.13502e+06
8.1 -996960 -990020
8.12 -769779 -765397
8.14 -509306 -507335
8.16 -253865 -253459
8.18 -19491.8 -19480.5
8.2 197731 198337
8.22 399718 401385
8.24 563518 566129
8.26 647574 650604
8.28 625631 628433
8.3 512098 514160
8.32 351655 352773
8.34 183747 184083
8.36 22385.8 22388.4
8.38 -130786 -130572
8.4 -268324 -267530
8.42 -374582 -373200
8.44 -428875 -427226
8.46 -410291 -408837
8.48 -310314 -309416
8.5 -148234 -147942
8.52 30168.6 30169.8
8.54 183103 183332
8.56 301005 301883
8.58 394637 396254
8.6 462513 464572
8.62 480265 482238
8.64 419753 421158
8.66 277125 277776
8.68 85459.2 85561
8.7 -100866 -100822
8.72 -238369 -237885
8.74 -317848 -316718
8.76 -357668 -356094
8.78 -370200 -368651
8.8 -337743 -336673
8.82 -227664 -227240
8.84 -31636.9 -31616.7
8.86 212664 212860
8.88 439656 440714
8.9 597739 600132
8.92 677197 680906
8.94 699216 703651
8.96 681200 685419
8.98 615032 618162
9 475696 477344
9.02 250946 251373
9.04 -34576.7 -34571.8
9.06 -324317 -323714
9.08 -559704 -557656
9.1 -710135 -706336
9.12 -781117 -775979
9.14 -794159 -788670
9.16 -755330 -750631
9.18 -645887 -642784
9.2 -447402 -446030
9.22 -174413 -174197
9.24 120654 120735
9.26 377334 378310
9.28 563180 565666
9.3 680336 684294
9.32 741278 746042
9.34 745080 749648
9.36 677929 681410
9.38 532228 534216
9.4 321240 321930
9.42 76976.7 77014.9
9.44 -163421 -163226
9.46 -372297 -371267
9.48 -535688 -533495
9.5 -646380 -643141
9.52 -697708 -693945
9.54 -684488 -680913
9.56 -605349 -602593
9.58 -460330 -458722
9.6 -254321 -253770
9.62 -10317.9 -10302.2
9.64 232322 232606
9.66 438751 440082
9.68 591692 594472
9.7 689220 693252
9.72 734415 738973
9.74 721137 725283
9.76 629762 632731
9.78 446534 448035
9.8 190627 190975
9.82 -88429.4 -88413.9
9.84 -343109 -342400
9.86 -551003 -548772
9.88 -709373 -705346
9.9 -816561 -811166
9.92 -861397 -855610
9.94 -826249 -821185
9.96 -700091 -696561
9.98 -493287 -491506
10 -238796 -238340
10.02 24707.3 24709.7
10.04 267809 268346
10.06 470322 472117
10.08 617477 620687
10.1 699007 703151
10.12 706631 710809
10.14 632395 635691
10.16 475326 477212
10.18 251627 252213
10.2 -3752.83 -3748.48
10.22 -248814 -248379
10.24 -451943 -450258
10.26 -598463 -595306
10.28 -681879 -677740
10.3 -693796 -689638
10.32 -625440 -622219
10.34 -478373 -476576
10.36 -271265 -270715
10.38 -37250.7 -37243.7
10.4 186794 187115
10.42 374652 375900
10.44 516682 518995
10.46 608938 611989
10.48 640009 643183
10.5 596797 599458
10.52 481113 482851
10.54 314612 315391
10.56 128177 128315
10.58 -52020.1 -51994.4
10.6 -211198 -210780
10.62 -343299 -342214
10.64 -441966 -440271
10.66 -493941 -491967
10.68 -484072 -482262
10.7 -408880 -407588
10.72 -283874 -283222
10.74 -136284 -136123
10.76 8717.74 8719.3
10.78 135908 136102
10.8 239016 239609
10.82 314338 315305
10.84 355495 356616
10.86 356207 357213
10.88 316634 317340
10.9 245016 245387
10.92 155615 155737
10.94 65070.4 65079.7
10.96 -13479.4 -13466.6
10.98 -74811.8 -74735.7
11 -117813 -117671
11.02 -139412 -139241
11.04 -137915 -137761
11.06 -119801 -119694
11.08 -98182.2 -98124.8
11.1 -82531.9 -82508
11.12 -71303.7 -71295.8
11.14 -55747.9 -55745.2
11.16 -29283.8 -29282
11.18 4998.48 4999.29
11.2 36326 36325
11.22 57036.8 57038.7
11.24 69982.2 70000.2
11.26 83889 83941.3
11.28 100724 100821
11.3 110261 110386
11.32 99457.5 99570.7
11.34 65304.2 65368.5
11.36 15457.8 15470.7
11.38 -40195.7 -40192.2
11.4 -95030.9 -94968.7
11.42 -146307 -146130
11.44 -192011 -191705
11.46 -225584 -225186
11.48 -235515 -235103
11.5 -213527 -213184
11.52 -163387 -163168
11.54 -99943.4 -99851.6
11.56 -37871.6 -37859
11.58 18817.7 18824.3
11.6 74265.1 74330.5
11.62 128731 128886
11.64 172290 172523
11.66 190588 190853
11.68 175971 176207
11.7 133870 134031
11.72 79525.9 79598.4
11.74 27195.5 27206.7
11.76 -19631.3 -19626.7
11.78 -67113.4 -67059.8
11.8 -119446 -119311
11.82 -168096 -167882
11.84 -193657 -193401
11.86 -180548 -180306
11.88 -130847 -130676
11.9 -63352.5 -63278.5
11.92 2822.45 2828.74
11.94 64392.4 64411.2
11.96 131742 131878
11.98 210855 211196
12 289892 290471
12.02 344788 345564
12.04 357120 357986
12.06 326541 327352
12.08 268687 269309
12.1 201898 202263
12.12 133280 133413
12.14 56389.1 56398.6
12.16 -35951.8 -35924.9
12.18 -136086 -135926
12.2 -220697 -220354
12.22 -267475 -266977
12.24 -272972 -272405
12.26 -253503 -252972
12.28 -228215 -227801
12.3 -202292 -202029
12.32 -167155 -167025
12.34 -114061 -114019
12.36 -44023.2 -44019.6
12.38 31379.5 31384.2
12.4 93543.4 93578.9
12.42 128315 128402
12.44 139338 139483
12.46 144772 144963
12.48 158057 158268
12.5 172889 173089
12.52 168799 168959
12.54 132407 132511
12.56 71704.5 71750.9
12.58 9968.31 9975.93
12.6 -32955.5 -32953.4
12.62 -55238.8 -55209
12.64 -70973.7 -70899.3
12.66 -93126.2 -93014.9
12.68 -118099 -117977
12.7 -127924 -127821
12.72 -107732 -107668
12.74 -60236.6 -60210.1
12.76 -4288.4 -4285.55
12.78 38774.1 38777.6
12.8 58711.4 58738.1
12.82 60978.2 61034.4
12.84 60063.2 60134.6
12.86 66143.5 66206.7
12.88 74710.8 74750.1
12.9 68551.7 68566.2
12.92 34923.9 34925
12.94 -17473.4 -17471.1
12.96 -63180.1 -63165.4
12.98 -83185.2 -83151.9
13 -81966.3 -81914.2
13.02 -80725.7 -80659.3
13.04 -94474.4 -94399.9
13.06 -116738 -116662
13.08 -126749 -126679
13.1 -111108 -111048
13.12 -77281.6 -77235.5
13.14 -45594.1 -45565
13.16 -29663.3 -29649.8
13.18 -25632.6 -25629.8
13.2 -19308.5 -19308.9
13.22 -1640.17 -1637.33
13.24 22856 22863.2
13.26 40043.2 40052.4
13.28 37746.6 37754.1
13.3 16352.6 16356.1
13.32 -9859.87 -9859.7
13.34 -24531.9 -24531.2
13.36 -25395.5 -25390.2
13.38 -25752.9 -25740.5
13.4 -37823.8 -37804.3
13.42 -57725 -57701.4
13.44 -68620.4 -68597.5
13.46 -57053.2 -57035.6
13.48 -25966.1 -25957.1
13.5 6760.81 6762.2
13.52 23638.6 23638.9
13.54 23286.7 23293
13.56 20484.4 20499.6
13.58 30076.4 30098.4
13.6 52337.6 52360.8
13.62 74166.3 74186.6
13.64 80981.8 80999.2
13.66 68554.4 68571
13.68 47903.3 47920.3
13.7 37821.4 37839.1
13.72 48576.5 48595.2
13.74 71414.7 71435
13.76 86312.7 86335.7
13.78 81832.6 81859.6
13.8 65441 65472.1
13.82 53554.6 53587.8
13.84 54167.1 54198.1
13.86 59710.3 59734.1
13.88 55143.3 55157.1
13.9 32529.8 32534.5
13.92 -2128.93 -2128.84
13.94 -35947 -35944.6
13.96 -61399.2 -61384.9
13.98 -80785.7 -80748.6
14 -100523 -100453
14.02 -122383 -122277
14.04 -139689 -139555
14.06 -142083 -141942
14.08 -124905 -124783
14.1 -93516.9 -93435
14.12 -57436.2 -57399.7
14.14 -20655.6 -20650.3
14.16 20492 20495.5
14.18 68991.2 69028.2
14.2 118519 118616
14.22 155516 155681
14.24 169236 169447
14.26 158626 158840
14.28 131277 131447
14.3 97459.6 97557.4
14.32 63089.1 63121
14.34 26125.8 26126.5
14.36 -18484.5 -18472.6
14.38 -68622 -68570.7
14.4 -111483 -111388
14.42 -132101 -131979
14.44 -125341 -125221
14.46 -99734.6 -99641.9
14.48 -69790.3 -69738
14.5 -44381.1 -44363.9
14.52 -22134.5 -22134
14.54 3669.3 3673.85
14.56 35968.2 35989.2
14.58 67601.4 67639.2
14.6 84344.2 84390.2
14.62 77264.7 77306.7
14.64 51948.6 51976.7
14.66 23293.4 23305
14.68 1505 1506.06
14.7 -15399.7 -15397.4
14.72 -35527.8 -35511.7
14.74 -62445.9 -62408.5
14.76 -90414.5 -90356.5
14.78 -107648 -107577
14.8 -105545 -105473
14.82 -86754.1 -86694.5
14.84 -63247.7 -63207.9
14.86 -45328.1 -45308.6
14.88 -32919.2 -32914.2
14.9 -17511.9 -17512.1
14.92 7746.5 7749.61
14.94 39797.3 39808.8
14.96 67887.6 67909.6
14.98 83452.4 83485.5
15 87003.8 87047.9
15.02 86181.3 86234.8
15.04 87925.4 87984.2
15.06 92298.6 92356.7
15.08 92359.8 92410.7
15.1 79684.1 79722.1
15.12 51746.6 51768
15.14 15050.3 15056.5
15.16 -19818 -19818.2
15.18 -47374.2 -47364.7
15.2 -71037.6 -71000.6
15.22 -97323.7 -97246.5
15.24 -126379 -126261
15.26 -148512 -148365
15.28 -150782 -150629
15.3 -128228 -128100
15.32 -89403 -89321.9
15.34 -49567.5 -49535
15.36 -17056.4 -17053.1
15.38 13055.3 13059.9
15.4 50706.6 50740.8
15.42 97002.1 97081.4
15.44 139693 139816
15.46 161709 161862
15.48 154443 154602
15.5 124669 124805
15.52 88792.1 88882.7
15.54 58748.4 58788.6
15.56 33023.2 33029.4
15.58 1625.54 1627.49
15.6 -40534.1 -40508.5
15.62 -84734 -84672.4
15.64 -112703 -112613
15.66 -111445 -111350
15.68 -84979.9 -84905.8
15.7 -50607.2 -50567.9
15.72 -22472.4 -22462.8
15.74 753.075 753.193
15.76 30584.7 30600.9
15.78 71544.1 71595.7
15.8 111677 111767
15.82 131604 131718
15.84 121661 121773
15.86 89393.9 89477.6
15.88 51972.6 52014.7
15.9 21766.8 21775.7
15.92 -2495.98 -2495.39
15.94 -31613.6 -31593.3
15.96 -72074.9 -72017
15.98 -114850 -114755
16 -139065 -138947
16.02 -129747 -129632
16.04 -91980.8 -91895.6
16.06 -45687.1 -45645.7
16.08 -7333.31 -7326.43
16.1 22193.8 22196.5
16.12 52973.4 53009.7
16.14 91075.9 91169.3
16.16 128985 129131
16.18 150112 150278
16.2 142283 142430
16.22 108034 108132
16.24 62570.5 62613.8
16.26 21322.2 21329
16.28 -11628.5 -11626.3
16.3 -44323.8 -44295.9
16.32 -85517.7 -85446
16.34 -131054 -130936
16.36 -163775 -163622
16.38 -168847 -168678
16.4 -147607 -147448
16.42 -115256 -115131
16.44 -85899.7 -85823.3
16.46 -60354.9 -60325.1
16.48 -27676.2 -27673.7
16.5 21270 21276.5
16.52 80844.2 80887.2
16.54 132263 132364
16.56 159113 159276
16.58 160495 160698
16.6 149198 149404
16.62 137928 138100
16.64 126956 127070
16.66 105316 105371
16.68 64522 64536.9
16.7 10487.8 10487.8
16.72 -38900.7 -38892.1
16.74 -68011.1 -67980.7
16.76 -75414 -75362.3
16.78 -72612 -72549.9
16.8 -71830.2 -71772.7
16.82 -74960.3 -74918.4
16.84 -73074.7 -73051.4
16.86 -56556 -56546.8
16.88 -26822.9 -26821.2
16.9 2607.66 2607.64
16.92 18102.6 18103.9
16.94 17828.1 17831.2
16.96 11184.4 11188.4
16.98 9076.81 9080.46
17 14941.7 14944
17.02 22683.4 22684.4
17.04 22824.2 22824.5
17.06 12222.9 12222.9
17.08 -1518.02 -1518.03
17.1 -6474.79 -6474.77
17.12 2129.62 2129.69
17.14 16820.9 16821.1
17.16 24923.4 24924.3
17.18 21350.6 21352.4
17.2 12782.3 12785
17.22 9237.46 9240.77
17.24 13454.9 13457.9
17.26 18625.1 18627
17.28 15338.9 15339.5
17.3 643.403 643.397
17.32 -18878.4 -18877.6
17.34 -33030.4 -33026.9
17.36 -36976.5 -36968.9
17.38 -34385.8 -34374.2
17.4 -32436.8 -32423.1
17.42 -33813.2 -33800.6
17.44 -33513.5 -33504.9
17.46 -23658.3 -23654.9
17.48 -1132.37 -1132.26
17.5 29157.3 29159.5
17.52 57646.1 57658.6
17.54 76807.5 76839
17.56 85656.2 85710.6
17.58 88648.9 88721.4
17.6 89877.6 89954.6
17.62 87693.2 87758.1
17.64 75094 75134.8
17.66 46213.8 46229.1
17.68 3036.48 3037.15
17.7 -44117 -44110.1
17.72 -82980.5 -82943.7
17.74 -107454 -107371
17.76 -120054 -119927
17.78 -126256 -126107
17.8 -127070 -126930
17.82 -117800 -117697
17.84 -93137.6 -93082.3
17.86 -53113.3 -53096.7
17.88 -5109.49 -5109.24
17.9 39883.8 39893.4
17.92 73860.5 73899.2
17.94 95619.3 95694
17.96 108250 108352
17.98 113241 113351
18 107829 107923
18.02 88057 88117
18.04 54354.9 54379
18.06 13650.4 13652.7
18.08 -24695.5 -24691.5
18.1 -54932.9 -54906.4
18.12 -77149.7 -77092.3
18.14 -93801.1 -93719.3
18.16 -103893 -103804
18.18 -101796 -101720
18.2 -83253.6 -83203.7
18.22 -51809 -51787.4
18.24 -17572.9 -17569.6
18.26 10699.9 10700.9
18.28 31535.1 31547.3
18.3 49281.1 49309.9
18.32 67326 67368.7
18.34 82346.1 82394.6
18.36 85674.7 85719.3
18.38 71260.7 71293.7
18.4 42739.4 42757
18.42 11906.2 11910.7
18.44 -11401.9 -11401.9
18.46 -27752.2 -27745.7
18.48 -45471.8 -45449.4
18.5 -70275.3 -70232.4
18.52 -97621.7 -97559.8
18.54 -114522 -114448
18.56 -109571 -109495
18.58 -83102.4 -83041.1
18.6 -48233.9 -48197.8
18.62 -20217 -20205.5
18.64 -3517.55 -3517.47
18.66 10382.9 10389.2
18.68 32353.2 32377.7
18.7 62561 62603.8
18.72 87787.3 87838.6
18.74 92095.6 92143.1
18.76 70797.4 70831.4
18.78 35119.7 35136.3
18.8 3388.83 3392.09
18.82 -13886.3 -13886
18.84 -21239.6 -21231.5
18.86 -30607.4 -30586
18.88 -46699.9 -46668.6
18.9 -60672.8 -60641.4
18.92 -58007 -57985.4
18.94 -32399.2 -32391
18.96 7347.78 7347.87
18.98 44213.9 44218.8
19 67352 67376.7
19.02 79812.3 79866.3
19.04 91911.3 91993.8
19.06 107880 107980
19.08 119955 120054
19.1 115201 115281
19.12 88182.3 88233.8
19.14 47087 47109
19.16 7194.07 7197.11
19.18 -21758.7 -21756.9
19.2 -42233.3 -42215.4
19.22 -63411.1 -63366.5
19.24 -89455.3 -89384.2
19.26 -113631 -113543
19.28 -123961 -123871
19.3 -114168 -114088
19.32 -88865.1 -88806.3
19.34 -59195 -59160.7
19.36 -34060 -34047.1
19.38 -14274 -14273
19.4 6061.28 6063.35
19.42 31978.5 31992.1
19.44 60450.2 60479.7
19.46 81349.9 81392.8
19.48 86219.5 86268
19.5 75817.8 75862.4
19.52 58900.5 58933.6
19.54 43378.1 43396.6
19.56 29602.2 29608.2
19.58 12714.4 12714.6
19.6 -10465.8 -10463.5
19.62 -37411.9 -37401.1
19.64 -60870.4 -60848
19.66 -73409 -73376
19.68 -72560.9 -72522.2
19.7 -62515.9 -62479.2
19.72 -50410.9 -50383.4
19.74 -40056.9 -40042.1
19.76 -28967.9 -28963.6
19.78 -12415.2 -12415.2
19.8 9453.02 9455.23
19.82 29634 29642
19.84 39403.9 39416.7
19.86 35081.9 35094.9
19.88 20685.1 20693.4
19.9 4147.85 4150.22
19.92 -9945.14 -9945.15
19.94 -23431.8 -23427.1
19.96 -39835.3 -39819.1
19.98 -58005.1 -57975.3
20 -71313.6 -71274.3
20.02 -72200.3 -72160.8
20.04 -57817 -57787.2
20.06 -32486.6 -32472.2
20.08 -4576.4 -4574.22
20.1 19917.5 19918.8
20.12 41324.5 41339.2
20.14 63761.4 63799.8
20.16 88531.4 88595.4
20.18 110493 110576
20.2 121270 121360
20.22 116178 116264
20.24 98082.7 98151.7
20.26 74741.6 74787.8
20.28 52933.1 52956.4
20.3 34603 34609.8
20.32 17293.3 17293.4
20.34 -1975.06 -1973.2
20.36 -22573.8 -22566.3
20.38 -39534.3 -39521.7
20.4 -47117.5 -47103.2
20.42 -43401.5 -43388.8
20.44 -32153.9 -32145.1
20.46 -20852.9 -20848.3
20.48 -15298.2 -15296.7
20.5 -15043.9 -15043.8
20.52 -14624.8 -14625
20.54 -9486.88 -9486.94
20.56 -839.913 -839.918
20.58 5295.3 5295.29
20.6 3714.99 3715.08
20.62 -5458.57 -5458.27
20.64 -16791.5 -16791
20.66 -23675.7 -23674.7
20.68 -24188.6 -24186.6
20.7 -23149.2 -23145.5
20.72 -26670.7 -26664.7
20.74 -35078.8 -35070.1
20.76 -42700 -42689.4
20.78 -43623.6 -43612.4
20.8 -36720.4 -36710.5
20.82 -25893.2 -25886.2
20.84 -16310.2 -16306.7
20.86 -9861.14 -9860.26
20.88 -3756.33 -3756.35
20.9 5542.75 5543.75
20.92 17512.4 17515.6
20.94 27783.4 27788.6
20.96 32324.6 32331
20.98 30912.4 30918.9
21 26874.6 26880.2
21.02 23511.9 23516.1
21.04 21023.5 21026.2
21.06 17183.4 17184.8
21.08 10172.7 10173.2
21.1 374.629 374.636
21.12 -9677.21 -9676.97
21.14 -17397.4 -17396.2
21.16 -22152.3 -22149.4
21.18 -24989.9 -24985.1
21.2 -27292.6 -27286.2
21.22 -29363.2 -29356.2
21.24 -30001.5 -29995.1
21.26 -27694 -27689.2
21.28 -22068.1 -22065.2
21.3 -14060.7 -14059.4
21.32 -5387.19 -5386.94
21.34 2017.95 2017.96
21.36 6863.43 6863.89
21.38 8948.95 8950.1
21.4 9111.29 9112.77
21.42 8455.22 8456.46
21.44 7253.31 7253.95
21.46 4751.83 4751.93
21.48 -56.7049 -56.6765
21.5 -7089.87 -7089.37
21.52 -14157.4 -14156.1
21.54 -17763.8 -17761.7
21.56 -15766.5 -15764.3
21.58 -9279.4 -9277.75
21.6 -1801.68 -1801.06
21.62 3752.31 3752.31
21.64 7494.46 7494.95
21.66 12257.8 12259.9
21.68 20147.6 20151.9
21.7 28968 28974.2
21.72 33497.1 33503.9
21.74 30105.9 30111.9
21.76 19775.7 19779.6
21.78 7628.96 7630.51
21.8 -1270.8 -1270.69
21.82 -6533.97 -6533.57
21.84 -12228.7 -12226.3
21.86 -21843.8 -21838.5
21.88 -33955.5 -33947.5
21.9 -42848.7 -42838.8
21.92 -43372.4 -43362
21.94 -35737.4 -35728.2
21.96 -25814.7 -25807.8
21.98 -19994.4 -19990.3
22 -18699.7 -18697.9
22.02 -15403.6 -15403.2
22.04 -3921.05 -3921.04
22.06 13675.5 13676.3
22.08 28262.4 28264.9
22.1 32282.4 32287.4
22.12 26198.3 26205.1
22.14 17549.2 17556
22.16 14036.1 14041
22.18 16064.2 16066.4
22.2 16278.6 16279
22.22 7084.58 7084.61
22.24 -11101.4 -11100.1
22.26 -29100.2 -29096.9
22.28 -37179 -37173.4
22.3 -33444 -33436.6
22.32 -24438.3 -24430.6
22.34 -18650.1 -18643.6
22.36 -18996.7 -18992.7
22.38 -21019.8 -21018.2
22.4 -17661.8 -17661.7
22.42 -5995.41 -5995.43
22.44 9055.62 9056.04
22.46 18020.6 18021.6
22.48 15786.3 15787.6
22.5 6824.37 6825.51
22.52 -19.5151 -18.8586
22.54 -655.332 -655.167
22.56 1487.82 1487.8
22.58 -495.462 -495.08
22.6 -10376.4 -10375.1
22.62 -24052.1 -24049.4
22.64 -32243.8 -32239.7
22.66 -29086 -29081.1
22.68 -17354.1 -17349.7
22.7 -4917 -4914.48
22.72 3198.77 3199.24
22.74 8474.2 8474.36
22.76 15827 15830.1
22.78 28193.9 28202.7
22.8 43360.9 43376
22.82 54983.4 55003
22.84 57310.4 57330.9
22.86 49612.9 49630.7
22.88 35794.8 35807.1
22.9 20423.8 20429.5
22.92 6262.81 6263.7
22.94 -5657.94 -5657.57
22.96 -15948.8 -15944.8
22.98 -26182.3 -26173
23 -36129.1 -36116
23.02 -41838.2 -41824.8
23.04 -38846.2 -38835.9
23.06 -27181.5 -27175.8
23.08 -11803.5 -11801.9
23.1 869.557 869.557
23.12 6922.79 6923.64
23.14 7135.81 7138.23
23.16 5839.58 5842.48
23.18 6615.01 6616.95
23.2 8720.84 8721.38
23.22 8232.96 8232.9
23.24 2613.21 2613.6
23.26 -5558.6 -5557.57
23.28 -9641.92 -9640.92
23.3 -4830.04 -4829.68
23.32 6926.41 6926.4
23.34 18520 18520.9
23.36 24061.5 24064.9
23.38 23656.7 23662.8
23.4 22337.9 22345.4
23.42 23941.7 23948.8
23.44 26568.1 26573.1
23.46 24880.5 24883
23.48 16039.9 16040.6
23.5 2817.73 2817.73
23.52 -8518.71 -8518.44
23.54 -13333.8 -13332.8
23.56 -12093.1 -12091.5
23.58 -8804.56 -8802.83
23.6 -6529.63 -6528.38
23.62 -4754.37 -4753.93
23.64 -923.251 -923.257
23.66 6150.15 6150.64
23.68 14613.4 14615.2
23.7 20752.7 20756
23.72 21884 21888.1
23.74 18283.5 18287.1
23.76 12354 12356.2
23.78 5866.06 5866.75
23.8 -1474.58 -1474.58
23.82 -10459.7 -10458.8
23.84 -20176.1 -20172.8
23.86 -27850.5 -27844.4
23.88 -30879.5 -30871.5
23.9 -28958.7 -28950.9
23.92 -24137.7 -24132
23.94 -18471.3 -18468.3
23.96 -11525.2 -11524.5
23.98 -155.461 -155.455
24 18261.3 18262.9
24.02 40449.6 40456.1
24.04 56351 56365.8
24.06 57900.4 57923.8
24.08 48723.6 48751.2
24.1 40773.6 40798.6
24.12 41017.8 41035.4
24.14 44242 44250.9
24.16 38846.1 38848.7
24.18 18769.9 18770
24.2 -9099.99 -9099.62
24.22 -29819.5 -29817.3
24.24 -33962.6 -33957.8
24.26 -25064.9 -25058.2
24.28 -14220.6 -14213.9
24.3 -10058.6 -10054
24.32 -12647.8 -12646
24.34 -14203.9 -14203.8
24.36 -7052.47 -7052.2
24.38 7548.45 7550.14
24.4 19530.4 19533.1
24.42 19425.2 19427.5
24.44 7300.59 7301.52
24.46 -7602.58 -7602.62
24.48 -15692.8 -15692.3
24.5 -15952.7 -15950.3
24.52 -15999.8 -15995
24.54 -22722 -22715
24.56 -33900.8 -33892.9
24.58 -39758.1 -39750.8
24.6 -32765.9 -32760.5
24.62 -15548.7 -15546
24.64 1809.43 1809.98
24.66 11893.2 11893.2
24.68 16268.2 16270.1
24.7 21859.7 21865.6
24.72 33056.1 33067.2
24.74 47565.9 47581.5
24.76 57967.1 57985.4
24.78 57393.5 57411.9
24.8 45147.2 45162.6
24.82 27061.3 27071.2
24.84 10311.9 10315.6
24.86 -1922.93 -1922.84
24.88 -11849.4 -11847.7
24.9 -24072.7 -24064.5
24.92 -40726.1 -40709.5
24.94 -58543 -58519
24.96 -70267.7 -70239.8
24.98 -70349.8 -70321.6
25 -59761.4 -59736.6
25.02 -44728.1 -44709.8
25.04 -31455.4 -31445
25.06 -21613.3 -21609.6
25.08 -11576.2 -11576
25.1 3272.59 3273.37
25.12 22757.9 22762.6
25.14 40871.3 40881.4
25.16 50790.3 50805.4
25.18 50364.2 50382
25.2 42858.9 42876
25.22 33867.7 33880.7
25.24 26986.1 26993.3
25.26 20932.7 20935
25.28 11676.6 11676.6
25.3 -2381.44 -2380.77
25.32 -18074.5 -18071.5
25.34 -29603 -29597.6
25.36 -33326.5 -33319.6
25.38 -30756.3 -30749.1
25.4 -26444.4 -26438.1
25.42 -23504.7 -23500
25.44 -21335.2 -21332.5
25.46 -17116.7 -17115.6
25.48 -9138.07 -9137.86
25.5 1138.19 1138.2
25.52 9962.51 9962.9
25.54 14929 14930.2
25.56 17718.9 17721.1
25.58 21750.9 21754.3
25.6 27686.2 27690.9
25.62 32581 32586.8
25.64 32855.9 32862.2
25.66 27605.7 27611.7
25.68 19295.2 19299.6
25.7 11224 11226.1
25.72 4693.49 4693.91
25.74 -1300.28 -1300.21
25.76 -8344.7 -8343.38
25.78 -16478.8 -16475.4
25.8 -23266.8 -23262
25.82 -25046.9 -25042
25.84 -19996 -19992.5
25.86 -10224.8 -10223.3
25.88 -131.669 -131.526
25.9 7369.18 7369.48
25.92 13137.1 13139
25.94 20407.1 20411.6
25.96 30568.3 30575.5
25.98 40661 40670.3
26 45524.1 45534.8
26.02 42175.7 42186.4
26.04 32376.3 32385.4
26.06 21201.1 21207.2
26.08 12504.8 12507.4
26.1 5250.04 5250.32
26.12 -5126.51 -5126.03
26.14 -21005.5 -21001.6
26.16 -38952.7 -38943.1
26.18 -52353.5 -52337.4
26.2 -57050.4 -57029.1
26.22 -54313.8 -54290.6
26.24 -48879.7 -48858.4
26.26 -44368.1 -44351.8
26.28 -40111.1 -40101.2
26.3 -32292.3 -32287.9
26.32 -18555.2 -18554.2
26.34 -1035.6 -1035.6
26.36 15069 15069.9
26.38 25391.4 25394.7
26.4 29519.8 29525.9
26.42 30866.2 30874.9
26.44 32867 32876.8
26.46 35197.6 35206.9
26.48 34101.5 34108.7
26.5 26308.6 26312.8
26.52 12476.1 12477.5
26.54 -3268.82 -3268.81
26.56 -16404.8 -16403.9
26.58 -25157.5 -25153.4
26.6 -31520.7 -31511.9
26.62 -38587.7 -38574.3
26.64 -46795.8 -46779.4
26.66 -52846.2 -52829.2
26.68 -52514.1 -52498.5
26.7 -44672.4 -44660.1
26.72 -32578.2 -32569.9
26.74 -21179.7 -21175.5
26.76 -12880.8 -12879.4
26.78 -6143.53 -6143.5
26.8 2091.29 2091.69
26.82 13045.5 13047.5
26.84 24737.5 24741.4
26.86 33395.7 33401.5
26.88 36105.7 36113
26.9 32971.2 32979
26.92 27132.1 27139.2
26.94 22284.2 22289.5
26.96 19685.7 19688.6
26.98 17324.1 17325.2
27 12199.8 12199.9
27.02 3272.49 3272.49
27.04 -7362.07 -7361.75
27.06 -15430.2 -15429.4
27.08 -17405.9 -17404.4
27.1 -13400.7 -13399
27.12 -6968.36 -6966.9
27.14 -1950.91 -1950.19
27.16 732.934 733.003
27.18 3635.28 3635.46
27.2 9973.85 9975.25
27.22 19981.2 19984.7
27.24 29746.3 29751.9
27.26 34171.4 34178.3
27.28 31268.5 31275.5
27.3 23131.1 23136.7
27.32 13781.5 13784.6
27.34 6018.93 6019.75
27.36 -694.792 -694.78
27.38 -8963.48 -8962.22
27.4 -19906.7 -19902.6
27.42 -31228.7 -31221.4
27.44 -38690.6 -38680.9
27.46 -39168.7 -39158.5
27.48 -32775.1 -32766.4
27.5 -22500.7 -22495
27.52 -11815.8 -11813.6
27.54 -2180.53 -2180.38
27.56 7582.34 7582.97
27.58 19171.2 19174.9
27.6 32072.3 32080.6
27.62 42992 43004.7
27.64 48020.3 48035.5
27.66 45706.7 45721.8
27.68 37601.9 37614
27.7 26209.3 26216.5
27.72 13293.5 13295.9
27.74 -528.023 -527.991
27.76 -15405.2 -15403.4
27.78 -31364.3 -31356.6
27.8 -47238.4 -47222.3
27.82 -60344.1 -60319.7
27.84 -67540.5 -67510.2
27.86 -66873.3 -66841.7
27.88 -58601.6 -58574.2
27.9 -44987.1 -44968.5
27.92 -28820.1 -28811.6
27.94 -11809.9 -11808.5
27.96 5871.78 5872.24
27.98 24540 24546
28 43225.8 43241.4
28.02 59008.5 59033.9
28.04 68182.2 68214.1
28.06 68795.4 68828.5
28.08 62244.6 62273.5
28.1 51901 51921.9
28.12 40326.1 40337.9
28.14 27816 27820.4
28.16 13545.3 13545.8
28.18 -2351.26 -2350.93
28.2 -17410.4 -17407.6
28.22 -27620.4 -27614.4
28.24 -30503.4 -30495.3
28.26 -26944.9 -26937.2
28.28 -20063.6 -20058.3
28.3 -12705.8 -12703.6
28.32 -5545.08 -5544.9
28.34 2637.56 2637.94
28.36 12486.1 12488.5
28.38 22080.9 22085.7
28.4 27764 27770.2
28.42 26644.1 26649.8
28.44 18639.7 18643.4
28.46 6668.25 6669.45
28.48 -5580.07 -5580.09
28.5 -16246.3 -16244.9
28.52 -25817 -25811.6
28.54 -35699.1 -35688
28.56 -45691.7 -45675.3
28.58 -52753.6 -52734.4
28.6 -53463.1 -53444.3
28.62 -47106.5 -47091
28.64 -35695.8 -35685.7
28.66 -21900.2 -21895.5
28.68 -7334.22 -7333.44
28.7 7520.53 7520.81
28.72 22231.3 22235
28.74 35846.2 35856.3
28.76 47004.3 47021.3
28.78 54332.7 54354.6
28.8 56926.7 56949.9
28.82 54412 54432.8
28.84 47007.5 47023.1
28.86 35504.3 35513.4
28.88 21197.3 21200.8
28.9 5704.48 5704.79
28.92 -9531.8 -9531.17
28.94 -23636.7 -23632.5
28.96 -36092.1 -36082.3
28.98 -45868.5 -45853.1
29 -51297.8 -51278.7
29.02 -50901.8 -50882.3
29.04 -44347.4 -44331.5
29.06 -33067.4 -33057.5
29.08 -19661.4 -19657.6
29.1 -6395.22 -6394.89
29.12 5882.76 5883.4
29.14 17467.3 17471.2
29.16 28341.4 28349.6
29.18 36768.5 36779.6
29.2 39751.1 39762.5
29.22 35665.4 35674.7
29.24 26074.8 26080.5
29.26 14642.1 14644.3
29.28 4351.35 4351.56
29.3 -4258.72 -4258.4
29.32 -12389.8 -12387.7
29.34 -20715.8 -20711.3
29.36 -27706.5 -27700.3
29.38 -30450.3 -30443.8
29.4 -27197.4 -27192
29.42 -19344.4 -19341.1
29.44 -10542.2 -10540.9
29.46 -3551.5 -3551.38
29.48 1479.94 1480.08
29.5 6157.96 6158.94
29.52 11738.8 11740.7
29.54 17502.1 17504.6
29.56 21136.7 21139.3
29.58 20923.1 20925.3
29.6 17435.5 17437.1
29.62 13248.3 13249.5
29.64 10938 10938.8
29.66 11073.8 11074.4
29.68 11982.4 11982.8
29.7 11497.4 11497.8
29.72 9266.6 9267
29.74 7150.01 7150.45
29.76 7117.21 7117.7
29.78 8942.09 8942.62
29.8 10045.8 10046.3
29.82 7727.9 7728.26
29.84 1748.93 1749.06
29.86 -5185.36 -5185.38
29.88 -9627.75 -9627.57
29.9 -10581.9 -10581.2
29.92 -10531.7 -10530.2
29.94 -12686.3 -12684.1
29.96 -17390.7 -17388.3
29.98 -21581.2 -21578.9
30 -21359.6 -21357.7
30.02 -15583.5 -15582.2
30.04 -7494.39 -7493.66
30.06 -1969.36 -1969.1
30.08 -928.691 -928.671
30.1 -2099.77 -2099.76
30.12 -1814.56 -1814.43
30.14 1151.92 1152.14
30.16 4188.85 4189
30.18 3351.37 3351.4
30.2 -2968.39 -2968.35
30.22 -12398.7 -12398.3
30.24 -20409.2 -20407.8
30.26 -24306.3 -24303.3
30.28 -25352.5 -25347.6
30.3 -26597 -26590.5
30.32 -28933.7 -28926.5
30.34 -29762.9 -29756.4
30.36 -25374.5 -25370.1
30.38 -14747.9 -14745.9
30.4 -987.177 -986.975
30.42 11390.4 11390.7
30.44 20219.4 20222.1
30.46 26685 26691.4
30.48 33216.2 33226.4
30.5 40154.1 40166.8
30.52 44431.7 44444.8
30.54 42289.2 42300.4
30.56 33141 33148.7
30.58 20245.5 20249.4
30.6 7928.21 7929.17
30.62 -1644.19 -1644.18
30.64 -9429.38 -9428.22
30.66 -17227 -17223.3
30.68 -24990.1 -24983.9
30.7 -30807.8 -30800.4
30.72 -32366.3 -32359.2
30.74 -28786.8 -28781.4
30.76 -21609.8 -21606.5
30.78 -13519.8 -13518.3
30.8 -6266.51 -6266.24
30.82 251.478 251.497
30.84 6841.58 6842.14
30.86 13106.7 13108.2
30.88 17367.6 17370
30.9 18318.4 18321.2
30.92 16056.7 16059
30.94 11496.4 11497.8
30.96 5405.01 5405.47
30.98 -1796.15 -1796.15
31 -9948.24 -9947.69
31.02 -18833.9 -18831.6
31.04 -27293.3 -27288.5
31.06 -33164.3 -33156.8
31.08 -34647.5 -34638.3
31.1 -31651.2 -31642.3
31.12 -25633.5 -25626.8
31.14 -17913.3 -17909.9
31.16 -8481.84 -8481.12
31.18 3227.98 3228.07
31.2 16865.4 16867.6
31.22 30778.9 30785.4
31.24 42572.2 42584.1
31.26 49882.1 49898.8
31.28 51466.7 51486
31.3 48116.1 48134.6
31.32 41761.7 41776.3
31.34 33283.8 33292.7
31.36 22053 22056.5
31.38 7565.09 7565.39
31.4 -9111.94 -9111.29
31.42 -25593.1 -25588.8
31.44 -39510.2 -39499.8
31.46 -49553.7 -49537
31.48 -55617.6 -55595.7
31.5 -57955.4 -57931.2
31.52 -56410.8 -56388
31.54 -50535.5 -50517.2
31.56 -40244.5 -40232.8
31.58 -26320.3 -26315.1
31.6 -10332.2 -10331.3
31.62 5984.07 5984.28
31.64 21422.6 21425.9
31.66 35133.3 35142.5
31.68 45884.4 45900.1
31.7 52228.5 52249.1
31.72 53458.5 53480.3
31.74 49952.1 49971.2
31.76 42554.2 42567.8
31.78 32052.2 32059.5
31.8 19172.8 19175.1
31.82 4811.77 4811.84
31.84 -9570.49 -9569.61
31.86 -22209.1 -22205.2
31.88 -31785.1 -31777.4
31.9 -37625.3 -37614.4
31.92 -39442.8 -39430.8
31.94 -37223.9 -37213.1
31.96 -31370.3 -31362.6
31.98 -22443.3 -22439.2
32 -10858.7 -10857.7
32.02 2535.86 2535.88
32.04 15991.9 15993.5
32.06 27781.2 27786.7
32.08 37034 37044.2
32.1 43220.7 43234.9
32.12 45578 45593.9
32.14 43491.8 43506.4
32.16 37373.1 37384
32.18 28472.9 28479
32.2 17837.8 17839.9
32.22 6197.01 6197.14
32.24 -5530.5 -5530.04
32.26 -16031.3 -16028.8
32.28 -23986 -23981.1
32.3 -28411.4 -28404.9
32.32 -28690.7 -28684
32.34 -25006.5 -25001.1
32.36 -18443.9 -18440.7
32.38 -10356.8 -10355.8
32.4 -1555.57 -1555.56
32.42 7791.93 7792.5
32.44 17383.3 17385.7
32.46 26304.5 26309.6
32.48 33082.4 33089.8
32.5 36361.9 36370.9
32.52 35972.5 35981.7
32.54 32840.5 32848.5
32.56 27916.1 27921.9
32.58 21571 21574.3
32.6 13599.2 13600.4
32.62 4070.36 4070.46
32.64 -5578.46 -5578.21
32.66 -13162.5 -13161.1
32.68 -17797.9 -17795
32.7 -20584.2 -20580.3
32.72 -22743.4 -22739.2
32.74 -23856.3 -23852.5
32.76 -22477.1 -22474.2
32.78 -18053.2 -18051.4
32.8 -11711.9 -11711.1
32.82 -5488.27 -5488.02
32.84 -777.645 -777.638
32.86 2810.17 2810.26
32.88 6506.12 6506.55
32.9 10480.8 10481.7
32.92 13536.6 13537.8
32.94 14394.7 14396.1
32.96 12992.5 12993.8
32.98 10554.5 10555.4
33 8035.33 8035.88
33.02 5078.02 5078.2
33.04 749.903 749.907
33.06 -4966.69 -4966.56
33.08 -10378.1 -10377.5
33.1 -13557.9 -13556.7
33.12 -14288.6 -14286.9
33.14 -13858.8 -13856.9
33.16 -13487.9 -13486.1
33.18 -13193.4 -13192.2
33.2 -11674.8 -11674.1
33.22 -7608.07 -7607.85
33.24 -1562.02 -1562.01
33.26 3873.38 3873.44
33.28 6212.42 6212.67
33.3 5360.19 5360.61
33.32 3496.82 3497.24
33.34 2408.58 2408.84
33.36 1346.06 1346.12
33.38 -1834.39 -1834.37
33.4 -7909.03 -7908.63
33.42 -15344.4 -15343.2
33.44 -21330.9 -21328.4
33.46 -23541.5 -23537.8
33.48 -21787.7 -21783.4
33.5 -17932.9 -17929.1
33.52 -13765.3 -13762.8
33.54 -9254.23 -9253.32
33.56 -2841.51 -2841.48
33.58 6477.36 6477.81
33.6 17617.4 17619.6
33.62 27907.9 27912.7
33.64 34480.9 34488.4
33.66 35932.1 35941.4
33.68 32952.1 32961.5
33.7 27345.4 27352.9
33.72 20360.3 20364.6
33.74 11776.4 11777.7
33.76 909.497 909.491
33.78 -11969.8 -11968.5
33.8 -25018.6 -25014
33.82 -35291.3 -35282.4
33.84 -40188 -40175.8
33.86 -38746.1 -38733.2
33.88 -32164.5 -32154.1
33.9 -22690 -22684.1
33.92 -11532.4 -11530.8
33.94 1617.85 1617.86
33.96 17026.6 17029
33.98 33008.8 33017.1
34 46044.5 46059.9
34.02 52963.2 52984.2
34.04 52389.2 52411.6
34.06 44926.3 44944.9
34.08 32710.9 32722.1
34.1 18013.5 18017.3
34.12 1907.48 1907.53
34.14 -15655.6 -15653.3
34.16 -34200.3 -34190.4
34.18 -51420.8 -51400.8
34.2 -63730.9 -63702.1
34.22 -67967.8 -67934.8
34.24 -63339.2 -63308.2
34.26 -52103.4 -52080.1
34.28 -37829.3 -37816.3
34.3 -22575.9 -22571.8
34.32 -6050.25 -6050.16
34.34 12335.1 12337.1
34.36 31145.7 31154.3
34.38 46960.7 46977.2
34.4 56333.3 56356
34.42 57696.1 57720.9
34.44 52229.6 52251.6
34.46 42811.6 42827.2
34.48 31548.5 31556.5
34.5 18737 18739.2
34.52 3977.66 3977.66
34.54 -12051 -12049.3
34.56 -26803.5 -26797.5
34.58 -37225.8 -37215.3
34.6 -41678.4 -41665
34.62 -40380.1 -40366.7
34.64 -34600 -34589.4
34.66 -25445.7 -25439.7
34.68 -13552 -13550.2
34.7 124.665 124.673
34.72 14076.8 14078.4
34.74 26728.6 26734.5
34.76 36951 36962.1
34.78 43941.6 43956.7
34.8 46643 46659.3
34.82 44015.2 44029.6
34.84 35999.8 36009.8
34.86 24219 24224
34.88 10906 10907.1
34.9 -2806.16 -2806.12
34.92 -16514.4 -16512.3
34.94 -29421.4 -29414.7
34.96 -40291.1 -40279
34.98 -47812 -47795.5
35 -50583.9 -50565.6
35.02 -47605 -47588.1
35.04 -39405 -39392.5
35.06 -27878.4 -27871.5
35.08 -14660.7 -14658.7
35.1 -333.905 -333.899
35.12 14625.2 14627
35.14 28694.6 28701.1
35.16 39503.8 39516.2
35.18 44939.8 44956.3
35.2 44514.2 44531.2
35.22 39852 39865.8
35.24 32807.2 32815.8
35.26 23302.8 23306.3
35.28 9919.16 9919.57
35.3 -7081.74 -7081.32
35.32 -24177.4 -24173.9
35.34 -36791 -36782.5
35.36 -42734.1 -42720.5
35.38 -43553.7 -43537.1
35.4 -42311.5 -42295.1
35.42 -40024.7 -40011.7
35.44 -34806.4 -34798.5
35.46 -24265.7 -24262.5
35.48 -8647.09 -8646.7
35.5 8252.69 8253.03
35.52 21290.1 21292.8
35.54 27585.8 27592
35.56 28592 28600.8
35.58 28047 28056.3
35.6 27785.3 27792.7
35.62 25916 25920.3
35.64 19020.5 19022
35.66 6426.79 6426.88
35.68 -8095.57 -8095.19
35.7 -19192.4 -19190.5
35.72 -24035.8 -24031.7
35.74 -24150.9 -24145.2
35.76 -23481.7 -23475.6
35.78 -24282.2 -24276.9
35.8 -24920.5 -24916.8
35.82 -21769.5 -21767.6
35.84 -13251.5 -13250.8
35.86 -1974.92 -1974.87
35.88 7386.82 7386.93
35.9 12023.9 12024.6
35.92 12719.2 12720.8
35.94 12559.7 12561.9
35.96 13889.9 13892.3
35.98 16110.7 16112.6
36 16219 16220.2
36.02 11510 11510.5
36.04 2592.53 2592.6
36.06 -6451.79 -6451.74
36.08 -11623 -11622.5
36.1 -12527.2 -12526
36.12 -12364.1 -12362.1
36.14 -14419 -14416.5
36.16 -18486.7 -18484.3
36.18 -20899.2 -20897.2
36.2 -18150 -18148.5
36.22 -10526.6 -10525.8
36.24 -2250.04 -2249.79
36.26 2137.12 2137.12
36.28 1785.43 1785.49
36.3 -9.00198 -8.76263
36.32 597.89 598.261
36.34 4128.18 4128.52
36.36 7324.85 7324.99
36.38 6322.61 6322.62
36.4 578.015 578.027
36.42 -6488.39 -6488.29
36.44 -10568.1 -10567.8
36.46 -9889.08 -9888.57
36.48 -6337.02 -6336.38
36.5 -3642.48 -3641.9
36.52 -3850.92 -3850.54
36.54 -5334.78 -5334.66
36.56 -4494.54 -4494.55
36.58 564.501 564.569
36.6 8000.3 8000.6
36.62 13745.9 13746.5
36.64 15168.5 15169.6
36.66 13415.8 13417.2
36.68 11968.8 11970.4
36.7 13089.8 13091.4
36.72 15855.4 15856.8
36.74 17255 17256.2
36.76 15126.4 15127.3
36.78 10341.2 10341.8
36.8 6108.64 6109.07
36.82 5036.6 5036.9
36.84 6699.05 6699.22
36.86 8051.58 8051.68
36.88 6532.04 6532.12
36.9 2464.1 2464.15
36.92 -1491.43 -1491.41
36.94 -2881.92 -2881.92
36.96 -1705.31 -1705.31
36.98 -313.747 -313.704
37 -1217.75 -1217.63
37.02 -4726.59 -4726.4
37.04 -8562.68 -8562.43
37.06 -10097.6 -10097.3
37.08 -9043.82 -9043.45
37.1 -7707.67 -7707.21
37.12 -8498.77 -8498.18
37.14 -11512.9 -11512.1
37.16 -14503 -14502.1
37.18 -14997.9 -14996.9
37.2 -12701.9 -12700.8
37.22 -9588.02 -9587.03
37.24 -7702.24 -7701.5
37.26 -7394.38 -7393.95
37.28 -7177.38 -7177.22
37.3 -5123.27 -5123.24
37.32 -1032.59 -1032.59
37.34 3165.32 3165.37
37.36 5432.36 5432.47
37.38 5458.67 5458.84
37.4 4684.82 4685.03
37.42 4727.33 4727.57
37.44 5835.51 5835.75
37.46 6946.61 6946.82
37.48 6912.31 6912.5
37.5 5573.07 5573.22
37.52 3775.89 3776.01
37.54 2630.97 2631.05
37.56 2636.25 2636.3
37.58 3298.18 3298.21
37.6 3773.34 3773.36
37.62 3572.92 3572.94
37.64 2847.66 2847.69
37.66 2502.43 2502.49
37.68 3294.27 3294.37
37.7 4845.82 4845.96
37.72 6129.78 6129.95
37.74 6520.73 6520.94
37.76 6121.94 6122.17
37.78 5447.94 5448.18
37.8 5043.28 5043.5
37.82 5075.98 5076.16
37.84 5255.64 5255.77
37.86 5112.31 5112.4
37.88 4321.28 4321.35
37.9 3047.56 3047.61
37.92 1943.41 1943.45
37.94 1565.62 1565.65
37.96 1768.32 1768.34
37.98 1857.16 1857.17
38 1302.02 1302.02
38.02 221.86 221.861
38.04 -710.905 -710.906
38.06 -837.113 -837.112
38.08 -159.726 -159.724
38.1 576.216 576.217
38.12 647.649 647.649
38.14 134.096 134.096
38.16 -190.792 -190.791
38.18 273.627 273.633
38.2 1318.07 1318.08
38.22 2180.82 2180.84
38.24 2253.32 2253.33
38.26 1580.91 1580.93
38.28 786.248 786.262
38.3 439.224 439.234
38.32 496.438 496.442
38.34 447.994 447.993
38.36 -43.3584 -43.3563
38.38 -821.258 -821.249
38.4 -1448.91 -1448.9
38.42 -1551.97 -1551.95
38.44 -1054.48 -1054.47
38.46 -302.589 -302.584
38.48 211.348 211.348
38.5 413.283 413.284
38.52 670.811 670.819
38.54 1202.35 1202.37
38.56 1763.94 1763.97
38.58 1954.72 1954.75
38.6 1637.07 1637.09
38.62 1027.75 1027.76
38.64 482.434 482.437
38.66 296.092 296.092
38.68 458.329 458.329
38.7 608.627 608.627
38.72 520.844 520.844
38.74 383.407 383.408
38.76 550.412 550.417
38.78 1152.23 1152.24
38.8 1929.27 1929.3
38.82 2455.58 2455.61
38.84 2473.87 2473.91
38.86 2079 2079.04
38.88 1637.76 1637.79
38.9 1449.7 1449.72
38.92 1429.26 1429.27
38.94 1218.2 1218.2
38.96 641.538 641.539
38.98 -106.059 -106.059
39 -682.359 -682.357
39.02 -881.268 -881.264
39.04 -776.652 -776.647
39.06 -643.403 -643.397
39.08 -725.484 -725.477
39.1 -1015.32 -1015.32
39.12 -1241.84 -1241.84
39.14 -1156.99 -1156.98
39.16 -813.764 -813.761
39.18 -529.765 -529.762
39.2 -590.976 -590.972
39.22 -990.424 -990.42
39.24 -1441.81 -1441.81
39.26 -1658.34 -1658.33
39.28 -1615.78 -1615.77
39.3 -1522.31 -1522.29
39.32 -1594.19 -1594.16
39.34 -1857.99 -1857.96
39.36 -2100.71 -2100.68
39.38 -2037.56 -2037.54
39.4 -1592.07 -1592.06
39.42 -986.934 -986.926
39.44 -528.652 -528.648
39.46 -334.481 -334.481
39.48 -267.541 -267.541
39.5 -107.49 -107.49
39.52 209.654 209.655
39.54 503.573 503.575
39.56 520.219 520.22
39.58 185.051 185.052
39.6 -322.738 -322.738
39.62 -730.782 -730.781
39.64 -908.477 -908.473
39.66 -954.81 -954.802
39.68 -1066.52 -1066.51
39.7 -1319.98 -1319.96
39.72 -1577.55 -1577.54
39.74 -1611.5 -1611.49
39.76 -1322.52 -1322.51
39.78 -837.735 -837.729
39.8 -399.124 -399.122
39.82 -153.811 -153.81
39.84 -46.5715 -46.5715
39.86 90.5147 90.5158
39.88 348.226 348.228
39.9 635.285 635.288
39.92 756.086 756.089
39.94 591.841 591.843
39.96 212.472 212.473
39.98 -183.619 -183.619
40 -420.017 -420.016
40.02 -476.014 -476.012
40.04 -503.741 -503.737
40.06 -649.389 -649.384
40.08 -876.948 -876.942
40.1 -997.721 -997.716
40.12 -850.973 -850.969
40.14 -460.751 -460.749
40.16 -21.2857 -21.2854
40.18 271.168 271.168
40.2 378.925 378.926
40.22 427.681 427.684
40.24 559.005 559.01
40.26 776.99 776.996
40.28 935.629 935.634
40.3 875.437 875.441
40.32 576.267 576.269
40.34 181.617 181.618
40.36 -125.316 -125.316
40.38 -274.088 -274.088
40.4 -345.904 -345.903
40.42 -468.761 -468.758
40.44 -674.85 -674.846
40.46 -857.881 -857.877
40.48 -868.748 -868.744
40.5 -655.746 -655.744
40.52 -315.968 -315.967
40.54 -11.7454 -11.7452
40.56 166.167 166.167
40.58 260.16 260.161
40.6 379.03 379.032
40.62 572.489 572.493
40.64 769.226 769.23
40.66 836.469 836.473
40.68 702.114 702.117
40.7 422.81 422.811
40.72 135.424 135.425
40.74 -59.605 -59.605
40.76 -172.643 -172.643
40.78 -290.487 -290.485
40.8 -471.532 -471.53
40.82 -673.729 -673.726
40.84 -783.926 -783.923
40.86 -719.009 -719.006
40.88 -501.995 -501.993
40.9 -242.354 -242.353
40.92 -41.6083 -41.6081
40.94 85.7698 85.7698
40.96 204.04 204.041
40.98 373.318 373.319
41 574.777 574.78
41.02 716.024 716.027
41.04 710.458 710.461
41.06 554.483 554.486
41.08 330.345 330.346
41.1 134.091 134.091
41.12 -1.99098 -1.99099
41.14 -120.799 -120.799
41.16 -279.028 -279.027
41.18 -475.214 -475.212
41.2 -637.228 -637.225
41.22 -680.683 -680.68
41.24 -582.127 -582.124
41.26 -398.303 -398.301
41.28 -215.168 -215.167
41.3 -76.3733 -76.3732
41.32 41.9761 41.9762
41.34 189.709 189.709
41.36 377.371 377.372
41.38 551.475 551.477
41.4 633.868 633.87
41.42 587.397 587.4
41.44 446.087 446.089
41.46 282.907 282.908
41.48 147.266 147.266
41.5 31.1863 31.1863
41.52 -106.312 -106.311
41.54 -283.174 -283.173
41.56 -462.211 -462.209
41.58 -574.058 -574.056
41.6 -573.214 -573.211
41.62 -474.381 -474.379
41.64 -336.126 -336.125
41.66 -208.993 -208.992
41.68 -97.5071 -97.507
41.7 29.6889 29.6889
41.72 194.175 194.175
41.74 372.363 372.364
41.76 505.014 505.016
41.78 542.713 542.715
41.8 484.506 484.508
41.82 374.334 374.335
41.84 260.279 260.28
41.86 155.939 155.939
41.88 39.4107 39.4107
41.9 -111.623 -111.623
41.92 -284.398 -284.398
41.94 -430.176 -430.175
41.96 -499.132 -499.13
41.98 -478.3 -478.298
42 -397.68 -397.678
42.02 -300.308 -300.307
42.04 -205.632 -205.632
42.06 -100.362 -100.361
42.08 36.4875 36.4876
42.1 200.331 200.331
42.12 352.586 352.587
42.14 445.639 445.64
42.16 457.929 457.931
42.18 406.847 406.848
42.2 328.712 328.713
42.22 245.977 245.978
42.24 152.681 152.681
42.26 30.5031 30.5031
42.28 -121.775 -121.775
42.3 -274.895 -274.894
42.32 -385.265 -385.264
42.34 -425.783 -425.782
42.36 -402.973 -402.971
42.38 -345.563 -345.562
42.4 -276.636 -276.635
42.42 -196.048 -196.048
42.44 -88.8451 -88.845
42.46 49.9731 49.9731
42.48 199.337 199.337
42.5 320.799 320.8
42.52 384.328 384.329
42.54 387.524 387.525
42.56 351.315 351.316
42.58 297.548 297.549
42.6 230.318 230.318
42.62 138.24 138.241
42.64 14.1658 14.1658
42.66 -127.75 -127.75
42.68 -254.757 -254.757
42.7 -336.022 -336.021
42.72 -362.215 -362.214
42.74 -346.768 -346.767
42.76 -308.933 -308.932
42.78 -255.534 -255.533
42.8 -178.584 -178.584
42.82 -70.0308 -70.0308
42.84 61.5903 61.5903
42.86 189.332 189.332
42.88 283.214 283.215
42.9 328.894 328.895
42.92 332.984 332.985
42.94 311.26 311.261
42.96 271.921 271.922
42.98 209.952 209.952
43 117.279 117.279
43.02 -1.95552 -1.95552
43.04 -126.385 -126.385
43.06 -228.093 -228.093
43.08 -289.472 -289.471
43.1 -311.239 -311.238
43.12 -305.234 -305.233
43.14 -279.89 -279.889
43.16 -232.588 -232.588
43.18 -155.802 -155.802
43.2 -50.3839 -50.3839
43.22 67.4396 67.4396
43.24 172.627 172.627
43.26 245.83 245.83
43.28 282.936 282.937
43.3 291.741 291.742
43.32 280.012 280.013
43.34 246.89 246.89
43.36 185.705 185.705
43.38 94.9544 94.9545
43.4 -13.6882 -13.6882
43.42 -118.535 -118.535
43.44 -199.771 -199.77
43.46 -249.558 -249.557
43.48 -271.819 -271.819
43.5 -273.009 -273.009
43.52 -253.394 -253.394
43.54 -207.269 -207.269
43.56 -131.547 -131.547
43.58 -33.9896 -33.9896
43.6 67.2672 67.2673
43.62 152.956 152.956
43.64 212.592 212.593
43.66 246.603 246.604
43.68 259.719 259.72
43.7 252.756 252.757
43.72 220.936 220.936
43.74 160.184 160.184
43.76 75.0066 75.0066
43.78 -19.9986 -19.9986
43.8 -106.875 -106.875
43.82 -173.49 -173.49
43.84 -217.288 -217.287
43.86 -241.075 -241.075
43.88 -245.733 -245.733
43.9 -227.275 -227.275
43.92 -181.087 -181.087
43.94 -109.041 -109.041
43.96 -22.3697 -22.3697
43.98 62.8157 62.8157
44 133.612 133.612
44.02 185.075 185.076
44.04 218.068 218.069
44.06 233.156 233.156
44.08 226.962 226.962
44.1 194.643 194.644
44.12 136.007 136.007
44.14 59.1983 59.1983
44.16 -21.8474 -21.8474
44.18 -94.1999 -94.1998
44.2 -151.145 -151.144
44.22 -191.72 -191.72
44.24 -215.912 -215.912
44.26 -220.755 -220.755
44.28 -201.38 -201.379
44.3 -156.023 -156.023
44.32 -90.0921 -90.0921
44.34 -15.182 -15.182
44.36 56.3454 56.3454
44.38 116.609 116.609
44.4 163.049 163.049
44.42 194.916 194.916
44.44 209.468 209.468
44.46 201.927 201.928
44.48 169.384 169.384
44.5 114.879 114.879
44.52 47.6459 47.6459
44.54 -20.974 -20.974
44.56 -82.4915 -82.4915
44.58 -133.044 -133.044
44.6 -171.091 -171.09
44.62 -193.951 -193.951
44.64 -197 -197
44.66 -176.525 -176.524
44.68 -133.583 -133.583
44.7 -75.1292 -75.1291
44.72 -11.1659 -11.1659
44.74 49.7016 49.7016
44.76 102.639 102.639
44.78 145.338 145.338
44.8 175.064 175.064
44.82 187.362 187.363
44.84 177.994 177.994
44.86 146.4 146.4
44.88 97.4136 97.4137
44.9 39.5055 39.5055
44.92 -19.0169 -19.0169
44.94 -72.6879 -72.6879
44.96 -118.525 -118.525
44.98 -153.662 -153.662
45 -173.812 -173.811
45.02 -174.425 -174.425
45.04 -153.666 -153.666
45.06 -114.46 -114.46
45.08 -63.6523 -63.6522
45.1 -8.92559 -8.92559
45.12 43.9516 43.9516
45.14 91.4603 91.4604
45.16 130.571 130.571
45.18 157.15 157.151
45.2 166.507 166.507
45.22 155.833 155.833
45.24 126.384 126.385
45.26 83.381 83.381
45.28 33.6348 33.6348
45.3 -17.0818 -17.0818
45.32 -64.8793 -64.8793
45.34 -106.571 -106.571
45.36 -138.17 -138.17
45.38 -154.963 -154.963
45.4 -153.438 -153.438
45.42 -133.439 -133.439
45.44 -98.6212 -98.6211
45.46 -54.7643 -54.7643
45.48 -7.38622 -7.38622
45.5 39.4323 39.4323
45.52 82.388 82.388
45.54 117.632 117.632
45.56 140.525 140.525
45.58 147.081 147.081
45.6 135.984 135.984
45.62 109.44 109.44
45.64 72.1076 72.1076
45.66 29.0377 29.0377
45.68 -15.6746 -15.6746
45.7 -58.6727 -58.6726
45.72 -96.2518 -96.2517
45.74 -123.916 -123.916
45.76 -137.397 -137.397
45.78 -134.464 -134.464
45.8 -116.026 -116.026
45.82 -85.5885 -85.5885
45.84 -47.5785 -47.5785
45.86 -5.93934 -5.93934
45.88 35.9976 35.9976
45.9 74.6878 74.6878
45.92 105.832 105.832
45.94 125.039 125.039
45.96 129.389 129.389
45.98 118.665 118.665
46 95.2493 95.2494
46.02 62.8312 62.8313
46.04 25.0587 25.0587
46.06 -14.8484 -14.8484
46.08 -53.5305 -53.5304
46.1 -86.9265 -86.9265
46.12 -110.653 -110.653
46.14 -121.306 -121.306
46.16 -117.726 -117.726
46.18 -101.236 -101.236
46.2 -74.7285 -74.7284
46.22 -41.4356 -41.4356
46.24 -4.38013 -4.38013
46.26 33.2949 33.2949
46.28 67.8007 67.8007
46.3 94.8662 94.8663
46.32 110.783 110.783
46.34 113.635 113.635
46.36 103.784 103.784
46.38 83.3029 83.303
46.4 54.9214 54.9215
46.42 21.3851 21.3851
46.44 -14.4158 -14.4158
46.46 -48.9927 -48.9927
46.48 -78.2697 -78.2696
46.5 -98.3901 -98.3901
46.52 -106.86 -106.86
46.54 -103.199 -103.199
46.56 -88.6766 -88.6766
46.58 -65.4616 -65.4615
46.6 -35.9538 -35.9538
46.62 -2.75472 -2.75472
46.64 30.9713 30.9713
46.66 61.4078 61.4078
46.68 84.6825 84.6826
46.7 97.8897 97.8897
46.72 99.8404 99.8405
46.74 91.0471 91.0472
46.76 73.0867 73.0867
46.78 47.9608 47.9609
46.8 17.9479 17.9479
46.82 -14.1316 -14.1316
46.84 -44.7696 -44.7695
46.86 -70.1875 -70.1874
46.88 -87.2205 -87.2205
46.9 -94.1076 -94.1076
46.92 -90.6747 -90.6746
46.94 -77.9038 -77.9038
46.96 -57.362 -57.3619
46.98 -30.976 -30.976
47 -1.20679 -1.20679
47.02 28.7815 28.7815
47.04 55.3927 55.3927
47.06 75.3382 75.3383
47.08 86.4211 86.4211
47.1 87.8671 87.8672
47.12 80.0848 80.0848
47.14 64.1872 64.1872
47.16 41.729 41.729
47.18 14.8 14.8
47.2 -13.8042 -13.8042
47.22 -40.7383 -40.7383
47.24 -62.7076 -62.7076
47.26 -77.2095 -77.2094
47.28 -82.967 -82.9669
47.3 -79.8554 -79.8554
47.32 -68.5325 -68.5325
47.34 -50.1689 -50.1688
47.36 -26.4774 -26.4774
47.38 0.12958 0.12958
47.4 26.6101 26.6101
47.42 49.7612 49.7612
47.44 66.8959 66.896
47.46 76.3372 76.3372
47.48 77.4829 77.483
47.5 70.5501 70.5501
47.52 56.3233 56.3233
47.54 36.1385 36.1385
47.56 12.0182 12.0182
47.58 -13.3353 -13.3353
47.6 -36.8911 -36.8911
47.62 -55.8874 -55.8873
47.64 -68.3492 -68.3491
47.66 -73.2648 -73.2648
47.68 -70.4386 -70.4385
47.7 -60.2778 -60.2778
47.72 -43.7475 -43.7475
47.74 -22.4815 -22.4815
47.76 1.18046 1.18046
47.78 24.4429 24.4429
47.8 44.5642 44.5642
47.82 59.3711 59.3712
47.84 67.5166 67.5166
47.86 68.4326 68.4326
47.88 62.1673 62.1674
47.9 49.3273 49.3273
47.92 31.1659 31.1659
47.94 9.6485 9.6485
47.96 -12.7113 -12.7113
47.98 -33.2731 -33.273
48 -49.7583 -49.7583
48.02 -60.562 -60.5619
48.04 -64.7931 -64.793
48.06 -62.1677 -62.1677
48.08 -52.9526 -52.9525
48.1 -38.0351 -38.0351
48.12 -19.0052 -19.0052
48.14 1.93792 1.93792
48.16 22.321 22.321
48.18 39.8443 39.8443
48.2 52.7223 52.7223
48.22 59.7966 59.7966
48.24 60.486 60.486
48.26 54.7419 54.742
48.28 43.1059 43.1059
48.3 26.7997 26.7997
48.32 7.68924 7.68924
48.34 -11.9713 -11.9713
48.36 -29.9341 -29.9341
48.38 -44.3083 -44.3083
48.4 -53.7269 -53.7269
48.42 -57.3522 -57.3522
48.44 -54.8504 -54.8503
48.46 -46.4416 -46.4416
48.48 -32.9949 -32.9949
48.5 -16.0348 -16.0348
48.52 2.44095 2.44095
48.54 20.2992 20.2992
48.56 35.6126 35.6126
48.58 46.8661 46.8661
48.6 53.0103 53.0103
48.62 53.4606 53.4606
48.64 48.1452 48.1452
48.66 37.6009 37.6009
48.68 23.0138 23.0138
48.7 6.09966 6.09966
48.72 -11.1731 -11.1731
48.74 -26.9035 -26.9034
48.76 -39.4871 -39.4871
48.78 -47.7104 -47.7104
48.8 -50.7759 -50.7758
48.82 -48.3521 -48.3521
48.84 -40.6701 -40.6701
48.86 -28.5881 -28.5881
48.88 -13.5266 -13.5266
48.9 2.74959 2.74959
48.92 18.4201 18.4201
48.94 31.8471 31.8471
48.96 41.7011 41.7011
48.98 47.0116 47.0116
49 47.2231 47.2231
49.02 42.2905 42.2905
49.04 32.7623 32.7623
49.06 19.7603 19.7603
49.08 4.81827 4.81827
49.1 -10.3695 -10.3695
49.12 -24.1826 -24.1826
49.14 -35.2232 -35.2231
49.16 -42.3889 -42.3888
49.18 -44.937 -44.937
49.2 -42.5797 -42.5797
49.22 -35.5787 -35.5787
49.24 -24.763 -24.763
49.26 -11.4181 -11.4181
49.28 2.92362 2.92362
49.3 16.7046 16.7046
49.32 28.5036 28.5036
49.34 37.1275 37.1275
49.36 41.6842 41.6843
49.38 41.678 41.678
49.4 37.1119 37.1119
49.42 28.5348 28.5348
49.44 16.9764 16.9764
49.46 3.78069 3.78069
49.48 -9.59624 -9.59623
49.5 -21.7512 -21.7512
49.52 -31.4404 -31.4404
49.54 -37.6601 -37.6601
49.56 -39.7425 -39.7425
49.58 -37.4631 -37.4631
49.6 -31.1094 -31.1094
49.62 -21.4566 -21.4566
49.64 -9.64217 -9.64217
49.66 3.0103 3.0103
49.68 15.1529 15.1529
49.7 25.5286 25.5286
49.72 33.0591 33.0592
49.74 36.9408 36.9409
49.76 36.7543 36.7543
49.78 32.5496 32.5496
49.8 24.8555 24.8556
49.82 14.5938 14.5938
49.84 2.93134 2.93134
49.86 -8.87087 -8.87087
49.88 -19.5772 -19.5772
49.9 -28.07 -28.07
49.92 -33.4453 -33.4453
49.94 -35.1228 -35.1228
49.96 -32.9422 -32.9422
49.98 -27.2003 -27.2003
50 -18.6008 -18.6008
