0.1 0.000468765 -0.00243683 -3.15589e-05
0.2 0.00093753 -0.00487365 -6.31179e-05
0.3 0.0014063 -0.00731048 -9.46768e-05
0.4 0.00187506 -0.00974731 -0.000126236
0.5 0.00234383 -0.0121841 -0.000157795
0.6 0.00281259 -0.014621 -0.000189354
0.7 0.00328136 -0.0170578 -0.000220913
0.8 0.00375012 -0.0194946 -0.000252472
0.9 0.00421889 -0.0219314 -0.00028403
1 0.00468765 -0.0243683 -0.000315589
