%!PS-Adobe-3.0 EPSF-3.0
%%Creator: MATLAB, The Mathworks, Inc. Version 7.10.0.499 (R2010a). Operating System: Darwin 10.8.0 Darwin Kernel Version 10.8.0: Tue Jun  7 16:33:36 PDT 2011; root:xnu-1504.15.3~1/RELEASE_I386 i386.
%%Title: ./fig2d_response_1.eps
%%CreationDate: 03/24/2012  11:53:14
%%DocumentNeededFonts: Helvetica
%%DocumentProcessColors: Cyan Magenta Yellow Black
%%LanguageLevel: 2
%%Pages: 1
%%BoundingBox:    46   199   548   614
%%EndComments

%%BeginProlog
% MathWorks dictionary
/MathWorks 160 dict begin
% definition operators
/bdef {bind def} bind def
/ldef {load def} bind def
/xdef {exch def} bdef
/xstore {exch store} bdef
% operator abbreviations
/c  /clip ldef
/cc /concat ldef
/cp /closepath ldef
/gr /grestore ldef
/gs /gsave ldef
/mt /moveto ldef
/np /newpath ldef
/cm /currentmatrix ldef
/sm /setmatrix ldef
/rm /rmoveto ldef
/rl /rlineto ldef
/s {show newpath} bdef
/sc {setcmykcolor} bdef
/sr /setrgbcolor ldef
/sg /setgray ldef
/w /setlinewidth ldef
/j /setlinejoin ldef
/cap /setlinecap ldef
/rc {rectclip} bdef
/rf {rectfill} bdef
% page state control
/pgsv () def
/bpage {/pgsv save def} bdef
/epage {pgsv restore} bdef
/bplot /gsave ldef
/eplot {stroke grestore} bdef
% orientation switch
/portraitMode 0 def /landscapeMode 1 def /rotateMode 2 def
% coordinate system mappings
/dpi2point 0 def
% font control
/FontSize 0 def
/FMS {/FontSize xstore findfont [FontSize 0 0 FontSize neg 0 0]
  makefont setfont} bdef
/reencode {exch dup where {pop load} {pop StandardEncoding} ifelse
  exch dup 3 1 roll findfont dup length dict begin
  { 1 index /FID ne {def}{pop pop} ifelse } forall
  /Encoding exch def currentdict end definefont pop} bdef
/isroman {findfont /CharStrings get /Agrave known} bdef
/FMSR {3 1 roll 1 index dup isroman {reencode} {pop pop} ifelse
  exch FMS} bdef
/csm {1 dpi2point div -1 dpi2point div scale neg translate
 dup landscapeMode eq {pop -90 rotate}
  {rotateMode eq {90 rotate} if} ifelse} bdef
% line types: solid, dotted, dashed, dotdash
/SO { [] 0 setdash } bdef
/DO { [.5 dpi2point mul 4 dpi2point mul] 0 setdash } bdef
/DA { [6 dpi2point mul] 0 setdash } bdef
/DD { [.5 dpi2point mul 4 dpi2point mul 6 dpi2point mul 4
  dpi2point mul] 0 setdash } bdef
% macros for lines and objects
/L {lineto stroke} bdef
/MP {3 1 roll moveto 1 sub {rlineto} repeat} bdef
/AP {{rlineto} repeat} bdef
/PDlw -1 def
/W {/PDlw currentlinewidth def setlinewidth} def
/PP {closepath eofill} bdef
/DP {closepath stroke} bdef
/MR {4 -2 roll moveto dup  0 exch rlineto exch 0 rlineto
  neg 0 exch rlineto closepath} bdef
/FR {MR stroke} bdef
/PR {MR fill} bdef
/L1i {{currentfile picstr readhexstring pop} image} bdef
/tMatrix matrix def
/MakeOval {newpath tMatrix currentmatrix pop translate scale
0 0 1 0 360 arc tMatrix setmatrix} bdef
/FO {MakeOval stroke} bdef
/PO {MakeOval fill} bdef
/PD {currentlinewidth 2 div 0 360 arc fill
   PDlw -1 eq not {PDlw w /PDlw -1 def} if} def
/FA {newpath tMatrix currentmatrix pop translate scale
  0 0 1 5 -2 roll arc tMatrix setmatrix stroke} bdef
/PA {newpath tMatrix currentmatrix pop	translate 0 0 moveto scale
  0 0 1 5 -2 roll arc closepath tMatrix setmatrix fill} bdef
/FAn {newpath tMatrix currentmatrix pop translate scale
  0 0 1 5 -2 roll arcn tMatrix setmatrix stroke} bdef
/PAn {newpath tMatrix currentmatrix pop translate 0 0 moveto scale
  0 0 1 5 -2 roll arcn closepath tMatrix setmatrix fill} bdef
/vradius 0 def /hradius 0 def /lry 0 def
/lrx 0 def /uly 0 def /ulx 0 def /rad 0 def
/MRR {/vradius xdef /hradius xdef /lry xdef /lrx xdef /uly xdef
  /ulx xdef newpath tMatrix currentmatrix pop ulx hradius add uly
  vradius add translate hradius vradius scale 0 0 1 180 270 arc 
  tMatrix setmatrix lrx hradius sub uly vradius add translate
  hradius vradius scale 0 0 1 270 360 arc tMatrix setmatrix
  lrx hradius sub lry vradius sub translate hradius vradius scale
  0 0 1 0 90 arc tMatrix setmatrix ulx hradius add lry vradius sub
  translate hradius vradius scale 0 0 1 90 180 arc tMatrix setmatrix
  closepath} bdef
/FRR {MRR stroke } bdef
/PRR {MRR fill } bdef
/MlrRR {/lry xdef /lrx xdef /uly xdef /ulx xdef /rad lry uly sub 2 div def
  newpath tMatrix currentmatrix pop ulx rad add uly rad add translate
  rad rad scale 0 0 1 90 270 arc tMatrix setmatrix lrx rad sub lry rad
  sub translate rad rad scale 0 0 1 270 90 arc tMatrix setmatrix
  closepath} bdef
/FlrRR {MlrRR stroke } bdef
/PlrRR {MlrRR fill } bdef
/MtbRR {/lry xdef /lrx xdef /uly xdef /ulx xdef /rad lrx ulx sub 2 div def
  newpath tMatrix currentmatrix pop ulx rad add uly rad add translate
  rad rad scale 0 0 1 180 360 arc tMatrix setmatrix lrx rad sub lry rad
  sub translate rad rad scale 0 0 1 0 180 arc tMatrix setmatrix
  closepath} bdef
/FtbRR {MtbRR stroke } bdef
/PtbRR {MtbRR fill } bdef
/stri 6 array def /dtri 6 array def
/smat 6 array def /dmat 6 array def
/tmat1 6 array def /tmat2 6 array def /dif 3 array def
/asub {/ind2 exch def /ind1 exch def dup dup
  ind1 get exch ind2 get sub exch } bdef
/tri_to_matrix {
  2 0 asub 3 1 asub 4 0 asub 5 1 asub
  dup 0 get exch 1 get 7 -1 roll astore } bdef
/compute_transform {
  dmat dtri tri_to_matrix tmat1 invertmatrix 
  smat stri tri_to_matrix tmat2 concatmatrix } bdef
/ds {stri astore pop} bdef
/dt {dtri astore pop} bdef
/db {2 copy /cols xdef /rows xdef mul dup 3 mul string
  currentfile 
  3 index 0 eq {/ASCIIHexDecode filter}
  {/ASCII85Decode filter 3 index 2 eq {/RunLengthDecode filter} if }
  ifelse exch readstring pop
  dup 0 3 index getinterval /rbmap xdef
  dup 2 index dup getinterval /gbmap xdef
  1 index dup 2 mul exch getinterval /bbmap xdef pop pop}bdef
/it {gs np dtri aload pop moveto lineto lineto cp c
  cols rows 8 compute_transform 
  rbmap gbmap bbmap true 3 colorimage gr}bdef
/il {newpath moveto lineto stroke}bdef
currentdict end def
%%EndProlog

%%BeginSetup
MathWorks begin

0 cap

end
%%EndSetup

%%Page: 1 1
%%BeginPageSetup
%%PageBoundingBox:    46   199   548   614
MathWorks begin
bpage
%%EndPageSetup

%%BeginObject: obj1
bplot

/dpi2point 12 def
portraitMode 0216 7344 csm

  343   -28  6028  4983 rc
85 dict begin %Colortable dictionary
/c0 { 0.000000 0.000000 0.000000 sr} bdef
/c1 { 1.000000 1.000000 1.000000 sr} bdef
/c2 { 0.900000 0.000000 0.000000 sr} bdef
/c3 { 0.000000 0.820000 0.000000 sr} bdef
/c4 { 0.000000 0.000000 0.800000 sr} bdef
/c5 { 0.910000 0.820000 0.320000 sr} bdef
/c6 { 1.000000 0.260000 0.820000 sr} bdef
/c7 { 0.000000 0.820000 0.820000 sr} bdef
c0
1 j
1 sg
   0    0 6913 5186 rf
6 w
0 4226 5356 0 0 -4226 899 4615 4 MP
PP
-5356 0 0 4226 5356 0 0 -4226 899 4615 5 MP stroke
4 w
DO
0 sg
 899 4615 mt  899  389 L
 899  389 mt  899  389 L
1434 4615 mt 1434  389 L
1434  389 mt 1434  389 L
1970 4615 mt 1970  389 L
1970  389 mt 1970  389 L
2505 4615 mt 2505  389 L
2505  389 mt 2505  389 L
3041 4615 mt 3041  389 L
3041  389 mt 3041  389 L
3577 4615 mt 3577  389 L
3577  389 mt 3577  389 L
4112 4615 mt 4112  389 L
4112  389 mt 4112  389 L
4648 4615 mt 4648  389 L
4648  389 mt 4648  389 L
5183 4615 mt 5183  389 L
5183  389 mt 5183  389 L
5719 4615 mt 5719  389 L
5719  389 mt 5719  389 L
6255 4615 mt 6255  389 L
6255  389 mt 6255  389 L
 899 4615 mt 6255 4615 L
6255 4615 mt 6255 4615 L
 899 4145 mt 6255 4145 L
6255 4145 mt 6255 4145 L
 899 3675 mt 6255 3675 L
6255 3675 mt 6255 3675 L
 899 3206 mt 6255 3206 L
6255 3206 mt 6255 3206 L
 899 2736 mt 6255 2736 L
6255 2736 mt 6255 2736 L
 899 2267 mt 6255 2267 L
6255 2267 mt 6255 2267 L
 899 1797 mt 6255 1797 L
6255 1797 mt 6255 1797 L
 899 1328 mt 6255 1328 L
6255 1328 mt 6255 1328 L
 899  858 mt 6255  858 L
6255  858 mt 6255  858 L
 899  389 mt 6255  389 L
6255  389 mt 6255  389 L
SO
6 w
 899 4615 mt 6255 4615 L
 899 4615 mt  899  389 L
 899 4615 mt  899 4561 L
%%IncludeResource: font Helvetica
/Helvetica /ISOLatin1Encoding 120 FMSR

 866 4760 mt 
(0) s
1434 4615 mt 1434 4561 L
1401 4760 mt 
(5) s
1970 4615 mt 1970 4561 L
1904 4760 mt 
(10) s
2505 4615 mt 2505 4561 L
2439 4760 mt 
(15) s
3041 4615 mt 3041 4561 L
2975 4760 mt 
(20) s
3577 4615 mt 3577 4561 L
3511 4760 mt 
(25) s
4112 4615 mt 4112 4561 L
4046 4760 mt 
(30) s
4648 4615 mt 4648 4561 L
4582 4760 mt 
(35) s
5183 4615 mt 5183 4561 L
5117 4760 mt 
(40) s
5719 4615 mt 5719 4561 L
5653 4760 mt 
(45) s
6255 4615 mt 6255 4561 L
6189 4760 mt 
(50) s
 899 4615 mt  952 4615 L
 561 4659 mt 
(-0.25) s
 899 4145 mt  952 4145 L
 628 4189 mt 
(-0.2) s
 899 3675 mt  952 3675 L
 561 3719 mt 
(-0.15) s
 899 3206 mt  952 3206 L
 628 3250 mt 
(-0.1) s
 899 2736 mt  952 2736 L
 561 2780 mt 
(-0.05) s
 899 2267 mt  952 2267 L
 798 2311 mt 
(0) s
 899 1797 mt  952 1797 L
 631 1841 mt 
(0.05) s
 899 1328 mt  952 1328 L
 698 1372 mt 
(0.1) s
 899  858 mt  952  858 L
 631  902 mt 
(0.15) s
 899  389 mt  952  389 L
 698  433 mt 
(0.2) s
gs 899 389 5357 4227 rc
/c8 { 1.000000 0.000000 0.000000 sr} bdef
c8
3 0 2 0 2 0 2 0 2 0 2 0 2 0 3 0 
2 0 2 0 2 0 2 0 2 0 2 -1 3 0 2 0 
2 0 2 0 2 0 2 0 2 0 3 0 2 0 2 0 
2 1 2 0 2 0 2 0 3 0 2 0 2 0 2 0 
2 0 2 0 2 0 3 0 2 0 2 0 2 0 2 0 
2 0 2 0 3 0 2 0 2 0 2 0 2 -1 2 0 
2 0 3 0 2 0 2 0 2 0 2 0 2 0 2 0 
3 0 2 0 2 1 2 0 2 0 2 0 2 0 3 0 
2 0 2 0 2 0 2 0 2 0 2 0 3 0 2 0 
2 0 2 0 2 0 2 0 2 0 3 0 2 0 2 -1 
2 0 2 0 2 0 2 0 3 0 2 0 2 0 2 0 
2 0 2 0 2 0 3 0 2 1 2 0 2 0 2 0 
2 0 2 0 3 0 2 0 2 0 2 0 2 0 2 0 
2 0 3 0 2 0 2 0 2 0 2 0 2 0 2 0 
3 -1 2 0 2 0 2 0 2 0 2 0 2 0 3 0 
2 0 2 0 2 0 2 0 2 0 2 0 3 1 2 0 
2 0 2 0 2 0 2 0 2 0 3 1 2 0 2 0 
2 0 2 0 2 -1 2 0 3 0 2 0 2 0 2 0 
2 0 2 -1 2 0 3 0 2 0 2 0 2 0 2 0 
2 0 2 0 3 0 2 0 2 0 2 0 2 0 2 1 
2 0 3 0 2 0 2 0 2 0 2 1 2 0 2 0 
3 0 2 0 2 0 2 0 2 0 2 -1 2 0 3 0 
2 0 2 0 2 -1 2 0 2 0 2 0 3 0 2 0 
2 -1 2 0 2 0 2 1 2 0 3 0 2 0 2 0 
2 0 2 1 2 0 2 0 3 0 2 1 2 0 2 0 
2 0 2 0 2 0 3 0 2 0 2 0 2 0 2 -1 
2 0 2 0 3 0 2 -1 2 0 2 0 2 0 2 -1 
2 0 3 0 2 0 2 0 2 0 2 0 2 0 2 1 
3 0 2 0 2 1 2 0 2 0 2 0 2 1 3 0 
2 0 2 0 2 0 2 0 2 0 2 0 3 0 2 0 
2 0 2 -1 2 0 2 0 2 -1 3 0 2 0 2 -1 
2 0 2 0 2 0 2 0 3 0 2 0 2 0 2 0 
2 0 2 1 2 0 3 0 2 1 2 0 2 0 2 1 
2 0 2 0 3 1 2 0 2 0 2 0 2 0 2 0 
2 -1 3 0 2 0 2 -1 2 0 2 0 2 -1 2 0 
3 -1 2 0 2 0 2 -1 2 0 2 0 2 0 3 0 
2 1 2 0 2 0 2 1 2 0 2 0 3 1 2 0 
2 1 2 0 2 1 5614 2300 300 MP stroke
2 0 2 0 3 0 2 1 2 -1 2 0 2 0 2 0 
2 -1 3 0 2 -1 2 0 2 -1 2 0 2 -1 2 0 
2 -1 3 0 2 0 2 0 2 0 2 0 2 0 2 0 
3 1 2 0 2 1 2 0 2 1 2 0 2 1 3 1 
2 0 2 0 2 1 2 0 2 0 2 0 3 0 2 0 
2 -1 2 0 2 -1 2 0 2 -1 3 -1 2 0 2 -1 
2 -1 2 0 2 -1 2 0 3 0 2 0 2 0 2 0 
2 0 2 1 2 0 3 1 2 1 2 0 2 1 2 1 
2 1 2 0 3 1 2 0 2 1 2 0 2 0 2 0 
2 0 3 -1 2 0 2 -1 2 0 2 -1 2 -1 2 -1 
3 -1 2 -1 2 0 2 -1 2 -1 2 0 2 0 3 0 
2 0 2 0 2 1 2 0 2 1 2 1 3 1 2 1 
2 1 2 1 2 1 2 0 2 1 3 1 2 0 2 0 
2 0 2 0 2 0 2 -1 3 -1 2 0 2 -1 2 -2 
2 -1 2 -1 2 -1 3 -1 2 -1 2 0 2 -1 2 0 
2 -1 2 0 3 1 2 0 2 1 2 1 2 1 2 1 
2 1 3 1 2 1 2 2 2 1 2 1 2 1 2 0 
3 1 2 0 2 0 2 -1 2 0 2 -1 2 -1 3 -1 
2 -2 2 -1 2 -1 2 -2 2 -1 2 -1 3 -1 2 -1 
2 -1 2 0 2 0 2 0 2 0 3 1 2 1 2 1 
2 1 2 2 2 1 2 2 3 1 2 2 2 1 2 1 
2 1 2 1 2 0 3 1 2 -1 2 0 2 -1 2 -1 
2 -2 2 -1 3 -2 2 -1 2 -2 2 -2 2 -1 2 -2 
2 -1 3 -1 2 -1 2 0 2 0 2 0 2 1 2 1 
3 1 2 2 2 1 2 2 2 2 2 2 2 2 3 2 
2 1 2 2 2 1 2 0 2 1 2 0 3 -1 2 0 
2 -1 2 -2 2 -1 2 -2 2 -2 3 -2 2 -3 2 -2 
2 -2 2 -1 2 -2 2 -1 3 -1 2 0 2 0 2 1 
2 1 2 1 2 2 3 2 2 2 2 2 2 3 2 2 
2 3 2 2 3 2 2 1 2 1 2 1 2 0 2 0 
2 0 3 -1 2 -1 2 -2 2 -2 2 -3 2 -3 2 -2 
3 -3 2 -3 2 -2 2 -3 2 -2 2 -1 2 -1 3 -1 
2 -1 2 1 2 0 2 2 2 2 2 2 3 3 2 3 
2 3 2 3 2 2 2 3 2 2 3 2 2 2 2 1 
2 1 2 0 2 0 2 -1 3 -1 2 -2 2 -2 2 -3 
2 -3 2 -3 2 -3 3 -4 2 -2 2 -3 2 -2 2 -2 
2 -2 2 -1 3 0 2 1 2 1 2 2 2 2 2 3 
2 3 3 3 2 3 4973 2303 300 MP stroke
2 3 2 4 2 3 2 3 2 2 3 2 2 2 2 0 
2 0 2 -1 2 -2 2 -3 3 -3 2 -4 2 -4 2 -4 
2 -4 2 -4 2 -4 3 -4 2 -4 2 -3 2 -2 2 -2 
2 0 2 0 2 1 3 3 2 2 2 4 2 4 2 4 
2 5 2 5 3 5 2 6 2 6 2 5 2 5 2 3 
2 4 3 2 2 1 2 0 2 0 2 -2 2 -2 2 -2 
3 -4 2 -4 2 -5 2 -5 2 -6 2 -6 2 -6 3 -6 
2 -5 2 -5 2 -4 2 -4 2 -3 2 -2 3 -1 2 0 
2 0 2 1 2 2 2 3 2 4 3 4 2 5 2 6 
2 6 2 7 2 6 2 6 3 6 2 5 2 4 2 3 
2 2 2 1 2 0 3 -1 2 -3 2 -3 2 -4 2 -4 
2 -5 2 -5 3 -5 2 -5 2 -5 2 -5 2 -4 2 -4 
2 -3 3 -3 2 -2 2 0 2 0 2 2 2 2 2 4 
3 4 2 4 2 5 2 5 2 5 2 6 2 6 3 5 
2 6 2 5 2 4 2 2 2 1 2 -1 3 -2 2 -4 
2 -5 2 -5 2 -7 2 -6 2 -7 3 -7 2 -7 2 -6 
2 -5 2 -5 2 -4 2 -2 3 0 2 0 2 2 2 3 
2 4 2 5 2 5 3 7 2 6 2 7 2 8 2 7 
2 6 2 5 3 4 2 3 2 1 2 0 2 -1 2 -2 
2 -3 3 -4 2 -4 2 -5 2 -7 2 -6 2 -7 2 -7 
3 -7 2 -6 2 -6 2 -6 2 -4 2 -4 2 -2 3 -1 
2 0 2 2 2 3 2 4 2 5 2 6 3 7 2 7 
2 7 2 7 2 7 2 7 2 6 3 5 2 3 2 3 
2 1 2 0 2 -1 2 -2 3 -3 2 -3 2 -5 2 -5 
2 -6 2 -6 2 -7 3 -6 2 -5 2 -5 2 -4 2 -2 
2 -2 2 0 3 0 2 0 2 2 2 1 2 1 2 2 
2 3 3 2 2 3 2 4 2 4 2 5 2 5 2 4 
3 5 2 4 2 4 2 3 2 2 2 0 2 0 3 -2 
2 -4 2 -4 2 -6 2 -7 2 -6 2 -7 3 -6 2 -6 
2 -4 2 -3 2 -2 2 -1 2 0 3 2 2 3 2 4 
2 5 2 6 2 7 2 7 3 6 2 7 2 5 2 5 
2 4 2 4 2 2 3 2 2 0 2 -1 2 -3 2 -4 
2 -6 2 -7 3 -8 2 -8 2 -8 2 -7 2 -7 2 -6 
2 -4 3 -4 2 -2 2 -2 2 0 2 1 2 2 2 3 
3 4 2 5 2 6 2 5 2 6 2 6 2 5 3 5 
2 4 2 4 2 3 2 2 2 2 2 1 3 0 2 -2 
2 -2 2 -4 2 -5 2 -5 2 -7 3 -7 2 -6 2 -7 
2 -6 2 -6 2 -5 4333 2337 300 MP stroke
2 -4 3 -4 2 -2 2 -1 2 0 2 3 2 4 2 5 
3 7 2 8 2 9 2 9 2 9 2 9 2 7 3 7 
2 5 2 4 2 3 2 0 2 -1 2 -3 3 -4 2 -6 
2 -6 2 -8 2 -7 2 -7 2 -6 3 -6 2 -4 2 -3 
2 -2 2 -2 2 -1 2 0 3 1 2 1 2 1 2 2 
2 3 2 2 2 3 2 2 3 3 2 2 2 2 2 2 
2 2 2 2 2 2 3 2 2 3 2 2 2 3 2 3 
2 2 2 1 3 1 2 0 2 0 2 -1 2 -2 2 -2 
2 -2 3 -3 2 -3 2 -3 2 -4 2 -4 2 -4 2 -4 
3 -4 2 -4 2 -4 2 -3 2 -3 2 -2 2 -1 3 0 
2 0 2 2 2 1 2 3 2 2 2 4 3 4 2 4 
2 5 2 7 2 6 2 8 2 7 3 8 2 7 2 6 
2 5 2 4 2 3 2 0 3 0 2 -3 2 -4 2 -6 
2 -7 2 -9 2 -9 3 -11 2 -10 2 -10 2 -10 2 -9 
2 -7 2 -7 3 -4 2 -4 2 -2 2 0 2 0 2 2 
2 3 3 3 2 5 2 6 2 7 2 8 2 10 2 10 
3 10 2 11 2 10 2 10 2 9 2 7 2 6 3 3 
2 1 2 -2 2 -4 2 -7 2 -9 2 -10 3 -12 2 -12 
2 -13 2 -12 2 -11 2 -11 2 -9 3 -8 2 -6 2 -5 
2 -2 2 1 2 3 2 5 3 8 2 9 2 11 2 12 
2 12 2 13 2 12 3 12 2 10 2 9 2 6 2 4 
2 2 2 0 3 -2 2 -4 2 -5 2 -7 2 -8 2 -9 
2 -10 3 -10 2 -10 2 -10 2 -8 2 -7 2 -6 2 -3 
3 -2 2 0 2 1 2 2 2 3 2 5 2 4 3 6 
2 5 2 6 2 6 2 5 2 4 2 3 3 2 2 2 
2 0 2 -1 2 -1 2 -2 2 -2 3 -3 2 -3 2 -3 
2 -4 2 -3 2 -2 2 -2 3 -1 2 1 2 2 2 3 
2 4 2 4 2 5 3 4 2 4 2 2 2 2 2 2 
2 0 2 0 3 0 2 -2 2 -3 2 -3 2 -5 2 -4 
2 -5 3 -5 2 -4 2 -3 2 -2 2 -2 2 0 2 -1 
3 1 2 0 2 1 2 1 2 2 2 2 2 2 3 2 
2 2 2 2 2 1 2 2 2 1 2 1 3 1 2 0 
2 1 2 0 2 0 2 -1 2 -2 3 -3 2 -3 2 -2 
2 -1 2 -1 2 1 2 2 3 3 2 4 2 4 2 4 
2 4 2 4 2 5 3 4 2 5 2 4 2 3 2 1 
2 0 2 -3 3 -5 2 -6 2 -7 2 -7 2 -7 2 -6 
2 -5 3 -5 2 -4 2 -3 2 -2 2 -2 2 0 2 2 
3 3 2 6 2 6 3692 2308 300 MP stroke
2 7 2 7 2 6 2 5 3 3 2 3 2 1 2 0 
2 0 2 -1 2 -2 3 -3 2 -5 2 -6 2 -7 2 -8 
2 -8 2 -7 3 -7 2 -4 2 -4 2 -2 2 -1 2 0 
2 0 3 0 2 1 2 1 2 3 2 5 2 6 2 8 
3 10 2 11 2 10 2 11 2 9 2 7 2 6 3 4 
2 2 2 1 2 -1 2 -3 2 -5 2 -7 3 -10 2 -11 
2 -12 2 -12 2 -12 2 -10 2 -8 2 -7 3 -5 2 -3 
2 -1 2 0 2 3 2 5 2 7 3 9 2 12 2 12 
2 13 2 12 2 11 2 9 3 7 2 4 2 3 2 1 
2 0 2 -3 2 -5 3 -6 2 -9 2 -10 2 -11 2 -11 
2 -11 2 -11 3 -8 2 -7 2 -4 2 -2 2 0 2 1 
2 3 3 3 2 5 2 4 2 6 2 6 2 6 2 6 
3 5 2 5 2 5 2 3 2 3 2 3 2 1 3 1 
2 -2 2 -3 2 -4 2 -5 2 -6 2 -7 3 -7 2 -6 
2 -6 2 -5 2 -2 2 -2 2 0 3 2 2 2 2 3 
2 4 2 5 2 5 2 7 3 6 2 6 2 5 2 4 
2 2 2 0 2 0 3 -2 2 -1 2 -1 2 -1 2 0 
2 -2 2 -2 3 -5 2 -6 2 -8 2 -9 2 -9 2 -8 
2 -6 3 -5 2 -1 2 1 2 4 2 5 2 8 2 8 
3 9 2 10 2 9 2 8 2 8 2 6 2 5 3 5 
2 3 2 2 2 1 2 -1 2 -2 2 -4 3 -7 2 -9 
2 -11 2 -12 2 -14 2 -13 2 -12 3 -10 2 -9 2 -5 
2 -4 2 -1 2 0 2 3 3 5 2 8 2 10 2 13 
2 14 2 17 2 17 3 17 2 17 2 14 2 12 2 9 
2 7 2 4 3 1 2 -1 2 -4 2 -7 2 -9 2 -13 
2 -17 3 -19 2 -21 2 -21 2 -21 2 -18 2 -17 2 -13 
3 -11 2 -8 2 -5 2 -3 2 1 2 4 2 7 3 11 
2 15 2 18 2 20 2 22 2 22 2 23 3 21 2 19 
2 17 2 14 2 10 2 7 2 3 3 -1 2 -6 2 -10 
2 -13 2 -17 2 -19 2 -21 3 -22 2 -22 2 -21 2 -22 
2 -20 2 -19 2 -17 3 -13 2 -10 2 -5 2 1 2 4 
2 9 2 12 3 15 2 17 2 18 2 20 2 22 2 24 
2 25 3 25 2 25 2 23 2 19 2 14 2 9 2 5 
3 0 2 -3 2 -7 2 -10 2 -13 2 -16 2 -19 3 -24 
2 -27 2 -29 2 -30 2 -29 2 -28 2 -23 3 -20 2 -15 
2 -10 2 -6 2 -2 2 1 2 6 3 8 2 13 2 15 
2 18 2 20 2 21 2 22 3 21 2 21 2 19 2 17 
2 15 2 12 2 10 3052 2218 300 MP stroke
3 6 2 3 2 -2 2 -7 2 -11 2 -15 2 -17 3 -20 
2 -19 2 -18 2 -17 2 -14 2 -12 2 -9 3 -6 2 -3 
2 -1 2 2 2 4 2 7 2 10 3 11 2 13 2 14 
2 15 2 15 2 15 2 14 3 13 2 10 2 8 2 5 
2 2 2 -1 2 -5 3 -7 2 -8 2 -11 2 -11 2 -11 
2 -11 2 -11 3 -11 2 -11 2 -10 2 -10 2 -9 2 -7 
2 -6 3 -4 2 -2 2 -1 2 0 2 1 2 1 2 3 
3 3 2 4 2 5 2 5 2 5 2 5 2 5 3 4 
2 4 2 4 2 5 2 6 2 8 2 9 2 10 3 11 
2 9 2 8 2 4 2 2 2 0 2 -3 3 -3 2 -3 
2 -4 2 -3 2 -5 2 -6 2 -8 3 -9 2 -11 2 -11 
2 -11 2 -10 2 -8 2 -6 3 -4 2 -1 2 0 2 1 
2 1 2 3 2 4 3 5 2 6 2 7 2 9 2 8 
2 10 2 8 3 9 2 7 2 7 2 5 2 5 2 4 
2 3 3 1 2 -1 2 -3 2 -6 2 -7 2 -8 2 -8 
3 -8 2 -6 2 -6 2 -4 2 -4 2 -4 2 -5 3 -6 
2 -7 2 -8 2 -9 2 -9 2 -7 2 -7 3 -4 2 -3 
2 0 2 2 2 5 2 7 2 10 3 13 2 15 2 17 
2 18 2 17 2 17 2 15 3 11 2 8 2 4 2 1 
2 -3 2 -5 2 -8 3 -11 2 -13 2 -15 2 -17 2 -16 
2 -15 2 -13 3 -10 2 -6 2 -3 2 -1 2 0 2 0 
2 -1 3 -1 2 -2 2 -2 2 -1 2 0 2 3 2 4 
3 6 2 5 2 5 2 3 2 2 2 3 2 3 3 6 
2 9 2 12 2 15 2 15 2 16 2 13 3 11 2 7 
2 4 2 2 2 1 2 -1 2 -2 3 -5 2 -7 2 -11 
2 -15 2 -19 2 -22 2 -24 3 -25 2 -23 2 -22 2 -19 
2 -16 2 -13 2 -9 3 -5 2 -1 2 4 2 10 2 14 
2 19 2 23 3 25 2 28 2 28 2 27 2 25 2 22 
2 19 3 16 2 13 2 9 2 6 2 0 2 -4 2 -10 
3 -15 2 -21 2 -24 2 -29 2 -30 2 -30 2 -30 3 -28 
2 -27 2 -23 2 -20 2 -14 2 -8 2 -1 3 6 2 12 
2 19 2 23 2 27 2 29 2 30 3 29 2 29 2 26 
2 23 2 21 2 18 2 15 3 12 2 9 2 5 2 1 
2 -2 2 -7 2 -12 3 -15 2 -20 2 -23 2 -25 2 -28 
2 -28 2 -28 3 -28 2 -24 2 -22 2 -18 2 -13 2 -8 
2 -2 3 3 2 6 2 10 2 12 2 15 2 16 2 17 
3 19 2 21 2 23 2 25 2 26 2 25 2 23 3 19 
2 14 2 8 2 1 2411 2170 300 MP stroke
2 -4 2 -8 2 -12 3 -15 2 -16 2 -17 2 -17 2 -16 
2 -17 2 -16 3 -16 2 -16 2 -15 2 -14 2 -13 2 -12 
2 -11 3 -11 2 -11 2 -10 2 -10 2 -9 2 -7 2 -4 
3 -2 2 1 2 4 2 9 2 14 2 18 2 21 3 25 
2 28 2 31 2 32 2 32 2 32 2 30 3 28 2 23 
2 21 2 16 2 12 2 8 2 3 3 -2 2 -8 2 -14 
2 -20 2 -25 2 -30 2 -32 3 -34 2 -36 2 -35 2 -34 
2 -34 2 -31 2 -31 3 -28 2 -25 2 -22 2 -16 2 -10 
2 -2 2 6 3 13 2 20 2 26 2 30 2 34 2 37 
2 39 3 39 2 40 2 39 2 38 2 35 2 31 2 25 
2 17 3 8 2 -2 2 -13 2 -23 2 -30 2 -38 2 -41 
3 -43 2 -43 2 -41 2 -39 2 -35 2 -31 2 -28 3 -25 
2 -20 2 -17 2 -12 2 -9 2 -5 2 -1 3 2 2 5 
2 9 2 11 2 13 2 15 2 16 3 16 2 17 2 17 
2 17 2 18 2 20 2 24 3 27 2 29 2 30 2 29 
2 26 2 23 2 19 3 14 2 10 2 6 2 2 2 -1 
2 -5 2 -9 3 -16 2 -22 2 -29 2 -34 2 -38 2 -40 
2 -37 3 -33 2 -27 2 -20 2 -12 2 -7 2 -4 2 -3 
3 -4 2 -4 2 -5 2 -3 2 1 2 8 2 17 3 26 
2 36 2 44 2 47 2 47 2 40 2 32 3 19 2 5 
2 -6 2 -16 2 -22 2 -24 2 -24 3 -22 2 -22 2 -20 
2 -21 2 -23 2 -24 2 -24 3 -22 2 -20 2 -17 2 -15 
2 -14 2 -13 2 -13 3 -12 2 -12 2 -9 2 -3 2 3 
2 13 2 22 3 32 2 39 2 44 2 46 2 44 2 40 
2 36 3 31 2 27 2 25 2 23 2 21 2 20 2 15 
3 11 2 4 2 -3 2 -12 2 -19 2 -26 2 -31 3 -34 
2 -37 2 -37 2 -38 2 -38 2 -36 2 -34 3 -31 2 -26 
2 -21 2 -16 2 -10 2 -7 2 -3 3 -1 2 -1 2 -1 
2 -3 2 -4 2 -2 2 1 3 9 2 16 2 25 2 33 
2 40 2 43 2 43 3 39 2 33 2 27 2 19 2 14 
2 9 2 4 3 0 2 -6 2 -10 2 -16 2 -23 2 -30 
2 -36 3 -42 2 -43 2 -44 2 -39 2 -35 2 -28 2 -24 
3 -19 2 -17 2 -14 2 -11 2 -10 2 -9 2 -7 3 -8 
2 -11 2 -14 2 -19 2 -24 2 -28 2 -29 3 -28 2 -19 
2 -7 2 9 2 27 2 45 2 61 3 74 2 83 2 88 
2 90 2 88 2 83 2 79 3 73 2 67 2 60 2 51 
2 38 2 25 2 9 3 -8 2 -21 2 -32 2 -38 2 -40 
2 -37 2 -35 3 -31 1770 2045 300 MP stroke
2 -30 2 -30 2 -30 2 -30 2 -24 2 -14 3 0 2 16 
2 31 2 43 2 50 2 50 2 39 3 22 2 -1 2 -27 
2 -54 2 -77 2 -96 2 -110 3 -117 2 -116 2 -114 2 -107 
2 -98 2 -89 2 -79 3 -72 2 -66 2 -59 2 -53 2 -48 
2 -40 2 -33 3 -21 2 -9 2 5 2 16 2 25 2 32 
2 36 3 39 2 41 2 46 2 53 2 60 2 67 2 77 
3 86 2 92 2 95 2 94 2 93 2 86 2 73 3 58 
2 46 2 36 2 30 2 25 2 21 2 15 3 8 2 -3 
2 -17 2 -33 2 -48 2 -62 2 -68 3 -65 2 -56 2 -41 
2 -28 2 -15 2 -6 2 2 3 5 2 6 2 4 2 0 
2 -2 2 -1 2 4 3 14 2 26 2 38 2 52 2 63 
2 65 2 62 3 51 2 36 2 17 2 -1 2 -16 2 -28 
2 -33 2 -34 3 -33 2 -30 2 -27 2 -27 2 -25 2 -22 
2 -18 3 -13 2 -4 2 3 2 8 2 7 2 4 2 -3 
3 -13 2 -22 2 -27 2 -28 2 -26 2 -22 2 -15 3 -7 
2 -2 2 4 2 11 2 16 2 22 2 28 3 36 2 47 
2 57 2 66 2 70 2 66 2 57 3 43 2 26 2 9 
2 -5 2 -15 2 -26 2 -33 3 -38 2 -41 2 -43 2 -45 
2 -48 2 -52 2 -57 3 -64 2 -72 2 -80 2 -90 2 -96 
2 -99 2 -98 3 -95 2 -90 2 -83 2 -75 2 -65 2 -56 
2 -48 3 -45 2 -45 2 -50 2 -64 2 -77 2 -91 2 -103 
3 -111 2 -113 2 -102 2 -86 2 -66 2 -49 2 -35 3 -24 
2 -12 2 -4 2 1 2 6 2 13 2 22 3 34 2 52 
2 76 2 103 2 131 2 157 2 173 3 182 2 188 2 187 
2 179 2 167 2 151 2 130 3 101 2 72 2 48 2 30 
2 19 2 19 2 32 3 59 2 94 2 135 2 175 2 213 
2 239 2 246 3 227 2 196 2 154 2 105 2 51 2 0 
2 -46 3 -80 2 -105 2 -120 2 -125 2 -122 2 -115 2 -107 
3 -100 2 -94 2 -88 2 -84 2 -83 2 -79 2 -77 3 -71 
2 -66 2 -59 2 -52 2 -48 2 -43 2 -37 3 -29 2 -19 
2 -10 2 -4 2 -3 2 -4 2 -5 3 -5 2 -4 2 0 
2 1 2 0 2 0 2 0 3 0 2 2 2 5 2 4 
2 -1 2 -4 2 -6 3 -7 2 -4 2 -3 2 -1 2 -1 
2 2 2 5 3 9 2 14 2 18 2 19 2 13 2 5 
2 0 3 -2 2 -1 2 1 2 2 2 -1 2 -8 2 -15 
3 -18 2 -20 2 -18 2 -13 2 -8 2 -4 2 -1 3 1 
2 1 2 1 2 1 2 4 2 6 2 8 3 10 2 15 
2 17 2 15 2 9 1130 2235 300 MP stroke
2 6 2 3 3 1 2 -1 2 -2 2 -6 2 -11 2 -13 
2 -13 3 -10 2 -6 2 -4 2 -3 2 0 2 1 2 4 
3 5 2 9 2 8 2 6 2 3 2 3 2 3 3 2 
2 -1 2 -4 2 -7 2 -9 2 -9 2 -7 3 -5 2 -1 
2 0 2 2 2 2 2 3 2 4 3 3 2 1 2 0 
2 2 2 2 2 4 2 8 3 5 2 1 2 -4 2 -5 
2 -5 2 -2 2 2 3 4 2 3 2 0 2 -1 2 -1 
2 -1 2 0 3 0 2 -1 2 -2 2 -2 2 -2 2 0 
2 -1 3 0 2 -1 2 -1 2 0 2 2 2 4 2 4 
3 2 2 0 2 -1 2 -1 2 0 2 0 2 2 3 1 
2 1 2 0 2 0 2 0 2 0 2 0 3 0 2 -1 
2 -1 2 -2 2 -1 2 -2 2 -3 3 -2 2 -1 2 -1 
2 0 2 1 2 2 2 1 3 2 2 1 2 0 2 1 
2 1 2 0 2 0 -105 0 11 0 11 0 11 0 10 0 
11 0 11 0 10 0 11 0 11 0 909 2267 118 MP stroke
DA
0 sg
3 0 2 0 2 0 2 0 2 0 2 0 2 0 3 0 
2 0 2 0 2 0 2 0 2 0 2 0 3 0 2 0 
2 0 2 0 2 0 2 0 2 0 3 0 2 0 2 0 
2 0 2 0 2 0 2 0 3 0 2 0 2 0 2 0 
2 0 2 0 2 0 3 0 2 0 2 0 2 0 2 0 
2 0 2 0 3 0 2 0 2 0 2 0 2 0 2 0 
2 0 3 0 2 0 2 0 2 0 2 0 2 0 2 0 
3 0 2 0 2 0 2 0 2 0 2 0 2 0 3 0 
2 0 2 0 2 0 2 0 2 0 2 0 3 0 2 0 
2 0 2 0 2 0 2 0 2 0 3 0 2 0 2 0 
2 0 2 0 2 0 2 0 3 0 2 0 2 0 2 0 
2 0 2 0 2 0 3 0 2 0 2 0 2 0 2 0 
2 0 2 0 3 0 2 0 2 0 2 0 2 0 2 0 
2 0 3 0 2 0 2 0 2 0 2 0 2 0 2 0 
3 0 2 0 2 0 2 0 2 0 2 0 2 0 3 0 
2 0 2 0 2 0 2 0 2 0 2 0 3 0 2 0 
2 0 2 0 2 0 2 0 2 0 3 0 2 0 2 0 
2 0 2 0 2 0 2 0 3 0 2 0 2 0 2 0 
2 0 2 0 2 0 3 0 2 0 2 0 2 0 2 0 
2 0 2 0 3 0 2 0 2 0 2 0 2 0 2 0 
2 0 3 0 2 0 2 0 2 0 2 0 2 0 2 0 
3 0 2 0 2 0 2 0 2 0 2 0 2 0 3 0 
2 0 2 0 2 0 2 0 2 0 2 0 3 0 2 0 
2 0 2 0 2 0 2 0 2 0 3 0 2 0 2 0 
2 0 2 0 2 0 2 0 3 0 2 0 2 0 2 0 
2 0 2 0 2 0 3 0 2 0 2 0 2 0 2 0 
2 0 2 0 3 0 2 0 2 0 2 0 2 0 2 0 
2 0 3 0 2 0 2 0 2 0 2 0 2 0 2 0 
3 0 2 0 2 0 2 0 2 0 2 0 2 0 3 0 
2 0 2 0 2 0 2 0 2 0 2 0 3 0 2 0 
2 0 2 0 2 0 2 0 2 0 3 0 2 0 2 0 
2 0 2 0 2 0 2 0 3 0 2 0 2 0 2 0 
2 0 2 0 2 0 3 0 2 0 2 0 2 0 2 0 
2 0 2 0 3 0 2 0 2 0 2 0 2 0 2 0 
2 0 3 0 2 0 2 0 2 0 2 0 2 0 2 0 
3 0 2 0 2 0 2 0 2 0 2 0 2 0 3 0 
2 0 2 0 2 0 2 0 2 0 2 0 3 0 2 0 
2 0 2 0 2 0 5614 2267 300 MP stroke
2 0 2 0 3 0 2 0 2 0 2 0 2 0 2 0 
2 0 3 0 2 0 2 0 2 0 2 0 2 0 2 0 
2 0 3 0 2 0 2 0 2 0 2 0 2 0 2 0 
3 0 2 0 2 0 2 0 2 0 2 0 2 0 3 0 
2 0 2 0 2 0 2 0 2 0 2 0 3 0 2 0 
2 0 2 0 2 0 2 0 2 0 3 0 2 0 2 0 
2 0 2 0 2 0 2 0 3 0 2 0 2 0 2 0 
2 0 2 0 2 0 3 0 2 0 2 0 2 0 2 0 
2 0 2 0 3 0 2 0 2 0 2 0 2 0 2 0 
2 0 3 0 2 0 2 0 2 0 2 0 2 0 2 0 
3 0 2 0 2 0 2 0 2 0 2 0 2 0 3 0 
2 0 2 0 2 0 2 0 2 0 2 0 3 0 2 0 
2 0 2 0 2 0 2 0 2 0 3 0 2 0 2 0 
2 0 2 0 2 0 2 0 3 0 2 0 2 0 2 0 
2 0 2 0 2 0 3 0 2 0 2 0 2 0 2 0 
2 0 2 0 3 0 2 0 2 0 2 0 2 0 2 0 
2 0 3 0 2 0 2 0 2 0 2 0 2 0 2 0 
3 0 2 0 2 0 2 0 2 0 2 0 2 0 3 0 
2 0 2 0 2 0 2 0 2 0 2 0 3 0 2 0 
2 0 2 0 2 0 2 0 2 0 3 1 2 0 2 0 
2 -1 2 0 2 0 2 0 3 0 2 0 2 0 2 0 
2 0 2 0 2 0 3 0 2 0 2 0 2 0 2 0 
2 1 2 0 3 0 2 0 2 -1 2 0 2 0 2 0 
2 0 3 0 2 0 2 0 2 0 2 0 2 0 2 0 
3 0 2 0 2 1 2 0 2 0 2 0 2 0 3 -1 
2 0 2 0 2 0 2 0 2 0 2 0 3 0 2 0 
2 0 2 0 2 0 2 1 2 0 3 0 2 0 2 0 
2 0 2 0 2 0 2 -1 3 0 2 0 2 0 2 0 
2 0 2 0 2 0 3 0 2 1 2 0 2 0 2 0 
2 0 2 0 3 0 2 0 2 0 2 0 2 0 2 0 
2 0 3 0 2 0 2 0 2 0 2 0 2 0 2 0 
3 0 2 0 2 -1 2 0 2 0 2 0 2 0 3 0 
2 0 2 0 2 0 2 0 2 0 2 0 3 0 2 0 
2 0 2 0 2 0 2 0 2 0 3 0 2 0 2 0 
2 0 2 0 2 0 2 0 3 0 2 1 2 0 2 0 
2 0 2 0 2 -1 3 0 2 0 2 0 2 0 2 0 
2 0 2 0 3 0 2 0 2 0 2 0 2 0 2 0 
2 0 3 0 2 0 4973 2267 300 MP stroke
2 0 2 0 2 0 2 0 2 0 3 -1 2 0 2 0 
2 0 2 0 2 0 2 -1 3 0 2 0 2 0 2 1 
2 0 2 0 2 0 3 1 2 0 2 0 2 0 2 -1 
2 0 2 0 2 0 3 0 2 -1 2 0 2 0 2 0 
2 1 2 0 3 0 2 1 2 1 2 1 2 1 2 1 
2 0 3 1 2 -1 2 0 2 0 2 -1 2 0 2 0 
3 -1 2 0 2 0 2 0 2 -1 2 0 2 -1 3 0 
2 -1 2 0 2 0 2 0 2 -1 2 -1 3 0 2 0 
2 -1 2 -1 2 0 2 0 2 0 3 1 2 1 2 1 
2 1 2 1 2 2 2 1 3 1 2 0 2 -1 2 -1 
2 0 2 -1 2 -1 3 -1 2 -1 2 -1 2 1 2 1 
2 2 2 1 3 2 2 1 2 1 2 1 2 0 2 -1 
2 -1 3 -2 2 -2 2 -2 2 -2 2 -1 2 -2 2 0 
3 0 2 1 2 2 2 2 2 2 2 3 2 2 3 2 
2 2 2 1 2 -1 2 -1 2 -3 2 -3 3 -4 2 -4 
2 -3 2 -3 2 -1 2 0 2 2 3 3 2 5 2 5 
2 5 2 4 2 3 2 2 3 0 2 -2 2 -3 2 -4 
2 -5 2 -5 2 -5 3 -5 2 -3 2 -2 2 0 2 3 
2 4 2 5 3 6 2 5 2 5 2 4 2 2 2 1 
2 -1 3 -2 2 -4 2 -5 2 -5 2 -5 2 -5 2 -4 
3 -2 2 -1 2 0 2 2 2 4 2 5 2 5 3 6 
2 4 2 4 2 1 2 0 2 -1 2 -4 3 -4 2 -6 
2 -6 2 -5 2 -5 2 -3 2 -1 3 1 2 2 2 5 
2 6 2 7 2 8 2 6 3 5 2 3 2 1 2 -2 
2 -3 2 -6 2 -6 3 -8 2 -7 2 -6 2 -4 2 -1 
2 0 2 3 3 4 2 6 2 6 2 6 2 4 2 4 
2 1 3 0 2 -2 2 -4 2 -4 2 -5 2 -4 2 -4 
3 -3 2 -1 2 0 2 1 2 2 2 3 2 3 3 4 
2 3 2 3 2 1 2 1 2 -1 2 -1 3 -2 2 -2 
2 -2 2 -2 2 -1 2 -1 2 1 3 0 2 1 2 2 
2 1 2 2 2 1 2 1 3 0 2 0 2 -1 2 -2 
2 -1 2 -2 2 -1 3 -2 2 -1 2 0 2 -1 2 1 
2 0 2 2 3 1 2 2 2 1 2 2 2 2 2 1 
2 1 3 1 2 0 2 -2 2 -2 2 -3 2 -3 2 -3 
3 -3 2 -3 2 -1 2 -1 2 0 2 1 2 2 3 3 
2 3 2 4 2 3 2 4 2 2 2 1 3 0 2 -2 
2 -2 2 -4 2 -4 2 -5 2 -4 3 -3 2 -3 2 0 
2 1 2 2 2 4 4333 2276 300 MP stroke
2 4 3 5 2 4 2 5 2 3 2 2 2 1 2 -1 
3 -2 2 -4 2 -4 2 -5 2 -5 2 -5 2 -4 3 -3 
2 -1 2 1 2 2 2 4 2 5 2 5 3 6 2 6 
2 4 2 4 2 2 2 1 2 -1 3 -3 2 -4 2 -4 
2 -5 2 -6 2 -5 2 -5 3 -4 2 -2 2 0 2 1 
2 3 2 4 2 4 2 5 3 5 2 4 2 3 2 2 
2 0 2 -1 2 -3 3 -3 2 -3 2 -3 2 -3 2 -2 
2 -1 2 -1 3 1 2 1 2 2 2 3 2 2 2 3 
2 3 3 2 2 1 2 1 2 -1 2 -3 2 -3 2 -4 
3 -5 2 -4 2 -3 2 -2 2 -2 2 1 2 1 3 3 
2 4 2 4 2 4 2 4 2 3 2 2 3 0 2 0 
2 -2 2 -2 2 -2 2 -2 2 -2 3 -1 2 -1 2 -1 
2 0 2 1 2 2 2 2 3 1 2 1 2 1 2 0 
2 1 2 0 2 -1 3 -2 2 -2 2 -2 2 -1 2 -1 
2 -1 2 0 3 0 2 1 2 0 2 0 2 0 2 -1 
2 0 3 -1 2 -1 2 -1 2 0 2 0 2 0 2 2 
3 3 2 3 2 3 2 3 2 2 2 1 2 0 3 -2 
2 -3 2 -3 2 -5 2 -4 2 -4 2 -2 3 -2 2 1 
2 1 2 4 2 5 2 6 2 5 3 5 2 4 2 1 
2 0 2 -2 2 -3 2 -4 3 -5 2 -6 2 -5 2 -5 
2 -4 2 -3 2 -1 3 1 2 2 2 4 2 5 2 6 
2 6 2 5 3 4 2 3 2 2 2 0 2 -1 2 -3 
2 -4 3 -5 2 -5 2 -4 2 -4 2 -2 2 0 2 1 
3 3 2 4 2 4 2 4 2 4 2 2 2 0 3 -2 
2 -3 2 -4 2 -6 2 -5 2 -6 2 -5 3 -3 2 -1 
2 0 2 2 2 5 2 6 2 7 3 8 2 7 2 6 
2 4 2 1 2 0 2 -2 3 -4 2 -5 2 -6 2 -6 
2 -6 2 -5 2 -3 3 -2 2 0 2 2 2 2 2 4 
2 5 2 5 3 5 2 3 2 3 2 0 2 0 2 -2 
2 -2 3 -4 2 -4 2 -5 2 -3 2 -3 2 -1 2 0 
3 2 2 2 2 2 2 3 2 4 2 2 2 2 3 0 
2 -1 2 -1 2 -1 2 -2 2 -2 2 -3 3 -3 2 -2 
2 -2 2 0 2 0 2 1 2 2 3 2 2 3 2 4 
2 4 2 4 2 3 2 3 3 1 2 1 2 0 2 -2 
2 -2 2 -4 2 -5 3 -5 2 -4 2 -3 2 -3 2 -1 
2 -1 2 1 3 2 2 3 2 3 2 4 2 4 2 5 
2 4 3 4 2 2 2 1 2 -1 2 -2 2 -4 2 -5 
3 -5 2 -5 2 -5 3692 2274 300 MP stroke
2 -3 2 -2 2 -1 2 0 3 1 2 1 2 2 2 3 
2 4 2 4 2 4 3 2 2 1 2 0 2 -1 2 -3 
2 -3 2 -4 3 -4 2 -3 2 -1 2 0 2 0 2 1 
2 2 3 1 2 2 2 2 2 2 2 2 2 3 2 2 
3 2 2 2 2 0 2 0 2 -1 2 -3 2 -3 3 -5 
2 -5 2 -5 2 -4 2 -2 2 0 2 1 3 3 2 4 
2 5 2 6 2 6 2 6 2 4 2 3 3 1 2 0 
2 -2 2 -3 2 -5 2 -6 2 -7 3 -7 2 -5 2 -3 
2 -1 2 0 2 1 2 2 3 4 2 5 2 5 2 4 
2 3 2 3 2 1 3 1 2 -1 2 -1 2 -3 2 -4 
2 -4 2 -3 3 -2 2 0 2 1 2 2 2 4 2 5 
2 4 3 2 2 -1 2 -2 2 -3 2 -3 2 -4 2 -5 
3 -6 2 -5 2 -4 2 -1 2 2 2 5 2 5 3 5 
2 5 2 4 2 3 2 3 2 2 2 0 3 -1 2 -3 
2 -4 2 -4 2 -3 2 -3 2 -2 3 0 2 1 2 2 
2 2 2 3 2 3 2 2 3 1 2 0 2 -2 2 -2 
2 -2 2 -3 2 -3 3 -3 2 -2 2 0 2 1 2 3 
2 3 2 4 3 3 2 1 2 1 2 -2 2 -2 2 -4 
2 -3 3 -1 2 0 2 3 2 5 2 5 2 4 2 3 
3 2 2 0 2 -2 2 -4 2 -6 2 -7 2 -6 3 -4 
2 -3 2 -1 2 0 2 2 2 4 2 5 3 6 2 5 
2 3 2 2 2 0 2 -1 2 -1 3 -2 2 -2 2 -2 
2 -3 2 -1 2 -1 2 0 3 0 2 2 2 1 2 3 
2 3 2 4 2 2 3 1 2 -1 2 -1 2 -2 2 -3 
2 -3 2 -4 3 -4 2 -3 2 -2 2 0 2 2 2 3 
2 3 3 3 2 3 2 3 2 3 2 2 2 2 2 0 
3 0 2 -1 2 -2 2 -3 2 -4 2 -4 2 -4 3 -3 
2 -2 2 0 2 0 2 2 2 2 2 3 3 4 2 3 
2 2 2 1 2 -1 2 -1 2 -2 3 -2 2 -2 2 -2 
2 -1 2 -1 2 1 2 1 3 3 2 2 2 3 2 2 
2 2 2 2 2 0 3 0 2 -2 2 -2 2 -2 2 -3 
2 -2 2 -2 3 -2 2 -2 2 -2 2 -2 2 0 2 0 
2 1 3 2 2 3 2 4 2 4 2 4 2 3 2 2 
3 1 2 0 2 -2 2 -2 2 -2 2 -2 2 -2 3 -1 
2 0 2 -1 2 -1 2 -1 2 -1 2 1 3 2 2 3 
2 4 2 4 2 2 2 1 2 -1 3 -3 2 -6 2 -7 
2 -9 2 -10 2 -8 2 -6 3 -4 2 -1 2 2 2 4 
2 7 2 10 2 12 3052 2271 300 MP stroke
3 11 2 9 2 7 2 3 2 0 2 -3 2 -6 3 -8 
2 -8 2 -8 2 -5 2 -3 2 0 2 4 3 5 2 7 
2 8 2 7 2 6 2 3 2 1 3 -2 2 -4 2 -6 
2 -7 2 -8 2 -9 2 -8 3 -6 2 -3 2 -1 2 1 
2 5 2 7 2 9 3 11 2 10 2 10 2 7 2 5 
2 2 2 0 3 -4 2 -7 2 -10 2 -12 2 -13 2 -12 
2 -10 3 -7 2 -5 2 0 2 3 2 8 2 10 2 11 
3 12 2 9 2 7 2 5 2 0 2 -4 2 -7 3 -10 
2 -11 2 -9 2 -7 2 -4 2 -1 2 2 2 6 3 10 
2 13 2 13 2 11 2 7 2 3 2 -1 3 -2 2 -6 
2 -7 2 -9 2 -10 2 -10 2 -8 3 -6 2 -4 2 -1 
2 1 2 5 2 8 2 10 3 12 2 11 2 10 2 7 
2 3 2 -1 2 -6 3 -10 2 -14 2 -14 2 -14 2 -12 
2 -8 2 -3 3 1 2 6 2 11 2 13 2 14 2 15 
2 14 3 11 2 7 2 2 2 -4 2 -9 2 -13 2 -14 
3 -14 2 -13 2 -10 2 -7 2 -3 2 1 2 5 3 7 
2 9 2 8 2 8 2 6 2 4 2 3 3 1 2 -1 
2 -3 2 -4 2 -4 2 -4 2 -3 3 -2 2 -2 2 -1 
2 1 2 2 2 2 2 1 3 1 2 0 2 1 2 -1 
2 -1 2 -2 2 -2 3 -2 2 0 2 1 2 3 2 4 
2 6 2 6 3 8 2 7 2 5 2 1 2 -3 2 -7 
2 -11 3 -13 2 -14 2 -15 2 -14 2 -10 2 -5 2 0 
3 7 2 11 2 14 2 17 2 17 2 16 2 14 3 10 
2 5 2 1 2 -2 2 -6 2 -9 2 -13 3 -16 2 -18 
2 -16 2 -14 2 -9 2 -3 2 3 3 10 2 15 2 18 
2 19 2 16 2 11 2 5 3 1 2 -4 2 -9 2 -12 
2 -16 2 -16 2 -15 3 -11 2 -5 2 -1 2 5 2 9 
2 13 2 15 3 15 2 14 2 9 2 4 2 -1 2 -6 
2 -11 3 -15 2 -17 2 -16 2 -14 2 -8 2 -4 2 2 
3 5 2 8 2 13 2 15 2 17 2 16 2 14 3 9 
2 4 2 -1 2 -5 2 -8 2 -12 2 -12 3 -13 2 -10 
2 -9 2 -6 2 -4 2 -2 2 0 3 1 2 3 2 4 
2 4 2 5 2 7 2 7 3 9 2 10 2 8 2 5 
2 3 2 0 2 -3 3 -6 2 -9 2 -10 2 -11 2 -10 
2 -8 2 -4 3 -2 2 3 2 6 2 10 2 12 2 14 
2 14 3 9 2 6 2 0 2 -5 2 -11 2 -15 2 -18 
3 -20 2 -18 2 -13 2 -6 2 0 2 7 2 13 3 15 
2 17 2 18 2 16 2411 2241 300 MP stroke
2 12 2 8 2 3 3 -1 2 -5 2 -8 2 -10 2 -9 
2 -10 2 -8 3 -7 2 -6 2 -5 2 -3 2 -1 2 1 
2 2 3 2 2 1 2 0 2 1 2 0 2 1 2 0 
3 -2 2 -2 2 0 2 3 2 7 2 8 2 8 3 7 
2 4 2 3 2 0 2 -1 2 -4 2 -5 3 -6 2 -7 
2 -5 2 -3 2 -1 2 1 2 3 3 7 2 8 2 9 
2 7 2 5 2 4 2 2 3 2 2 0 2 -2 2 -4 
2 -6 2 -8 2 -10 3 -10 2 -11 2 -11 2 -7 2 -3 
2 4 2 11 3 14 2 15 2 14 2 11 2 9 2 4 
2 -1 3 -8 2 -14 2 -17 2 -18 2 -16 2 -13 2 -10 
2 -7 3 -2 2 3 2 8 2 11 2 14 2 16 2 16 
3 18 2 20 2 21 2 17 2 12 2 3 2 -7 3 -15 
2 -24 2 -31 2 -34 2 -35 2 -32 2 -24 3 -14 2 -4 
2 7 2 15 2 23 2 28 2 31 3 29 2 25 2 18 
2 9 2 2 2 -5 2 -12 3 -18 2 -22 2 -23 2 -21 
2 -17 2 -11 2 -4 3 4 2 11 2 18 2 23 2 26 
2 25 2 22 3 15 2 7 2 -1 2 -10 2 -18 2 -22 
2 -25 3 -23 2 -19 2 -10 2 -2 2 5 2 11 2 13 
3 11 2 8 2 3 2 1 2 1 2 5 2 8 3 11 
2 12 2 9 2 3 2 -5 2 -13 2 -21 3 -28 2 -33 
2 -34 2 -30 2 -22 2 -8 2 10 3 27 2 44 2 54 
2 57 2 53 2 43 2 27 3 8 2 -13 2 -34 2 -52 
2 -64 2 -69 2 -67 3 -57 2 -41 2 -19 2 4 2 29 
2 53 2 72 3 84 2 87 2 78 2 60 2 33 2 0 
2 -34 3 -64 2 -84 2 -94 2 -92 2 -80 2 -57 2 -30 
3 0 2 32 2 60 2 80 2 91 2 92 2 86 3 71 
2 49 2 21 2 -11 2 -41 2 -68 2 -86 3 -94 2 -92 
2 -83 2 -65 2 -41 2 -14 2 17 3 45 2 68 2 82 
2 85 2 80 2 69 2 51 3 30 2 7 2 -19 2 -41 
2 -61 2 -75 2 -83 3 -83 2 -75 2 -60 2 -37 2 -6 
2 25 2 55 3 78 2 92 2 97 2 92 2 77 2 54 
2 24 3 -11 2 -42 2 -69 2 -85 2 -94 2 -92 2 -82 
3 -64 2 -39 2 -6 2 24 2 51 2 69 2 76 3 75 
2 66 2 51 2 29 2 2 2 -26 2 -49 3 -65 2 -69 
2 -63 2 -50 2 -29 2 -5 2 21 3 45 2 61 2 69 
2 65 2 53 2 33 2 11 3 -14 2 -37 2 -56 2 -68 
2 -70 2 -63 2 -48 3 -31 2 -9 2 16 2 41 2 66 
2 87 2 100 3 100 1770 2084 300 MP stroke
2 90 2 70 2 44 2 15 2 -16 2 -47 3 -72 2 -90 
2 -98 2 -97 2 -86 2 -68 2 -48 3 -26 2 -8 2 7 
2 17 2 25 2 33 2 47 3 62 2 78 2 89 2 90 
2 79 2 57 2 29 3 -4 2 -36 2 -66 2 -93 2 -111 
2 -120 2 -117 3 -100 2 -72 2 -34 2 8 2 48 2 82 
2 105 3 115 2 114 2 102 2 80 2 50 2 11 2 -30 
3 -72 2 -104 2 -127 2 -133 2 -126 2 -108 2 -79 3 -43 
2 -1 2 46 2 88 2 126 2 150 2 163 3 158 2 137 
2 98 2 42 2 -22 2 -84 2 -134 3 -161 2 -163 2 -145 
2 -112 2 -72 2 -28 2 17 3 60 2 97 2 122 2 132 
2 128 2 112 2 87 3 57 2 22 2 -17 2 -59 2 -96 
2 -124 2 -137 3 -137 2 -127 2 -107 2 -76 2 -36 2 12 
2 65 2 115 3 156 2 180 2 187 2 174 2 142 2 93 
2 31 3 -37 2 -103 2 -156 2 -196 2 -215 2 -215 2 -194 
3 -151 2 -90 2 -17 2 60 2 127 2 183 2 221 3 240 
2 236 2 209 2 158 2 84 2 0 2 -87 3 -165 2 -223 
2 -258 2 -264 2 -243 2 -196 2 -126 3 -46 2 35 2 113 
2 181 2 234 2 265 2 269 3 244 2 194 2 123 2 41 
2 -46 2 -131 2 -209 3 -270 2 -303 2 -301 2 -263 2 -193 
2 -100 2 8 3 118 2 223 2 305 2 352 2 357 2 317 
2 240 3 140 2 24 2 -97 2 -215 2 -317 2 -389 2 -418 
3 -398 2 -331 2 -223 2 -89 2 59 2 202 2 327 3 415 
2 455 2 441 2 376 2 268 2 129 2 -24 3 -179 2 -313 
2 -408 2 -448 2 -436 2 -378 2 -293 3 -188 2 -69 2 58 
2 183 2 290 2 360 2 385 3 358 2 293 2 205 2 105 
2 1 2 -102 2 -188 3 -246 2 -268 2 -251 2 -203 2 -135 
2 -65 2 -8 3 35 2 73 2 99 2 115 2 117 2 107 
2 86 3 61 2 37 2 20 2 11 2 11 2 15 2 17 
3 18 2 18 2 15 2 11 2 4 2 -5 2 -15 3 -26 
2 -33 2 -35 2 -35 2 -30 2 -26 2 -21 3 -15 2 -8 
2 -1 2 5 2 6 2 4 2 -1 3 -4 2 -8 2 -8 
2 -9 2 -9 2 -9 2 -8 3 -4 2 -2 2 1 2 3 
2 4 2 4 2 5 3 5 2 4 2 4 2 4 2 4 
2 7 2 9 3 8 2 6 2 1 2 -2 2 -5 2 -8 
2 -12 3 -14 2 -15 2 -11 2 -4 2 4 2 9 2 8 
3 4 2 1 2 3 2 9 2 15 2 14 2 11 3 2 
2 -8 2 -14 2 -16 2 -17 2 -16 2 -16 3 -11 2 -5 
2 3 2 8 2 12 1130 2304 300 MP stroke
2 15 2 16 3 15 2 14 2 12 2 10 2 5 2 -2 
2 -8 3 -11 2 -13 2 -12 2 -11 2 -10 2 -8 2 -6 
3 -3 2 1 2 6 2 8 2 8 2 9 2 8 3 6 
2 4 2 3 2 -1 2 -5 2 -8 2 -9 3 -6 2 -4 
2 0 2 1 2 2 2 0 2 0 3 0 2 0 2 1 
2 1 2 3 2 3 2 5 3 4 2 2 2 -2 2 -5 
2 -5 2 -3 2 1 3 3 2 5 2 3 2 0 2 -1 
2 -2 2 -1 3 0 2 0 2 -1 2 -3 2 -2 2 -2 
2 0 3 1 2 0 2 1 2 1 2 2 2 4 2 4 
3 2 2 0 2 -2 2 -4 2 -3 2 -2 2 0 3 0 
2 0 2 0 2 0 2 1 2 2 2 2 3 2 2 1 
2 1 2 -1 2 0 2 -2 2 -2 3 -2 2 -3 2 -1 
2 -1 2 0 2 1 2 1 3 1 2 1 2 0 2 1 
2 1 2 0 2 0 -105 0 11 0 11 0 11 0 10 0 
11 0 11 0 10 0 11 0 11 0 909 2267 118 MP stroke
gr

DA
2666  156 mt 
(Roof node displacement response) s
3016  294 mt 
(force-based element) s
3356 4903 mt 
(Time \(s\)) s
 479 3250 mt  -90 rotate
(Horizontal displacement \(m\)) s
90 rotate
 882 4658 mt 
( ) s
6239  431 mt 
( ) s
SO
1 sg
0 334 1172 0 0 -334 5023 4556 4 MP
PP
-1172 0 0 334 1172 0 0 -334 5023 4556 5 MP stroke
4 w
DO
SO
6 w
0 sg
5023 4556 mt 6195 4556 L
5023 4222 mt 6195 4222 L
5023 4556 mt 5023 4222 L
6195 4556 mt 6195 4222 L
5023 4556 mt 6195 4556 L
5023 4556 mt 5023 4222 L
5023 4556 mt 6195 4556 L
5023 4222 mt 6195 4222 L
5023 4556 mt 5023 4222 L
6195 4556 mt 6195 4222 L
5482 4357 mt 
(nonlinear) s
gs 5023 4222 1173 335 rc
c8
353 0 5093 4315 2 MP stroke
gr

c8
0 sg
5482 4506 mt 
(linear elastic) s
gs 5023 4222 1173 335 rc
DA
353 0 5093 4462 2 MP stroke
SO
gr


end %%Color Dict

eplot
%%EndObject

epage
end

showpage

%%Trailer
%%EOF
